6e56fa68182f8b9201ebf3cd303352e3 query.00.smt2
a6092d00560f2541dead173f141323a4 query.01.smt2
99ca2082303ca79e6e6dd69152aff4a2 query.02.smt2
aed886c27d6bf1e5e1c4ab36d8987203 query.03.smt2
a3b66769a5625d8f3e38083cdf169251 query.04.smt2
fe5d4646c3a11ca8da9272fce557d9c2 query.05.smt2
6acc7cd17d5c11c488f73f7abfbcafa8 query.06.smt2
81528d6f859ae7ef721cfc4da481df9a query.07.smt2
9cb97bdc1d843cf67245b377af046981 query.08.smt2
d8a174ea55f4386740e8cf4e5034e87d query.09.smt2
30057767ae3e6545c4015c177c6a84aa query.10.smt2
838f0a10f5803e9ba7e1843f45efc128 query.11.smt2
da62b6c1210d718759523140dd62ab8c query.12.smt2
04bfd6c1d950f55fe624e4707e1f7106 query.13.smt2
4dff414708777bd481daf20ea3df9d37 query.14.smt2
c532aff10fc57d99ea99f56b4fccdacf query.15.smt2
193bafceab438ee30a544431c57c312d query.16.smt2
