519c932b9cd3f2ff440a033863b32b9a medium10.smt2
f11b539a4541bf0fbd56605b42038cbf medium11.smt2
cb95ddf0f9a8b88103f8cb3277acdd92 medium12.smt2
596cf74d6513c45515c1b57e814a5504 medium13.smt2
e4e7ff19cb0dfbcbb89ea378baab0683 medium14.smt2
5b107dedbc70874d73685853242445a2 medium15.smt2
3e104171983ccc48c4140394fd9da441 medium16.smt2
184ce5e0a4ffb113e92f02fe7ab14ae0 medium17.smt2
249c453a693417d4eb786ddcd3fdb9cd medium18.smt2
19fb6960026d0cb40adeb62a93d957d3 medium19.smt2
494068546b6b8d267d683f4450ff38e4 medium20.smt2
dcd66cedfb85797ee1c5c9278efa1113 medium5.smt2
e7f270a4130ca0a5749cdbe54536cfad medium6.smt2
44443eb765ec9844eeb89862022ffd81 medium7.smt2
c758c09f37110336adb2a19525ede467 medium8.smt2
32982d0c44c41c15d7620ade433eb422 medium9.smt2
