1ae206918fee4890b823e3f7f1555222 x2015_09_10_16_45_48_081_989395.smt_in.smt2
7de21bdae107aecaaaa28c0f7b8a87bc x2015_09_10_16_45_48_954_990991.smt_in.smt2
64c94748cf66810098fa2b651f956d32 x2015_09_10_16_45_49_874_992480.smt_in.smt2
d5e3cc045e6090b788169fb151a268e5 x2015_09_10_16_45_51_269_994084.smt_in.smt2
17eed9c55377df0bf0cac5f85f1c00a1 x2015_09_10_16_45_52_312_996048.smt_in.smt2
bcd18fc58efb9ad61647b17fa6e0e47e x2015_09_10_16_45_53_226_997806.smt_in.smt2
d103da1d1768c9b5add4b91e8641ac3e x2015_09_10_16_45_54_120_999406.smt_in.smt2
6bc0150aaee25218c7eae35b1577999d x2015_09_10_16_45_56_187_1002480.smt_in.smt2
ccba73a7ea7ea515d68d45b4a2b6aaa2 x2015_09_10_16_45_57_078_1004129.smt_in.smt2
1170ba3971b0e4e604cb4469087b839c x2015_09_10_16_45_57_987_1005697.smt_in.smt2
29e49124ad4e23d6c9d4cd93095d9df8 x2015_09_10_16_45_58_766_1007443.smt_in.smt2
0929aa1e6df393bcbea0a8e1470da1d7 x2015_09_10_16_45_59_562_1008999.smt_in.smt2
63a425d437bf4b59a8c1f6294337fd6f x2015_09_10_16_46_01_323_1012133.smt_in.smt2
bae1393e969c4131407ac5aaf6ffe130 x2015_09_10_16_46_02_272_1013913.smt_in.smt2
5c40e1b4e7696666397fbbc9953086d6 x2015_09_10_16_46_03_192_1015705.smt_in.smt2
c197009246e7dab012729bbbf6e0ab15 x2015_09_10_16_46_04_392_1017490.smt_in.smt2
07fd5278a361f84a01550ddaef0978ed x2015_09_10_16_46_05_815_1019291.smt_in.smt2
8d7456b60f7983b0de1f07edf402ce3b x2015_09_10_16_46_07_693_1020919.smt_in.smt2
609f92af9079f3a2a9d0df4428e39c68 x2015_09_10_16_46_09_097_1022616.smt_in.smt2
0a416d0e3fc065c5f4bfd50903c50569 x2015_09_10_16_46_10_240_1024216.smt_in.smt2
