9b1fe3f28f525cb01402686d69bf4cb1 2.5-cvc4-AbsFun.scala-13.smt2
118694e918d8144c5596e6eb5d6d5cdf 2.5-cvc4-AbsFun.scala-4.smt2
3f2f3451b67904f882ac3e269533b53b 2.5-cvc4-AbsFun.scala-6.smt2
0c1c9a77bd85794fc1bfdf570f24e9f4 2.5-cvc4-AmortizedQueue.scala-1.smt2
fa06f647b3fe1083dde54560e6160865 2.5-cvc4-ArrayBinarySearch.scala-1.smt2
6481025c7f4013890b8959eb89ac978a 2.5-cvc4-AVLTree.scala-14.smt2
9603217c2aa3f110f7ad88b5c4d0cce5 2.5-cvc4-AVLTree.scala-17.smt2
df2dfbed86da8200d5b18cedc79a7e18 2.5-cvc4-AVLTree.scala-2.smt2
57b15e4d29d45ae093d13875bd87bde4 2.5-cvc4-AVLTree.scala-24.smt2
71a7c53d3d6c6e35ca1af17f76b02fbe 2.5-cvc4-AVLTree.scala-27.smt2
6bd746ace84ba42bff592837919f371f 2.5-cvc4-AVLTree.scala-4.smt2
98ba030d3575d64c52d6339b2bf63918 2.5-cvc4-BinarySearchTree.scala-1.smt2
3ddaf594dd816b9213f116f12fa94263 2.5-cvc4-BinaryTrie.scala-1.smt2
f540112b841a8555ca921c00101ef6e2 2.5-cvc4-BinaryTrie.scala-3.smt2
b791a818580d0745dd33e86dbc196c22 2.5-cvc4-BinaryTrie.scala-5.smt2
1d3cabde73fd05940fc136c3b66c41d2 2.5-cvc4-BinaryTrie.scala-9.smt2
f3a2c01fe97cf58e725320b490f4c31c 2.5-cvc4-BitsTricks.scala-1.smt2
4a990ba49e750267da3897d559093d5f 2.5-cvc4-BitsTricks.scala-13.smt2
dfdbae31e45f62209ec9f5fd39244d7a 2.5-cvc4-BitsTricks.scala-14.smt2
e7513b2c447a457c93f488c0d7279659 2.5-cvc4-BitsTricks.scala-18.smt2
289f89cfa2e5142d5d2a8a79d1657bed 2.5-cvc4-BitsTricks.scala-19.smt2
4460d765d960acec76eb74de4a2bcd20 2.5-cvc4-BitsTricks.scala-2.smt2
a9f7952a362de0033b5743fe2d2af158 2.5-cvc4-BitsTricks.scala-3.smt2
4493cdfc09f63a68b74bc63dc16fcda6 2.5-cvc4-BitsTricks.scala-5.smt2
0a8669fa700478cf6a9e7183d80e5282 2.5-cvc4-BitsTricks.scala-7.smt2
ac140f1f4c8d30394f5aee68dc246639 2.5-cvc4-BitsTricks.scala-8.smt2
35e72c9bfda9022fc26adf95d3eadaaf 2.5-cvc4-BitsTricks.scala-9.smt2
4db5d9958d86ffc4929edd0dab1a8faa 2.5-cvc4-Compiler.scala-7.smt2
39132d83de432d4e98f506c8e3141b14 2.5-cvc4-Fibonacci.scala-3.smt2
4e230b2bda5cd735f465cbddfd2aadd9 2.5-cvc4-ForElimination.scala-10.smt2
d2fe2c9bf325f6e9bf8b1205ebab7a88 2.5-cvc4-ForElimination.scala-11.smt2
6c35923f048530f350d8b8252d0fe190 2.5-cvc4-ForElimination.scala-12.smt2
6586de00d49a708e244307dd151aa461 2.5-cvc4-ForElimination.scala-13.smt2
c653afae9d01e63aa02417e5c275a628 2.5-cvc4-ForElimination.scala-16.smt2
16f7bc8b85c88f7e1aaffeb3d2dc03de 2.5-cvc4-ForElimination.scala-17.smt2
a5ca1737d6c44c6f3d5306f1e62a358b 2.5-cvc4-ForElimination.scala-18.smt2
c00f4b7f660f787f8e0870953a233665 2.5-cvc4-ForElimination.scala-19.smt2
60851f8ef49434f610612e3a7d14128a 2.5-cvc4-ForElimination.scala-2.smt2
7a907432e19983f116aab4b2d7ea0cf8 2.5-cvc4-ForElimination.scala-20.smt2
1ee5e9f31ade15735902ee4afd007e11 2.5-cvc4-ForElimination.scala-21.smt2
a9f9f6c987aa41087da7cc84a88dec96 2.5-cvc4-ForElimination.scala-22.smt2
eae64ca1ee4181a54b90f224f560f37d 2.5-cvc4-ForElimination.scala-4.smt2
66ecb00dcbfa8169c6ed75368739d217 2.5-cvc4-ForElimination.scala-5.smt2
6714ad5571f23f46b347f826f92f21fd 2.5-cvc4-ForElimination.scala-7.smt2
1f09b73ce781c4198ba02925069abf17 2.5-cvc4-ForElimination.scala-8.smt2
8f5f7e35f9501bcafcf79ca48aef4db3 2.5-cvc4-ForElimination.scala-9.smt2
e61bc02ef0ebb9b764868ead7bd83e44 2.5-cvc4-HeapSort.scala-1.smt2
fe86019dc22579da7a2650ff55abcacf 2.5-cvc4-HeapSort.scala-14.smt2
97786973dd8dbc8a300fdafb59b2a8e7 2.5-cvc4-HeapSort.scala-19.smt2
2622d6a2a48c87b187c8a113540f1f82 2.5-cvc4-HeapSort.scala-21.smt2
228d717aad355e19ea6742e2be977e6d 2.5-cvc4-HeapSort.scala-25.smt2
05fec3680c3aa8fbebdbda6231a2202f 2.5-cvc4-HeapSort.scala-29.smt2
f1ff460047a4db0e7ba52fb475dcf023 2.5-cvc4-HeapSort.scala-5.smt2
949369c995792b280cbd1570c5f8944f 2.5-cvc4-HeapSort.scala-9.smt2
1edf8ff9416aa3d261571fcdf81ffb22 2.5-cvc4-InsertionSort.scala-1.smt2
58b87a356dd69298eba09fb1392880d2 2.5-cvc4-Interpreter.scala-3.smt2
255714524da6f87fe034f218d7c6bfb5 2.5-cvc4-Interpreter.scala-4.smt2
7e7ed740e199f910577bebfe7a397ea5 2.5-cvc4-LambdaEval.scala-20.smt2
fd0dc394a3eb0fb3e75193344039a13a 2.5-cvc4-LambdaEval.scala-6.smt2
ddd2b558d29fba835ef619cba89f39e4 2.5-cvc4-LambdaEval.scala-60.smt2
ca452e0fb2cf25f31ad7cac9bec58aef 2.5-cvc4-LeftistHeap.scala-1.smt2
324a5c936f4643626798b7affe393489 2.5-cvc4-LeftistHeap.scala-13.smt2
0986c061b2820bf81dcd32cd72b49346 2.5-cvc4-LeftistHeap.scala-5.smt2
485ed21195302d4a0ba9283d2d0d37e2 2.5-cvc4-LeftistHeap.scala-8.smt2
75322ba6feec208d1d06b78c7653b79d 2.5-cvc4-ListOperations.scala-1.smt2
ada797c9606621c5e6f1d079d869c669 2.5-cvc4-ListOperations.scala-10.smt2
1e36a7c022eeb3d50f0d16a040cb2b2c 2.5-cvc4-ListOperations.scala-13.smt2
4c8f6ba36384823bc2aaec7d03bf1ecd 2.5-cvc4-ListOperations.scala-16.smt2
29943f30292fa4e56bb9cee28f911824 2.5-cvc4-ListOperations.scala-3.smt2
7344f19fb40638378b8c3469d30e95ca 2.5-cvc4-ListOperations.scala-5.smt2
0f1e5819872fd9503c3f6b8949b3857c 2.5-cvc4-Lists5.scala-4.smt2
35f7038c8d0a3e34e60208c19b2c754b 2.5-cvc4-Map.scala-1.smt2
806a128158b940d79d7137f9c51cd014 2.5-cvc4-Map.scala-2.smt2
102814084de4f3087b3e188b546a0c27 2.5-cvc4-MergeSort.scala-5.smt2
25c8c91b294467546a337aba44000a43 2.5-cvc4-MergeSort.scala-7.smt2
3fdf60ed5a8084e5221970515c31331b 2.5-cvc4-muDot2.scala-41.smt2
1aa94d4213ab35762c8379d650cc6422 2.5-cvc4-muDot2.scala-43.smt2
3b57bca858d15849075527c52cb182d0 2.5-cvc4-MutuallyRecursive.scala-1.smt2
bdd8cb3f41b0aa93c3f54d5b76770ec4 2.5-cvc4-Naturals.scala-10.smt2
98811a0a45cdbcc3cad8f78506a41bc4 2.5-cvc4-Naturals.scala-11.smt2
d66504b64ac1ae5fc0bd0bf1d29c82c7 2.5-cvc4-Naturals.scala-12.smt2
a0479dc0a0860b5ca0effdc97b1f75bf 2.5-cvc4-Naturals.scala-13.smt2
91e556d0599f91736ea5241bdb004eec 2.5-cvc4-Naturals.scala-14.smt2
e49e4f7b95bad3d395d82677bdb023d6 2.5-cvc4-Naturals.scala-2.smt2
98017e2323dca994895b80228f641c03 2.5-cvc4-Naturals.scala-3.smt2
5a6c1004bc572d5f7f81f44febd3b246 2.5-cvc4-Naturals.scala-4.smt2
f47da76714600ceb6e032a68a980788c 2.5-cvc4-Naturals.scala-5.smt2
68f23b665fafa4a2f268fe8cf5e81575 2.5-cvc4-Naturals.scala-6.smt2
3812ebff204dbfa934ae4fbee9b9f6ce 2.5-cvc4-Naturals.scala-7.smt2
c6a5006df6e89c1f67c26e5b59950ff1 2.5-cvc4-Naturals.scala-8.smt2
78de406ee6270e1f75b01077a2a73d1e 2.5-cvc4-Naturals.scala-9.smt2
eca57663ecb74f9d3ce7282fdd8369b7 2.5-cvc4-Parser.scala-1.smt2
d9151d1de44f02539e9717037792eeba 2.5-cvc4-Parser.scala-3.smt2
6fade8da3814f4907fe45b5e74588f12 2.5-cvc4-Parser.scala-5.smt2
78ed143319b26ff54c30dc6312e7b15a 2.5-cvc4-Parser.scala-9.smt2
8f1d8a470cfc5d23543a083df003a639 2.5-cvc4-PositiveMap.scala-2.smt2
a243584ce397d7cc004bec3ed3ca29f5 2.5-cvc4-Prime.scala-1.smt2
b90e9db2237d99c26d52150df88da3a1 2.5-cvc4-Prime.scala-2.smt2
f83d2c07f52658558fede9ba0b724d73 2.5-cvc4-PropositionalLogic.scala-1.smt2
60dc36da5cf1549e9eae3df66a94d653 2.5-cvc4-PropositionalLogic.scala-15.smt2
fe660fa553783e1b7a28d4f8f5998cdb 2.5-cvc4-PropositionalLogic.scala-16.smt2
91a08706189764ba5093347ecda93d1f 2.5-cvc4-PropositionalLogic.scala-17.smt2
d4790ca14052d553e714a04b7af6f446 2.5-cvc4-PropositionalLogic.scala-18.smt2
4da2e9ceaac8350f24558aeda02f61f1 2.5-cvc4-PropositionalLogic.scala-19.smt2
e6f5f846c5195176fdf1cfd5f8fb979a 2.5-cvc4-PropositionalLogic.scala-20.smt2
624d7059d8f310a0d9b6138c29eda337 2.5-cvc4-PropositionalLogic.scala-21.smt2
0330dfe7243a93f3f983f395d8e90c96 2.5-cvc4-PropositionalLogic.scala-22.smt2
002cafd9d8c5324415e30c72c2ec9faf 2.5-cvc4-PropositionalLogic.scala-23.smt2
08f74320a96d816007328dedb861b591 2.5-cvc4-PropositionalLogic.scala-24.smt2
1f7c2bcdaf4cf2a2c71def07bad1719b 2.5-cvc4-PropositionalLogic.scala-25.smt2
c2e86c0b42441614756deae777681ef2 2.5-cvc4-PropositionalLogic.scala-26.smt2
442cbcea919b04db7fcb79544e4a1dd1 2.5-cvc4-PropositionalLogic.scala-27.smt2
8aeb7a76d80df81a9ad47df982ed619e 2.5-cvc4-PropositionalLogic.scala-28.smt2
f716393bb3fe8e83cc286e01745b1596 2.5-cvc4-PropositionalLogic.scala-29.smt2
7fefab51b297ea7ca23f474f92b966b7 2.5-cvc4-PropositionalLogic.scala-4.smt2
c97575d6f8c3548ffd014620b102293f 2.5-cvc4-QuickSort.scala-13.smt2
ac8b2e14c8ad5f01badacec2173c1d8c 2.5-cvc4-QuickSort.scala-14.smt2
f7c5de2d512b0c253abd0210437baebd 2.5-cvc4-QuickSort.scala-17.smt2
2f9ae09d12bb51015ac17cc62bf7f48d 2.5-cvc4-QuickSort.scala-18.smt2
bca1624ddba3f41f24a3b87c04942fd5 2.5-cvc4-QuickSort.scala-21.smt2
527de4f59db6a9263f6057e25e20ae25 2.5-cvc4-QuickSort.scala-22.smt2
0d44f59c9c29866aeb587cf491307f83 2.5-cvc4-QuickSort.scala-24.smt2
498fdd6433249729c34edb5ab3616b6e 2.5-cvc4-QuickSort.scala-25.smt2
770a60d8b0485f25295d3f2080bff641 2.5-cvc4-QuickSort.scala-27.smt2
53ddfafc83d0bd7acbfd226717c87b36 2.5-cvc4-QuickSort.scala-28.smt2
93748ac8ecbb3643fbee9898fa6d4e88 2.5-cvc4-QuickSort.scala-29.smt2
2d6eb0e03d439dc752a43b5aeefe269f 2.5-cvc4-QuickSort.scala-30.smt2
51ba374c25a9f0580899751598c4db8c 2.5-cvc4-QuickSort.scala-31.smt2
e336db206ec8e66e6a7adb59c6500f4f 2.5-cvc4-QuickSort.scala-32.smt2
e77270e9ce89a7b641d4fa68237c160d 2.5-cvc4-SearchLinkedList.scala-1.smt2
b9aab20e72121699b8e9ce9d4a62df7f 2.5-cvc4-SearchLinkedList.scala-4.smt2
73b4aa47a2fd5a83e1e02f03743cf30a 2.5-cvc4-SearchLinkedList.scala-7.smt2
74d0d5e0b66e23b74d5ef5aedd11e50b 2.5-cvc4-SecondsToTime.scala-1.smt2
e235663b0b89645ef8de2572b5a1d03b 2.5-cvc4-SecondsToTime.scala-3.smt2
ffeec6158df50d4acc6f0a7eefb86403 2.5-cvc4-SecondsToTime.scala-5.smt2
778e1ee17b78d3309b5227d2c19036de 2.5-cvc4-SecondsToTime.scala-8.smt2
3dcad531e266376db682d825050220fd 2.5-cvc4-SemanticsPreservation.scala-1.smt2
c5eac09db0fe41a7b91cdc03da6cc4b6 2.5-cvc4-SemanticsPreservation.scala-10.smt2
4110c9c93b152275a71ff3f983368e57 2.5-cvc4-SemanticsPreservation.scala-12.smt2
1ee61797f61c6d91882134e060bec5e7 2.5-cvc4-SemanticsPreservation.scala-13.smt2
292c595087c296881bda9f8afa706177 2.5-cvc4-SemanticsPreservation.scala-14.smt2
883bb9c2afa1366c6dbea31cf3d3cbbb 2.5-cvc4-SemanticsPreservation.scala-15.smt2
003bedaea9de846fe841f1be1d05b973 2.5-cvc4-SemanticsPreservation.scala-2.smt2
24deecae31fbd9a14a075586ae426a87 2.5-cvc4-SemanticsPreservation.scala-3.smt2
20f3d08a326765e843defce051f60da6 2.5-cvc4-SemanticsPreservation.scala-4.smt2
24f95967e838c4edc817761c0aa3ddc4 2.5-cvc4-SemanticsPreservation.scala-7.smt2
a859c5c466272be3f3dba76a50278833 2.5-cvc4-SemanticsPreservation.scala-8.smt2
f92562a6c852129b667e565c9eb02511 2.5-cvc4-SemanticsPreservation.scala-9.smt2
df4762a061fff56d25b5d08539a29acf 2.5-cvc4-SimpInterpret.scala-3.smt2
98e3ad9dffc3d8a17003dc7624710be1 2.5-cvc4-SimpInterpret.scala-4.smt2
92ca889af8fb03eff2fdacbbb6caeaee 2.5-cvc4-SortedList.scala-1.smt2
ba86dcbef9ab09a7225da2472bbcfa9c 2.5-cvc4-SortedNDList.scala-2.smt2
167365de281642cf2b5fa31c1294645e 2.5-cvc4-SortedNDList.scala-3.smt2
06b5e8056b71126ce8e0dd570e7bfbea 2.5-cvc4-SumAndMax.scala-10.smt2
d8ac44ef495bffedf0a18826cb45caac 2.5-cvc4-SumAndMax.scala-4.smt2
9906582bc51f33687f466ab2aeb2be85 2.5-cvc4-SumAndMax.scala-7.smt2
c593831fce9c48972e35c9dd3e1a0512 2.5-cvc4-SumAndMax.scala-9.smt2
1cff0db312294bac94d66cdc74a63605 2.5-cvc4-Sync.scala-1.smt2
4b6e757a8a8588aacdef034cb663c47e 2.5-cvc4-TwoSizeFunctions.scala-1.smt2
49bfda681a1bc040266922acabfe0b7a 2.5-cvc4-TwoSizeFunctions.scala-4.smt2
6be41ba672f01bcd1be8448965ee7ad4 2.5-cvc4-TwoSizeFunctions.scala-7.smt2
9c15c5973cf1b7dd977e45d719f78da9 2.5-cvc4-without_inducts.scala-100.smt2
9a3736120e9e86c0532a956d3ad3b763 2.5-cvc4-without_inducts.scala-101.smt2
a1b5f2c4431828b1d5abb361529b1133 2.5-cvc4-without_inducts.scala-102.smt2
cbd6074e37ff5f8fe4c885cdd67d6e3b 2.5-cvc4-without_inducts.scala-103.smt2
429b01f94b7f5f3e6583cada415635cc 2.5-cvc4-without_inducts.scala-104.smt2
f4de270e6a3bca5f70b6bdf19da021ff 2.5-cvc4-without_inducts.scala-105.smt2
d7bf973c0a375087b992e78c6adff49d 2.5-cvc4-without_inducts.scala-106.smt2
39442eaa7d4174454c04ab4dd83146e7 2.5-cvc4-without_inducts.scala-107.smt2
210d7ee983e65fb90c001cb5419db114 2.5-cvc4-without_inducts.scala-108.smt2
13563330cbcd133845aad8d647a1e586 2.5-cvc4-without_inducts.scala-109.smt2
811daccd0d618c9726d6dcb6a9dc4c02 2.5-cvc4-without_inducts.scala-110.smt2
76167038c85a62ea3cac0629b02cb3f7 2.5-cvc4-without_inducts.scala-111.smt2
8454d1bf35da5d2dca10295cbe9dd089 2.5-cvc4-without_inducts.scala-112.smt2
e4df41d51a630b7904b858c68e695d88 2.5-cvc4-without_inducts.scala-113.smt2
0fd7020945f154817d38a4c295ce1432 2.5-cvc4-without_inducts.scala-114.smt2
ef71af6dfd260ee2873ecdfb0b535af0 2.5-cvc4-without_inducts.scala-115.smt2
799dc762f500158de49a174a942782c5 2.5-cvc4-without_inducts.scala-116.smt2
7d20c947c77a833c7b207a1348c7d3c0 2.5-cvc4-without_inducts.scala-36.smt2
931b41a0e23e86539ae6135b8a0901c6 2.5-cvc4-without_inducts.scala-37.smt2
c5dbb2bd88ddf034c5a6c640077658a0 2.5-cvc4-without_inducts.scala-38.smt2
1601bb13f2cb357a78067ad5b1271683 2.5-cvc4-without_inducts.scala-39.smt2
8edf54957359c3849b61a0c50c821449 2.5-cvc4-without_inducts.scala-40.smt2
6a8d1c6b254521c3bf7e461f4457d1ce 2.5-cvc4-without_inducts.scala-41.smt2
53ccca6e47de19900d57fd30929ecd95 2.5-cvc4-without_inducts.scala-42.smt2
373f16b016f92eafa13ac4dc51afac51 2.5-cvc4-without_inducts.scala-43.smt2
6e8841ced6e66b58d8c58f7df9023796 2.5-cvc4-without_inducts.scala-44.smt2
9c54e529c41069494e6f7e43e7234567 2.5-cvc4-without_inducts.scala-45.smt2
752caac4df2490c08387e3694ce4248f 2.5-cvc4-without_inducts.scala-46.smt2
e17d8f9bc1a37a37098564170000dd07 2.5-cvc4-without_inducts.scala-47.smt2
eb8c6141aec83fdebe7d111ecac8d5ee 2.5-cvc4-without_inducts.scala-48.smt2
27a345a40a7526907e26a0c4d224de1d 2.5-cvc4-without_inducts.scala-49.smt2
4aa743e50c72b8321c4c407c3dce683b 2.5-cvc4-without_inducts.scala-50.smt2
c15d6ee7d71799023c2dc5aa66190e75 2.5-cvc4-without_inducts.scala-51.smt2
6eb932e66e49ff9e0b72e2bc6dbc417f 2.5-cvc4-without_inducts.scala-52.smt2
5af0279613e664cafd3df828059ff93c 2.5-cvc4-without_inducts.scala-53.smt2
e6f1a8a46b0635014db0f89156fc9c67 2.5-cvc4-without_inducts.scala-54.smt2
c8be616bed95cedc34989920a816dcaf 2.5-cvc4-without_inducts.scala-55.smt2
0f1b17adeea208fd5a3418a0b7fc12f8 2.5-cvc4-without_inducts.scala-56.smt2
ff66164168edf320dceec56176f9e32d 2.5-cvc4-without_inducts.scala-57.smt2
608cc1c7a2773e7f777ab3434a52eaba 2.5-cvc4-without_inducts.scala-58.smt2
c52c91ca60c8c18d70ec450c1b068c04 2.5-cvc4-without_inducts.scala-59.smt2
3a2a8b8db6c91a3608d394d0934a4f3d 2.5-cvc4-without_inducts.scala-60.smt2
a2d71770e58f9a0a1f8a4505bc15d7be 2.5-cvc4-without_inducts.scala-61.smt2
75a156e4a7c6265fddb54bf956e1507b 2.5-cvc4-without_inducts.scala-62.smt2
9c3ecd9a80f40268273cc71bb3d358fb 2.5-cvc4-without_inducts.scala-63.smt2
89f1e2741543d86b72df456f43234b0f 2.5-cvc4-without_inducts.scala-64.smt2
3f772090091f6afd03ea846794f4a0e5 2.5-cvc4-without_inducts.scala-65.smt2
80022971a4e792a1f4fee509cd7f1791 2.5-cvc4-without_inducts.scala-66.smt2
aab369f0cf3f392e1f2b458de294d063 2.5-cvc4-without_inducts.scala-67.smt2
ad377f505780231c36da5b48ddc317eb 2.5-cvc4-without_inducts.scala-68.smt2
18b2bd026ba739008dccea71127cf6be 2.5-cvc4-without_inducts.scala-69.smt2
08d7a4bcf9f66783c9bf542ed79e1379 2.5-cvc4-without_inducts.scala-70.smt2
38a7f176fbdaf2dbb38114855c72afb6 2.5-cvc4-without_inducts.scala-71.smt2
b71759a20c856e49ddd4195a83e473eb 2.5-cvc4-without_inducts.scala-72.smt2
e822b5a58abdcc9d46fd9ad0fd967ec7 2.5-cvc4-without_inducts.scala-73.smt2
4ba69c5421a4229c1f1258ae74e8a3f6 2.5-cvc4-without_inducts.scala-76.smt2
247232ee28b49f503e29162a0e075004 2.5-cvc4-without_inducts.scala-77.smt2
35919279ab284ee0770cd6c16768d487 2.5-cvc4-without_inducts.scala-78.smt2
35552d00b2f1bf3971739d1dffb581f8 2.5-cvc4-without_inducts.scala-79.smt2
327f91cf471b452ce0c26eb3ff7debbb 2.5-cvc4-without_inducts.scala-80.smt2
50a6f8a55ac5bc9290e7d4f9119bc29e 2.5-cvc4-without_inducts.scala-81.smt2
7a62e8f8aa8fa91cb5cf56b31474d436 2.5-cvc4-without_inducts.scala-82.smt2
d08047d75a9650c9c86e825751348936 2.5-cvc4-without_inducts.scala-83.smt2
882e06e210cbe7b3384e9c51e560ef4f 2.5-cvc4-without_inducts.scala-84.smt2
082ce99c308d63c7fb1a943c511bfbf7 2.5-cvc4-without_inducts.scala-85.smt2
f7dfc11284fd81711913d4dbf9e53d6d 2.5-cvc4-without_inducts.scala-86.smt2
4b97788e523d8904963a4f906ef978ad 2.5-cvc4-without_inducts.scala-87.smt2
d535ce9c1866312444819e533ec1006d 2.5-cvc4-without_inducts.scala-88.smt2
62f54ee1d47b7a2556e96d81baab71b3 2.5-cvc4-without_inducts.scala-89.smt2
83798fa0d57d9ad87642de8e9c197456 2.5-cvc4-without_inducts.scala-90.smt2
e7c4ab86e718045da3b117aab6b1e495 2.5-cvc4-without_inducts.scala-91.smt2
d69c843b1819115c8635b1bf92a48373 2.5-cvc4-without_inducts.scala-92.smt2
385684236cec25d2b25daebe943dca1d 2.5-cvc4-without_inducts.scala-93.smt2
8a261faf4011e32da8dd0ad3d0e1f7dc 2.5-cvc4-without_inducts.scala-94.smt2
afb2747e7e78b6fdb90a9bd5d4fc886a 2.5-cvc4-without_inducts.scala-95.smt2
f9c15740007a99a16f94ac52e64c1570 2.5-cvc4-without_inducts.scala-96.smt2
b7f5ec4eba98de10d1138d1b375978c9 2.5-cvc4-without_inducts.scala-97.smt2
69a04d981b7e7fb5494fd5ee9a9d8fb4 2.5-cvc4-without_inducts.scala-98.smt2
96c9e1aa6869932ab7c0573868051aa4 2.5-cvc4-without_inducts.scala-99.smt2
