71b4529121d3335cf33a7204f9157285 prp-10-27.smt2
96dee19886f5ab2027c53119bec46c89 prp-10-28.smt2
da4d5f7a89ed569f4b8472c310a83f39 prp-10-29.smt2
166e9c0cdf61634f04c5bb7300654096 prp-10-30.smt2
a6c851fbe5beffff6be70f710affeab0 prp-10-31.smt2
b9a261d5d3ccb2cdbd6bd61568d0e7e5 prp-13-29.smt2
f65697b4aef4eb8b8f2ec826752d8230 prp-13-30.smt2
91105e99c22328c97b86b8d23ec2be00 prp-13-31.smt2
1fc761f23586995bbf3af5219d740cfb prp-13-32.smt2
fbca97d78e4274c276640b0899988372 prp-13-33.smt2
aa5a5d39b68fef752bbe87e9e40df196 prp-14-32.smt2
8de79b26b2be1a8723cf3b92bcec55a3 prp-14-33.smt2
52681111f1d685fcc7edd2f47365e151 prp-14-34.smt2
cc9242cd80ef97a43f51fed6248f8e46 prp-14-35.smt2
729660d160d550079dea4f8782ebcbe0 prp-14-36.smt2
893842cf2fb4314001aa7525557ce693 prp-15-34.smt2
b364a285bba8c61d696cf5750dd32cd5 prp-15-35.smt2
ee5c5a47f8b52a50ed93527db0f35fcb prp-15-36.smt2
cc00e3254365f8841060566f347efb23 prp-15-37.smt2
b27c767cd1ffbb9ab622fdd2953b9563 prp-15-38.smt2
d365d8131c07e17b257d7f3a052937fa prp-16-25.smt2
45485ff30ed74f89e7b04e398f090f71 prp-18-24.smt2
51dc8f3985299462c54a2c70ec4303de prp-18-25.smt2
68e3ce0f0b26f6da4c65e75833243bb6 prp-18-26.smt2
a2341af1a2b0ba681baf98a89f39afd8 prp-18-27.smt2
189ad043f5c8077b833596008a9ace0a prp-19-26.smt2
26a71c9fbba80cf92c6b5eb2d52d0ae7 prp-19-27.smt2
f6f247afe47bfc5851d38ace4c58aafc prp-19-28.smt2
f4c120a6f5aac884426ff17ba472d8a2 prp-19-29.smt2
1cb8625adc57e509b0f4d78c5d478871 prp-19-30.smt2
371484051eae69b9420b75381a390042 prp-21-37.smt2
90cb54a5cddda493d30d037d6f3ca011 prp-21-38.smt2
60997416f883977b7147937f5ebd7ab1 prp-21-39.smt2
8f87e0a77c2eed27cd32f187de55b47e prp-21-40.smt2
a3a93a33fa7940603639d7d54b4d167d prp-22-28.smt2
62b27504fd2ec827066caec333bb5137 prp-22-29.smt2
b80a84fd034af19664a76d4377d273c2 prp-22-30.smt2
98f1f46a9849f131fbd061691cd490d3 prp-22-31.smt2
f1870f85ae2b56717418389767d18743 prp-22-32.smt2
64baaa30c0f2a4c0f33a3251b9f7f278 prp-23-31.smt2
379468cd90f9968f3e60379cd0ef062d prp-23-32.smt2
9674fd320117dc54bd582c2da3359763 prp-23-33.smt2
c3a65b5a6a276de7e922b882779b960c prp-23-34.smt2
57f4df371ebd8815b02f349de752386f prp-23-35.smt2
6e1d116f06a42c82b4136d0cc2701446 prp-24-39.smt2
2cd39146d52b19ec67beff44051c3582 prp-24-40.smt2
65a8185b7709ae9a7ed2076794ff8df5 prp-25-33.smt2
fde6d69302f66afd45de5f0d5f0b8e4d prp-25-34.smt2
c8dcd66124cee85e7307cadc4d1f33d6 prp-25-35.smt2
2f81d8fe90f66af18348d5cb499d21e3 prp-25-36.smt2
02c56b8a41526a876623763e1700146a prp-25-37.smt2
82628a1377bf1a0f9a7e461843df76f6 prp-26-36.smt2
a3ab4c76ebe6074d04be342ad4fd75e7 prp-26-37.smt2
113e1e1a32842ea03b69ba95e6a70e78 prp-26-38.smt2
4cb420cfd84f0ff6102fac4b0af356a9 prp-26-39.smt2
dbed1f957d38e9c406bfd38c652819b8 prp-26-40.smt2
9cb701385553e684efdb9399c9f26603 prp-27-38.smt2
94bc92bc0d64acaef5f27ee4cd785517 prp-27-39.smt2
122382fc76f659ee12ddec31c4eae3eb prp-27-40.smt2
2e3562560596c1fa3f771a3d01c0c5e1 prp-28-27.smt2
24686d01f770cfeb3dddee1b11e0455e prp-28-29.smt2
e83d60faab1c8bd3c6fc808db2a7358b prp-29-28.smt2
a27ff9738beb9b68d0b3effeb56527c8 prp-29-29.smt2
332e83745029c6ca9f55af3aae7f60a5 prp-29-30.smt2
d58f19560d1f8354bafc17e09df37858 prp-29-31.smt2
1cea15e7aedfa1efc419cafe1c12b70a prp-30-30.smt2
ade3234d995f07ecb7652119b52b2ec4 prp-30-31.smt2
7bcc511490f3a154cd16a2b62232d130 prp-30-32.smt2
f85024735235495cb538a624b8b4fa91 prp-30-33.smt2
1dcdf128ba79a9639e7e6025125c7ad5 prp-30-34.smt2
1b1be64198867196b608712b6f1db5ea prp-31-32.smt2
6865642c0f97c542a48467e89e0b2855 prp-31-33.smt2
77ae410f1fc343d0a98ca32ef4142e6f prp-31-34.smt2
220baf7b6fc3421d49d46c5b53f7fba4 prp-31-35.smt2
fc2e93db6f12cf54a92bc50f51d63d4e prp-31-36.smt2
d89bc2de2ef3de7fa606938f8a68812d prp-32-35.smt2
d5f6b8a821e3b7489ee24beb755b0e6a prp-32-36.smt2
20b4a7aaa4c72851f8da91bb52773ade prp-32-37.smt2
87d732f6a75f447e79ebad78cf5074a5 prp-32-38.smt2
87c5f4d3e0a1985e7394e33e00254dec prp-32-39.smt2
316fd7c937473efffc53f2c459e6046e prp-33-37.smt2
2e8ce19dbb338ed01e6b093be98629f1 prp-33-38.smt2
aea68c42a9eccc447a08d9c80d1593d9 prp-33-39.smt2
47b4666315e3acfbeb8282147de5e507 prp-33-40.smt2
72f2d989380ceb8bbabbcfbaba65b472 prp-34-40.smt2
97ba085bc9af62be129058fcc6223e59 prp-36-31.smt2
f21a9f3e2329332cf4544a8e138d4332 prp-36-33.smt2
325a58677d24eb5c5b7eac69bcc93bb4 prp-38-32.smt2
873128b226d0fcec9421ec06af49517e prp-38-33.smt2
d0cd6f91fdc624ffce466d86ac600871 prp-38-34.smt2
d9e231fbf7e94c854d7d7c720d96d313 prp-38-35.smt2
71390d22938abcc20f7f10dc3ca50dea prp-39-34.smt2
fa6df81046ab7905e9a5834a8f3bd582 prp-39-35.smt2
84ac673e26b434767001ae684a65c432 prp-39-36.smt2
84115d2fac5338aa5b3cb2d7706b57a3 prp-39-37.smt2
83ba6adedc1db16bd5106773a723ceab prp-39-38.smt2
d70f38b024d2fe84b20ca06edfa26c0b prp-41-36.smt2
579e26093262d488caeec09534b56461 prp-41-37.smt2
b7de4bb247d0fd2ab80b83713011f0c2 prp-41-38.smt2
b4f1652499c04f8d63387c6581fd6e69 prp-41-39.smt2
266b614a0e077bf162502c6c430502d0 prp-41-40.smt2
28b9ada43a7e731687620a93cebcef4b prp-42-39.smt2
633c767f5c4db88a3e90f389b841e900 prp-42-40.smt2
70c283c36a74fcf095c732f35d769dfa prp-6-24.smt2
7569f139ac760fb4ed3db13ddab6d1d6 prp-6-25.smt2
c2e6ca257aa711274d573ce03c78e39a prp-6-26.smt2
45168285fbf5ac48d538d95ef705a60d prp-9-24.smt2
bccd7d832ca9c090261b52d7dc2df106 prp-9-25.smt2
9eebbfbe82c5bf8654266cdbf390f023 prp-9-26.smt2
3a4346692731a472148c57e29e1629f5 prp-9-27.smt2
91aaebe126e8d1cc69696c344f319c2e prp-9-28.smt2
