f838c0d0ad622eda9551356fc659abd7 query.000.smt2
3dd13e05f0597717ad2b03832776dede query.001.smt2
8ba38c761703c2df2c6c9e7730ac58ab query.002.smt2
b75d01291c748dd8bcabd07a733b8b27 query.003.smt2
64e1195713e49783be09ffefe2615510 query.004.smt2
a34381b5f8152c47b131c58e3cdfd7be query.005.smt2
4567722d920bbff4afc6f99c30cd0c65 query.006.smt2
8ee6d377529b98963319643ef56f5848 query.007.smt2
298255091d960d6e38b362e3378ad541 query.008.smt2
53c8eaed34a45d3e5ef19a3337c70e8a query.009.smt2
bf6289bc16310faf74f8fabdcc62b843 query.010.smt2
14c115236c07e009ad56566f21f4f0f6 query.011.smt2
280b9b81cadc51a09e8b5f2e0f39d8cb query.012.smt2
c3738a382c713e85f6d34682f841bd60 query.013.smt2
77e87a36141c6fe8de361a90fb790a28 query.014.smt2
e357cc055d8e8911d627df8c2cb4b336 query.015.smt2
6fcd3bebe2e832d9862d4d570476cb2d query.016.smt2
3dc6cb91e42c04dbb452e2be3d2efd93 query.017.smt2
9d425e82193fdafd9c52def07c5bd401 query.018.smt2
feaefe04e88e962023515e5543466dd9 query.019.smt2
d2482d1882d95acb91cccc048e1f95b7 query.020.smt2
34df32eeb6dfd7620cdadbb47098aa73 query.021.smt2
d76319a6c227072628c4c27faf1d46ce query.022.smt2
28c3cf1d4849ceb67351d2cbd6863bdb query.023.smt2
e675e2f52bb235c7360799fb459c9d4c query.024.smt2
e2c919f7d1223d560e27550bafd1128a query.025.smt2
35785a69a15e2b36047344db4a145659 query.026.smt2
baa4c5997dc99a18a453a9adac42ced3 query.027.smt2
2835513ab2c2a6d7ea6b49bb393f7315 query.028.smt2
ff84b4d6b175cfe6302e6699c5bfa40f query.029.smt2
a3a1902a6a8b09f8171283f6f978c755 query.030.smt2
cfc4629feff810ba95f891435961d066 query.031.smt2
1a68dcd5aace40cbbbddc8bf6f231b43 query.032.smt2
a06a8fa9be9b5daa3a2f4e2bd9eeaf7c query.033.smt2
86303828bf61898d0c2c44bf26fa3cec query.034.smt2
38158e89e3dfddc8029049ec53ce675e query.035.smt2
e89bf8ab4639b8041ba1af2f44a9359b query.036.smt2
17acef7da6d659677b413c522e756733 query.037.smt2
4f71aa0bcb8a7c77fc28a73cd3934b9c query.038.smt2
a17e2217c94d58fb642267f407db876a query.039.smt2
68fd3a05d15bb3df7c504ac6de9993c2 query.040.smt2
8662df1d2d2c1570fc1da9af29b2c5d0 query.041.smt2
2ae44ba6194dfd66e9cd039bd5eca1cf query.042.smt2
d7cf7767410e910e30ef2f7224befa7c query.043.smt2
d75375be6bce5c3f290b15c2eac8566d query.044.smt2
08cb1e702ab37395a126ae0f649807f3 query.045.smt2
6aabe03e4fb1b7a711db9a5fab9de767 query.046.smt2
58e8059fe49bfedc9e8211660e2fd6ed query.047.smt2
c51d3875bba4b2d94fa9d207854eb59b query.048.smt2
4a0a872e5119e539fb10515d35344b4d query.049.smt2
297b9fb320eb27aa20ff1d1d7e4d8888 query.050.smt2
2b20473e50ab249311ff32e1f64c9fee query.051.smt2
5c19a19fbb527b7add1af7fd62b539b1 query.052.smt2
a869d7c803e3c65619ec50c558e99f4a query.053.smt2
832a85e274942c4f7bcc899bdf6e8d2c query.054.smt2
78df975457c6aaa71a1bb54ce6adc295 query.055.smt2
d46dd31299b1d1a9b3f802f7d10ede85 query.056.smt2
6a38e202dbd32fe38d5302b4018daa45 query.057.smt2
c8e445958758d4fd6907792d8939de2e query.058.smt2
d115854787f7e8766eb3e7d2dc099f4a query.059.smt2
5f5598561d7bcdae051d64cbf393b11e query.060.smt2
b724c11e5f9300ffce041ad975347833 query.061.smt2
79d6aa7c678c196ef135d7c58e07d5ca query.062.smt2
46db09e8aaecf203977ab953d22fb64b query.063.smt2
cd570cd7289f08dcda93769547ce7d26 query.064.smt2
b0ccec4da0d3d869f677f7f88d87e7d0 query.065.smt2
73671b832511d74323f617a884a5e8d5 query.066.smt2
e0d88f391701baa585b1278bd52de0e8 query.067.smt2
d6b841e0ccb80cbb7f93cdbb93477bd4 query.068.smt2
e8a19fadc2014fc24452e2eb6db0cb22 query.069.smt2
f92493b4c723250bdeab4b103d487e90 query.070.smt2
aae1d89f503e5a4315e96af7cbe4c990 query.071.smt2
9291369d85621f053293dcaf46b79ad3 query.072.smt2
7b4af876c9147c57d1dd6dbf38c9c492 query.073.smt2
0eda73283b2b5683b314265adaeeee62 query.074.smt2
e97049b9a28a035efc86e62e3951e81b query.075.smt2
386c59b8ffb861e80776ea37181ab3b4 query.076.smt2
bab029ef6bf415169bc5aafcc668d63c query.077.smt2
06216129f396a368bb3ff11bedd963b5 query.078.smt2
825c86aefc9d7c7cc15ab8567a83091f query.079.smt2
b3d778d929d5992cb1ef3b622ab5ebf1 query.080.smt2
f33612e08a4664b8409827d670e3a72c query.081.smt2
9456650bad89e06dfa2a7abaa6aa18cf query.082.smt2
23a62d6fbb9262e92b8e84cc50fdd258 query.083.smt2
ffb7f91e382c7292a85668dd1309edac query.084.smt2
3aecbb10b89be2b3717b08afa8f1ce37 query.085.smt2
4a73cd9c7a1c76cb0da1ef5e5972eb83 query.086.smt2
ae87b9bab27f646aa505b20ff8ef4fdd query.087.smt2
ccd9ffd708bf56fe50efcc147ce28710 query.088.smt2
1ef0278106569f010ddb890a89c95ebf query.089.smt2
7cd3c660906b1effd8102023e723c166 query.090.smt2
f69ceba250debfef941a57f7ca47d3d1 query.091.smt2
1668ac0b34fd2f5e1ab9da204ae77395 query.092.smt2
188bb5cab9e69c6b34c986609c737769 query.093.smt2
832ecb0fe985e2746f40bf302de691cb query.094.smt2
8d860fc63215141bc081d45c174a828d query.095.smt2
d0bb86eb07ed5b877f220c5127add187 query.096.smt2
2b3d7b6ed7d57e9db12779f8deac3436 query.097.smt2
a1544cf1a86e9bc4c68b96bd30a7ab42 query.098.smt2
fa491ade106a8b95cb3a2c6a49cc376e query.099.smt2
00df09599097e06af0dcd3e5f68c5bd8 query.100.smt2
2dc0a0b1dd296dd08a916678280dd985 query.101.smt2
b0619969836207318aa4f0a545c45c74 query.102.smt2
3b6fdef4f05c947d727cacc947372ea7 query.103.smt2
66486497ada7823be70062326c9c0464 query.104.smt2
579497bdfdadb66392ff19d32ba8fdaf query.105.smt2
111fc6d96f7023200e81008702d76bae query.106.smt2
9c72289b7e92cfae6b523cdc4e8bf3df query.107.smt2
0cf630f46ca988e7e1be70941148145f query.108.smt2
b859ffa1ca47e241a8090979f6fa73a2 query.109.smt2
7929c2fe9a650174894487506ddbeb86 query.110.smt2
c80926ce357ef4f727171289255987bb query.111.smt2
dc3b49e738636069fe2ad106163f95dc query.112.smt2
8933a29bf82353b0a07b06e13a890819 query.113.smt2
26b519f55350fb31d0fca6ef61f6be04 query.114.smt2
b7e0ce85e5a7d94256d2252ed4ecf803 query.115.smt2
eb0df7fc56e37511fbfc65c65a39f0a7 query.116.smt2
cf5fc5677fb5473d35ae875cf592a822 query.117.smt2
6c368e1e3461c937d95e3abc0e378f9c query.118.smt2
dc1717e5f1c688c4f8e4176242386c7d query.119.smt2
066b2a9489898ddc67403dcc9593991f query.120.smt2
e1c2e15bf0be36f44dae6f868456a84e query.121.smt2
0eda91e7c77298f58f18eb755ef70571 query.122.smt2
cb48fea37b1d1157ace770efe9c7969d query.123.smt2
04b6f48ff5fb2e5384b4110debf1401f query.124.smt2
ca8e71641ca2ee738a8c7feefdd579a0 query.125.smt2
f8eda392600f32bf48e2dae6c8e7e447 query.126.smt2
1862a71f03b2b4d04afcf3e91db6983d query.127.smt2
b3993077ed6d5434c72ea3e12d76ce3e query.128.smt2
475ba1241e52ada7614546c87bcc8892 query.129.smt2
ab2f34deba7189400e1b51173326c4d8 query.130.smt2
c063f8cc7bebfceb618c4b6318fca2e0 query.131.smt2
7a35d52ac70d86bc45c9c38101081d4d query.132.smt2
9404732c3715cb7a2327bc38f82277f7 query.133.smt2
44fad8b6e68110cd3c76749e159b2b4b query.134.smt2
edc354db9d5144945bf95027a19654ae query.135.smt2
6d566c769ddec23370fac3f15295de12 query.136.smt2
02f739e1cf16a4b751584f2a4487cb3e query.137.smt2
caf170bf017f9720a4b5cdd07d84ee48 query.138.smt2
8674ce986b5704e67730c908223e4e52 query.139.smt2
7d16ecbd470b8d4fd433f37bff04e7aa query.140.smt2
