12289800bcb0767f9a2ed2e44c284a4e query.037.smt2
71a138b8582856598d8cc618985e262d query.038.smt2
2a2555c8e400db5d9c20e2470b61321d query.045.smt2
a6c63ce9376209aa73bd77f7bdf98688 query.046.smt2
1f7244e25eef3f2c254c56b7f8b799ac query.050.smt2
89dd81bbbea7101fc359833852d9895b query.052.smt2
4c1a885c43b20a6e1e7450494a2a6155 query.055.smt2
1b9318cf2196ab6374d5f336b6596a90 query.056.smt2
c6bb2a059460e323079dcaa50f1f98e4 query.059.smt2
55ed9d6b6adf58352ac68b982df87d28 query.061.smt2
ad8d2341298e64668218feee9243c74f query.065.smt2
9de4fe4e6b42be578a2ee4df3db086d6 query.066.smt2
fff88707207102a4b0a1f8cb94d565d6 query.069.smt2
57ea318b272c03b3f917825e8041eb80 query.070.smt2
456e3f7dc00a8e8e6a7fce191cef8eb3 query.073.smt2
c3a82e74c85f9e5184209a983b058074 query.076.smt2
8a4953224ecfb5df74267d1c8d321e7d query.077.smt2
1e40c9ac67d64c706a008a033a9ccabf query.080.smt2
fd9a1db6a6610f52c59815933351e475 query.082.smt2
201793a00b66203e60122ae51e1b3447 query.084.smt2
998788742eb64c68bb0ef1944bb45593 query.086.smt2
8df518fe604da90877907d9ff253eea6 query.089.smt2
3490455fa2127b3307a3aadec0425d8d query.091.smt2
ebbea83b421dd285a9eb63f9070f91ea query.093.smt2
854cda105eb2d8b6798de22c284c5d8c query.095.smt2
db3b2bfe56f882b9744c11306f2e4304 query.097.smt2
