5ff3bec7936b6da0f7547593045ff0c1 ALIA/piVC/piVC_030ee9.smt2
64ee5a2f754efd24f7c2532d4800559e ALIA/piVC/piVC_098a89.smt2
a0a69c13c3c50275bad91d4a5315cf29 ALIA/piVC/piVC_0df790.smt2
fe39567e15021bd9e79f9c3bb2801c25 ALIA/piVC/piVC_0f7c6a.smt2
1d87b5c1ac818710a3c16e1694303c8b ALIA/piVC/piVC_13de35.smt2
7c049a198fc2034b57a19a3158d247b0 ALIA/piVC/piVC_14672f.smt2
b96271f7a77d3356b5defafa62b75996 ALIA/piVC/piVC_2186b5.smt2
29647867bf941e0d685ccc5dfd859182 ALIA/piVC/piVC_2551d7.smt2
372e99551c6ccda23cb3ef9bd3cbcedd ALIA/piVC/piVC_3240b6.smt2
6fd1f4e34cd5bd13c93a5396a4d7f7cd ALIA/piVC/piVC_3937a0.smt2
8886e19918c6be7f9870a00d3659528b ALIA/piVC/piVC_5581bd.smt2
2d7d2a4c874d0fb88a759bd86057c004 ALIA/piVC/piVC_577945.smt2
787c1ef8c13e37248d801e3d26536544 ALIA/piVC/piVC_5cee0c.smt2
4c8bba88c4c6ed0cffc92cdfe4a51fa2 ALIA/piVC/piVC_600bf6.smt2
8cccd8fac04ae1b529e1299325617d2b ALIA/piVC/piVC_647bf6.smt2
cabc7be03bd397519f1f01d920918722 ALIA/piVC/piVC_675f8a.smt2
2ed791a80f76a47d90cdab7a7fc63f79 ALIA/piVC/piVC_67ff5c.smt2
c66ca081b0bcf649ab651f822cb749e4 ALIA/piVC/piVC_6c37d0.smt2
764e9fde44f140b2e87a267553515057 ALIA/piVC/piVC_7f6962.smt2
148e1c4555d40ccb4bd5cb2cd9277d8c ALIA/piVC/piVC_849b63.smt2
195a0a789d2129093218871768f5b1b7 ALIA/piVC/piVC_8894c1.smt2
befe6f5724cef5417221e423ffcac4be ALIA/piVC/piVC_8a5f8d.smt2
6874c2ec5b041b5f18648cf2b7a153c5 ALIA/piVC/piVC_8bed95.smt2
481960d3476733897ea04e9d04daca90 ALIA/piVC/piVC_982830.sat.smt2
7016870dba1e3f4d17a186d69d065990 ALIA/piVC/piVC_982830.smt2
b2ab012a4b090a43dee051e4da07c406 ALIA/piVC/piVC_a04477.smt2
5a8506d7c6f63f14bbae3d98cfdae256 ALIA/piVC/piVC_ac01b1.smt2
e9134e24f6d2d27193ad453e7427d7f9 ALIA/piVC/piVC_b124d6.smt2
2685fdd426395591d82baa545ead42c6 ALIA/piVC/piVC_b5f37c.smt2
dab06ac1b8bf3c9bffc6f864ea0ce5a0 ALIA/piVC/piVC_bd0142.smt2
a1fe7783d587a1011ff70a983e40947c ALIA/piVC/piVC_bf055f.smt2
e7139e068388e6982e9079a0c34b3347 ALIA/piVC/piVC_c0b5f5.smt2
fff2f72c0e9a2c2c75f1315cfda5f9b4 ALIA/piVC/piVC_c5a79f.smt2
eaf9bc8322ecefadfc500caa581e5e0e ALIA/piVC/piVC_c7166c.smt2
e20addcbf3f0df9249309662ae4c664c ALIA/piVC/piVC_cdaaac.smt2
e28b4d3b41c1aa6cc0f554be93deac01 ALIA/piVC/piVC_cfcef5.smt2
36dbab47c9419c312989d6d256549fa1 ALIA/piVC/piVC_d91441.smt2
90ec6691b21ebb5f6b32d0f4fef1ff82 ALIA/piVC/piVC_d9dcdb.smt2
0e71829e94f3de8a7dddaa05d0d6f7a8 ALIA/piVC/piVC_dab5a0.smt2
cc4e2cc0a3a0c190b9251e1e13058fe9 ALIA/piVC/piVC_deabd0.smt2
3d395e50859c16a70103cc735ce78017 ALIA/piVC/piVC_f8964d.smt2
17bcbc32540b3cd6dcc844a2c0e7c3b6 ALIA/piVC/piVC_ffb7db.smt2
