284df857f684cc2446888f6498077702 QF_AUFLIA/array_benchmarks/misc/pipeline-invalid.smt2
fb1d08996cd46623103496327a2d00a1 QF_AUFLIA/check/array_incompleteness1.smt2
68902e359a0857d68379313a0c5ddeec QF_AUFLIA/cvc/add4.smt2
3a143ec3e586e53025ed5501ff8afc50 QF_AUFLIA/cvc/add5.smt2
4d71fd3a90f418da0a34767610844f32 QF_AUFLIA/cvc/add6.smt2
86b42ae4c8dd9678d832b66af5aac7b5 QF_AUFLIA/cvc/dlx-dmem.smt2
aeb9abba999c7f3ef4a328159470dd68 QF_AUFLIA/cvc/dlx-pc.smt2
0022de29e1de54a5dd3ad95d41a244d0 QF_AUFLIA/cvc/dlx-regfile.smt2
214d0e2ccb2096dc43321863e6b0b818 QF_AUFLIA/cvc/fb_var_12_11.smt2
e43396d089726c7c94e5c94009006ae8 QF_AUFLIA/cvc/fb_var_27_8.smt2
ccbe3cd1b459d2a55621525b47a0459c QF_AUFLIA/cvc/fb_var_33_6.smt2
d7feba74611c155ab51ca1effeb4bd3d QF_AUFLIA/cvc/fb_var_5_12.smt2
768941bb37a74050257a09ec9b20371a QF_AUFLIA/cvc/fb_var_6_12.smt2
b994363f2b01dbd924ebab44f2b26078 QF_AUFLIA/cvc/pp-TakenBranch-s2e.smt2
78590105cef14d6f0ba7e5bda7509c3c QF_AUFLIA/cvc/pp-dmem.smt2
5831048d1a1c95ab0c939b5d19834c88 QF_AUFLIA/cvc/pp-invariant.smt2
59148d181034faa4326c31127aeb2bae QF_AUFLIA/cvc/pp-pc-s2i.smt2
0050375f0218d2703db855bd255604fc QF_AUFLIA/cvc/pp-regfile.smt2
206df54f1be09af9c304e77db7f4c682 QF_AUFLIA/cvc/read6.smt2
6cdb24f45ac406337154ba5efb3ec948 QF_AUFLIA/cvc/read7.smt2
ed109549213cbe3e62610bdf230ef091 QF_AUFLIA/cvc/read8.smt2
0532be6406d8b94fad105e19acf3f1b5 QF_AUFLIA/storecomm/storecomm_invalid_t1_np_nf_ni_00010_002.cvc.smt2
150dea721019b6db26708a0a4934dec3 QF_AUFLIA/storecomm/storecomm_invalid_t1_np_nf_ni_00010_003.cvc.smt2
e2cbaa043b1189d4b3101c2dc93f3af2 QF_AUFLIA/storecomm/storecomm_invalid_t1_np_nf_ni_00010_005.cvc.smt2
d0105e3d71d7743dd9aafbd6764d794c QF_AUFLIA/storecomm/storecomm_invalid_t1_np_nf_ni_00010_006.cvc.smt2
cb3e1ca7992a505176a7fdf0cc443241 QF_AUFLIA/storecomm/storecomm_invalid_t1_np_nf_ni_00010_007.cvc.smt2
0daf532fa5b473002908d465f3037e4f QF_AUFLIA/storecomm/storecomm_invalid_t1_np_nf_ni_00010_009.cvc.smt2
7b8d11d702ebeb0e70a4756e39a7e6f8 QF_AUFLIA/storecomm/storecomm_invalid_t1_np_nf_ni_00020_001.cvc.smt2
0407c11bebb8a7f185df50374f6cb66b QF_AUFLIA/storecomm/storecomm_invalid_t1_np_nf_ni_00020_003.cvc.smt2
4251adc0c5d23bfdbc10876b5e26b917 QF_AUFLIA/storecomm/storecomm_invalid_t1_np_nf_ni_00020_004.cvc.smt2
30622cecf1f59ad4d0b9d826390e64e8 QF_AUFLIA/storecomm/storecomm_invalid_t1_np_nf_ni_00020_005.cvc.smt2
db182d6b993d32fce9cd7e29101e661b QF_AUFLIA/storecomm/storecomm_invalid_t1_np_nf_ni_00020_006.cvc.smt2
1995f93015323544659399541c2102ae QF_AUFLIA/storecomm/storecomm_invalid_t1_np_nf_ni_00020_008.cvc.smt2
4bc7b1effbd1b1e614278daa92e6f962 QF_AUFLIA/storecomm/storecomm_invalid_t1_np_nf_ni_00030_001.cvc.smt2
a3f025f10dbc02d596f14aec1ac22f6b QF_AUFLIA/storecomm/storecomm_invalid_t1_np_nf_ni_00030_004.cvc.smt2
01567257506c259b4e858325092a6851 QF_AUFLIA/storecomm/storecomm_invalid_t1_np_nf_ni_00030_005.cvc.smt2
9ce909a8860124a16e9b4c34eb28e80b QF_AUFLIA/storecomm/storecomm_invalid_t1_np_nf_ni_00030_007.cvc.smt2
b2893d13f3aa91ffa022ef2b93c11cd4 QF_AUFLIA/storecomm/storecomm_invalid_t1_np_nf_ni_00030_008.cvc.smt2
35816325f4494d7e42a804fb623c30e9 QF_AUFLIA/storecomm/storecomm_invalid_t1_np_nf_ni_00030_009.cvc.smt2
46128e7f029b7e5331e0d1875d1dd5fa QF_AUFLIA/storecomm/storecomm_invalid_t1_np_nf_ni_00040_002.cvc.smt2
e77bd1c2b91762ae3979d9fe8facb899 QF_AUFLIA/storecomm/storecomm_invalid_t1_np_nf_ni_00040_003.cvc.smt2
62c1f9f740dd82d158b153863ce178bb QF_AUFLIA/storecomm/storecomm_invalid_t1_np_nf_ni_00050_004.cvc.smt2
941f227e33da15e14f7bdedb76cbd96f QF_AUFLIA/storecomm/storecomm_invalid_t1_np_nf_ni_00050_007.cvc.smt2
3ae8a46d4c9959c229ec46b623b26892 QF_AUFLIA/storecomm/storecomm_invalid_t1_np_nf_ni_00060_002.cvc.smt2
20669e97f62700852df1a1f49bcd1756 QF_AUFLIA/storecomm/storecomm_invalid_t1_np_nf_ni_00060_004.cvc.smt2
bf4cf8b8b6e6e41797c1049684c1e455 QF_AUFLIA/storecomm/storecomm_invalid_t1_np_nf_ni_00060_005.cvc.smt2
9b94684ee45c57378149bb11178d865c QF_AUFLIA/storecomm/storecomm_invalid_t1_np_nf_ni_00060_008.cvc.smt2
4edfcd070e937cdb3ac81d49717da83a QF_AUFLIA/storecomm/storecomm_invalid_t1_np_nf_ni_00060_009.cvc.smt2
7c229ff8e3043c2da0b94060c60757eb QF_AUFLIA/storecomm/storecomm_invalid_t1_np_sf_ni_00010_006.cvc.smt2
9e6804d623ccef455903b58c5c1b2764 QF_AUFLIA/storecomm/storecomm_invalid_t1_np_sf_ni_00010_007.cvc.smt2
333c9beec1a04e21e15d0ac1c7e6c880 QF_AUFLIA/storecomm/storecomm_invalid_t1_np_sf_ni_00010_009.cvc.smt2
5c898123c841ac01ab4dd16c7a4c64ef QF_AUFLIA/storecomm/storecomm_invalid_t1_np_sf_ni_00020_001.cvc.smt2
13c829de33b9197b135736148e1864bd QF_AUFLIA/storecomm/storecomm_invalid_t1_np_sf_ni_00020_003.cvc.smt2
e7da93290e870b069ff4f880c1304d59 QF_AUFLIA/storecomm/storecomm_invalid_t1_np_sf_ni_00020_004.cvc.smt2
08379e0de0f106d0268f17d650c9cc48 QF_AUFLIA/storecomm/storecomm_invalid_t1_np_sf_ni_00020_005.cvc.smt2
79c68ff5167dd318a8b5f2bd0720bdbb QF_AUFLIA/storecomm/storecomm_invalid_t1_np_sf_ni_00020_007.cvc.smt2
97e42a4437f1b570519c1df9050a8f2d QF_AUFLIA/storecomm/storecomm_invalid_t1_np_sf_ni_00020_008.cvc.smt2
44505fb09e4fb0595d701e74a9e709f7 QF_AUFLIA/storecomm/storecomm_invalid_t1_np_sf_ni_00030_001.cvc.smt2
ed9d87313fcc0a92d1ca4783593786b8 QF_AUFLIA/storecomm/storecomm_invalid_t1_np_sf_ni_00030_002.cvc.smt2
4247311435595b4bb3006336075a0b55 QF_AUFLIA/storecomm/storecomm_invalid_t1_np_sf_ni_00030_003.cvc.smt2
3e96b2e1dc3936498bf6755fac81fdd8 QF_AUFLIA/storecomm/storecomm_invalid_t1_np_sf_ni_00030_004.cvc.smt2
5da3a54dd81fd3cb145252f06463c1d7 QF_AUFLIA/storecomm/storecomm_invalid_t1_np_sf_ni_00030_006.cvc.smt2
f5f49d9f8b3c5b32eedc71b242326988 QF_AUFLIA/storecomm/storecomm_invalid_t1_np_sf_ni_00030_007.cvc.smt2
306bc892c0a7f5ae201ddcfa7bdc239d QF_AUFLIA/storecomm/storecomm_invalid_t1_np_sf_ni_00040_001.cvc.smt2
f22ed631fa6344e0a8411fb4bc4e3962 QF_AUFLIA/storecomm/storecomm_invalid_t1_np_sf_ni_00040_003.cvc.smt2
800f0e94b5051f561c456aaa020bb692 QF_AUFLIA/storecomm/storecomm_invalid_t1_np_sf_ni_00040_005.cvc.smt2
ea1bf5bf1bf4e8acc7ccda5a8b1a979b QF_AUFLIA/storecomm/storecomm_invalid_t1_np_sf_ni_00050_003.cvc.smt2
737918bed770df863667f0f735f4a9ba QF_AUFLIA/storecomm/storecomm_invalid_t1_np_sf_ni_00050_008.cvc.smt2
454dee50414d96a94b3a306e59fdba13 QF_AUFLIA/storecomm/storecomm_invalid_t1_np_sf_ni_00050_009.cvc.smt2
d08df19392027ec559cffef89c2dd5da QF_AUFLIA/storecomm/storecomm_invalid_t1_np_sf_ni_00060_002.cvc.smt2
3106ef1cf638cd9691a83b145934b69d QF_AUFLIA/storecomm/storecomm_invalid_t1_np_sf_ni_00060_004.cvc.smt2
84e49c5809dcf043bd438b15457c683b QF_AUFLIA/storecomm/storecomm_invalid_t1_np_sf_ni_00060_005.cvc.smt2
c4e83e9e62ab597df3b5af32a71204db QF_AUFLIA/storecomm/storecomm_invalid_t1_np_sf_ni_00060_008.cvc.smt2
c821dc5428659908b7b391a9a2bf1c84 QF_AUFLIA/storecomm/storecomm_invalid_t1_np_sf_ni_00060_009.cvc.smt2
821958e749436f9eda1f95ee13f5ddd4 QF_AUFLIA/storecomm/storecomm_invalid_t1_pp_nf_ai_00010_001.cvc.smt2
52301c622a3bc8e4e06aba6dc0d223e2 QF_AUFLIA/storecomm/storecomm_invalid_t1_pp_nf_ai_00010_002.cvc.smt2
8199be189449e3bbce9a1b9277d9413e QF_AUFLIA/storecomm/storecomm_invalid_t1_pp_nf_ai_00010_004.cvc.smt2
41b7741d5cb1431a517126bdd499fff6 QF_AUFLIA/storecomm/storecomm_invalid_t1_pp_nf_ai_00010_007.cvc.smt2
79610f6811f99e639eaeedf5d863a23f QF_AUFLIA/storecomm/storecomm_invalid_t1_pp_nf_ai_00010_009.cvc.smt2
20ba33dcde9624dff941db864b5b5894 QF_AUFLIA/storecomm/storecomm_invalid_t1_pp_nf_ai_00020_001.cvc.smt2
22475ccf88c7481134fb1de12a0ffc0c QF_AUFLIA/storecomm/storecomm_invalid_t1_pp_nf_ai_00020_002.cvc.smt2
bb72310782bcd50123fa72519651fa1c QF_AUFLIA/storecomm/storecomm_invalid_t1_pp_nf_ai_00020_005.cvc.smt2
8ebcc04d2d91263d7a95793e269f8f0f QF_AUFLIA/storecomm/storecomm_invalid_t1_pp_nf_ai_00020_009.cvc.smt2
80f488cfc5d1e6af543859e5b00e4364 QF_AUFLIA/storecomm/storecomm_invalid_t1_pp_nf_ai_00030_002.cvc.smt2
b536d2445dcd37f4be34b2f2a61f4080 QF_AUFLIA/storecomm/storecomm_invalid_t1_pp_nf_ai_00030_003.cvc.smt2
3af542b3fc870e92b4a6b09cad796b04 QF_AUFLIA/storecomm/storecomm_invalid_t1_pp_nf_ai_00030_006.cvc.smt2
cf90a0660a1e4b6530d2a6289dd6c7ee QF_AUFLIA/storecomm/storecomm_invalid_t1_pp_nf_ai_00030_008.cvc.smt2
d7f0564f479f8dfc37d1f5ce5c9dc315 QF_AUFLIA/storecomm/storecomm_invalid_t1_pp_nf_ai_00030_009.cvc.smt2
e83897d2e9d26598f0b3bfcd9b2a8d02 QF_AUFLIA/storecomm/storecomm_invalid_t1_pp_nf_ai_00040_003.cvc.smt2
d23db9e561b2b33659d11afd3fe7676b QF_AUFLIA/storecomm/storecomm_invalid_t1_pp_nf_ai_00040_004.cvc.smt2
51f711bf38581d169d63da3909c911f0 QF_AUFLIA/storecomm/storecomm_invalid_t1_pp_nf_ai_00040_008.cvc.smt2
be4ec1724476f4856f70726acd2038e6 QF_AUFLIA/storecomm/storecomm_invalid_t1_pp_nf_ai_00040_009.cvc.smt2
a1bc87dcb708d166a5df9daa8e9f87a3 QF_AUFLIA/storecomm/storecomm_invalid_t1_pp_nf_ai_00050_001.cvc.smt2
34626cdfea2c736e9b366514b62cb556 QF_AUFLIA/storecomm/storecomm_invalid_t1_pp_nf_ai_00050_004.cvc.smt2
90c64d4842f8a9392999d720550c2e22 QF_AUFLIA/storecomm/storecomm_invalid_t1_pp_nf_ai_00050_005.cvc.smt2
04b6f4e33e42dda1b7c3f7b50be41a94 QF_AUFLIA/storecomm/storecomm_invalid_t1_pp_nf_ai_00050_007.cvc.smt2
3b844b261fff422224f16a313fb1cad4 QF_AUFLIA/storecomm/storecomm_invalid_t1_pp_nf_ai_00050_008.cvc.smt2
5d557ac9526adc0ab880461660ed7041 QF_AUFLIA/storecomm/storecomm_invalid_t1_pp_nf_ai_00050_009.cvc.smt2
8556271f89498a388ccb611db18ea882 QF_AUFLIA/storecomm/storecomm_invalid_t1_pp_nf_ai_00060_003.cvc.smt2
155c4b66e1efe6b6b771aeab3be05d3d QF_AUFLIA/storecomm/storecomm_invalid_t1_pp_nf_ai_00060_005.cvc.smt2
d6009a0b91627abf2764d23715a10c3d QF_AUFLIA/storecomm/storecomm_invalid_t1_pp_nf_ai_00060_007.cvc.smt2
a4c7cd8811b291918cd1bf5d667fb062 QF_AUFLIA/storecomm/storecomm_invalid_t1_pp_nf_ai_00060_008.cvc.smt2
86e0320dfee7dc6a0a221482e5151718 QF_AUFLIA/storecomm/storecomm_invalid_t1_pp_nf_ni_00010_002.cvc.smt2
fdcabcc77743aa8111426bd3f8e1e82f QF_AUFLIA/storecomm/storecomm_invalid_t1_pp_nf_ni_00010_003.cvc.smt2
a86a84a60b154680b0a978ccbad6356e QF_AUFLIA/storecomm/storecomm_invalid_t1_pp_nf_ni_00010_004.cvc.smt2
00127ee2fc8fe31e1ef347942fa8e7eb QF_AUFLIA/storecomm/storecomm_invalid_t1_pp_nf_ni_00010_006.cvc.smt2
9ea9fe47cf482f21da49f3372f59242c QF_AUFLIA/storecomm/storecomm_invalid_t1_pp_nf_ni_00010_008.cvc.smt2
ad86568e562d4e720e066e0fe3f94464 QF_AUFLIA/storecomm/storecomm_invalid_t1_pp_nf_ni_00020_002.cvc.smt2
0f012531f2c89a72203b2c2293262946 QF_AUFLIA/storecomm/storecomm_invalid_t1_pp_nf_ni_00020_003.cvc.smt2
ea2b1db2822bfd7e43bd2174127b8044 QF_AUFLIA/storecomm/storecomm_invalid_t1_pp_nf_ni_00020_006.cvc.smt2
e4d440afedf508ac434a5be857184efd QF_AUFLIA/storecomm/storecomm_invalid_t1_pp_nf_ni_00020_007.cvc.smt2
88cd197a2a0ffd5837f4d580b6ecb56d QF_AUFLIA/storecomm/storecomm_invalid_t1_pp_nf_ni_00020_008.cvc.smt2
9754e21e026ecfb7c4ce859f9514a414 QF_AUFLIA/storecomm/storecomm_invalid_t1_pp_nf_ni_00030_002.cvc.smt2
dce811db777a2c3653418db5e01dbcb5 QF_AUFLIA/storecomm/storecomm_invalid_t1_pp_nf_ni_00030_004.cvc.smt2
86b390adb803ab5a0f364b6fbbf6cfc8 QF_AUFLIA/storecomm/storecomm_invalid_t1_pp_nf_ni_00030_007.cvc.smt2
1bd2b92a78d921034c34377ecbde8477 QF_AUFLIA/storecomm/storecomm_invalid_t1_pp_nf_ni_00030_008.cvc.smt2
7b31b982a5ca098032f6c4b797fa41f5 QF_AUFLIA/storecomm/storecomm_invalid_t1_pp_nf_ni_00040_004.cvc.smt2
ee0f5527006d7c2af6bc11c9403441af QF_AUFLIA/storecomm/storecomm_invalid_t1_pp_nf_ni_00040_005.cvc.smt2
e3505be33db38f0c11fdffec090ea0c2 QF_AUFLIA/storecomm/storecomm_invalid_t1_pp_nf_ni_00040_007.cvc.smt2
29261ac9c4aaa7827560702ecc70f028 QF_AUFLIA/storecomm/storecomm_invalid_t1_pp_nf_ni_00040_008.cvc.smt2
171503a696c27b6e79f93b41379eb809 QF_AUFLIA/storecomm/storecomm_invalid_t1_pp_nf_ni_00040_009.cvc.smt2
d71596ef25604a57c5afb12db62f3ac2 QF_AUFLIA/storecomm/storecomm_invalid_t1_pp_nf_ni_00050_003.cvc.smt2
9f0087b59d0890e0c9d0279a9c894604 QF_AUFLIA/storecomm/storecomm_invalid_t1_pp_nf_ni_00050_005.cvc.smt2
32a014fa283bebfef7c7c6edaae66698 QF_AUFLIA/storecomm/storecomm_invalid_t1_pp_nf_ni_00050_006.cvc.smt2
16d51d323194b68249b23d7c35283560 QF_AUFLIA/storecomm/storecomm_invalid_t1_pp_nf_ni_00050_007.cvc.smt2
6fc8d0361bd3de660370609b13edef3c QF_AUFLIA/storecomm/storecomm_invalid_t1_pp_nf_ni_00050_008.cvc.smt2
b6d13c75204d5351b344420964663069 QF_AUFLIA/storecomm/storecomm_invalid_t1_pp_nf_ni_00050_009.cvc.smt2
602cd0c853582205335e1166ac717de4 QF_AUFLIA/storecomm/storecomm_invalid_t1_pp_nf_ni_00060_003.cvc.smt2
3a8880e0fac3d18ae406cfa6ee236bfc QF_AUFLIA/storecomm/storecomm_invalid_t1_pp_nf_ni_00060_004.cvc.smt2
d9d63799b5966cc17327a3c935196dc8 QF_AUFLIA/storecomm/storecomm_invalid_t1_pp_nf_ni_00060_005.cvc.smt2
b63e1b7df025dde444b24174c15c0c38 QF_AUFLIA/storecomm/storecomm_invalid_t1_pp_nf_ni_00060_007.cvc.smt2
1e80807998f82bbadf2f5f4ff2a7d86f QF_AUFLIA/storecomm/storecomm_invalid_t1_pp_nf_ni_00060_008.cvc.smt2
1d66e8a365c20e52eb4f267aabef0986 QF_AUFLIA/storecomm/storecomm_invalid_t1_pp_sf_ai_00010_001.cvc.smt2
979aaa0347a9501b7ded980470f9894b QF_AUFLIA/storecomm/storecomm_invalid_t1_pp_sf_ai_00010_007.cvc.smt2
86761c0d7a187d3ce677ff6a815c1b42 QF_AUFLIA/storecomm/storecomm_invalid_t1_pp_sf_ai_00010_008.cvc.smt2
334b9e61f359c3bcc8fff7b2f1207b27 QF_AUFLIA/storecomm/storecomm_invalid_t1_pp_sf_ai_00020_001.cvc.smt2
b76518a57584e059003deef3b3a53c01 QF_AUFLIA/storecomm/storecomm_invalid_t1_pp_sf_ai_00020_002.cvc.smt2
b98182b2325861ea3e56e1c29f44f94c QF_AUFLIA/storecomm/storecomm_invalid_t1_pp_sf_ai_00020_005.cvc.smt2
5fbfde6b3341db4111c76b71b6e6252f QF_AUFLIA/storecomm/storecomm_invalid_t1_pp_sf_ai_00020_006.cvc.smt2
cd613a55365138123f892d9879832dfb QF_AUFLIA/storecomm/storecomm_invalid_t1_pp_sf_ai_00020_007.cvc.smt2
20393467ed6ac984b66bbf75e0f22815 QF_AUFLIA/storecomm/storecomm_invalid_t1_pp_sf_ai_00020_009.cvc.smt2
254f3959404ed4055a8d2d3339d8d0ef QF_AUFLIA/storecomm/storecomm_invalid_t1_pp_sf_ai_00030_004.cvc.smt2
bfc86b1d2cdd928009cb8c3ddf2d153a QF_AUFLIA/storecomm/storecomm_invalid_t1_pp_sf_ai_00030_005.cvc.smt2
67466834fb22d92cf313a32ca8421add QF_AUFLIA/storecomm/storecomm_invalid_t1_pp_sf_ai_00030_009.cvc.smt2
a98933b0cc803ae272772522b0f0c5e0 QF_AUFLIA/storecomm/storecomm_invalid_t1_pp_sf_ai_00040_003.cvc.smt2
05f05528b5022cdf23919e7fb00789ff QF_AUFLIA/storecomm/storecomm_invalid_t1_pp_sf_ai_00040_004.cvc.smt2
8c4e9d4e964415e992a2070c794f5d37 QF_AUFLIA/storecomm/storecomm_invalid_t1_pp_sf_ai_00040_005.cvc.smt2
ae955e480eea915772b41c62be4600bd QF_AUFLIA/storecomm/storecomm_invalid_t1_pp_sf_ai_00050_003.cvc.smt2
b10bc7bc5a259960e2103affd7ec2944 QF_AUFLIA/storecomm/storecomm_invalid_t1_pp_sf_ai_00050_005.cvc.smt2
4e57de1a0e4f2de4ba90e517b677c411 QF_AUFLIA/storecomm/storecomm_invalid_t1_pp_sf_ai_00050_009.cvc.smt2
002c3cb3d20ea5debb37709fbf264100 QF_AUFLIA/storecomm/storecomm_invalid_t1_pp_sf_ai_00060_001.cvc.smt2
e908cfa05c11c6fe5e54a36a7a50a991 QF_AUFLIA/storecomm/storecomm_invalid_t1_pp_sf_ai_00060_003.cvc.smt2
30045721fb4ea5bc70cfc76ce4237a62 QF_AUFLIA/storecomm/storecomm_invalid_t1_pp_sf_ai_00060_008.cvc.smt2
bf31160900e009666e799b957ff822cd QF_AUFLIA/storecomm/storecomm_invalid_t1_pp_sf_ai_00060_009.cvc.smt2
93ec54c0f160846476a97f30728149d2 QF_AUFLIA/storecomm/storecomm_invalid_t1_pp_sf_ni_00010_001.cvc.smt2
c4ac7e7048a4dd5e69d05feb77547274 QF_AUFLIA/storecomm/storecomm_invalid_t1_pp_sf_ni_00010_003.cvc.smt2
f71cfe428441645c3b827d942d22c5c1 QF_AUFLIA/storecomm/storecomm_invalid_t1_pp_sf_ni_00010_004.cvc.smt2
f00570ada67b3538887ca984684b9fb7 QF_AUFLIA/storecomm/storecomm_invalid_t1_pp_sf_ni_00010_005.cvc.smt2
fd41bef8e16c849bf811897761a0a4d8 QF_AUFLIA/storecomm/storecomm_invalid_t1_pp_sf_ni_00010_009.cvc.smt2
96169c1615ebb659f680eb7cdc14c74e QF_AUFLIA/storecomm/storecomm_invalid_t1_pp_sf_ni_00020_002.cvc.smt2
39dd8fd8aad43437d847befc81a27ada QF_AUFLIA/storecomm/storecomm_invalid_t1_pp_sf_ni_00020_003.cvc.smt2
730ce277b97f7603972a3d36a79b6148 QF_AUFLIA/storecomm/storecomm_invalid_t1_pp_sf_ni_00020_004.cvc.smt2
6a741f42aa1d54dc729cf37f54fcff8d QF_AUFLIA/storecomm/storecomm_invalid_t1_pp_sf_ni_00020_005.cvc.smt2
fb4010e3c548773b6d54939436f374b4 QF_AUFLIA/storecomm/storecomm_invalid_t1_pp_sf_ni_00020_008.cvc.smt2
d69ac942271cd212edb4554f57606972 QF_AUFLIA/storecomm/storecomm_invalid_t1_pp_sf_ni_00020_009.cvc.smt2
6c98daa8cc5b2fcce56ab25d57b3fe21 QF_AUFLIA/storecomm/storecomm_invalid_t1_pp_sf_ni_00030_001.cvc.smt2
ce2cf95f8bca2ce67c48af1030ecda68 QF_AUFLIA/storecomm/storecomm_invalid_t1_pp_sf_ni_00030_003.cvc.smt2
3d7f54119da06961dfdf7012b970c79d QF_AUFLIA/storecomm/storecomm_invalid_t1_pp_sf_ni_00030_005.cvc.smt2
6a66b5b3e84ca6797ce257f4403053f1 QF_AUFLIA/storecomm/storecomm_invalid_t1_pp_sf_ni_00030_007.cvc.smt2
f50a546d79fab838f5cef09d27efc70d QF_AUFLIA/storecomm/storecomm_invalid_t1_pp_sf_ni_00030_008.cvc.smt2
9dbd50c42baf3cdd5a5fece18c50eee2 QF_AUFLIA/storecomm/storecomm_invalid_t1_pp_sf_ni_00040_001.cvc.smt2
62ac97e8e7107e2f4ba952b669f51448 QF_AUFLIA/storecomm/storecomm_invalid_t1_pp_sf_ni_00040_002.cvc.smt2
4bb57c53ff0e3229bfd7cc70642aa927 QF_AUFLIA/storecomm/storecomm_invalid_t1_pp_sf_ni_00040_003.cvc.smt2
14c48c161f219ef788af7632dd0d65ae QF_AUFLIA/storecomm/storecomm_invalid_t1_pp_sf_ni_00040_007.cvc.smt2
8ca8e99e31b87e90be59a8cc367595cd QF_AUFLIA/storecomm/storecomm_invalid_t1_pp_sf_ni_00040_008.cvc.smt2
417750a9ead26f6177014e0a7c528517 QF_AUFLIA/storecomm/storecomm_invalid_t1_pp_sf_ni_00040_009.cvc.smt2
bd5c962d9430cfe27ce8bc59ae4bd123 QF_AUFLIA/storecomm/storecomm_invalid_t1_pp_sf_ni_00050_001.cvc.smt2
ef18f03e25a406c8bcfdf066bb0e9dd6 QF_AUFLIA/storecomm/storecomm_invalid_t1_pp_sf_ni_00050_002.cvc.smt2
cbd6c3b344f6362a1bb529efd27b09c2 QF_AUFLIA/storecomm/storecomm_invalid_t1_pp_sf_ni_00050_005.cvc.smt2
0481af1734c7ba8130af1b80d5d61eed QF_AUFLIA/storecomm/storecomm_invalid_t1_pp_sf_ni_00050_006.cvc.smt2
7e08a3436d8f0241f3407e5e62621d84 QF_AUFLIA/storecomm/storecomm_invalid_t1_pp_sf_ni_00050_007.cvc.smt2
98915795b94a8b22294a5753c1868c10 QF_AUFLIA/storecomm/storecomm_invalid_t1_pp_sf_ni_00050_008.cvc.smt2
2a6ca62b3a3da98176d3dbb58e697c74 QF_AUFLIA/storecomm/storecomm_invalid_t1_pp_sf_ni_00060_001.cvc.smt2
7db71ceefc0099fd32c1b0868cff6edb QF_AUFLIA/storecomm/storecomm_invalid_t1_pp_sf_ni_00060_002.cvc.smt2
83442a74ad534f9b3c50b3a348c658b3 QF_AUFLIA/storecomm/storecomm_invalid_t1_pp_sf_ni_00060_005.cvc.smt2
ba3191210e4f4719c97acc05ff5e40ac QF_AUFLIA/storecomm/storecomm_invalid_t3_np_nf_ni_00010_001.cvc.smt2
d880fbb73328df52bbaf8303008878f0 QF_AUFLIA/storecomm/storecomm_invalid_t3_np_nf_ni_00010_004.cvc.smt2
d9c5aac072e018eef9cdbf96760bf90c QF_AUFLIA/storecomm/storecomm_invalid_t3_np_nf_ni_00010_008.cvc.smt2
12f5f76702a5ff67ea0dc40cb03e9e1b QF_AUFLIA/storecomm/storecomm_invalid_t3_np_nf_ni_00020_002.cvc.smt2
81dc56fc27742d0165b1694f9e0307b7 QF_AUFLIA/storecomm/storecomm_invalid_t3_np_nf_ni_00020_007.cvc.smt2
235a831fb4a322b79ec1fb5ca9494b77 QF_AUFLIA/storecomm/storecomm_invalid_t3_np_nf_ni_00020_009.cvc.smt2
28279cd5a3933b563f7ba607fb538414 QF_AUFLIA/storecomm/storecomm_invalid_t3_np_nf_ni_00030_002.cvc.smt2
8ec055bc950376a0ef8abda648c2d8d6 QF_AUFLIA/storecomm/storecomm_invalid_t3_np_nf_ni_00030_003.cvc.smt2
d681e92bbe54a5adf7504f921a0d5a7f QF_AUFLIA/storecomm/storecomm_invalid_t3_np_nf_ni_00030_006.cvc.smt2
f7f56cb1969d5b371e5185d675bc7cbd QF_AUFLIA/storecomm/storecomm_invalid_t3_np_nf_ni_00040_001.cvc.smt2
acc150e64557a9838202a0a923ce5e60 QF_AUFLIA/storecomm/storecomm_invalid_t3_np_nf_ni_00040_004.cvc.smt2
68a3e65bd69722f87037ee426bfd3d7f QF_AUFLIA/storecomm/storecomm_invalid_t3_np_nf_ni_00040_005.cvc.smt2
ca88cd6a2c4dd19f35aa241f93046cc0 QF_AUFLIA/storecomm/storecomm_invalid_t3_np_nf_ni_00040_006.cvc.smt2
0a4153176a0787fcd25a9428cb4b98c9 QF_AUFLIA/storecomm/storecomm_invalid_t3_np_nf_ni_00040_007.cvc.smt2
55e0266fd0adf210a6fd9ad427600730 QF_AUFLIA/storecomm/storecomm_invalid_t3_np_nf_ni_00040_008.cvc.smt2
e50d6833aadb98a99b0f337b6dfe01d5 QF_AUFLIA/storecomm/storecomm_invalid_t3_np_nf_ni_00040_009.cvc.smt2
04a6334a254a00a7edbb73f99ae0f327 QF_AUFLIA/storecomm/storecomm_invalid_t3_np_nf_ni_00050_001.cvc.smt2
079da2354c4c9b8918fffb5aab322c3e QF_AUFLIA/storecomm/storecomm_invalid_t3_np_nf_ni_00050_002.cvc.smt2
c5e1cd1b36661cb77d3e28ebd27b5dac QF_AUFLIA/storecomm/storecomm_invalid_t3_np_nf_ni_00050_003.cvc.smt2
36a57ce0b64cb11f0e5f696b869acdad QF_AUFLIA/storecomm/storecomm_invalid_t3_np_nf_ni_00050_005.cvc.smt2
ab42287183f39cbc184999c0d4e2d011 QF_AUFLIA/storecomm/storecomm_invalid_t3_np_nf_ni_00050_006.cvc.smt2
130164ceb858f2280b1a68c459a8dc26 QF_AUFLIA/storecomm/storecomm_invalid_t3_np_nf_ni_00050_008.cvc.smt2
88f2493180568ba1a75a244cb306042f QF_AUFLIA/storecomm/storecomm_invalid_t3_np_nf_ni_00050_009.cvc.smt2
90742f1326846aedaca5c48c5015c066 QF_AUFLIA/storecomm/storecomm_invalid_t3_np_nf_ni_00060_001.cvc.smt2
f7c64de07f4eef12173f7e834390ec27 QF_AUFLIA/storecomm/storecomm_invalid_t3_np_nf_ni_00060_003.cvc.smt2
1965bc044e759ca92b7b27e44ec6e3d4 QF_AUFLIA/storecomm/storecomm_invalid_t3_np_nf_ni_00060_006.cvc.smt2
9586c72d032627eb1591895f4abce10b QF_AUFLIA/storecomm/storecomm_invalid_t3_np_nf_ni_00060_007.cvc.smt2
6aeccab086b0381d2364078e0ac3f12c QF_AUFLIA/storecomm/storecomm_invalid_t3_np_sf_ni_00010_001.cvc.smt2
d7519fe9010c975cd6a8361e2dc9091e QF_AUFLIA/storecomm/storecomm_invalid_t3_np_sf_ni_00010_002.cvc.smt2
95a3df14c025c7eb684d2f18bc3b4239 QF_AUFLIA/storecomm/storecomm_invalid_t3_np_sf_ni_00010_003.cvc.smt2
6040551d3e6e222f2b154fe49833fb04 QF_AUFLIA/storecomm/storecomm_invalid_t3_np_sf_ni_00010_004.cvc.smt2
1088010b39c1debcf9c1c5ff1c74f14d QF_AUFLIA/storecomm/storecomm_invalid_t3_np_sf_ni_00010_005.cvc.smt2
e5b01efad8aaa435109ddd4127a7a707 QF_AUFLIA/storecomm/storecomm_invalid_t3_np_sf_ni_00010_008.cvc.smt2
e3eb8c6b58ac6c1c641b4fce9749c5c4 QF_AUFLIA/storecomm/storecomm_invalid_t3_np_sf_ni_00020_002.cvc.smt2
673b048a17514adafd9d3bf64d5db2ce QF_AUFLIA/storecomm/storecomm_invalid_t3_np_sf_ni_00020_006.cvc.smt2
c8b9a4e9b14a9e6d3ed9dd9dd9527729 QF_AUFLIA/storecomm/storecomm_invalid_t3_np_sf_ni_00020_009.cvc.smt2
ed19b2ed15fe8628a076eec3f6822f97 QF_AUFLIA/storecomm/storecomm_invalid_t3_np_sf_ni_00030_005.cvc.smt2
5f0d9ee62a6361b8528df7b5414fef43 QF_AUFLIA/storecomm/storecomm_invalid_t3_np_sf_ni_00030_008.cvc.smt2
ac4a7e202db1f5c34cbeff14549c0389 QF_AUFLIA/storecomm/storecomm_invalid_t3_np_sf_ni_00030_009.cvc.smt2
90594fd537fb1337a5fd2d76e1c99bcf QF_AUFLIA/storecomm/storecomm_invalid_t3_np_sf_ni_00040_002.cvc.smt2
98b3359d3c2a628b90c87ef94dc3a9af QF_AUFLIA/storecomm/storecomm_invalid_t3_np_sf_ni_00040_004.cvc.smt2
db1fe3bc191457e1142e15e964a502a0 QF_AUFLIA/storecomm/storecomm_invalid_t3_np_sf_ni_00040_006.cvc.smt2
be964c98c03784b273c6228eaeea38b2 QF_AUFLIA/storecomm/storecomm_invalid_t3_np_sf_ni_00040_007.cvc.smt2
e973b718147f12683fc4b0bd243076c5 QF_AUFLIA/storecomm/storecomm_invalid_t3_np_sf_ni_00040_008.cvc.smt2
82299135a83bc9b25b4b09b2adf316cc QF_AUFLIA/storecomm/storecomm_invalid_t3_np_sf_ni_00040_009.cvc.smt2
4e20fb2ecb617e6d786cadde71b5164b QF_AUFLIA/storecomm/storecomm_invalid_t3_np_sf_ni_00050_001.cvc.smt2
e8bdf98190117cff7afd9ccb87259910 QF_AUFLIA/storecomm/storecomm_invalid_t3_np_sf_ni_00050_002.cvc.smt2
0be49acf0202eeb6d6cc59b6562fb542 QF_AUFLIA/storecomm/storecomm_invalid_t3_np_sf_ni_00050_004.cvc.smt2
57bfc6f259f7309a497c54a4e98bde9d QF_AUFLIA/storecomm/storecomm_invalid_t3_np_sf_ni_00050_005.cvc.smt2
28565b4c642614b0f5bd8c37662d5b92 QF_AUFLIA/storecomm/storecomm_invalid_t3_np_sf_ni_00050_006.cvc.smt2
30a15094c906396dae3f7518e8c275c0 QF_AUFLIA/storecomm/storecomm_invalid_t3_np_sf_ni_00050_007.cvc.smt2
cbf8739ebd412d93f4d573a193baf100 QF_AUFLIA/storecomm/storecomm_invalid_t3_np_sf_ni_00060_001.cvc.smt2
10b572b79edc5d1a79f187637001c749 QF_AUFLIA/storecomm/storecomm_invalid_t3_np_sf_ni_00060_003.cvc.smt2
d72a83b0436abb14fe01c8f0492e482e QF_AUFLIA/storecomm/storecomm_invalid_t3_np_sf_ni_00060_006.cvc.smt2
d6e7b50ad0a8f914b3e3a077e1bc4081 QF_AUFLIA/storecomm/storecomm_invalid_t3_np_sf_ni_00060_007.cvc.smt2
2d4b1bf5e2ca1d1fe5841bd5c159c108 QF_AUFLIA/storecomm/storecomm_invalid_t3_pp_nf_ai_00010_003.cvc.smt2
9b60f6a3660a05dfec371b1bdd03e7ad QF_AUFLIA/storecomm/storecomm_invalid_t3_pp_nf_ai_00010_005.cvc.smt2
f2c60051b691adf55e4cd9e53fe942af QF_AUFLIA/storecomm/storecomm_invalid_t3_pp_nf_ai_00010_006.cvc.smt2
bacd7e427d7a66e648575167f7d9895c QF_AUFLIA/storecomm/storecomm_invalid_t3_pp_nf_ai_00010_008.cvc.smt2
573e44f9424366617ae270c8b65e3a14 QF_AUFLIA/storecomm/storecomm_invalid_t3_pp_nf_ai_00020_003.cvc.smt2
9a85bf28ff4383ca8042f85cce7cb790 QF_AUFLIA/storecomm/storecomm_invalid_t3_pp_nf_ai_00020_004.cvc.smt2
186b0c087b4b2f4f7621f87abb67908e QF_AUFLIA/storecomm/storecomm_invalid_t3_pp_nf_ai_00020_006.cvc.smt2
abde6514000f0310c70bd3ade98bc12d QF_AUFLIA/storecomm/storecomm_invalid_t3_pp_nf_ai_00020_007.cvc.smt2
4ca55f68b0f8cae8a3066226e4dad200 QF_AUFLIA/storecomm/storecomm_invalid_t3_pp_nf_ai_00020_008.cvc.smt2
c2a4900c7fd1e5e7f43a1b8780542ff7 QF_AUFLIA/storecomm/storecomm_invalid_t3_pp_nf_ai_00030_001.cvc.smt2
f4ef95a2b28f0d6a50f825155049af3d QF_AUFLIA/storecomm/storecomm_invalid_t3_pp_nf_ai_00030_004.cvc.smt2
0dfab75ca71ea027839dfb1da15032ac QF_AUFLIA/storecomm/storecomm_invalid_t3_pp_nf_ai_00030_005.cvc.smt2
9673e59fa3958f34dde71b1a99862b02 QF_AUFLIA/storecomm/storecomm_invalid_t3_pp_nf_ai_00030_007.cvc.smt2
510398b771d478a1578bc5c66e812fdd QF_AUFLIA/storecomm/storecomm_invalid_t3_pp_nf_ai_00040_001.cvc.smt2
00ddcc9a4634bdbb7df4ab4d9e1b66c5 QF_AUFLIA/storecomm/storecomm_invalid_t3_pp_nf_ai_00040_002.cvc.smt2
015e460ac2006d79e82fa89445bb23c4 QF_AUFLIA/storecomm/storecomm_invalid_t3_pp_nf_ai_00040_005.cvc.smt2
981e02b665ed18d44785bc9ed6cb763a QF_AUFLIA/storecomm/storecomm_invalid_t3_pp_nf_ai_00040_006.cvc.smt2
dc7cbd47639226c36498d011ea150f20 QF_AUFLIA/storecomm/storecomm_invalid_t3_pp_nf_ai_00040_007.cvc.smt2
e0e447bf401d47381cf26e02c967fd29 QF_AUFLIA/storecomm/storecomm_invalid_t3_pp_nf_ai_00050_002.cvc.smt2
0b2d4410e6b7e89fd8f2ed27f5ecc112 QF_AUFLIA/storecomm/storecomm_invalid_t3_pp_nf_ai_00050_003.cvc.smt2
180485a5f5dc108fa05c53639579fd78 QF_AUFLIA/storecomm/storecomm_invalid_t3_pp_nf_ai_00050_006.cvc.smt2
49244b6d28f92a24fb25d14ef036255d QF_AUFLIA/storecomm/storecomm_invalid_t3_pp_nf_ai_00060_001.cvc.smt2
4959225e4cad54cc6e9fa5bd67b7321e QF_AUFLIA/storecomm/storecomm_invalid_t3_pp_nf_ai_00060_002.cvc.smt2
bf4f7468f3ec58ec733bf94fb9aa7ba0 QF_AUFLIA/storecomm/storecomm_invalid_t3_pp_nf_ai_00060_004.cvc.smt2
8594d1cf037b8368a930d908cbe50e09 QF_AUFLIA/storecomm/storecomm_invalid_t3_pp_nf_ai_00060_006.cvc.smt2
acf71824bdfc1c82b41690ab3b3fe2aa QF_AUFLIA/storecomm/storecomm_invalid_t3_pp_nf_ai_00060_009.cvc.smt2
34783d02ea9b5be73d471ee28f60fabb QF_AUFLIA/storecomm/storecomm_invalid_t3_pp_nf_ni_00010_001.cvc.smt2
f9a95341edd0c18d5ffff22b8307c333 QF_AUFLIA/storecomm/storecomm_invalid_t3_pp_nf_ni_00010_005.cvc.smt2
1e328ce5a639bd68293941d3e977a47a QF_AUFLIA/storecomm/storecomm_invalid_t3_pp_nf_ni_00010_007.cvc.smt2
83a790ac3e7e4e5551b982d24a2f713c QF_AUFLIA/storecomm/storecomm_invalid_t3_pp_nf_ni_00010_009.cvc.smt2
0bbb8149043260329f27cb9bddb3ac6c QF_AUFLIA/storecomm/storecomm_invalid_t3_pp_nf_ni_00020_001.cvc.smt2
aaf19980e4897c24ca6a2ba4f71775ec QF_AUFLIA/storecomm/storecomm_invalid_t3_pp_nf_ni_00020_004.cvc.smt2
5432866a06f94c1515094a78b46c6839 QF_AUFLIA/storecomm/storecomm_invalid_t3_pp_nf_ni_00020_005.cvc.smt2
f8b200ac54103a6ec24ff01094304bbf QF_AUFLIA/storecomm/storecomm_invalid_t3_pp_nf_ni_00020_009.cvc.smt2
d2e9a94092d9442833db1219f0948e58 QF_AUFLIA/storecomm/storecomm_invalid_t3_pp_nf_ni_00030_001.cvc.smt2
e75fe2fbfb863d24a81b59fc92cf04dc QF_AUFLIA/storecomm/storecomm_invalid_t3_pp_nf_ni_00030_003.cvc.smt2
a0f4bf97456c759f3bbf136c751e746b QF_AUFLIA/storecomm/storecomm_invalid_t3_pp_nf_ni_00030_005.cvc.smt2
0e6d85c323d9a2456a8fcfa001b9785a QF_AUFLIA/storecomm/storecomm_invalid_t3_pp_nf_ni_00030_006.cvc.smt2
a87bfd0c39e120aa1612aaa643aac72e QF_AUFLIA/storecomm/storecomm_invalid_t3_pp_nf_ni_00030_009.cvc.smt2
9977207f2208aa78bb5d69f99af0563c QF_AUFLIA/storecomm/storecomm_invalid_t3_pp_nf_ni_00040_001.cvc.smt2
a28312dee09018c69464d5bb8f93f5eb QF_AUFLIA/storecomm/storecomm_invalid_t3_pp_nf_ni_00040_002.cvc.smt2
cf76feb0e4b5e3bcd3cfbdb27b9cb4e7 QF_AUFLIA/storecomm/storecomm_invalid_t3_pp_nf_ni_00040_003.cvc.smt2
f4d33c6dae6f7a127b0ea247e0c25f35 QF_AUFLIA/storecomm/storecomm_invalid_t3_pp_nf_ni_00040_006.cvc.smt2
a325f169cc441131cad639d2d048e9ac QF_AUFLIA/storecomm/storecomm_invalid_t3_pp_nf_ni_00050_001.cvc.smt2
1cfdd308b55814510d1982fdfea98647 QF_AUFLIA/storecomm/storecomm_invalid_t3_pp_nf_ni_00050_002.cvc.smt2
cca705b981aaa5d65f5595d84ec38062 QF_AUFLIA/storecomm/storecomm_invalid_t3_pp_nf_ni_00050_004.cvc.smt2
c9c140083ba6b86f7fea7319d9b4ed4a QF_AUFLIA/storecomm/storecomm_invalid_t3_pp_nf_ni_00060_001.cvc.smt2
54ecbbcc37c0a2a49867ed4c75d07e36 QF_AUFLIA/storecomm/storecomm_invalid_t3_pp_nf_ni_00060_002.cvc.smt2
bf0fdbac48e0f4c37dcc3996e2137879 QF_AUFLIA/storecomm/storecomm_invalid_t3_pp_nf_ni_00060_006.cvc.smt2
034267c43c7db62f8264bb9da367caf2 QF_AUFLIA/storecomm/storecomm_invalid_t3_pp_nf_ni_00060_009.cvc.smt2
66cf93976551a5a6c1cd3bd00c6b145a QF_AUFLIA/storecomm/storecomm_invalid_t3_pp_sf_ai_00010_002.cvc.smt2
38f7e260d2ae36355abefa24a76f2df5 QF_AUFLIA/storecomm/storecomm_invalid_t3_pp_sf_ai_00010_003.cvc.smt2
33abd6b699669336008ba0a2e59d8267 QF_AUFLIA/storecomm/storecomm_invalid_t3_pp_sf_ai_00010_004.cvc.smt2
118b9663009ea8263e2ec5a789896b38 QF_AUFLIA/storecomm/storecomm_invalid_t3_pp_sf_ai_00010_005.cvc.smt2
8b2c9747b851097de29907b2cd4f6525 QF_AUFLIA/storecomm/storecomm_invalid_t3_pp_sf_ai_00010_006.cvc.smt2
0af4b736a2707601eb2952921ed70f8d QF_AUFLIA/storecomm/storecomm_invalid_t3_pp_sf_ai_00010_009.cvc.smt2
a22ca667ca40a1c53e6ca0e750daa93f QF_AUFLIA/storecomm/storecomm_invalid_t3_pp_sf_ai_00020_003.cvc.smt2
fb14d3c6e691effd7e3a5a791964b676 QF_AUFLIA/storecomm/storecomm_invalid_t3_pp_sf_ai_00020_004.cvc.smt2
8536169dd9d241c2483d2f5c7dc35c81 QF_AUFLIA/storecomm/storecomm_invalid_t3_pp_sf_ai_00020_008.cvc.smt2
1e6fba007715a7017a4e6f17cc0334a8 QF_AUFLIA/storecomm/storecomm_invalid_t3_pp_sf_ai_00030_001.cvc.smt2
d55c8ad88887b920ed253a67357cf278 QF_AUFLIA/storecomm/storecomm_invalid_t3_pp_sf_ai_00030_002.cvc.smt2
f87460346e2a1d0d0e377940d1c73666 QF_AUFLIA/storecomm/storecomm_invalid_t3_pp_sf_ai_00030_003.cvc.smt2
463e608784c00dd554fdc0a5fe4f61b7 QF_AUFLIA/storecomm/storecomm_invalid_t3_pp_sf_ai_00030_006.cvc.smt2
08ad8c461b74070da5ebb6d6074e5ff3 QF_AUFLIA/storecomm/storecomm_invalid_t3_pp_sf_ai_00030_007.cvc.smt2
b519c32428d070315dc418459bbd2a51 QF_AUFLIA/storecomm/storecomm_invalid_t3_pp_sf_ai_00030_008.cvc.smt2
52643348cf521c63e16461108bae8391 QF_AUFLIA/storecomm/storecomm_invalid_t3_pp_sf_ai_00040_001.cvc.smt2
3c2469c2c23bd32a9ff1f35b53c77232 QF_AUFLIA/storecomm/storecomm_invalid_t3_pp_sf_ai_00040_002.cvc.smt2
b715096c87ea033de568eafdfb7e47aa QF_AUFLIA/storecomm/storecomm_invalid_t3_pp_sf_ai_00040_006.cvc.smt2
11b69b290e8411fd68a9a50f13e38405 QF_AUFLIA/storecomm/storecomm_invalid_t3_pp_sf_ai_00040_007.cvc.smt2
ec1ff8c44350463ac8928862fcacc89e QF_AUFLIA/storecomm/storecomm_invalid_t3_pp_sf_ai_00040_008.cvc.smt2
e42520198b30a99c4f569b457f5f16b1 QF_AUFLIA/storecomm/storecomm_invalid_t3_pp_sf_ai_00040_009.cvc.smt2
48fc2d26f60ac3481534c5bfd72febc9 QF_AUFLIA/storecomm/storecomm_invalid_t3_pp_sf_ai_00050_001.cvc.smt2
541b6396b746643684862a49bfc9af6a QF_AUFLIA/storecomm/storecomm_invalid_t3_pp_sf_ai_00050_002.cvc.smt2
649562c9abace653a3549f0147ea068d QF_AUFLIA/storecomm/storecomm_invalid_t3_pp_sf_ai_00050_004.cvc.smt2
cd9b175d754cf9227c5b483d64d05f9e QF_AUFLIA/storecomm/storecomm_invalid_t3_pp_sf_ai_00050_006.cvc.smt2
10330783c4366d77b356e904f2fb0cf8 QF_AUFLIA/storecomm/storecomm_invalid_t3_pp_sf_ai_00050_007.cvc.smt2
f621156a54ac4d0c8736ba72ca93fed3 QF_AUFLIA/storecomm/storecomm_invalid_t3_pp_sf_ai_00050_008.cvc.smt2
3b45150635fcae1f24642bcfd70d703a QF_AUFLIA/storecomm/storecomm_invalid_t3_pp_sf_ai_00060_002.cvc.smt2
241504cdb1bff48cdbe33da3e300dc1f QF_AUFLIA/storecomm/storecomm_invalid_t3_pp_sf_ai_00060_004.cvc.smt2
0674676e368f3c08ef8756581cfedcc3 QF_AUFLIA/storecomm/storecomm_invalid_t3_pp_sf_ai_00060_005.cvc.smt2
b1aa87c4b0d15616fe0b4afaab465c59 QF_AUFLIA/storecomm/storecomm_invalid_t3_pp_sf_ai_00060_006.cvc.smt2
ed799a315060a6c787b81b0592688bf6 QF_AUFLIA/storecomm/storecomm_invalid_t3_pp_sf_ai_00060_007.cvc.smt2
2b761352f2521ed5e1fd28d1d3786647 QF_AUFLIA/storecomm/storecomm_invalid_t3_pp_sf_ni_00010_002.cvc.smt2
bc683ce9863d9ae59dd1dc566c2c7f0b QF_AUFLIA/storecomm/storecomm_invalid_t3_pp_sf_ni_00010_006.cvc.smt2
2c40816a64cca8f6f4747e8c00ec84be QF_AUFLIA/storecomm/storecomm_invalid_t3_pp_sf_ni_00010_007.cvc.smt2
f0b9e66c0e1fdaacd258c0b0a1fc583f QF_AUFLIA/storecomm/storecomm_invalid_t3_pp_sf_ni_00010_008.cvc.smt2
9c904df76858fbfbde5e00a15cc32478 QF_AUFLIA/storecomm/storecomm_invalid_t3_pp_sf_ni_00020_001.cvc.smt2
63627d02ee5fcd4310cac4454aaeea6e QF_AUFLIA/storecomm/storecomm_invalid_t3_pp_sf_ni_00020_006.cvc.smt2
7636250a288110be9ad0216604ba9d32 QF_AUFLIA/storecomm/storecomm_invalid_t3_pp_sf_ni_00020_007.cvc.smt2
392aba5dc5ac2de102f571d76e83710a QF_AUFLIA/storecomm/storecomm_invalid_t3_pp_sf_ni_00030_002.cvc.smt2
d98929ac7feabeebab0aae7246c01d45 QF_AUFLIA/storecomm/storecomm_invalid_t3_pp_sf_ni_00030_004.cvc.smt2
ed32f1119411c585e194c246e3528840 QF_AUFLIA/storecomm/storecomm_invalid_t3_pp_sf_ni_00030_006.cvc.smt2
b4db8de5051fee16940bbce2bf5ac5d0 QF_AUFLIA/storecomm/storecomm_invalid_t3_pp_sf_ni_00030_009.cvc.smt2
432fc0d41397ed204ac08760b108c0bb QF_AUFLIA/storecomm/storecomm_invalid_t3_pp_sf_ni_00040_004.cvc.smt2
381620c6888732a142df3b6a7e4cf829 QF_AUFLIA/storecomm/storecomm_invalid_t3_pp_sf_ni_00040_005.cvc.smt2
b87bec7e44aec73c43e2eabb7066bb81 QF_AUFLIA/storecomm/storecomm_invalid_t3_pp_sf_ni_00040_006.cvc.smt2
d1f555b3651ab7c96fb5011b40ee4f98 QF_AUFLIA/storecomm/storecomm_invalid_t3_pp_sf_ni_00050_003.cvc.smt2
75a719ee9ce8d29407b33e21af5569b2 QF_AUFLIA/storecomm/storecomm_invalid_t3_pp_sf_ni_00050_004.cvc.smt2
532d855f9a6f78c04428153fc950878d QF_AUFLIA/storecomm/storecomm_invalid_t3_pp_sf_ni_00050_009.cvc.smt2
83211700e51fdb4286bf124453057c3c QF_AUFLIA/storecomm/storecomm_invalid_t3_pp_sf_ni_00060_003.cvc.smt2
2716ced021814b5b6b80bfa9c516da5e QF_AUFLIA/storecomm/storecomm_invalid_t3_pp_sf_ni_00060_004.cvc.smt2
3f71da95362baff0846bf3b8877465fd QF_AUFLIA/storecomm/storecomm_invalid_t3_pp_sf_ni_00060_006.cvc.smt2
7cfde753ee002bf99945e19e3e651287 QF_AUFLIA/storecomm/storecomm_invalid_t3_pp_sf_ni_00060_007.cvc.smt2
dbafa757789dd2fb438eea1a266f57e0 QF_AUFLIA/storecomm/storecomm_invalid_t3_pp_sf_ni_00060_008.cvc.smt2
99fe93beec67bd00bfbb761bbb5c7429 QF_AUFLIA/storecomm/storecomm_invalid_t3_pp_sf_ni_00060_009.cvc.smt2
9f6e9c19407177fdcdce5a4f561cb20d QF_AUFLIA/storecomm/storecomm_t1_np_nf_ni_00020_004.cvc.smt2
b21dc1c17a309bc18c090f2334c03905 QF_AUFLIA/storecomm/storecomm_t1_np_nf_ni_00020_005.cvc.smt2
ed4837e65a571a213f36179cd5df3c75 QF_AUFLIA/storecomm/storecomm_t1_np_nf_ni_00020_009.cvc.smt2
9e4221c548b3eef202978a0bbee86284 QF_AUFLIA/storecomm/storecomm_t1_np_nf_ni_00030_002.cvc.smt2
c45b0f75aa0389841633bbc3f2fc7c25 QF_AUFLIA/storecomm/storecomm_t1_np_nf_ni_00030_007.cvc.smt2
114a7b3766ed1e037f76aadd81773a80 QF_AUFLIA/storecomm/storecomm_t1_np_nf_ni_00040_003.cvc.smt2
97d79bc394d0c14f6c27b70f7e23a3b6 QF_AUFLIA/storecomm/storecomm_t1_np_nf_ni_00040_004.cvc.smt2
2e2f55c5255bd6c07d9b7eb79623cf9c QF_AUFLIA/storecomm/storecomm_t1_np_nf_ni_00040_007.cvc.smt2
ac01b68177fe3d6ebcecd7bbd468e667 QF_AUFLIA/storecomm/storecomm_t1_np_nf_ni_00050_001.cvc.smt2
6f7d0a04100a2b62cda0252664a17a32 QF_AUFLIA/storecomm/storecomm_t1_np_nf_ni_00050_004.cvc.smt2
19de252dcca9e1048d6adbc949aef2dd QF_AUFLIA/storecomm/storecomm_t1_np_nf_ni_00050_009.cvc.smt2
a5aa37aeebb19befff45896db42ca328 QF_AUFLIA/storecomm/storecomm_t1_np_sf_ni_00010_005.cvc.smt2
02bde889305b95135e4685907965cec7 QF_AUFLIA/storecomm/storecomm_t1_np_sf_ni_00010_007.cvc.smt2
090720735ac6fe93f397eb9653d01206 QF_AUFLIA/storecomm/storecomm_t1_np_sf_ni_00010_009.cvc.smt2
c4c1f57108b68b9faaa406ac42040169 QF_AUFLIA/storecomm/storecomm_t1_np_sf_ni_00020_001.cvc.smt2
2ee6106e1011f61c956f8343e799773a QF_AUFLIA/storecomm/storecomm_t1_np_sf_ni_00020_002.cvc.smt2
d42ec277e9ac62e8a33efb864d1fab5e QF_AUFLIA/storecomm/storecomm_t1_np_sf_ni_00020_003.cvc.smt2
b202b4ae3eecd222f40339eb15ffb8e8 QF_AUFLIA/storecomm/storecomm_t1_np_sf_ni_00020_005.cvc.smt2
112dd4f478188f8a576e87e50c578828 QF_AUFLIA/storecomm/storecomm_t1_np_sf_ni_00020_006.cvc.smt2
70ce9708872c82ed4fed3e5f420e6820 QF_AUFLIA/storecomm/storecomm_t1_np_sf_ni_00030_001.cvc.smt2
cb077e635adb74453e2b289b2a78c83d QF_AUFLIA/storecomm/storecomm_t1_np_sf_ni_00030_004.cvc.smt2
9940a3f78deee3ca7204f5a1fc19c44d QF_AUFLIA/storecomm/storecomm_t1_np_sf_ni_00030_005.cvc.smt2
e289243263513072cc8c9c9c6843c78e QF_AUFLIA/storecomm/storecomm_t1_np_sf_ni_00030_006.cvc.smt2
a53b1bc583dd93f1f853c763ec3de7a6 QF_AUFLIA/storecomm/storecomm_t1_np_sf_ni_00040_003.cvc.smt2
5d46e794c6cf91541b89d150f8bef33d QF_AUFLIA/storecomm/storecomm_t1_np_sf_ni_00040_006.cvc.smt2
1f51b0ba70bb6bbb81cfb35fe51fb392 QF_AUFLIA/storecomm/storecomm_t1_np_sf_ni_00040_009.cvc.smt2
295bffa4d15c7397150702bf85e2cab4 QF_AUFLIA/storecomm/storecomm_t1_np_sf_ni_00050_008.cvc.smt2
f9386cd1e7048799cea6a38ce51c740a QF_AUFLIA/storecomm/storecomm_t1_np_sf_ni_00060_001.cvc.smt2
de5d8b4b2717e5582a4ec040597518ca QF_AUFLIA/storecomm/storecomm_t1_np_sf_ni_00060_005.cvc.smt2
24dec0eef7bcc83de3542c7b6e54b113 QF_AUFLIA/storecomm/storecomm_t1_np_sf_ni_00060_006.cvc.smt2
b269a39d905705d84f182f7c8d950010 QF_AUFLIA/storecomm/storecomm_t1_pp_nf_ai_00010_002.cvc.smt2
5ec0e459b7c9e72b81fb029bce2c19f7 QF_AUFLIA/storecomm/storecomm_t1_pp_nf_ai_00010_004.cvc.smt2
059f4c8cfb5dea2c0b8b213f3b44558a QF_AUFLIA/storecomm/storecomm_t1_pp_nf_ai_00010_009.cvc.smt2
e7626c5435bfb3d00eaca2aeabc919e7 QF_AUFLIA/storecomm/storecomm_t1_pp_nf_ai_00020_002.cvc.smt2
07095e13ea687633eb0f3cb438d576d7 QF_AUFLIA/storecomm/storecomm_t1_pp_nf_ai_00020_003.cvc.smt2
5b71b79f49edfca8aa9a8fe7ad4cd7e1 QF_AUFLIA/storecomm/storecomm_t1_pp_nf_ai_00020_006.cvc.smt2
be550fe6ba182a3dfbeea4ff4fd63e5c QF_AUFLIA/storecomm/storecomm_t1_pp_nf_ai_00030_001.cvc.smt2
f8c68155809b8baa370200924f891bf6 QF_AUFLIA/storecomm/storecomm_t1_pp_nf_ai_00030_002.cvc.smt2
9928411088a72762777917e0ba9d1d41 QF_AUFLIA/storecomm/storecomm_t1_pp_nf_ai_00030_003.cvc.smt2
22544fdf11ef9f413b2738bd4d6601fe QF_AUFLIA/storecomm/storecomm_t1_pp_nf_ai_00030_004.cvc.smt2
ddd9f319dd546615898509348d919a11 QF_AUFLIA/storecomm/storecomm_t1_pp_nf_ai_00030_006.cvc.smt2
d02f2bb6a1923ededdf69cdea0490e60 QF_AUFLIA/storecomm/storecomm_t1_pp_nf_ai_00030_008.cvc.smt2
2b84e62131a5f6cea3cdf4fdd309aa04 QF_AUFLIA/storecomm/storecomm_t1_pp_nf_ai_00040_003.cvc.smt2
745c673224c92865e3a2bbc4ac0228e4 QF_AUFLIA/storecomm/storecomm_t1_pp_nf_ai_00040_004.cvc.smt2
3f47907a307b91a95e06f0519dd5afec QF_AUFLIA/storecomm/storecomm_t1_pp_nf_ai_00040_005.cvc.smt2
ed88719575eacbf3bc181ae620687e58 QF_AUFLIA/storecomm/storecomm_t1_pp_nf_ai_00040_006.cvc.smt2
1f365d7de1c83d51388d3388b87fe69f QF_AUFLIA/storecomm/storecomm_t1_pp_nf_ai_00040_008.cvc.smt2
206f759c0f376eff112ee95c3adfb059 QF_AUFLIA/storecomm/storecomm_t1_pp_nf_ai_00050_004.cvc.smt2
e060c875a6e260274a6824712f849776 QF_AUFLIA/storecomm/storecomm_t1_pp_nf_ai_00050_009.cvc.smt2
2c07a3987d6f92963e088e881392486e QF_AUFLIA/storecomm/storecomm_t1_pp_nf_ai_00060_002.cvc.smt2
9bc3d28d0012cf30a6c532eb69a2fb20 QF_AUFLIA/storecomm/storecomm_t1_pp_nf_ai_00060_005.cvc.smt2
b51a8593dd2bcc33fb8bab1824c941c3 QF_AUFLIA/storecomm/storecomm_t1_pp_nf_ai_00060_008.cvc.smt2
efea5d9b4d4a429bdc50dabc83fcc3e4 QF_AUFLIA/storecomm/storecomm_t1_pp_nf_ai_00060_009.cvc.smt2
c52c70cc453429065a0cedb0e8dec2d6 QF_AUFLIA/storecomm/storecomm_t1_pp_nf_ni_00010_001.cvc.smt2
0a667ce4eb7038879c2306aa3f88c790 QF_AUFLIA/storecomm/storecomm_t1_pp_nf_ni_00010_004.cvc.smt2
9fd0e57bcb696f3761c6ca1d48b26b53 QF_AUFLIA/storecomm/storecomm_t1_pp_nf_ni_00010_005.cvc.smt2
48323c4252ea5a650c72a1f3fefe8a82 QF_AUFLIA/storecomm/storecomm_t1_pp_nf_ni_00010_006.cvc.smt2
ede51f32f829e556d582cf661d55da56 QF_AUFLIA/storecomm/storecomm_t1_pp_nf_ni_00010_008.cvc.smt2
c9d2dc6fcaa6dc67fa394019de6d3be8 QF_AUFLIA/storecomm/storecomm_t1_pp_nf_ni_00020_001.cvc.smt2
eef61b0c277de45b29d9fc82104478df QF_AUFLIA/storecomm/storecomm_t1_pp_nf_ni_00020_003.cvc.smt2
864858a60d23d12de92ddb92b62dc71b QF_AUFLIA/storecomm/storecomm_t1_pp_nf_ni_00020_005.cvc.smt2
0688634eb3ec0a25bdfff9c4a0f485e8 QF_AUFLIA/storecomm/storecomm_t1_pp_nf_ni_00020_006.cvc.smt2
d9d2cb864f73f69f4f1de8a8853443f1 QF_AUFLIA/storecomm/storecomm_t1_pp_nf_ni_00020_008.cvc.smt2
f6d51011027db83a4c86e10c223316de QF_AUFLIA/storecomm/storecomm_t1_pp_nf_ni_00020_009.cvc.smt2
4a049bfaa90a04803ec2695cc820bc1d QF_AUFLIA/storecomm/storecomm_t1_pp_nf_ni_00030_001.cvc.smt2
8eb79506dca04886eeaeda9d0230b1d1 QF_AUFLIA/storecomm/storecomm_t1_pp_nf_ni_00030_002.cvc.smt2
2a743496dc2624e08131399573cb4f28 QF_AUFLIA/storecomm/storecomm_t1_pp_nf_ni_00030_004.cvc.smt2
1198accfbb579a90714cdbf9da2fb621 QF_AUFLIA/storecomm/storecomm_t1_pp_nf_ni_00030_009.cvc.smt2
7dd1e365a0758129beb6375fe74cf85b QF_AUFLIA/storecomm/storecomm_t1_pp_nf_ni_00040_001.cvc.smt2
81ebf7313b010916a66754591f7ff4b2 QF_AUFLIA/storecomm/storecomm_t1_pp_nf_ni_00040_002.cvc.smt2
b20e2fe30bf7d3a8c333a59ba6efc3c4 QF_AUFLIA/storecomm/storecomm_t1_pp_nf_ni_00040_003.cvc.smt2
58a183c740ac3014b73114b889c7438b QF_AUFLIA/storecomm/storecomm_t1_pp_nf_ni_00040_004.cvc.smt2
18f2736de7927dc30786011f4ff634c5 QF_AUFLIA/storecomm/storecomm_t1_pp_nf_ni_00040_005.cvc.smt2
71d5ca438cc5eb0e7b6fa90448b037e5 QF_AUFLIA/storecomm/storecomm_t1_pp_nf_ni_00040_006.cvc.smt2
71948abb98b769800e1641c5ed2109de QF_AUFLIA/storecomm/storecomm_t1_pp_nf_ni_00040_008.cvc.smt2
479681f3600cb951eee9f9fa2a433c28 QF_AUFLIA/storecomm/storecomm_t1_pp_nf_ni_00050_001.cvc.smt2
0a6a0233f6d16c48dfb5f10a9ca338e5 QF_AUFLIA/storecomm/storecomm_t1_pp_nf_ni_00050_002.cvc.smt2
f8a574b1d703977195058dfeb38d5ebe QF_AUFLIA/storecomm/storecomm_t1_pp_nf_ni_00050_003.cvc.smt2
73a9389dc444fcc19a8500ccd70d24d0 QF_AUFLIA/storecomm/storecomm_t1_pp_nf_ni_00050_005.cvc.smt2
2a4b5bd7299dbd537b56eeaa05620505 QF_AUFLIA/storecomm/storecomm_t1_pp_nf_ni_00050_006.cvc.smt2
dd99d46747875ea95285f08628ca8b04 QF_AUFLIA/storecomm/storecomm_t1_pp_nf_ni_00050_007.cvc.smt2
0834f20ccebc77436b0680985df05bcd QF_AUFLIA/storecomm/storecomm_t1_pp_nf_ni_00050_008.cvc.smt2
67a84187db3074d4fbcf89507b4273a9 QF_AUFLIA/storecomm/storecomm_t1_pp_nf_ni_00060_002.cvc.smt2
ed6fdf3a73f1cf8df67b9ec6e436f234 QF_AUFLIA/storecomm/storecomm_t1_pp_nf_ni_00060_005.cvc.smt2
239047cde42b2ffd0155e6276bd4726b QF_AUFLIA/storecomm/storecomm_t1_pp_nf_ni_00060_006.cvc.smt2
e33a7a0d8b77a08a2ebb78326ce8d6b0 QF_AUFLIA/storecomm/storecomm_t1_pp_nf_ni_00060_007.cvc.smt2
e0325fb2dfb7994561b296ba3f9ee300 QF_AUFLIA/storecomm/storecomm_t1_pp_nf_ni_00060_008.cvc.smt2
2fccf01fe9e28da1840af2c0f8df797e QF_AUFLIA/storecomm/storecomm_t1_pp_nf_ni_00060_009.cvc.smt2
27d49a3e435f15b4696801088efe9467 QF_AUFLIA/storecomm/storecomm_t1_pp_sf_ai_00010_003.cvc.smt2
bd88fc12ddeb7ad9bed905f8b9375340 QF_AUFLIA/storecomm/storecomm_t1_pp_sf_ai_00010_004.cvc.smt2
a297f4ec6d5603c485f336a5841b948f QF_AUFLIA/storecomm/storecomm_t1_pp_sf_ai_00010_006.cvc.smt2
dc1eb51e41f20853a307c5b1ddef230c QF_AUFLIA/storecomm/storecomm_t1_pp_sf_ai_00010_007.cvc.smt2
884acae0ca945c296f54a3989a5c4067 QF_AUFLIA/storecomm/storecomm_t1_pp_sf_ai_00010_008.cvc.smt2
249ab8e4600e58cc81ffdc9d8ebe52a0 QF_AUFLIA/storecomm/storecomm_t1_pp_sf_ai_00010_009.cvc.smt2
18b2145e17470ac03ff27c62f7068f24 QF_AUFLIA/storecomm/storecomm_t1_pp_sf_ai_00020_002.cvc.smt2
8f84318978b14f2c08cca2ad2c2002d5 QF_AUFLIA/storecomm/storecomm_t1_pp_sf_ai_00020_003.cvc.smt2
499cb22bd7a2176bf6979b2a369a6eac QF_AUFLIA/storecomm/storecomm_t1_pp_sf_ai_00020_006.cvc.smt2
5cd000212cb3e5d90b158751fee61d2a QF_AUFLIA/storecomm/storecomm_t1_pp_sf_ai_00020_009.cvc.smt2
5a4256c65f992a73cd4fff15f6a480a3 QF_AUFLIA/storecomm/storecomm_t1_pp_sf_ai_00030_004.cvc.smt2
45165a6e05c3fb159458f99e6c1c4749 QF_AUFLIA/storecomm/storecomm_t1_pp_sf_ai_00030_005.cvc.smt2
ce134e78193368a24f2345f7c7de7887 QF_AUFLIA/storecomm/storecomm_t1_pp_sf_ai_00030_007.cvc.smt2
0e97fefc8544d27b7aa2bd6e82256c6b QF_AUFLIA/storecomm/storecomm_t1_pp_sf_ai_00030_009.cvc.smt2
5495f24e8191113861edccef63b33c01 QF_AUFLIA/storecomm/storecomm_t1_pp_sf_ai_00040_001.cvc.smt2
e4091eb75b33ca189351a7db0bfccf38 QF_AUFLIA/storecomm/storecomm_t1_pp_sf_ai_00040_002.cvc.smt2
583781d591e17566daa0355585220853 QF_AUFLIA/storecomm/storecomm_t1_pp_sf_ai_00040_003.cvc.smt2
ee659f07a7bde0b96c06a2952a90b543 QF_AUFLIA/storecomm/storecomm_t1_pp_sf_ai_00040_005.cvc.smt2
18c24992398e6a20cdb9e907e51a70f0 QF_AUFLIA/storecomm/storecomm_t1_pp_sf_ai_00050_005.cvc.smt2
e50f5992a19fd7fc7d0d842b4f9333a0 QF_AUFLIA/storecomm/storecomm_t1_pp_sf_ai_00050_006.cvc.smt2
ba5f1770938138a546203d5dc7df64c2 QF_AUFLIA/storecomm/storecomm_t1_pp_sf_ai_00050_009.cvc.smt2
8cb1347e63b49e64ef4acbcf7e406102 QF_AUFLIA/storecomm/storecomm_t1_pp_sf_ai_00060_001.cvc.smt2
5c353407508dc268516c5981e6ffcc56 QF_AUFLIA/storecomm/storecomm_t1_pp_sf_ai_00060_002.cvc.smt2
5521e016b084de78cda30152173575af QF_AUFLIA/storecomm/storecomm_t1_pp_sf_ai_00060_004.cvc.smt2
89fd28b59e668b3588bee645507939ea QF_AUFLIA/storecomm/storecomm_t1_pp_sf_ai_00060_006.cvc.smt2
c32202494111d900ab523f0defb78632 QF_AUFLIA/storecomm/storecomm_t1_pp_sf_ai_00060_007.cvc.smt2
ab71edfa28622b9633466fb02b86449b QF_AUFLIA/storecomm/storecomm_t1_pp_sf_ai_00060_008.cvc.smt2
9d64f289ab7e9f31a7734e2475073546 QF_AUFLIA/storecomm/storecomm_t1_pp_sf_ai_00060_009.cvc.smt2
263285f5bd7851de51f51ba6c010bfc1 QF_AUFLIA/storecomm/storecomm_t1_pp_sf_ni_00010_002.cvc.smt2
caccfdb89acab80233944db63efca3b0 QF_AUFLIA/storecomm/storecomm_t1_pp_sf_ni_00010_004.cvc.smt2
7b8bd8deb02fc4461b13d07c0359f1b3 QF_AUFLIA/storecomm/storecomm_t1_pp_sf_ni_00010_007.cvc.smt2
401985a527d2698862aaed8d0e71aa88 QF_AUFLIA/storecomm/storecomm_t1_pp_sf_ni_00020_001.cvc.smt2
e1d5eb26e3593b04359eae16cde9dccc QF_AUFLIA/storecomm/storecomm_t1_pp_sf_ni_00020_002.cvc.smt2
1516a5fc9570a4fc9fe6f0a297d537bb QF_AUFLIA/storecomm/storecomm_t1_pp_sf_ni_00020_003.cvc.smt2
1cee8ad0750f54da4de2d9d5d27dbe2f QF_AUFLIA/storecomm/storecomm_t1_pp_sf_ni_00020_005.cvc.smt2
c6698a57f45561caf08ab042b7859ab6 QF_AUFLIA/storecomm/storecomm_t1_pp_sf_ni_00020_009.cvc.smt2
743e23c4b9fadd93e5e9bf0ac646e60c QF_AUFLIA/storecomm/storecomm_t1_pp_sf_ni_00030_002.cvc.smt2
ef3cfefa8b30b77bfae366785c95dd0e QF_AUFLIA/storecomm/storecomm_t1_pp_sf_ni_00030_004.cvc.smt2
2a04aa2b4d58b52c12f9215fbbea0f2d QF_AUFLIA/storecomm/storecomm_t1_pp_sf_ni_00030_005.cvc.smt2
d5293739d522f59ae32f05ccace2eab4 QF_AUFLIA/storecomm/storecomm_t1_pp_sf_ni_00030_006.cvc.smt2
3e71fc543b709f0fb348ba5e13c54534 QF_AUFLIA/storecomm/storecomm_t1_pp_sf_ni_00030_007.cvc.smt2
638697d30dbdfb574c7e228c748d6b50 QF_AUFLIA/storecomm/storecomm_t1_pp_sf_ni_00030_008.cvc.smt2
7513a9c1e7a8cd5dc112aa5aee887668 QF_AUFLIA/storecomm/storecomm_t1_pp_sf_ni_00040_004.cvc.smt2
9a22e266b8576217634e822c54248ac8 QF_AUFLIA/storecomm/storecomm_t1_pp_sf_ni_00040_006.cvc.smt2
96a616fee8307c733868918f1ada0b63 QF_AUFLIA/storecomm/storecomm_t1_pp_sf_ni_00050_003.cvc.smt2
c7fc8c11f318537bb9d62ac4525143e1 QF_AUFLIA/storecomm/storecomm_t1_pp_sf_ni_00050_004.cvc.smt2
a57530fc430ff5f08cd3eabf7ba387cc QF_AUFLIA/storecomm/storecomm_t1_pp_sf_ni_00050_007.cvc.smt2
3edacc2555630f956cea218ce911eb8a QF_AUFLIA/storecomm/storecomm_t1_pp_sf_ni_00060_001.cvc.smt2
c3f4368f0e548a5acfd0bdabd8d65f41 QF_AUFLIA/storecomm/storecomm_t1_pp_sf_ni_00060_002.cvc.smt2
b4c9778dc5212159bb5a716e088829bc QF_AUFLIA/storecomm/storecomm_t1_pp_sf_ni_00060_003.cvc.smt2
6d02a413ebff7029af3166d8944480e5 QF_AUFLIA/storecomm/storecomm_t1_pp_sf_ni_00060_004.cvc.smt2
a1d5d9ec4260d8a51c41014f1e9b6521 QF_AUFLIA/storecomm/storecomm_t1_pp_sf_ni_00060_005.cvc.smt2
a3f8677eccbcf0f830f79845f6256a56 QF_AUFLIA/storecomm/storecomm_t1_pp_sf_ni_00060_006.cvc.smt2
8429bced051c8ae49a8bf011a2375b14 QF_AUFLIA/storecomm/storecomm_t1_pp_sf_ni_00060_009.cvc.smt2
751e355abee8731c48b127c7150ee83f QF_AUFLIA/storecomm/storecomm_t2_np_nf_ni_00010_001.cvc.smt2
40a11764627251ebafddbd5d4f98d80c QF_AUFLIA/storecomm/storecomm_t2_np_nf_ni_00010_003.cvc.smt2
93e0cfeac57eb20f42e40361bcfbd461 QF_AUFLIA/storecomm/storecomm_t2_np_nf_ni_00010_004.cvc.smt2
57375ed847a7ff40cf5db57b9c5c6a8c QF_AUFLIA/storecomm/storecomm_t2_np_nf_ni_00010_008.cvc.smt2
2e2e049ecdf2ded6bf65e7098d298816 QF_AUFLIA/storecomm/storecomm_t2_np_nf_ni_00010_009.cvc.smt2
f02f6b718aea0b4805bda10188db439b QF_AUFLIA/storecomm/storecomm_t2_np_nf_ni_00020_001.cvc.smt2
79dc592c802da3df7439066972372699 QF_AUFLIA/storecomm/storecomm_t2_np_nf_ni_00020_003.cvc.smt2
3ea43b2aa579baf1d62028ace8522cd2 QF_AUFLIA/storecomm/storecomm_t2_np_nf_ni_00030_001.cvc.smt2
183d9c53e10d33cba2262c7de5444812 QF_AUFLIA/storecomm/storecomm_t2_np_nf_ni_00030_006.cvc.smt2
1fdc3624481a2751de266388de860551 QF_AUFLIA/storecomm/storecomm_t2_np_nf_ni_00030_008.cvc.smt2
cdd246955290a777e572cb8a95f99400 QF_AUFLIA/storecomm/storecomm_t2_np_nf_ni_00040_002.cvc.smt2
8249a674773dbcb0bb38ce1989298f6f QF_AUFLIA/storecomm/storecomm_t2_np_nf_ni_00040_005.cvc.smt2
88f755e31420faad1205f2dd09534817 QF_AUFLIA/storecomm/storecomm_t2_np_nf_ni_00040_006.cvc.smt2
face8cbaade269c478b686277bafb771 QF_AUFLIA/storecomm/storecomm_t2_np_nf_ni_00050_005.cvc.smt2
8a2922841b9324ec7f8337ef82e4fbdd QF_AUFLIA/storecomm/storecomm_t2_np_nf_ni_00050_007.cvc.smt2
2e6808912a461ce86b3a0b082bfbe78a QF_AUFLIA/storecomm/storecomm_t2_np_nf_ni_00050_008.cvc.smt2
882249c4f9945cb41b1c4e85694da8ca QF_AUFLIA/storecomm/storecomm_t2_np_nf_ni_00060_002.cvc.smt2
869ef423a048315bc58c43bcbe5c6b03 QF_AUFLIA/storecomm/storecomm_t2_np_nf_ni_00060_005.cvc.smt2
3ba0f9acaf0ef245b300f47d546e3a87 QF_AUFLIA/storecomm/storecomm_t2_np_nf_ni_00060_006.cvc.smt2
8b56978d7c63be1a84b2c5270efd7586 QF_AUFLIA/storecomm/storecomm_t2_np_nf_ni_00060_007.cvc.smt2
2f34afa969c7f72ba366f6eb3cddba6d QF_AUFLIA/storecomm/storecomm_t2_np_nf_ni_00060_009.cvc.smt2
6ec5863cd0aa39489fafb3ba2e628d6e QF_AUFLIA/storecomm/storecomm_t2_np_sf_ni_00010_006.cvc.smt2
e96b3fa031f630d6038f8c18997f8ad0 QF_AUFLIA/storecomm/storecomm_t2_np_sf_ni_00010_008.cvc.smt2
509034fa9d113b92ef7e5ba8d174f21f QF_AUFLIA/storecomm/storecomm_t2_np_sf_ni_00020_004.cvc.smt2
6a74aad38dc2668042ae3e06153b93ae QF_AUFLIA/storecomm/storecomm_t2_np_sf_ni_00020_008.cvc.smt2
68e5b089899b2bff778d127ed1317231 QF_AUFLIA/storecomm/storecomm_t2_np_sf_ni_00020_009.cvc.smt2
dba1cafb91c464d1a6027696f04781c3 QF_AUFLIA/storecomm/storecomm_t2_np_sf_ni_00030_002.cvc.smt2
3b7c3a7d2417f1d835383241a4b610dd QF_AUFLIA/storecomm/storecomm_t2_np_sf_ni_00030_007.cvc.smt2
a0296a2659780e869ba8895ec2565e70 QF_AUFLIA/storecomm/storecomm_t2_np_sf_ni_00030_008.cvc.smt2
5c4d0573232927550c07c16b2245bc3a QF_AUFLIA/storecomm/storecomm_t2_np_sf_ni_00040_001.cvc.smt2
5a3f4f319faf6c7b1f446e11721b5ce9 QF_AUFLIA/storecomm/storecomm_t2_np_sf_ni_00040_002.cvc.smt2
55f89b7609f6247a6b6d84a652728188 QF_AUFLIA/storecomm/storecomm_t2_np_sf_ni_00040_004.cvc.smt2
b94aef5e7f0fa41a4aa8c4b400ecc2a4 QF_AUFLIA/storecomm/storecomm_t2_np_sf_ni_00040_005.cvc.smt2
8be07229e74e5c1d2c749e8ca3c77ab6 QF_AUFLIA/storecomm/storecomm_t2_np_sf_ni_00040_008.cvc.smt2
0860ec3b1c0977986bb84d77be9d9aca QF_AUFLIA/storecomm/storecomm_t2_np_sf_ni_00050_002.cvc.smt2
913cec107f765e87d9ff3c06ac8ed7da QF_AUFLIA/storecomm/storecomm_t2_np_sf_ni_00050_003.cvc.smt2
eb324b2b2baed33230c514d26fde6753 QF_AUFLIA/storecomm/storecomm_t2_np_sf_ni_00050_004.cvc.smt2
7219d2b60d2a482239b4e0757ec8e31b QF_AUFLIA/storecomm/storecomm_t2_np_sf_ni_00050_006.cvc.smt2
25a390cd37c2ab2797403a514593fabd QF_AUFLIA/storecomm/storecomm_t2_np_sf_ni_00050_007.cvc.smt2
d305a4754a20203e73c29f5fce87b0f1 QF_AUFLIA/storecomm/storecomm_t2_np_sf_ni_00060_003.cvc.smt2
1523baebde184af2d7f81fd205e0a5bb QF_AUFLIA/storecomm/storecomm_t2_np_sf_ni_00060_007.cvc.smt2
027f6e1bd66ca83323be4d492bab3949 QF_AUFLIA/storecomm/storecomm_t2_np_sf_ni_00060_009.cvc.smt2
fd70129e5cfe5bfa5191be5bb19db6d3 QF_AUFLIA/storecomm/storecomm_t3_np_nf_ni_00010_002.cvc.smt2
e5f6054936b5e00e0c5e189ebd3527fc QF_AUFLIA/storecomm/storecomm_t3_np_nf_ni_00010_005.cvc.smt2
6b4f036a30fb3c57270f48c0ed42b130 QF_AUFLIA/storecomm/storecomm_t3_np_nf_ni_00010_006.cvc.smt2
120577e717d3b262c464d9857a118057 QF_AUFLIA/storecomm/storecomm_t3_np_nf_ni_00010_007.cvc.smt2
3052d5d22adcaee185b72c6204fa3fbe QF_AUFLIA/storecomm/storecomm_t3_np_nf_ni_00020_002.cvc.smt2
861ce6804b76ff12deb0ca38fb357bd5 QF_AUFLIA/storecomm/storecomm_t3_np_nf_ni_00020_006.cvc.smt2
ec9a3d398e336ade4cbf82369b002431 QF_AUFLIA/storecomm/storecomm_t3_np_nf_ni_00020_007.cvc.smt2
95490082a87c564cd32b31ea80bc96eb QF_AUFLIA/storecomm/storecomm_t3_np_nf_ni_00020_008.cvc.smt2
aafaa0166bfd6d2bec70591cd7c68e02 QF_AUFLIA/storecomm/storecomm_t3_np_nf_ni_00030_003.cvc.smt2
c4df40efbba82f99b8d446a5c72c060c QF_AUFLIA/storecomm/storecomm_t3_np_nf_ni_00030_004.cvc.smt2
1a3889d00e47f00a95aa6bc44b0e7a62 QF_AUFLIA/storecomm/storecomm_t3_np_nf_ni_00030_005.cvc.smt2
ccaee5a0baa04749d0e419badb4423a3 QF_AUFLIA/storecomm/storecomm_t3_np_nf_ni_00030_009.cvc.smt2
86ed53da0efec531d5259684d1bf8b8b QF_AUFLIA/storecomm/storecomm_t3_np_nf_ni_00040_001.cvc.smt2
a367a16c47bd44f5bb2a772e19147ad6 QF_AUFLIA/storecomm/storecomm_t3_np_nf_ni_00040_008.cvc.smt2
a14c7d9fb8462a8a6eb0118b90b4b07d QF_AUFLIA/storecomm/storecomm_t3_np_nf_ni_00040_009.cvc.smt2
69f560dea25735144d09d143d52e5b84 QF_AUFLIA/storecomm/storecomm_t3_np_nf_ni_00050_002.cvc.smt2
c23aee465519994f304aeb091811403d QF_AUFLIA/storecomm/storecomm_t3_np_nf_ni_00050_003.cvc.smt2
fdf312bb727ff45265359252bca167c2 QF_AUFLIA/storecomm/storecomm_t3_np_nf_ni_00050_006.cvc.smt2
54ce4b8d5b7f85924ca8b0db789a38eb QF_AUFLIA/storecomm/storecomm_t3_np_nf_ni_00060_001.cvc.smt2
cc31591e92b65103e42907bb83d57104 QF_AUFLIA/storecomm/storecomm_t3_np_nf_ni_00060_003.cvc.smt2
d10f647912b012bcbe178197747ec5ec QF_AUFLIA/storecomm/storecomm_t3_np_nf_ni_00060_004.cvc.smt2
203badbc28780ae38184c7ebcb87ed6d QF_AUFLIA/storecomm/storecomm_t3_np_nf_ni_00060_008.cvc.smt2
5132dd999833b1532de13de0a7d35d93 QF_AUFLIA/storecomm/storecomm_t3_np_sf_ni_00010_001.cvc.smt2
532cb8502bdb0df3376d6b6edb728ac6 QF_AUFLIA/storecomm/storecomm_t3_np_sf_ni_00010_002.cvc.smt2
4d3b47bbde0e8c1c922af4fa864a867f QF_AUFLIA/storecomm/storecomm_t3_np_sf_ni_00010_003.cvc.smt2
b4f737aac05757521687ad17984524a6 QF_AUFLIA/storecomm/storecomm_t3_np_sf_ni_00010_004.cvc.smt2
da01460764d599d32c90bf5559545685 QF_AUFLIA/storecomm/storecomm_t3_np_sf_ni_00020_007.cvc.smt2
bf5319edd2e7b61832f7af30c03942d7 QF_AUFLIA/storecomm/storecomm_t3_np_sf_ni_00030_003.cvc.smt2
afcf8735333883fcc4efeda0267f104e QF_AUFLIA/storecomm/storecomm_t3_np_sf_ni_00030_009.cvc.smt2
b9b3db6c96ad64d093476969eace28cd QF_AUFLIA/storecomm/storecomm_t3_np_sf_ni_00040_007.cvc.smt2
f463e12db8122474be0680cb38d09c93 QF_AUFLIA/storecomm/storecomm_t3_np_sf_ni_00050_001.cvc.smt2
1c2b7971d459941ad4cc281625a5cda9 QF_AUFLIA/storecomm/storecomm_t3_np_sf_ni_00050_005.cvc.smt2
0a18b4129d6369a2339ff9c93d3a83bd QF_AUFLIA/storecomm/storecomm_t3_np_sf_ni_00050_009.cvc.smt2
806ff90991d57fec671b301bfdcbdea1 QF_AUFLIA/storecomm/storecomm_t3_np_sf_ni_00060_002.cvc.smt2
f701376a90df4c0ba880843c69ad5e4c QF_AUFLIA/storecomm/storecomm_t3_np_sf_ni_00060_004.cvc.smt2
981d1c5a2e4eb07f810be11f7a81519c QF_AUFLIA/storecomm/storecomm_t3_np_sf_ni_00060_008.cvc.smt2
b03cd6c8ce453eaae8ecbfb732c99671 QF_AUFLIA/storecomm/storecomm_t3_pp_nf_ai_00010_001.cvc.smt2
07adbabbfb4ed6e254c7b88853d5a587 QF_AUFLIA/storecomm/storecomm_t3_pp_nf_ai_00010_003.cvc.smt2
6bcd71fa80acbec8033958225a8408f7 QF_AUFLIA/storecomm/storecomm_t3_pp_nf_ai_00010_005.cvc.smt2
347869e8297a93a681c26de705a7e01e QF_AUFLIA/storecomm/storecomm_t3_pp_nf_ai_00010_006.cvc.smt2
c6ccc0189d92f3c70cd8c70bc4901690 QF_AUFLIA/storecomm/storecomm_t3_pp_nf_ai_00010_007.cvc.smt2
450f62a875fa7a0422bf6050b50b1e23 QF_AUFLIA/storecomm/storecomm_t3_pp_nf_ai_00010_008.cvc.smt2
685c6d97c76cab577b9d5f3920afc0af QF_AUFLIA/storecomm/storecomm_t3_pp_nf_ai_00020_001.cvc.smt2
a4539dce7c982efb61429024c4bef674 QF_AUFLIA/storecomm/storecomm_t3_pp_nf_ai_00020_004.cvc.smt2
60972c8d90e63070ddc515bd519da1e7 QF_AUFLIA/storecomm/storecomm_t3_pp_nf_ai_00020_005.cvc.smt2
3503d4164ac7f948e85c3dc283b5d5d4 QF_AUFLIA/storecomm/storecomm_t3_pp_nf_ai_00020_007.cvc.smt2
e9787edb30ea3b41ef1f1a0caffeb412 QF_AUFLIA/storecomm/storecomm_t3_pp_nf_ai_00020_008.cvc.smt2
a494c67e96f39b5607e95a4572ac5565 QF_AUFLIA/storecomm/storecomm_t3_pp_nf_ai_00020_009.cvc.smt2
efa18aec6db41cb7f64abc41ba9627c0 QF_AUFLIA/storecomm/storecomm_t3_pp_nf_ai_00030_005.cvc.smt2
e4f6598922838cfd26cd4d9ea4297662 QF_AUFLIA/storecomm/storecomm_t3_pp_nf_ai_00030_007.cvc.smt2
635106aac8bb3d97e6cdb15aebeb5b79 QF_AUFLIA/storecomm/storecomm_t3_pp_nf_ai_00030_009.cvc.smt2
3202902f3b3d98359ea682949748d751 QF_AUFLIA/storecomm/storecomm_t3_pp_nf_ai_00040_001.cvc.smt2
8817184456075e633e12e97f05db0252 QF_AUFLIA/storecomm/storecomm_t3_pp_nf_ai_00040_002.cvc.smt2
11b5f45f3814f2d715f1823855c09b8f QF_AUFLIA/storecomm/storecomm_t3_pp_nf_ai_00040_007.cvc.smt2
5067f00f4a5c4bdf19fb82378b94d373 QF_AUFLIA/storecomm/storecomm_t3_pp_nf_ai_00040_009.cvc.smt2
75d6513a84370586612980599dfb5aab QF_AUFLIA/storecomm/storecomm_t3_pp_nf_ai_00050_001.cvc.smt2
10c316e9fd7a175bef02da8fe10d9cf6 QF_AUFLIA/storecomm/storecomm_t3_pp_nf_ai_00050_002.cvc.smt2
4bc7b4e56263deb1f59513785e01ca7c QF_AUFLIA/storecomm/storecomm_t3_pp_nf_ai_00050_003.cvc.smt2
8e232f06c92f98fe06233370de23d584 QF_AUFLIA/storecomm/storecomm_t3_pp_nf_ai_00050_005.cvc.smt2
a99283b9e6900f6d7cfead03f7a14cb9 QF_AUFLIA/storecomm/storecomm_t3_pp_nf_ai_00050_006.cvc.smt2
ac26d2083b574c30d7de7e1c789fc87a QF_AUFLIA/storecomm/storecomm_t3_pp_nf_ai_00050_007.cvc.smt2
3b1e5104503532311648308e549d6774 QF_AUFLIA/storecomm/storecomm_t3_pp_nf_ai_00050_008.cvc.smt2
c1e044cf094214f63cddc09ec9d9885b QF_AUFLIA/storecomm/storecomm_t3_pp_nf_ai_00060_001.cvc.smt2
739da5763866777812819f9f6e46b7b8 QF_AUFLIA/storecomm/storecomm_t3_pp_nf_ai_00060_003.cvc.smt2
955eab781fd22715bde24452d770d957 QF_AUFLIA/storecomm/storecomm_t3_pp_nf_ai_00060_004.cvc.smt2
5a9a5d888689d84a57c1e0ce84b65c1c QF_AUFLIA/storecomm/storecomm_t3_pp_nf_ai_00060_006.cvc.smt2
5e03127ba26af07da6527d6d6670c51a QF_AUFLIA/storecomm/storecomm_t3_pp_nf_ai_00060_007.cvc.smt2
e068a3e10611e45c49cb2bcc2101b9a4 QF_AUFLIA/storecomm/storecomm_t3_pp_nf_ni_00010_002.cvc.smt2
dbf0ac2abf95e7603c4fd80fc666d3d2 QF_AUFLIA/storecomm/storecomm_t3_pp_nf_ni_00010_003.cvc.smt2
bc592fdfd0a0c575c4368e8253a062d8 QF_AUFLIA/storecomm/storecomm_t3_pp_nf_ni_00010_007.cvc.smt2
af765e4bfcc8dbfb8102e49ae748670d QF_AUFLIA/storecomm/storecomm_t3_pp_nf_ni_00010_009.cvc.smt2
4136fb318fadf5fcd5a4bbeb764d0874 QF_AUFLIA/storecomm/storecomm_t3_pp_nf_ni_00020_002.cvc.smt2
93c621b49863004f0d7de2deb9d3dceb QF_AUFLIA/storecomm/storecomm_t3_pp_nf_ni_00020_004.cvc.smt2
99a15329a502c3e852ed26344c4aef9e QF_AUFLIA/storecomm/storecomm_t3_pp_nf_ni_00020_007.cvc.smt2
9e54d1ae3901100b72fc070bc89f94d8 QF_AUFLIA/storecomm/storecomm_t3_pp_nf_ni_00030_003.cvc.smt2
f7e9c76b9a58830a1f60c97b452d5ba0 QF_AUFLIA/storecomm/storecomm_t3_pp_nf_ni_00030_005.cvc.smt2
42cad22f499443aeda8dfb8286b1916f QF_AUFLIA/storecomm/storecomm_t3_pp_nf_ni_00030_006.cvc.smt2
ab560c560d4675f587e8428c63da4bf1 QF_AUFLIA/storecomm/storecomm_t3_pp_nf_ni_00030_007.cvc.smt2
a39c47bc47911c04ffdbe4fe4696203b QF_AUFLIA/storecomm/storecomm_t3_pp_nf_ni_00030_008.cvc.smt2
f62f0dcbe5f298efce6e37f88976887b QF_AUFLIA/storecomm/storecomm_t3_pp_nf_ni_00040_007.cvc.smt2
c706d003ab5ee4e371a6d84037a1880d QF_AUFLIA/storecomm/storecomm_t3_pp_nf_ni_00040_009.cvc.smt2
09e4980d157402cbf352cc7995744d4d QF_AUFLIA/storecomm/storecomm_t3_pp_nf_ni_00050_004.cvc.smt2
77c9973928df315b3659917886f6b878 QF_AUFLIA/storecomm/storecomm_t3_pp_nf_ni_00050_009.cvc.smt2
3398097d9dfc4b00a1fee0d3dc2155a3 QF_AUFLIA/storecomm/storecomm_t3_pp_nf_ni_00060_001.cvc.smt2
e6cb32de59b27b959e4490213ce0f559 QF_AUFLIA/storecomm/storecomm_t3_pp_nf_ni_00060_003.cvc.smt2
b844cc3b36d26a0983447eed2eccfaf6 QF_AUFLIA/storecomm/storecomm_t3_pp_nf_ni_00060_004.cvc.smt2
d3f9d57207031809eecc49a7bf55afb8 QF_AUFLIA/storecomm/storecomm_t3_pp_sf_ai_00010_001.cvc.smt2
40dfc522cbaf3e27507d0d7dd2b38e5d QF_AUFLIA/storecomm/storecomm_t3_pp_sf_ai_00010_002.cvc.smt2
de1db617259ea776eed26d692698d81a QF_AUFLIA/storecomm/storecomm_t3_pp_sf_ai_00010_005.cvc.smt2
389b18235574f71a4a5f7302f7e06f2b QF_AUFLIA/storecomm/storecomm_t3_pp_sf_ai_00020_001.cvc.smt2
0b164e932bbe3507dc77c7a4c978335c QF_AUFLIA/storecomm/storecomm_t3_pp_sf_ai_00020_004.cvc.smt2
6cd9f2ce981fe622d003400aa9ab8047 QF_AUFLIA/storecomm/storecomm_t3_pp_sf_ai_00020_005.cvc.smt2
e3ffbdc7a034baa72dfbab449d989eb3 QF_AUFLIA/storecomm/storecomm_t3_pp_sf_ai_00020_007.cvc.smt2
73f8b63f7306f6e87bd5d8a25c560f20 QF_AUFLIA/storecomm/storecomm_t3_pp_sf_ai_00020_008.cvc.smt2
c5dd9d34230c9c338683978f20d7eb98 QF_AUFLIA/storecomm/storecomm_t3_pp_sf_ai_00030_001.cvc.smt2
4beb9c918bc6f73391d0ca8f398ad97a QF_AUFLIA/storecomm/storecomm_t3_pp_sf_ai_00030_002.cvc.smt2
3966e5fe4686c15efe013851c29027df QF_AUFLIA/storecomm/storecomm_t3_pp_sf_ai_00030_003.cvc.smt2
79e882b1be6b975dc76aa88237e57f22 QF_AUFLIA/storecomm/storecomm_t3_pp_sf_ai_00030_006.cvc.smt2
d7029fff670cb70276b4b0c03e8acadf QF_AUFLIA/storecomm/storecomm_t3_pp_sf_ai_00030_008.cvc.smt2
66c44fb75242c4e44c2b7bedd05a42a4 QF_AUFLIA/storecomm/storecomm_t3_pp_sf_ai_00040_004.cvc.smt2
15fa1a59bfac876ed4d70cca54b42c7d QF_AUFLIA/storecomm/storecomm_t3_pp_sf_ai_00040_006.cvc.smt2
7e99d9649ac0e6e2b83ea409f644a3e1 QF_AUFLIA/storecomm/storecomm_t3_pp_sf_ai_00040_007.cvc.smt2
60196c5132029b5052264db5aacff649 QF_AUFLIA/storecomm/storecomm_t3_pp_sf_ai_00040_008.cvc.smt2
0d8babedea88042f56d2d77eed726112 QF_AUFLIA/storecomm/storecomm_t3_pp_sf_ai_00040_009.cvc.smt2
e8de84b6bf83291c2a672089e90850df QF_AUFLIA/storecomm/storecomm_t3_pp_sf_ai_00050_001.cvc.smt2
a51e523f57430dce39fbf840c27e5bbb QF_AUFLIA/storecomm/storecomm_t3_pp_sf_ai_00050_002.cvc.smt2
9bf5b86129069dc202b1e59504795d88 QF_AUFLIA/storecomm/storecomm_t3_pp_sf_ai_00050_003.cvc.smt2
856de02be1cfb6aca7087bd38d8c2743 QF_AUFLIA/storecomm/storecomm_t3_pp_sf_ai_00050_004.cvc.smt2
ebc330cb3513a1f6c41cfa76bd6a8f22 QF_AUFLIA/storecomm/storecomm_t3_pp_sf_ai_00050_007.cvc.smt2
40c9156d0e5d18176ef9bf2794af0ba7 QF_AUFLIA/storecomm/storecomm_t3_pp_sf_ai_00050_008.cvc.smt2
2ee1bade65440f90aca3a9ba604df70d QF_AUFLIA/storecomm/storecomm_t3_pp_sf_ai_00060_003.cvc.smt2
1a017112cba98e084816b36f7bc6d0a5 QF_AUFLIA/storecomm/storecomm_t3_pp_sf_ai_00060_005.cvc.smt2
7407510491b13b29ce13609e59385302 QF_AUFLIA/storecomm/storecomm_t3_pp_sf_ni_00010_001.cvc.smt2
88d650f41b9c70279818bca1928a2c17 QF_AUFLIA/storecomm/storecomm_t3_pp_sf_ni_00010_003.cvc.smt2
5cf4123cabdc139e09c25a6e1f305161 QF_AUFLIA/storecomm/storecomm_t3_pp_sf_ni_00010_005.cvc.smt2
59a94681065e9f582a9cf9b1dc2a58dc QF_AUFLIA/storecomm/storecomm_t3_pp_sf_ni_00010_006.cvc.smt2
794da3445530b9479d41fb9e7b3652b9 QF_AUFLIA/storecomm/storecomm_t3_pp_sf_ni_00010_008.cvc.smt2
a3395e9f0eaeac650cd149db6da9e933 QF_AUFLIA/storecomm/storecomm_t3_pp_sf_ni_00010_009.cvc.smt2
97cfd144dfbe53b2db6408212ec69c80 QF_AUFLIA/storecomm/storecomm_t3_pp_sf_ni_00020_004.cvc.smt2
c15c5fd210d71b5e7f9024875c3f658c QF_AUFLIA/storecomm/storecomm_t3_pp_sf_ni_00020_006.cvc.smt2
715a1b3c4e594e14ac90d9132c60aec7 QF_AUFLIA/storecomm/storecomm_t3_pp_sf_ni_00020_007.cvc.smt2
f8fd0bc66a1592ff112fe7a33bc918bc QF_AUFLIA/storecomm/storecomm_t3_pp_sf_ni_00020_008.cvc.smt2
36a77e846656732f243f1d50ac19cfec QF_AUFLIA/storecomm/storecomm_t3_pp_sf_ni_00030_001.cvc.smt2
566823c206fb2c6c3dca7695fb53d104 QF_AUFLIA/storecomm/storecomm_t3_pp_sf_ni_00030_003.cvc.smt2
e3d048437e1723af031b2edaa94c41c6 QF_AUFLIA/storecomm/storecomm_t3_pp_sf_ni_00030_009.cvc.smt2
b0ccf96dcf50a9cc4764d89e114cb844 QF_AUFLIA/storecomm/storecomm_t3_pp_sf_ni_00040_001.cvc.smt2
3d224b7e51916f79e24cf75dd8ec2eae QF_AUFLIA/storecomm/storecomm_t3_pp_sf_ni_00040_002.cvc.smt2
e690ab4358c0df64df3b1f7e558f0d15 QF_AUFLIA/storecomm/storecomm_t3_pp_sf_ni_00040_003.cvc.smt2
f38d1a9516f2e7ae649dd4fed74d20ef QF_AUFLIA/storecomm/storecomm_t3_pp_sf_ni_00040_005.cvc.smt2
9f9afa2a5147acf855fa2da63b08917c QF_AUFLIA/storecomm/storecomm_t3_pp_sf_ni_00040_007.cvc.smt2
862fca4dda964dab97ae4922b46a9580 QF_AUFLIA/storecomm/storecomm_t3_pp_sf_ni_00040_008.cvc.smt2
951699d8109ce1e32a75ac060a1136f9 QF_AUFLIA/storecomm/storecomm_t3_pp_sf_ni_00040_009.cvc.smt2
1b5284d9ff76a378c7be352a3224e40a QF_AUFLIA/storecomm/storecomm_t3_pp_sf_ni_00050_001.cvc.smt2
fbdfa34185845aac2ce61ed4009413f9 QF_AUFLIA/storecomm/storecomm_t3_pp_sf_ni_00050_002.cvc.smt2
efde0fe5cc41a7ac1ac3d095f5ac5cdb QF_AUFLIA/storecomm/storecomm_t3_pp_sf_ni_00050_005.cvc.smt2
a78c3aa0df89cbdb138df27f01bee0d0 QF_AUFLIA/storecomm/storecomm_t3_pp_sf_ni_00050_006.cvc.smt2
f7b7a25b502713ff3a5c37432e8f5868 QF_AUFLIA/storecomm/storecomm_t3_pp_sf_ni_00050_008.cvc.smt2
b59336cf5ef1dd4116d181275775cec9 QF_AUFLIA/storecomm/storecomm_t3_pp_sf_ni_00050_009.cvc.smt2
b3e79a2c6caa89f2c20fee3d7eedffdb QF_AUFLIA/storecomm/storecomm_t3_pp_sf_ni_00060_007.cvc.smt2
eee2f3641a612683bb18b08d64b51e4e QF_AUFLIA/storecomm/storecomm_t3_pp_sf_ni_00060_008.cvc.smt2
01b19d0092a28d77156acdcca1fd96ae QF_AUFLIA/storeinv/storeinv_invalid_t1_pp_nf_ai_00002_001.cvc.smt2
c96e6ca7e194344e7257b1c4ae7862b4 QF_AUFLIA/storeinv/storeinv_invalid_t1_pp_nf_ai_00004_001.cvc.smt2
d334981fca0d33a48a6ba6f19b6dc3f1 QF_AUFLIA/storeinv/storeinv_invalid_t1_pp_nf_ai_00005_001.cvc.smt2
465154cbb4f10c1443ba9d6c1e25f188 QF_AUFLIA/storeinv/storeinv_invalid_t1_pp_nf_ai_00006_001.cvc.smt2
e04b664ec2d88567d5f9fb5060eb27c7 QF_AUFLIA/storeinv/storeinv_invalid_t1_pp_nf_ai_00007_001.cvc.smt2
feca2da2afde4d65c47116797acc4a76 QF_AUFLIA/storeinv/storeinv_invalid_t1_pp_nf_ai_00010_001.cvc.smt2
5c7c3d7327341cef56bd447a7e5ea037 QF_AUFLIA/storeinv/storeinv_invalid_t1_pp_sf_ai_00005_001.cvc.smt2
df753648ad7dce064e17041ab497c29b QF_AUFLIA/storeinv/storeinv_invalid_t1_pp_sf_ai_00006_001.cvc.smt2
f83a583ae64452ae3ab4b8fe0e9f5194 QF_AUFLIA/storeinv/storeinv_invalid_t1_pp_sf_ai_00007_001.cvc.smt2
58237a153c9ddbdaf0c2a9114fe87bac QF_AUFLIA/storeinv/storeinv_invalid_t1_pp_sf_ai_00008_001.cvc.smt2
614aed559aeb7419286eaa5be4fb22af QF_AUFLIA/storeinv/storeinv_invalid_t1_pp_sf_ai_00009_001.cvc.smt2
7469b42dea03d243230bb6cbdd0bb71c QF_AUFLIA/storeinv/storeinv_invalid_t1_pp_sf_ai_00010_001.cvc.smt2
a332c3c5a2358d0cd2c058cb1245a4d2 QF_AUFLIA/storeinv/storeinv_invalid_t3_pp_nf_ai_00003_001.cvc.smt2
d7c4bb34dedbdcc7f4a2f2128d2433e1 QF_AUFLIA/storeinv/storeinv_invalid_t3_pp_nf_ai_00008_001.cvc.smt2
201871cd1c50aa25c9afe069a409d7a2 QF_AUFLIA/storeinv/storeinv_invalid_t3_pp_nf_ai_00009_001.cvc.smt2
7a497de2e2ca3197818dbeb7c09f16d1 QF_AUFLIA/storeinv/storeinv_invalid_t3_pp_sf_ai_00002_001.cvc.smt2
659b8898bc0f6b1586d9a96ad0a80f86 QF_AUFLIA/storeinv/storeinv_invalid_t3_pp_sf_ai_00003_001.cvc.smt2
3014748819a28d8c4e227389f15e6883 QF_AUFLIA/storeinv/storeinv_invalid_t3_pp_sf_ai_00004_001.cvc.smt2
2df60ada1144740632964663f58b1539 QF_AUFLIA/storeinv/storeinv_t1_pp_nf_ai_00001_001.cvc.smt2
ec185bce0ac013e198d53168c460aa69 QF_AUFLIA/storeinv/storeinv_t1_pp_nf_ai_00002_001.cvc.smt2
5cd77e97b6a4d8221bb1ae9a5b8afd71 QF_AUFLIA/storeinv/storeinv_t1_pp_nf_ai_00003_001.cvc.smt2
afc13bd491eea1ecc521b9ce963864cc QF_AUFLIA/storeinv/storeinv_t1_pp_nf_ai_00005_001.cvc.smt2
74e7671890c6db5fb729b670b69fe346 QF_AUFLIA/storeinv/storeinv_t1_pp_nf_ai_00006_001.cvc.smt2
8752e5b1a9cb7205f390763f250767ae QF_AUFLIA/storeinv/storeinv_t1_pp_nf_ai_00009_001.cvc.smt2
a93a9801af79c28755a043781392bf7a QF_AUFLIA/storeinv/storeinv_t1_pp_nf_ai_00010_001.cvc.smt2
03a704a8e4ef1270f98f1da1894afa02 QF_AUFLIA/storeinv/storeinv_t1_pp_sf_ai_00001_001.cvc.smt2
832419af4e93837332ee9411784f94b6 QF_AUFLIA/storeinv/storeinv_t1_pp_sf_ai_00004_001.cvc.smt2
3a42fb85e96e17eca6656a8edbadca0e QF_AUFLIA/storeinv/storeinv_t1_pp_sf_ai_00006_001.cvc.smt2
db774cdfeb42819f1c3939616238f1d2 QF_AUFLIA/storeinv/storeinv_t1_pp_sf_ai_00007_001.cvc.smt2
14d633db11661c9e5072d025353776ed QF_AUFLIA/storeinv/storeinv_t3_pp_nf_ai_00004_001.cvc.smt2
4ee66de6b052176fe459111eafe8ee36 QF_AUFLIA/storeinv/storeinv_t3_pp_nf_ai_00007_001.cvc.smt2
a508810ed98dd25bad454e5d75735376 QF_AUFLIA/storeinv/storeinv_t3_pp_nf_ai_00008_001.cvc.smt2
4826633bfceefd07f1c2e7b73cf927c8 QF_AUFLIA/storeinv/storeinv_t3_pp_sf_ai_00002_001.cvc.smt2
6dcaa5b372660793139e83e2f80b7299 QF_AUFLIA/storeinv/storeinv_t3_pp_sf_ai_00003_001.cvc.smt2
97c0df23c2605457a4258f32b65b0ca6 QF_AUFLIA/storeinv/storeinv_t3_pp_sf_ai_00005_001.cvc.smt2
787adfaa35bb05c68b37d507fa3527c4 QF_AUFLIA/storeinv/storeinv_t3_pp_sf_ai_00008_001.cvc.smt2
6a7b9bd16295378bbb11d2ea73e5209c QF_AUFLIA/storeinv/storeinv_t3_pp_sf_ai_00009_001.cvc.smt2
40d1fb5151ec7bae8006065002fc403e QF_AUFLIA/storeinv/storeinv_t3_pp_sf_ai_00010_001.cvc.smt2
bcd5aa253f5210b12a5c8408bd563939 QF_AUFLIA/swap/swap_invalid_t1_pp_nf_ai_00002_002.cvc.smt2
b9588c04c7bb9a2e816e1eb9ff12b7af QF_AUFLIA/swap/swap_invalid_t1_pp_nf_ai_00002_006.cvc.smt2
b19265f5d4e628ce223d1b7a72580364 QF_AUFLIA/swap/swap_invalid_t1_pp_nf_ai_00002_009.cvc.smt2
523fbad37daa39a130c8441ad16e704a QF_AUFLIA/swap/swap_invalid_t1_pp_nf_ai_00003_001.cvc.smt2
7a84706ad5a14653923a5b7c7f136ed0 QF_AUFLIA/swap/swap_invalid_t1_pp_nf_ai_00003_002.cvc.smt2
9bb38aa042547c9494f17165dba23b7f QF_AUFLIA/swap/swap_invalid_t1_pp_nf_ai_00003_004.cvc.smt2
f0bb99d4d38e68125ca5861595f1cf18 QF_AUFLIA/swap/swap_invalid_t1_pp_nf_ai_00003_006.cvc.smt2
815d3804977ba13b57c957a5f74e294e QF_AUFLIA/swap/swap_invalid_t1_pp_nf_ai_00004_002.cvc.smt2
6dd808e23c99ffa0918673aa06b4c71e QF_AUFLIA/swap/swap_invalid_t1_pp_nf_ai_00004_003.cvc.smt2
3b605bacb7e0f208cff7eea39db2c003 QF_AUFLIA/swap/swap_invalid_t1_pp_nf_ai_00004_005.cvc.smt2
5ee733fe82f85510b577eb0137d986c0 QF_AUFLIA/swap/swap_invalid_t1_pp_nf_ai_00004_006.cvc.smt2
0b24c1b61d120050255b47016d93b6b6 QF_AUFLIA/swap/swap_invalid_t1_pp_nf_ai_00004_007.cvc.smt2
c7203e9d98d047aabf3955cf094289d8 QF_AUFLIA/swap/swap_invalid_t1_pp_nf_ai_00004_009.cvc.smt2
86b9b91f366f64c5e11c6ea6bcc299fc QF_AUFLIA/swap/swap_invalid_t1_pp_nf_ai_00005_002.cvc.smt2
0348f5dbae61e30abd792868b15c3a66 QF_AUFLIA/swap/swap_invalid_t1_pp_nf_ai_00005_003.cvc.smt2
249c5cc22753df65c181d16450746234 QF_AUFLIA/swap/swap_invalid_t1_pp_nf_ai_00005_005.cvc.smt2
2fdd4cc463f5e7e531c54d67ff94fc5d QF_AUFLIA/swap/swap_invalid_t1_pp_nf_ai_00005_007.cvc.smt2
cabcca28566231c2f023958f4ac0344f QF_AUFLIA/swap/swap_invalid_t1_pp_nf_ai_00005_008.cvc.smt2
41e4668618078186fc77d12bda3021e6 QF_AUFLIA/swap/swap_invalid_t1_pp_nf_ai_00005_009.cvc.smt2
97d7662eee815797c8420c894e23a0d6 QF_AUFLIA/swap/swap_invalid_t1_pp_nf_ai_00006_002.cvc.smt2
2d50695567ec893533def64b5d6f9f62 QF_AUFLIA/swap/swap_invalid_t1_pp_nf_ai_00006_005.cvc.smt2
0ed90d33cac55339146ef17a1d0bf3aa QF_AUFLIA/swap/swap_invalid_t1_pp_nf_ai_00006_006.cvc.smt2
bdef11ad02559930de589532978c28a9 QF_AUFLIA/swap/swap_invalid_t1_pp_nf_ai_00006_008.cvc.smt2
5132d22e0aea622fa39c1fa955e9da6d QF_AUFLIA/swap/swap_invalid_t1_pp_nf_ai_00007_002.cvc.smt2
c844cf7f6ba9f4438964c0ec1d491258 QF_AUFLIA/swap/swap_invalid_t1_pp_nf_ai_00007_004.cvc.smt2
af31374e468342f7cae8f9d6aafd24e9 QF_AUFLIA/swap/swap_invalid_t1_pp_nf_ai_00007_006.cvc.smt2
1b89d466ae9d1a0a03303b6e6d0c5f1f QF_AUFLIA/swap/swap_invalid_t1_pp_nf_ai_00007_007.cvc.smt2
3a9126bdbcaa7d6b7d1febfa455027a7 QF_AUFLIA/swap/swap_invalid_t1_pp_nf_ai_00007_008.cvc.smt2
054ab15e952e4096266c70d97143b807 QF_AUFLIA/swap/swap_invalid_t1_pp_nf_ai_00007_009.cvc.smt2
493b8657ba70e342de859effcfa42b3b QF_AUFLIA/swap/swap_invalid_t1_pp_nf_ai_00008_001.cvc.smt2
ccd75137f947fb78303cb324ad4e60f4 QF_AUFLIA/swap/swap_invalid_t1_pp_nf_ai_00008_004.cvc.smt2
c646d703d283366b34312a51dba5729c QF_AUFLIA/swap/swap_invalid_t1_pp_nf_ai_00008_005.cvc.smt2
4b11396c76f816c1e3053af4fc31c79d QF_AUFLIA/swap/swap_invalid_t1_pp_nf_ai_00008_007.cvc.smt2
52400b0671dea12d1599ee3af77d36f8 QF_AUFLIA/swap/swap_invalid_t1_pp_nf_ai_00008_008.cvc.smt2
5ddcfe30f641fff41b1d0b31f97117e8 QF_AUFLIA/swap/swap_invalid_t1_pp_nf_ai_00009_002.cvc.smt2
c4658470d8f79c27df58964985ce9762 QF_AUFLIA/swap/swap_invalid_t1_pp_nf_ai_00009_003.cvc.smt2
d8ee4acbecd7d8555d82b3ab26543f6e QF_AUFLIA/swap/swap_invalid_t1_pp_nf_ai_00009_004.cvc.smt2
b82f27f0fa35517daf3fa26ee4c5f835 QF_AUFLIA/swap/swap_invalid_t1_pp_nf_ai_00009_005.cvc.smt2
41be80c849bb4f815b3fb1c0ac6d615e QF_AUFLIA/swap/swap_invalid_t1_pp_nf_ai_00009_007.cvc.smt2
4ae0df555ff768a20a9f51987b19dbb0 QF_AUFLIA/swap/swap_invalid_t1_pp_nf_ai_00009_009.cvc.smt2
bc97eb5079cdb64eb501c79c7fa4465c QF_AUFLIA/swap/swap_invalid_t1_pp_nf_ai_00010_005.cvc.smt2
fd3e598737c0a9959ebf6e775f62cfe0 QF_AUFLIA/swap/swap_invalid_t1_pp_nf_ai_00010_008.cvc.smt2
8da135094c4b764a0e247facaa07d6bb QF_AUFLIA/swap/swap_invalid_t1_pp_nf_ai_00010_009.cvc.smt2
74fff8b5f9de0ae17921fd290a0c746d QF_AUFLIA/swap/swap_invalid_t1_pp_sf_ai_00002_002.cvc.smt2
32bb6917e09e2bb6471d2c9f43ce2521 QF_AUFLIA/swap/swap_invalid_t1_pp_sf_ai_00002_006.cvc.smt2
9ad411bc1b94a8e7940431f6ea9eff7e QF_AUFLIA/swap/swap_invalid_t1_pp_sf_ai_00002_008.cvc.smt2
6e111c5626da189a64644abc11c363e1 QF_AUFLIA/swap/swap_invalid_t1_pp_sf_ai_00003_008.cvc.smt2
c292a75cc47a9632c721e65704c4b83a QF_AUFLIA/swap/swap_invalid_t1_pp_sf_ai_00004_001.cvc.smt2
13968b66d156e09cf44f19ddc2a2a13b QF_AUFLIA/swap/swap_invalid_t1_pp_sf_ai_00004_004.cvc.smt2
5b4f38337267f3598259ae15a0a60529 QF_AUFLIA/swap/swap_invalid_t1_pp_sf_ai_00004_006.cvc.smt2
7b6160a023c0af0f61499dc8dc5ae278 QF_AUFLIA/swap/swap_invalid_t1_pp_sf_ai_00004_008.cvc.smt2
4bbc349d7bf18025c863e313d0faf178 QF_AUFLIA/swap/swap_invalid_t1_pp_sf_ai_00004_009.cvc.smt2
775c4af26807fa5d96b2f06dd89a62e0 QF_AUFLIA/swap/swap_invalid_t1_pp_sf_ai_00005_001.cvc.smt2
3301ccc4e67c84f18711517e5d361eb7 QF_AUFLIA/swap/swap_invalid_t1_pp_sf_ai_00005_002.cvc.smt2
eff6a8b463a982680a48c5d0a290f3eb QF_AUFLIA/swap/swap_invalid_t1_pp_sf_ai_00005_003.cvc.smt2
6a6a401750d1715f3b740514ef09b5ce QF_AUFLIA/swap/swap_invalid_t1_pp_sf_ai_00005_004.cvc.smt2
658a8c2f528c6cee288c5326c7d4a9b2 QF_AUFLIA/swap/swap_invalid_t1_pp_sf_ai_00005_005.cvc.smt2
a5b5790912cedf72465ed42d20537d12 QF_AUFLIA/swap/swap_invalid_t1_pp_sf_ai_00005_006.cvc.smt2
fb02b233e782a6c1ab88d8daf02558d0 QF_AUFLIA/swap/swap_invalid_t1_pp_sf_ai_00005_007.cvc.smt2
4d0c6a6c76f6197b1e53ccb211f1ed15 QF_AUFLIA/swap/swap_invalid_t1_pp_sf_ai_00005_008.cvc.smt2
7d3167a837af49a8b0ac89288eaaf906 QF_AUFLIA/swap/swap_invalid_t1_pp_sf_ai_00005_009.cvc.smt2
2227cdcffd71f909cc413bca9b7b74b0 QF_AUFLIA/swap/swap_invalid_t1_pp_sf_ai_00006_008.cvc.smt2
03170b1b4fe57de9f1a9e7025124a671 QF_AUFLIA/swap/swap_invalid_t1_pp_sf_ai_00006_009.cvc.smt2
9dc2ece6f792013da5fb5bee0bd007b7 QF_AUFLIA/swap/swap_invalid_t1_pp_sf_ai_00007_002.cvc.smt2
20f729a952fe6a94e2c8662aec228e0f QF_AUFLIA/swap/swap_invalid_t1_pp_sf_ai_00007_003.cvc.smt2
076bfea47ed680f490d78028412e7bee QF_AUFLIA/swap/swap_invalid_t1_pp_sf_ai_00007_004.cvc.smt2
21c2a24a0751094638ec1fa10b8669fd QF_AUFLIA/swap/swap_invalid_t1_pp_sf_ai_00007_005.cvc.smt2
bd9fd315d8d34179c852f512c51c4703 QF_AUFLIA/swap/swap_invalid_t1_pp_sf_ai_00007_006.cvc.smt2
23673b921c8118c810ea61196614f631 QF_AUFLIA/swap/swap_invalid_t1_pp_sf_ai_00007_007.cvc.smt2
50510df9edc5ea6d6a970b9f010b3191 QF_AUFLIA/swap/swap_invalid_t1_pp_sf_ai_00007_008.cvc.smt2
93006d2f3e817357e88d91969c940731 QF_AUFLIA/swap/swap_invalid_t1_pp_sf_ai_00007_009.cvc.smt2
1f63d90edd01df83fbef7ea17800f6c4 QF_AUFLIA/swap/swap_invalid_t1_pp_sf_ai_00008_003.cvc.smt2
9d651bfb623d227ceece9d8acdae60ee QF_AUFLIA/swap/swap_invalid_t1_pp_sf_ai_00008_004.cvc.smt2
ab31a1816902f307ff8afadacf53e7c5 QF_AUFLIA/swap/swap_invalid_t1_pp_sf_ai_00008_005.cvc.smt2
7b6e499eefd64692e7f931c1e692837d QF_AUFLIA/swap/swap_invalid_t1_pp_sf_ai_00008_007.cvc.smt2
c17f5a7fcfe237710d17935debc9744e QF_AUFLIA/swap/swap_invalid_t1_pp_sf_ai_00009_002.cvc.smt2
eee0457b94ac75563be1cb14cfa8a6b7 QF_AUFLIA/swap/swap_invalid_t1_pp_sf_ai_00009_003.cvc.smt2
395a73d6d6f80306e54566a59821b982 QF_AUFLIA/swap/swap_invalid_t1_pp_sf_ai_00009_004.cvc.smt2
ff6c8845e7adf07916cd26f69e826599 QF_AUFLIA/swap/swap_invalid_t1_pp_sf_ai_00009_007.cvc.smt2
04ea520ff733b67da9b02d6baf3fa87b QF_AUFLIA/swap/swap_invalid_t1_pp_sf_ai_00009_008.cvc.smt2
a29e44d274c1351af40afc1637ceef47 QF_AUFLIA/swap/swap_invalid_t1_pp_sf_ai_00010_001.cvc.smt2
47134141fbbf6690b17e51b11ed1e5d4 QF_AUFLIA/swap/swap_invalid_t1_pp_sf_ai_00010_002.cvc.smt2
212528556d20fa47e614550a23f7dc5c QF_AUFLIA/swap/swap_invalid_t1_pp_sf_ai_00010_005.cvc.smt2
00f1266c62e16ac919b4307e1dc998a1 QF_AUFLIA/swap/swap_invalid_t1_pp_sf_ai_00010_008.cvc.smt2
dc9eeba483f99755d1cde1b2865f85d1 QF_AUFLIA/swap/swap_invalid_t3_pp_nf_ai_00002_005.cvc.smt2
656f80d04c3978a0cf88d4daa1c95f9e QF_AUFLIA/swap/swap_invalid_t3_pp_nf_ai_00003_005.cvc.smt2
071ff66813d1434dab0b1eab9c40c91a QF_AUFLIA/swap/swap_invalid_t3_pp_nf_ai_00003_007.cvc.smt2
98e028204e596f261e7d11e8d3e29acb QF_AUFLIA/swap/swap_invalid_t3_pp_nf_ai_00003_008.cvc.smt2
b2b337501246ea7a5c24ed2ccddf4fa1 QF_AUFLIA/swap/swap_invalid_t3_pp_nf_ai_00004_001.cvc.smt2
9260942e4fd8302baf35e4c226535feb QF_AUFLIA/swap/swap_invalid_t3_pp_nf_ai_00004_004.cvc.smt2
07208ad48e2178bd8c81f37193510329 QF_AUFLIA/swap/swap_invalid_t3_pp_nf_ai_00004_008.cvc.smt2
01381978698c5777b05d945b9b4aeef3 QF_AUFLIA/swap/swap_invalid_t3_pp_nf_ai_00005_001.cvc.smt2
599312a946b1ec9c00175f896f5df880 QF_AUFLIA/swap/swap_invalid_t3_pp_nf_ai_00005_004.cvc.smt2
71568eaa313fd29d6b84be24037f032f QF_AUFLIA/swap/swap_invalid_t3_pp_nf_ai_00005_006.cvc.smt2
5b6a304a647d7ba58f0ebbdbbf2d74f5 QF_AUFLIA/swap/swap_invalid_t3_pp_nf_ai_00006_001.cvc.smt2
d486a562f33de5d0ca76fe6a3e29e0da QF_AUFLIA/swap/swap_invalid_t3_pp_nf_ai_00006_003.cvc.smt2
dec175bce11996d7f21d1627340094af QF_AUFLIA/swap/swap_invalid_t3_pp_nf_ai_00006_004.cvc.smt2
9704d97aa8a4121527e3bcf0ad696d2e QF_AUFLIA/swap/swap_invalid_t3_pp_nf_ai_00006_007.cvc.smt2
f17d0b2ffca7e20a51cc0875b20c2dbc QF_AUFLIA/swap/swap_invalid_t3_pp_nf_ai_00006_009.cvc.smt2
92f3ec62f2abe862987d2c389d6844f4 QF_AUFLIA/swap/swap_invalid_t3_pp_nf_ai_00007_001.cvc.smt2
f33ae9394192b95a57a03773566246fa QF_AUFLIA/swap/swap_invalid_t3_pp_nf_ai_00007_003.cvc.smt2
f73df3c0dc517df8cc72802d193b8cc2 QF_AUFLIA/swap/swap_invalid_t3_pp_nf_ai_00007_005.cvc.smt2
70db349f013a0caa2ef83208b6b1af81 QF_AUFLIA/swap/swap_invalid_t3_pp_nf_ai_00008_002.cvc.smt2
6acd0dc3a869f88dbe400f7ccf08a041 QF_AUFLIA/swap/swap_invalid_t3_pp_nf_ai_00008_003.cvc.smt2
c39c02fa91229115821b7862166e83b1 QF_AUFLIA/swap/swap_invalid_t3_pp_nf_ai_00008_006.cvc.smt2
77a20d443bd7cc636c0b783f47e122ca QF_AUFLIA/swap/swap_invalid_t3_pp_nf_ai_00008_009.cvc.smt2
4960e9e252f52ba9a509130a9b6cf6c2 QF_AUFLIA/swap/swap_invalid_t3_pp_nf_ai_00009_001.cvc.smt2
84bb1424a05aeaa635a8c183a99a4efb QF_AUFLIA/swap/swap_invalid_t3_pp_nf_ai_00009_006.cvc.smt2
2a2017c826afe0a99b5fe54c0ac65f88 QF_AUFLIA/swap/swap_invalid_t3_pp_nf_ai_00009_008.cvc.smt2
49c068e090c9d1b1324619d123eeafc0 QF_AUFLIA/swap/swap_invalid_t3_pp_nf_ai_00010_001.cvc.smt2
68e16a68eb4c1de23e3752343752f81a QF_AUFLIA/swap/swap_invalid_t3_pp_nf_ai_00010_002.cvc.smt2
b9794b2da5f9c981fb7a300a5d0199ff QF_AUFLIA/swap/swap_invalid_t3_pp_nf_ai_00010_003.cvc.smt2
2835548ace4e5573c43cc5f45285ae0c QF_AUFLIA/swap/swap_invalid_t3_pp_nf_ai_00010_004.cvc.smt2
7a71772851da9badc7bf8a53fa983142 QF_AUFLIA/swap/swap_invalid_t3_pp_nf_ai_00010_006.cvc.smt2
b839429367934cf59f2b1c4e6b8fa0a8 QF_AUFLIA/swap/swap_invalid_t3_pp_nf_ai_00010_007.cvc.smt2
ed277d7dc53527aeaa5e14b1856d5439 QF_AUFLIA/swap/swap_invalid_t3_pp_sf_ai_00002_005.cvc.smt2
a484769c722ee521348fc3ffe6e9331c QF_AUFLIA/swap/swap_invalid_t3_pp_sf_ai_00002_009.cvc.smt2
bbce9047a90632652be7e64bf151ede0 QF_AUFLIA/swap/swap_invalid_t3_pp_sf_ai_00003_001.cvc.smt2
782f5dd3ad28af09c02fc2b5572ffa5a QF_AUFLIA/swap/swap_invalid_t3_pp_sf_ai_00003_002.cvc.smt2
0945b22a043a29007aec936e3e7d5070 QF_AUFLIA/swap/swap_invalid_t3_pp_sf_ai_00003_004.cvc.smt2
a7b148a1dad181931ad32850d6976eff QF_AUFLIA/swap/swap_invalid_t3_pp_sf_ai_00003_005.cvc.smt2
024fcb17d7a9d1921d668282b1e1982d QF_AUFLIA/swap/swap_invalid_t3_pp_sf_ai_00003_006.cvc.smt2
87cd28d626ecd5275f88a39d70c5d3dd QF_AUFLIA/swap/swap_invalid_t3_pp_sf_ai_00003_007.cvc.smt2
66cf5722abeacba154865931cf433058 QF_AUFLIA/swap/swap_invalid_t3_pp_sf_ai_00004_002.cvc.smt2
2beafa63a4e2f294c8f9e6c83fee4b8c QF_AUFLIA/swap/swap_invalid_t3_pp_sf_ai_00004_003.cvc.smt2
d0b66ddb22491755c3a196039ba38ab0 QF_AUFLIA/swap/swap_invalid_t3_pp_sf_ai_00004_005.cvc.smt2
4df644798d9c0c143b119751cbe91b38 QF_AUFLIA/swap/swap_invalid_t3_pp_sf_ai_00004_007.cvc.smt2
feb69f897bb9aededeffe64fee3f3f51 QF_AUFLIA/swap/swap_invalid_t3_pp_sf_ai_00006_001.cvc.smt2
ac58fc0817a078a5b51a3d268faf4f7a QF_AUFLIA/swap/swap_invalid_t3_pp_sf_ai_00006_002.cvc.smt2
2e642651b433a46908a39d5e1a6b2f50 QF_AUFLIA/swap/swap_invalid_t3_pp_sf_ai_00006_003.cvc.smt2
2c75bdd64d8d0923f45571ab07b51f04 QF_AUFLIA/swap/swap_invalid_t3_pp_sf_ai_00006_004.cvc.smt2
970350f5de358efc45a83e6b50e780d9 QF_AUFLIA/swap/swap_invalid_t3_pp_sf_ai_00006_005.cvc.smt2
4b50e6420657ff7dcc227f023dbd63f1 QF_AUFLIA/swap/swap_invalid_t3_pp_sf_ai_00006_006.cvc.smt2
b856cc3018dcd45f6ee002551986c34f QF_AUFLIA/swap/swap_invalid_t3_pp_sf_ai_00006_007.cvc.smt2
94f3f3b65223a8604158b232e055fde7 QF_AUFLIA/swap/swap_invalid_t3_pp_sf_ai_00007_001.cvc.smt2
6d5e184c27857115ae9077ef26c96e6d QF_AUFLIA/swap/swap_invalid_t3_pp_sf_ai_00008_001.cvc.smt2
a651a9307e28e5b5d8c2eb13e0250834 QF_AUFLIA/swap/swap_invalid_t3_pp_sf_ai_00008_002.cvc.smt2
36ef7a6238a59db19107341b91f88e77 QF_AUFLIA/swap/swap_invalid_t3_pp_sf_ai_00008_006.cvc.smt2
b79ff0aa230ba0d73ebae33703192524 QF_AUFLIA/swap/swap_invalid_t3_pp_sf_ai_00008_008.cvc.smt2
627c2706d7a5a5dae0ab61d374ebf252 QF_AUFLIA/swap/swap_invalid_t3_pp_sf_ai_00008_009.cvc.smt2
049a8ca10f82eea0d5cb83113202f3dd QF_AUFLIA/swap/swap_invalid_t3_pp_sf_ai_00009_001.cvc.smt2
4001fc46e3ba567ea90fe0c8777d78dc QF_AUFLIA/swap/swap_invalid_t3_pp_sf_ai_00009_005.cvc.smt2
84fb3d5047054115b5606a87ae60c8e4 QF_AUFLIA/swap/swap_invalid_t3_pp_sf_ai_00009_006.cvc.smt2
6a9ec4d2181a88162ce265e7e20df131 QF_AUFLIA/swap/swap_invalid_t3_pp_sf_ai_00009_009.cvc.smt2
c1a50f90c38993cc2bde493fd17bc0cd QF_AUFLIA/swap/swap_invalid_t3_pp_sf_ai_00010_003.cvc.smt2
7d48ca2a0a5bda5b5845fffc79e57827 QF_AUFLIA/swap/swap_invalid_t3_pp_sf_ai_00010_004.cvc.smt2
f347405292db94294572ae2f466e3bfb QF_AUFLIA/swap/swap_invalid_t3_pp_sf_ai_00010_006.cvc.smt2
104258cb25e097c604b246fda1a7c0f9 QF_AUFLIA/swap/swap_invalid_t3_pp_sf_ai_00010_007.cvc.smt2
e54eb4291e525be0612c44bfbecbbaa6 QF_AUFLIA/swap/swap_invalid_t3_pp_sf_ai_00010_009.cvc.smt2
5a4b22329e39944e1cd794918335dd82 QF_AUFLIA/swap/swap_t1_pp_nf_ai_00002_001.cvc.smt2
60bb0fd982c9cfb2bcddbcf9ce5dd625 QF_AUFLIA/swap/swap_t1_pp_nf_ai_00002_002.cvc.smt2
71e281db1681b546a54191a477b3b1d9 QF_AUFLIA/swap/swap_t1_pp_nf_ai_00002_003.cvc.smt2
05966660b4d6da9579ee978c6827bece QF_AUFLIA/swap/swap_t1_pp_nf_ai_00002_006.cvc.smt2
4b1eb2376ae89c91f779b250b048ed17 QF_AUFLIA/swap/swap_t1_pp_nf_ai_00003_001.cvc.smt2
d8cad2c20f035ebb1da5f6e3574a341f QF_AUFLIA/swap/swap_t1_pp_nf_ai_00003_003.cvc.smt2
1507b470a0253c4f3b58dffc493ca18a QF_AUFLIA/swap/swap_t1_pp_nf_ai_00003_004.cvc.smt2
9c22dd954e74d115a0a414aeed5b78d6 QF_AUFLIA/swap/swap_t1_pp_nf_ai_00003_007.cvc.smt2
d08711d30a52ddc7fa9e707eeaaae410 QF_AUFLIA/swap/swap_t1_pp_nf_ai_00003_008.cvc.smt2
f450ff693dc9826dbc301294a7dcfaf6 QF_AUFLIA/swap/swap_t1_pp_nf_ai_00004_002.cvc.smt2
dde15daf558de1092e5e8b97cbc81e85 QF_AUFLIA/swap/swap_t1_pp_nf_ai_00004_003.cvc.smt2
90e17c7f2b28501fa0e544dcd996b2ef QF_AUFLIA/swap/swap_t1_pp_nf_ai_00004_004.cvc.smt2
18171a6b1600724c590b26840007d363 QF_AUFLIA/swap/swap_t1_pp_nf_ai_00004_006.cvc.smt2
4289b89ef1bcb9af9db8c6921b5fb1b5 QF_AUFLIA/swap/swap_t1_pp_nf_ai_00005_002.cvc.smt2
f0b2b3d90f32ec0cc7ee02e8c30c1266 QF_AUFLIA/swap/swap_t1_pp_nf_ai_00006_001.cvc.smt2
2146a570938028908787c9b6bcacd7bf QF_AUFLIA/swap/swap_t1_pp_nf_ai_00006_002.cvc.smt2
b0bedbe2d6f36a4326aa7d051909efcc QF_AUFLIA/swap/swap_t1_pp_nf_ai_00006_003.cvc.smt2
8cdfb10dca3896e95bb3596b9c7112c4 QF_AUFLIA/swap/swap_t1_pp_nf_ai_00006_004.cvc.smt2
2cc47d672c1acfbaa4bab7d7434c4f44 QF_AUFLIA/swap/swap_t1_pp_nf_ai_00006_005.cvc.smt2
23dad4b5da17a21db534ffaa66265050 QF_AUFLIA/swap/swap_t1_pp_nf_ai_00006_008.cvc.smt2
e249744cb1bbf8cc7c9bc4341f3c6ec8 QF_AUFLIA/swap/swap_t1_pp_nf_ai_00006_009.cvc.smt2
558c51714cfcc53eb86979c00a54343f QF_AUFLIA/swap/swap_t1_pp_nf_ai_00007_001.cvc.smt2
a8331149bf421d5273b95fb02a1c3853 QF_AUFLIA/swap/swap_t1_pp_nf_ai_00007_002.cvc.smt2
4142acbb189556f04c0d94967305c6b5 QF_AUFLIA/swap/swap_t1_pp_nf_ai_00007_004.cvc.smt2
b760a0b2f2cce4418ad925492358ebe5 QF_AUFLIA/swap/swap_t1_pp_nf_ai_00007_006.cvc.smt2
9d3919c50ad8fe5298316eb1890fa5ae QF_AUFLIA/swap/swap_t1_pp_nf_ai_00007_007.cvc.smt2
aa19f88fe1563d5c0b623658206cb16a QF_AUFLIA/swap/swap_t1_pp_nf_ai_00007_008.cvc.smt2
d297515e547def4e676b722600d2e57e QF_AUFLIA/swap/swap_t1_pp_nf_ai_00007_009.cvc.smt2
ad5fab6a0866374bae80e669aac7d5ba QF_AUFLIA/swap/swap_t1_pp_nf_ai_00008_001.cvc.smt2
88458ee41da6008478fc4df278ba2534 QF_AUFLIA/swap/swap_t1_pp_nf_ai_00008_003.cvc.smt2
318070a4d5d441314a5bab4f9e3fca61 QF_AUFLIA/swap/swap_t1_pp_nf_ai_00008_004.cvc.smt2
8193cfb9531e223cd820dc948ca3fdef QF_AUFLIA/swap/swap_t1_pp_nf_ai_00008_008.cvc.smt2
a89c52f530c365d482c99e43bf5f290b QF_AUFLIA/swap/swap_t1_pp_nf_ai_00008_009.cvc.smt2
9ee25619ee7a79c8e681a1f8724de591 QF_AUFLIA/swap/swap_t1_pp_nf_ai_00009_001.cvc.smt2
40a35f71f8d7e269b0eb9a1610b5cbff QF_AUFLIA/swap/swap_t1_pp_nf_ai_00009_002.cvc.smt2
84a20082d1549b8977a6be5fe20cee9a QF_AUFLIA/swap/swap_t1_pp_nf_ai_00009_005.cvc.smt2
70017eb0f02470f75dbc50be7330a275 QF_AUFLIA/swap/swap_t1_pp_nf_ai_00009_006.cvc.smt2
9c03c401cd41de7a25338d2ebe101ee1 QF_AUFLIA/swap/swap_t1_pp_nf_ai_00009_007.cvc.smt2
35653d0abaf1cfe45cbf4d3b2c78bfc9 QF_AUFLIA/swap/swap_t1_pp_nf_ai_00010_002.cvc.smt2
1bae963d3526aa06000ded92352b7a04 QF_AUFLIA/swap/swap_t1_pp_nf_ai_00010_004.cvc.smt2
1bfabf89af6712b92edb5394033b6113 QF_AUFLIA/swap/swap_t1_pp_nf_ai_00010_005.cvc.smt2
bdab8c89f242b996ca95a83d2dba3d6b QF_AUFLIA/swap/swap_t1_pp_nf_ai_00010_008.cvc.smt2
e5078bb6e64b8bcbe99d4a296ed4b6d4 QF_AUFLIA/swap/swap_t1_pp_sf_ai_00002_001.cvc.smt2
32efe21e75fc0d525eb4c6b8221e08b7 QF_AUFLIA/swap/swap_t1_pp_sf_ai_00002_002.cvc.smt2
6ada93fc31fa0ddda4b03e89f867452c QF_AUFLIA/swap/swap_t1_pp_sf_ai_00002_003.cvc.smt2
77279be19deaf824833ec67267877074 QF_AUFLIA/swap/swap_t1_pp_sf_ai_00002_005.cvc.smt2
e6599f469310d7a637c04c9db4cbc144 QF_AUFLIA/swap/swap_t1_pp_sf_ai_00002_008.cvc.smt2
9d0e0e0799e1b429773388f601483728 QF_AUFLIA/swap/swap_t1_pp_sf_ai_00003_002.cvc.smt2
7f282d46e10a927130d8346e668c1f85 QF_AUFLIA/swap/swap_t1_pp_sf_ai_00003_003.cvc.smt2
cd7f0466bc1b527652d0db27adec76dd QF_AUFLIA/swap/swap_t1_pp_sf_ai_00003_005.cvc.smt2
c7bbe7c287248b8d633eca1bc5a2737c QF_AUFLIA/swap/swap_t1_pp_sf_ai_00003_008.cvc.smt2
7d9f32ea661ccde3cad81364b38418c1 QF_AUFLIA/swap/swap_t1_pp_sf_ai_00004_001.cvc.smt2
91964ce612637be27e49bf9ecd46e8ba QF_AUFLIA/swap/swap_t1_pp_sf_ai_00004_003.cvc.smt2
0757ee31e226cd1397a58d2eeb78ebce QF_AUFLIA/swap/swap_t1_pp_sf_ai_00004_004.cvc.smt2
4181e5168113e39ee89d262f5453ccc5 QF_AUFLIA/swap/swap_t1_pp_sf_ai_00004_007.cvc.smt2
941af428b0a23aa92f2b2a55654c219a QF_AUFLIA/swap/swap_t1_pp_sf_ai_00004_008.cvc.smt2
9edaa27165612d746bc1af844712a94a QF_AUFLIA/swap/swap_t1_pp_sf_ai_00005_002.cvc.smt2
d4adc8fb9eab7ba277c776d466d16648 QF_AUFLIA/swap/swap_t1_pp_sf_ai_00005_003.cvc.smt2
4741f9ebfc379678602ec3748dce7601 QF_AUFLIA/swap/swap_t1_pp_sf_ai_00005_005.cvc.smt2
c73667ee29e5c3ea3e8f359e3237ec4d QF_AUFLIA/swap/swap_t1_pp_sf_ai_00005_007.cvc.smt2
9ce59f50b4d586aef4186c2c229d7d62 QF_AUFLIA/swap/swap_t1_pp_sf_ai_00006_001.cvc.smt2
33a9b81c9b9345623b5804a044f89dd5 QF_AUFLIA/swap/swap_t1_pp_sf_ai_00006_002.cvc.smt2
f8c4ca3786737d78c66c9f7fecbf6dd0 QF_AUFLIA/swap/swap_t1_pp_sf_ai_00006_006.cvc.smt2
740db39f2056718cc684cac3f2460c31 QF_AUFLIA/swap/swap_t1_pp_sf_ai_00006_007.cvc.smt2
6a0f7185112e9446bc7bcf5f4d2a6ade QF_AUFLIA/swap/swap_t1_pp_sf_ai_00006_009.cvc.smt2
18e8338ecb7e7fb95f9a6bbe3f01ddad QF_AUFLIA/swap/swap_t1_pp_sf_ai_00007_001.cvc.smt2
17f8bc5dcf7b5c44e9b4c986fc7ee164 QF_AUFLIA/swap/swap_t1_pp_sf_ai_00007_002.cvc.smt2
5b234f96d47c33ab894196134db8a11d QF_AUFLIA/swap/swap_t1_pp_sf_ai_00007_004.cvc.smt2
b8a7925c6189536fdabb0ccece9331c6 QF_AUFLIA/swap/swap_t1_pp_sf_ai_00007_008.cvc.smt2
6c721d7be4c6817b6e2d6fad63758ac0 QF_AUFLIA/swap/swap_t1_pp_sf_ai_00007_009.cvc.smt2
cc318042d3c476110dd7112273d68579 QF_AUFLIA/swap/swap_t1_pp_sf_ai_00008_001.cvc.smt2
5ed56e9aff5a9abc7acbdb596abb2669 QF_AUFLIA/swap/swap_t1_pp_sf_ai_00008_003.cvc.smt2
7103e9a406cf10677f5b5dc58ee0a479 QF_AUFLIA/swap/swap_t1_pp_sf_ai_00008_004.cvc.smt2
45284322b0ac21c0b94bd4ffebe2f7af QF_AUFLIA/swap/swap_t1_pp_sf_ai_00008_005.cvc.smt2
0523b468048a9107085fd397ea90e8f8 QF_AUFLIA/swap/swap_t1_pp_sf_ai_00008_008.cvc.smt2
35d1e382ff695ee902e3a4ded14fb208 QF_AUFLIA/swap/swap_t1_pp_sf_ai_00008_009.cvc.smt2
eb3c7c7268dbd1878eec9bd45fe9db1a QF_AUFLIA/swap/swap_t1_pp_sf_ai_00009_001.cvc.smt2
5cfc0043a5d3c5eb340622c504876532 QF_AUFLIA/swap/swap_t1_pp_sf_ai_00009_002.cvc.smt2
540c0aca8419799d27b6d07f131009e0 QF_AUFLIA/swap/swap_t1_pp_sf_ai_00009_003.cvc.smt2
97841e240c99620221597c0dbd4df04d QF_AUFLIA/swap/swap_t1_pp_sf_ai_00009_004.cvc.smt2
436304c0f34cd1110f0227958ba66c38 QF_AUFLIA/swap/swap_t1_pp_sf_ai_00009_007.cvc.smt2
c36ddb74189412d64e19436169828c99 QF_AUFLIA/swap/swap_t1_pp_sf_ai_00010_002.cvc.smt2
964cf03f705a4f2e0ae99768a187dd71 QF_AUFLIA/swap/swap_t1_pp_sf_ai_00010_004.cvc.smt2
e023c0b0390ad01eac0e9f3a7a09c683 QF_AUFLIA/swap/swap_t1_pp_sf_ai_00010_005.cvc.smt2
6c4f1d2746188871672907327ae238e1 QF_AUFLIA/swap/swap_t1_pp_sf_ai_00010_006.cvc.smt2
d5e06ccc1db38287076909ca81cfc808 QF_AUFLIA/swap/swap_t1_pp_sf_ai_00010_008.cvc.smt2
316524cdb690ab578a2f9c87d39a49f3 QF_AUFLIA/swap/swap_t1_pp_sf_ai_00010_009.cvc.smt2
63fb2292bcfe08f52839a9c932cf1eee QF_AUFLIA/swap/swap_t3_pp_nf_ai_00002_005.cvc.smt2
91adc4949aa3e001a9d3bf248a7bd48e QF_AUFLIA/swap/swap_t3_pp_nf_ai_00003_002.cvc.smt2
cc180883a14b7df5994d888e7ca77cf0 QF_AUFLIA/swap/swap_t3_pp_nf_ai_00003_005.cvc.smt2
fe471009be4220c5f560bc5ad2cf0e00 QF_AUFLIA/swap/swap_t3_pp_nf_ai_00003_006.cvc.smt2
46711f0aaf4bc8ff1d78940cd8d68584 QF_AUFLIA/swap/swap_t3_pp_nf_ai_00004_001.cvc.smt2
0479968e9b8eae4926776bb6bd2242f2 QF_AUFLIA/swap/swap_t3_pp_nf_ai_00004_005.cvc.smt2
5bdb9d3ca5a0ee078161c21f42f7f3a2 QF_AUFLIA/swap/swap_t3_pp_nf_ai_00004_007.cvc.smt2
6eb590842f553e5b7137617f8ec35d5a QF_AUFLIA/swap/swap_t3_pp_nf_ai_00004_008.cvc.smt2
fda274eef5a58ddbfc9e91f960804319 QF_AUFLIA/swap/swap_t3_pp_nf_ai_00004_009.cvc.smt2
25b91368218d098aa5c68dffa1489ea8 QF_AUFLIA/swap/swap_t3_pp_nf_ai_00005_001.cvc.smt2
90e3bd58398b46d9433137dbf06cc62c QF_AUFLIA/swap/swap_t3_pp_nf_ai_00005_003.cvc.smt2
6345ff4358c9c60937cc2e76dc006cd6 QF_AUFLIA/swap/swap_t3_pp_nf_ai_00005_004.cvc.smt2
1f9572128886b974e114f0d6689a776c QF_AUFLIA/swap/swap_t3_pp_nf_ai_00005_005.cvc.smt2
6072cf29ca61e2905bc92efcfda4da37 QF_AUFLIA/swap/swap_t3_pp_nf_ai_00005_006.cvc.smt2
3ddcf2cf3dd88312de249cf746e378b4 QF_AUFLIA/swap/swap_t3_pp_nf_ai_00005_007.cvc.smt2
cc055851db00f9db1e63bf4a5ccca63a QF_AUFLIA/swap/swap_t3_pp_nf_ai_00005_008.cvc.smt2
5cfab6525a7fcac12e97d21fff49f0f7 QF_AUFLIA/swap/swap_t3_pp_nf_ai_00005_009.cvc.smt2
8f0605899110977f804b63cc6a35ef62 QF_AUFLIA/swap/swap_t3_pp_nf_ai_00006_006.cvc.smt2
ebf7af88989619b4aa8c9508ad045ae8 QF_AUFLIA/swap/swap_t3_pp_nf_ai_00006_007.cvc.smt2
bb38578472cf90f0bb605e7c8ed72a20 QF_AUFLIA/swap/swap_t3_pp_nf_ai_00007_003.cvc.smt2
5953fd9c48f7900d2f513080da0aa022 QF_AUFLIA/swap/swap_t3_pp_nf_ai_00007_005.cvc.smt2
ec0de1932236072fab778b464c4d5255 QF_AUFLIA/swap/swap_t3_pp_nf_ai_00008_002.cvc.smt2
86c53468f97a91324bbbdd40951a793b QF_AUFLIA/swap/swap_t3_pp_nf_ai_00008_005.cvc.smt2
d1c6d12e03ff1fed48a0ae5f99bec86f QF_AUFLIA/swap/swap_t3_pp_nf_ai_00008_006.cvc.smt2
fbf061fa9e7abe54d3c32dc233806097 QF_AUFLIA/swap/swap_t3_pp_nf_ai_00008_007.cvc.smt2
56446e12fd4d823df461dfeb155cac81 QF_AUFLIA/swap/swap_t3_pp_nf_ai_00009_003.cvc.smt2
6bc3df126eb1d79df99e4ff59c74691d QF_AUFLIA/swap/swap_t3_pp_nf_ai_00009_004.cvc.smt2
c30bfce84be6160f31985560aa8abb97 QF_AUFLIA/swap/swap_t3_pp_nf_ai_00009_008.cvc.smt2
e794ade8173696105d50b86110168ee7 QF_AUFLIA/swap/swap_t3_pp_nf_ai_00009_009.cvc.smt2
d26a2041886dcd7cf5687253d488f876 QF_AUFLIA/swap/swap_t3_pp_nf_ai_00010_001.cvc.smt2
3f31b779055d06d85467553f8afd919a QF_AUFLIA/swap/swap_t3_pp_nf_ai_00010_003.cvc.smt2
b6162947a5260afe6fb26ec452ef5566 QF_AUFLIA/swap/swap_t3_pp_nf_ai_00010_006.cvc.smt2
12606852f44e6bed8ebcee5bc86b626f QF_AUFLIA/swap/swap_t3_pp_nf_ai_00010_007.cvc.smt2
7f0412ec62fb08dece144c996dc8fbad QF_AUFLIA/swap/swap_t3_pp_nf_ai_00010_009.cvc.smt2
75408de5548ff31b0bcc24464bd5850c QF_AUFLIA/swap/swap_t3_pp_sf_ai_00002_006.cvc.smt2
ec811cf2cc42e7c3fce04259f6f2c505 QF_AUFLIA/swap/swap_t3_pp_sf_ai_00003_001.cvc.smt2
49092f5c8495b604a6a4994e232affbf QF_AUFLIA/swap/swap_t3_pp_sf_ai_00003_004.cvc.smt2
38bdc10d2a9450e9bd23dcef7cb7311d QF_AUFLIA/swap/swap_t3_pp_sf_ai_00003_006.cvc.smt2
44c80343e6fb1b99d0af90ce80b4a9a0 QF_AUFLIA/swap/swap_t3_pp_sf_ai_00003_007.cvc.smt2
9656605d297827b47261906075d5725f QF_AUFLIA/swap/swap_t3_pp_sf_ai_00004_002.cvc.smt2
414f46c7f558965a1894e18511343020 QF_AUFLIA/swap/swap_t3_pp_sf_ai_00004_005.cvc.smt2
52c9c7f38fc94b6a053a5c12cc9ff7c4 QF_AUFLIA/swap/swap_t3_pp_sf_ai_00004_006.cvc.smt2
8109edb8ad13540f20fdbeae18f6a1a9 QF_AUFLIA/swap/swap_t3_pp_sf_ai_00004_009.cvc.smt2
aa43853be2cd76de388a65b5cb0f7c67 QF_AUFLIA/swap/swap_t3_pp_sf_ai_00005_001.cvc.smt2
49562e12c8fb95a174cc95d60269e415 QF_AUFLIA/swap/swap_t3_pp_sf_ai_00005_004.cvc.smt2
bff0be769facd1d5e75fbd6c112b49c3 QF_AUFLIA/swap/swap_t3_pp_sf_ai_00005_006.cvc.smt2
6e1ea2a0cd42dc156392f9667a85df31 QF_AUFLIA/swap/swap_t3_pp_sf_ai_00005_008.cvc.smt2
45a858145eed3797e798124976dc2008 QF_AUFLIA/swap/swap_t3_pp_sf_ai_00005_009.cvc.smt2
130e49be51ad360cb1a5847c32bfcfb8 QF_AUFLIA/swap/swap_t3_pp_sf_ai_00006_003.cvc.smt2
017faf7402253dc7daa777e3f9812368 QF_AUFLIA/swap/swap_t3_pp_sf_ai_00006_004.cvc.smt2
001479142e3087ee3cf8599e4e60e241 QF_AUFLIA/swap/swap_t3_pp_sf_ai_00006_005.cvc.smt2
5ee602ac40dcd314ca3076c01d14a626 QF_AUFLIA/swap/swap_t3_pp_sf_ai_00006_008.cvc.smt2
d6481f35e296652aaf296921824e65d8 QF_AUFLIA/swap/swap_t3_pp_sf_ai_00007_003.cvc.smt2
0f188c467b7223d145445daf04e65174 QF_AUFLIA/swap/swap_t3_pp_sf_ai_00007_005.cvc.smt2
95c99d49087745429b94b540613a1aae QF_AUFLIA/swap/swap_t3_pp_sf_ai_00007_006.cvc.smt2
433e34cfad2c8804dbfa1125223a0644 QF_AUFLIA/swap/swap_t3_pp_sf_ai_00007_007.cvc.smt2
845473b687b3fd4d29a4b6dfafa76590 QF_AUFLIA/swap/swap_t3_pp_sf_ai_00008_002.cvc.smt2
70ad84517548922ca0208a834a57908f QF_AUFLIA/swap/swap_t3_pp_sf_ai_00008_006.cvc.smt2
df6ebf1793a13985b849bfb36869490e QF_AUFLIA/swap/swap_t3_pp_sf_ai_00008_007.cvc.smt2
f0347bb913dc898cb5aa94be923d4d4b QF_AUFLIA/swap/swap_t3_pp_sf_ai_00009_005.cvc.smt2
b0bd6ebd65be0b274d5245cd03b99720 QF_AUFLIA/swap/swap_t3_pp_sf_ai_00009_006.cvc.smt2
2ea94123854dea9597902cd2b88e4076 QF_AUFLIA/swap/swap_t3_pp_sf_ai_00009_008.cvc.smt2
8f5cf823f65c1f8a1958b1f9461d387e QF_AUFLIA/swap/swap_t3_pp_sf_ai_00009_009.cvc.smt2
c2b4a2ce4659e851b35a4cde49b6fd89 QF_AUFLIA/swap/swap_t3_pp_sf_ai_00010_001.cvc.smt2
476b5ae7e9aba979ab7c580e4ec7c47e QF_AUFLIA/swap/swap_t3_pp_sf_ai_00010_003.cvc.smt2
673a1e58787fb7d1ed94985af61d26f8 QF_AUFLIA/swap/swap_t3_pp_sf_ai_00010_007.cvc.smt2
