f588ac8c6171b1304f0adbb2e9067179 construct-1.smt2
af669c4f923f8058579376edd5dd4954 construct-2.smt2
4ec25978482eee00bc6d3c18801e5366 construct-3.smt2
8a550de73cad806fe54b3b5b605bb303 construct-4.smt2
3ae106a6e3106000d359f68d1d7a6043 extract-1.smt2
3a8cb685e4bad428bf5beb8060c51b0e extract-2.smt2
fb16e1108670ce7cd777b9ed536a21a1 extract-3.smt2
f38b19d62ddaf0aef9e9fe669f7bdfbe extract-4.smt2
e00a8d2bb9dd7a0ad8cb72399a7d3bd5 extract-5.smt2
aaa5495d1b10dd45683e6d449d5b04db extract-6.smt2
9ca85740e377383f0d42737a1f9a3bd8 setcontents-1.smt2
abb63af5551840b267e4349edc443cc6 setcontents-2.smt2
d584826bde88c3222e8a83d3fd03b03a therole-1.smt2
