5295faf3fb535a7210e9cafa6cf68976 SelectionSort_live_bgmc000.smt2
cdca6d897ede209ca3a4e76995957200 SelectionSort_live_bgmc002.smt2
90a672057eb7476a2547983626f863bb SelectionSort_live_bgmc003.smt2
f9c0afa2ffb3b861f094a004fe5b7048 SelectionSort_live_bgmc004.smt2
54549df112aec3db5abb5197987c344e SelectionSort_live_bgmc005.smt2
8e0df290efbfbcd2b61440cd82eddcdf SelectionSort_live_bgmc006.smt2
97f83b9ffacbcf53926c3852084935ec SelectionSort_live_bgmc007.smt2
907ec79226d6835684e3641a3ac78d3e SelectionSort_live_bgmc008.smt2
9a054d51ca8576e32b6b0d8dec1970e7 SelectionSort_live_bgmc009.smt2
df5892ff9edc86d80d0143961e56a84d SelectionSort_live_bgmc010.smt2
58289dbd68144924475034e3dc31d6e7 SelectionSort_live_blmc000.smt2
9a481c446bb8278e2cca6a6e9efbecfd SelectionSort_live_blmc002.smt2
34106164c6f5662b244f49e70a34f137 SelectionSort_live_blmc003.smt2
9330159c0ff2a474a21f2729bf703cda SelectionSort_live_blmc004.smt2
ce9e6f71e27b27c1577fc857f1b6c32b SelectionSort_live_blmc005.smt2
bba159e7f7f0d7a93cfed7f529513c43 SelectionSort_live_blmc006.smt2
d33aee4b2b9ddafb5259bdbfbc581218 SelectionSort_live_blmc007.smt2
f3f06bcfe5aace91f263181808d6caf6 SelectionSort_live_blmc008.smt2
ca6fe6d671e94237bf9fa95f96775840 SelectionSort_live_blmc009.smt2
483adf17f59661ba82fba07bc05a6df6 SelectionSort_safe_bgmc000.smt2
65f4d3a2e2869df03179bfc370e6f7e2 SelectionSort_safe_bgmc001.smt2
5fd0d8f39976a01b6d0d69bddefd81c3 SelectionSort_safe_bgmc002.smt2
843262433b21bd9e646f83591623f8f8 SelectionSort_safe_bgmc003.smt2
cfc4f6f31103aacfc122ce85c5e7078c SelectionSort_safe_bgmc004.smt2
3886be6b86db0dd6ae403a343cb8be7b SelectionSort_safe_bgmc005.smt2
5f23761943c328bc039d06f260c640a0 SelectionSort_safe_bgmc006.smt2
4cbe9d5e71fb3b3035cbb241b76d8bee SelectionSort_safe_bgmc007.smt2
ed5b47724e5638e95aab722ceff3b3a9 SelectionSort_safe_bgmc008.smt2
2d79d498b4c25b06dd7439f591c5839c SelectionSort_safe_bgmc009.smt2
f5a452313185edd0cf8772d08fe07302 SelectionSort_safe_bgmc010.smt2
1923e766cb9f7e0a9e1310fb07641f24 SelectionSort_safe_blmc000.smt2
4fae5bf27a41595fa8fbc91a332a3dc8 SelectionSort_safe_blmc001.smt2
0249ab1d053e15cc32b16dadc389fa6b SelectionSort_safe_blmc002.smt2
1b2506b6dab0788c28e4a510ba2e243a SelectionSort_safe_blmc003.smt2
4a89d1c587fa47b2e5172c8143654e9f SelectionSort_safe_blmc004.smt2
4b73d9f53a6609cc0a8bf154061a5dc2 SelectionSort_safe_blmc005.smt2
2574074ec5a91d85f9db4ad287888fce SelectionSort_safe_blmc006.smt2
27d62489495a0e4c9af5bd35d8bf78e1 SelectionSort_safe_blmc007.smt2
fecaf77baf3885b5a01b25c88ee29626 SelectionSort_safe_blmc008.smt2
dba70f301405d9fbed66e5569b3eb0f2 SelectionSort_safe_blmc009.smt2
1d137b88345df8c71e43cf5247c8b27e SelectionSort_safe_blmc010.smt2
4e500ea03b9defb66ae5917bb10c67ed SelectionSort_safe_blmc011.smt2
61c903f2b4f81260176efa1428f374af SelectionSort_safe_blmc012.smt2
a503e6328683f1b729e0eda1737fbc33 SelectionSort_safe_blmc013.smt2
02a6bf0bcf37ee9b1e31df01a7cc6b35 SelectionSort_safe_blmc014.smt2
f7b99b1ee46934207b57b80cf88f3608 SelectionSort_safe_blmc015.smt2
477db758415f39b228d8b40de43be28f SelectionSort_safe_blmc016.smt2
