b9bbb24be1358441ef9d1c26718a0ca9 problem__002.smt2
f682c88375606bedbe07118ee679f970 problem__003.smt2
65cb14624f635fe361e25351fde95f93 problem__004.smt2
5cc62c90300fe9c71d1b1c2c5e16cf9a problem__005.smt2
ff5de4d0deccab42c2ed66cefccf49e3 problem__006.smt2
