9b9790294a91884e20c48ae1d3f71725 smtlib.564991.smt2
512d35197ecdfc0ee450514d56b312bd smtlib.566120.smt2
28e8cba3c2a43c2fc3a523fc25f2cb8f smtlib.566763.smt2
943c78149f0b3f7aed1dc0443f5fc8cc smtlib.567049.smt2
a3668cb539d777100a7edd7e35aa6229 smtlib.569143.smt2
3fcae228840e5352d2f9d712495f24ab smtlib.570244.smt2
c6b25574ed69698a5d80d3080d680404 smtlib.570802.smt2
ce5645594d143b6d8c175bc387741340 smtlib.571103.smt2
b85d455e74063e7a51448fc792e97c32 smtlib.573291.smt2
15007281ed8c8ec1ba7292c389990819 smtlib.574441.smt2
02279149746dc192875537471bc9fe13 smtlib.575077.smt2
f5de5d6d02bd25965d9b4bc26106ad7b smtlib.575434.smt2
57883ee18b0b4c4dd1aa9ddc1debf3c9 smtlib.577462.smt2
79d6edd76cf6ec10b3ed5b02413ddebd smtlib.580173.smt2
c22392ebb1b87683be977cf235ac0541 smtlib.582588.smt2
4af7ac6c5ab19668f255b6519c6d0a57 smtlib.583442.smt2
5afee32855e746a382b69f3b076183cb smtlib.583829.smt2
8bf390a6586fd391d29f0a0b29e55f11 smtlib.585704.smt2
e700aa882ac437f5a077d80081593f9d smtlib.587692.smt2
7b96da20935d4ffa3918219928938e49 smtlib.588564.smt2
8cab989ca2a688173e643efff237c021 smtlib.590931.smt2
58fb399b97f605c301f3a407cbc41acd smtlib.591803.smt2
6a1864bbc1bf69a4a9ba48b3c3df03a1 smtlib.597780.smt2
b8187d87a92503c378a149549733c18c smtlib.598943.smt2
e07d3064c9a9d7311e8f09c7faf9e38a smtlib.599477.smt2
829957f39bc5862c6282dbd67140908a smtlib.601926.smt2
caddd22f85a61c4a17597c6f83142be8 smtlib.606095.smt2
394e4d1f72404aa24439e72a873e3960 smtlib.609960.smt2
c16b02dc4c57c359b4e76d713eb982f5 smtlib.613788.smt2
ea83d5ed78eae4a419872f894516fe9f smtlib.622812.smt2
2bfeda479f09dafb9c688d66beda9974 smtlib.624005.smt2
d75d1866f909549a8fb7332cf000a236 smtlib.626561.smt2
c136cfd9bcae4d3c449782417dea0bd0 smtlib.629861.smt2
f138baf20f6c77016ec24ad9ade1e567 smtlib.640264.smt2
064eb32640cfcb8b9e8c9bce6dc8129e smtlib.644096.smt2
bd027502db197bead7c42a9fdf6299f1 smtlib.645227.smt2
b157ee3f4f2ea3484b920fd9a9b9d4eb smtlib.645854.smt2
38c4a49b5a80374954b9b9b301924ced smtlib.646171.smt2
3ae5f833f136d26db057265d62b6a000 smtlib.648452.smt2
304089d08b18c844e46c392139baf7d8 smtlib.652756.smt2
7008a67993975db995d625945589466b smtlib.657037.smt2
1fa8f5f7f6eddfbc830371aefa685170 smtlib.674258.smt2
6805a940413cee08215ed6980f2f5332 smtlib.677093.smt2
4fc48c4ae63f90d3da855546494c6dfd smtlib.682662.smt2
792c0b526b0c9c862093318a4b1e1741 smtlib.685462.smt2
19eb86a3923a28fc28700d6584c30ac5 smtlib.688188.smt2
2b4a9951a880b386895f3123f12fc92b smtlib.692539.smt2
fbbee4dee79e20f3f32b4a459655e287 smtlib.696924.smt2
7669498d7e254b656e2c01ce85ab6567 smtlib.698124.smt2
8312d8f357da91bc1317fa3d569d57c1 smtlib.701307.smt2
a6497f91d08e04291e1bcc40dddf638c smtlib.705747.smt2
96bb5624c4ab7cf83c9dd951e9fd2837 smtlib.708280.smt2
f2f73d6a19b1714538bd29f903dbe253 smtlib.711976.smt2
0abca6e3863ca3ba089e63a5d1a19d89 smtlib.715152.smt2
0077c7b443f090d877340acc64380d3f smtlib.716391.smt2
534812edcf77f33e75e016dd64d95184 smtlib.720134.smt2
a5c5e2b01391286071930578b95b01f7 smtlib.721358.smt2
e81514f4cbc6fc35cfe78f284b0e3fb2 smtlib.730601.smt2
1b3d40c5f9a4112b5583dc52c9584f73 smtlib.731825.smt2
2e1a8f2a35b687d64ee6c2d9ead58a80 smtlib.735100.smt2
34bca2d6c237c6b966a8e07ad38e4d38 smtlib.737672.smt2
5837c095308561ca1be47cb9f015a81f smtlib.741747.smt2
bb281ef08eddabf47089a259800b1beb smtlib.746242.smt2
e0b8006fedcfbf00aced315652e7c64b smtlib.747482.smt2
e2f4a286184574676effeef979c89e33 smtlib.755224.smt2
e197f01423a1ea6821c3a36a81de4992 smtlib.757763.smt2
f619dc8b880b1b36a7887461ed6cd7ff smtlib.761778.smt2
d017656bcff97f272ae0e1975b30e83d smtlib.764518.smt2
de17d947eb1fe2de8c24bfaed924e10b smtlib.765556.smt2
5a609c65fc74da2cc42d1bee9afe86ff smtlib.766079.smt2
7d2b7c23c577838db02306cb55d14cfe smtlib.768405.smt2
2b706e52bd112b35a3613c88e41d85d2 smtlib.770900.smt2
4f605a764f1a21e987c0188f12197b9c smtlib.771959.smt2
d4361d8c29ffcf89ffa6189719fb19d6 smtlib.772454.smt2
c5fe1e5344bef9a4df7a2c6c698bd941 smtlib.774757.smt2
54292bd04ed21a3c2498bcdcba98ddc1 smtlib.777207.smt2
bd534fab8f8488cd2718c0e0ef2e9a4e smtlib.778254.smt2
fe4c0b4d1262487543859d48e7ca26b7 smtlib.781192.smt2
102e2571be35e074574281f222ddaac2 smtlib.783693.smt2
55868d82f2c151c5abae46c54abf686f smtlib.784603.smt2
4bc39755c044c77c62cf0901ac783344 smtlib.785049.smt2
44a9bc9aea1051e3ac76dc43e11593d7 smtlib.786998.smt2
c486841361247990218d14e594b9b2a6 smtlib.790317.smt2
826dbbfb7804dfbaaebf73358c5aec7d smtlib.793713.smt2
035be5173d942a7e78659bb0d8d5d08c smtlib.796177.smt2
cb12ef738836860cd8e6a5e6449cd43b smtlib.797297.smt2
2638db0174a63649a1272628f11fa2d9 smtlib.797885.smt2
f397fddb2067815d66a1d14b9d091c41 smtlib.798172.smt2
26aa6134f4d56accd2bbcad9a6fe74c7 smtlib.800143.smt2
bb6d28a8a9102d3fdb6df3815ca8556b smtlib.801037.smt2
6049398b3e687872642043f20fda180d smtlib.801500.smt2
bf03fb6e4a5e2e00616ba62442ff1c23 smtlib.803649.smt2
15249cd830cce09e730fbe83d4f78a0b smtlib.804544.smt2
e71c7392b24517e69bd1e0f2764fc9de smtlib.805008.smt2
e9e3f097a5e0ad140617d10030da286d smtlib.807156.smt2
5895bb7ea77b9914109d454e246f6349 smtlib.808050.smt2
8da7c49be4cff6bd7f7d9852fe096f3d smtlib.808513.smt2
7913dc6c93fc101c051ff274f04280ab smtlib.810974.smt2
774f1b4f3d7bdd243b431432ae14e706 smtlib.811979.smt2
2f2cefa35b55658d81ac04487e926854 smtlib.814955.smt2
a9c8c24e57511e80d357fa796f387607 smtlib.815960.smt2
577381461b84ec63ba94290ed2840f73 smtlib.818936.smt2
5bc59dc7393fb764e85b2162fad13075 smtlib.819941.smt2
a917ffe244afae8d8a47fc74085743ac smtlib.822667.smt2
91707f85f9995d644ffe02d2c47b0e1c smtlib.824778.smt2
03900f5b5b71e88e335aad1fbe4a85e6 smtlib.827090.smt2
aed7304983e2f55cb9ea848a4fe728cd smtlib.831444.smt2
dfab6a5c4d3fb5dda43b36272c286f50 smtlib.834324.smt2
4eec8a36261aad206d4e8521c913c28d smtlib.838235.smt2
14f537d07554d7db3ec4c9224bebf3c9 smtlib.841536.smt2
8ebb212616ed236e6801f571c3deb762 smtlib.844399.smt2
fbdbdabed2d208256b46f68474603a04 smtlib.847261.smt2
b561bd50d03773995f121eebfb919654 smtlib.850128.smt2
06ca160a910c593201748c88cea9601a smtlib.853036.smt2
d48045d99e1ba47003e1d46d372ca054 smtlib.855503.smt2
60131af3cd59a963b5fae3f8b7dc1f29 smtlib.859817.smt2
2a61cb118b13b4f13f88616a5c4ca3ab smtlib.862404.smt2
b8cf9fd6762b6b6dfbd984ad65911b7a smtlib.865085.smt2
41ce0c5dd9becae17f6d6a9497d65856 smtlib.869123.smt2
320e00da525bc2ac8113ba2c41cdec29 smtlib.870441.smt2
c7d8a0c3aaf48f426a1dc006b0a95272 smtlib.871014.smt2
3966ef2796d4bd804fba7bfc23b5c065 smtlib.873666.smt2
e3e25bb5a6ca9b89afe0b46afda79e58 smtlib.874640.smt2
330b813d2ce3b4e66df25cdd96ecadb7 smtlib.877754.smt2
fefa411c03b2a374d8c0c3f858dc843f smtlib.878729.smt2
d40596420d67e447117459b08404c728 smtlib.881843.smt2
79ef689bf6927ff237717a2621f23a7a smtlib.882817.smt2
c7b1f76c8ed86543661ce9a029ac7ecb smtlib.885891.smt2
ee3786fd0d2da53d53e10c14ee92eb7e smtlib.890021.smt2
b38a539bb7eab42f223e53f14aaa9195 smtlib.894151.smt2
a7157c5a8cbea07eb19d8a7e25bdb1bb smtlib.898145.smt2
bc49b6621c90e81a4e0878149622ebd9 smtlib.900552.smt2
45f7b75c062288590850207c94cd3460 smtlib.902898.smt2
8e33c883e4af9b13324388d5068c8b87 smtlib.907366.smt2
aa4281f00242962ca0c97db6aa92fde9 smtlib.910383.smt2
22ee2f4e9d26f50625aa984dfdaf1624 smtlib.915003.smt2
