3abf19a15fcbbde4846291ec24aa5f56 lpsat-goal-1.smt2
03b3d69ad5d4aede08b118e01ce1fe4e lpsat-goal-10.smt2
695d6c1e78a920b8e501373b63cbe479 lpsat-goal-11.smt2
e72fb62566d693dc5264e86c6e2d89ef lpsat-goal-12.smt2
53676472cf2c90ecad5ee648b9137634 lpsat-goal-13.smt2
72f0a4aee89a4b72a55b8f78520f875a lpsat-goal-14.smt2
abbd75b2e39184fcaff0cf4f28f2b4e7 lpsat-goal-15.smt2
bd4c0bed79351828b0d92bc17d4697f7 lpsat-goal-16.smt2
78ccea357177f9e11050fba3fa659f15 lpsat-goal-17.smt2
f3188f5840a9c9c07f20211341b31b08 lpsat-goal-18.smt2
0ebe6934e428830766c6a9d66d7a1d71 lpsat-goal-19.smt2
dbc5368b1cba500799b9d7da3e0b25d3 lpsat-goal-2.smt2
ff62acbdefe7c777674831004001d11b lpsat-goal-20.smt2
4e2e5680e581665701be19dbc4e2fff8 lpsat-goal-3.smt2
d6d2a3c13b9565ca775b36d8c4acb18d lpsat-goal-4.smt2
9ce8277a6494c1cb845d93730376d119 lpsat-goal-5.smt2
27945e5af5a1652fa548d9d5aefaa269 lpsat-goal-6.smt2
6c407fd3ceb10713b63eacd10fabe07f lpsat-goal-7.smt2
7cda575d886a7a05558866b4c03036b4 lpsat-goal-8.smt2
cd73f1e0f5d5f345d275e28685f325d5 lpsat-goal-9.smt2
