f9eb76ad1f314a829f1b7e93dbbf155c gauss_sum_true-unreach-call.i.smt2
039c563a75ea862a314d55fc0b86cb54 linear_sea.ch_true-unreach-call.i_162.smt2
8973f8a45306149ffd74e521a4f37c76 linear_sea.ch_true-unreach-call.i_163.smt2
1f8c262f537e04b527358731c286051f linear_sea.ch_true-unreach-call.i_164.smt2
88c2b66be6eca0b8646b2c1d1cceab45 linear_sea.ch_true-unreach-call.i_75.smt2
d008cd2dd62c5ee3b0f5095159ffddc4 linear_sea.ch_true-unreach-call.i_76.smt2
bcc2ca86c6187288c00e615830597d67 linear_sea.ch_true-unreach-call.i_77.smt2
