dbd18c8484a06d77187599a7f4d33d80 uart-10.base.cvc.smt2
7ed1948db67744737ea8512fe160e803 uart-10.induction.cvc.smt2
afe44e5fbedb79a8d24ecb5ad88a5c1f uart-11.base.cvc.smt2
dc2a6abd41ed197ef0642d921d595454 uart-11.induction.cvc.smt2
584e979198e9fe59c598024b3fa2c5ba uart-12.base.cvc.smt2
584eaa02206414e030a1db7a5f253d58 uart-12.induction.cvc.smt2
c08bb039c36cb57e3ed7ed7fa9f99d55 uart-13.base.cvc.smt2
22c6e28a8b73c6dd42de9e8f38023e32 uart-13.induction.cvc.smt2
e3bb18d7ad25e86a62eed70195d15736 uart-14.base.cvc.smt2
a876d2eae04d18f9f59cff61689e1670 uart-14.induction.cvc.smt2
3f51a20e01848bfd18bd7e6beeba7456 uart-15.base.cvc.smt2
df046ac6f287606ace0e4ee468e271bd uart-15.induction.cvc.smt2
72cb0beed9971e18e0a509505028425f uart-16.base.cvc.smt2
e9eb27374d433f7633a2553e807e6964 uart-16.induction.cvc.smt2
98827ab7d43d82baaccc7bb5bd5491a2 uart-17.base.cvc.smt2
d53bc5a608173327d77f249a07117d62 uart-17.induction.cvc.smt2
176f3209c4747c26567f5ab780d9e923 uart-18.base.cvc.smt2
0d96c6ccd178efeaa859144fa38b3689 uart-18.induction.cvc.smt2
5e52665bde3852d8da8b08e7f987776a uart-19.base.cvc.smt2
3edf17281a3f25b8018bf8309f01c956 uart-19.induction.cvc.smt2
3a81cd8e0060f0f99ef8537d39960e89 uart-20-with-lemmas.induction.cvc.smt2
93bce08ff4e8e04e0d8638ff648d39b4 uart-20.base.cvc.smt2
3a6b0695838b58a5716f941b2c35e996 uart-20.induction.cvc.smt2
17efea298a7b061c0fee4b60721c041c uart-21.base.cvc.smt2
4d5a687d35f3733de7f16de3ba3c7bb4 uart-21.induction.cvc.smt2
96f0de47bf8523efc86fe392528bbba6 uart-22.base.cvc.smt2
d8dfc2363622c409508aae69823e1471 uart-22.induction.cvc.smt2
6c221a10fb1d6f945bfbe48ffd0127ea uart-23.base.cvc.smt2
89a6f98d77dcb497b292d5f3e2fe5c88 uart-23.induction.cvc.smt2
67afca3996495b424769269609af0f0b uart-24.base.cvc.smt2
5e27e4319174873b3de76b22e1776870 uart-24.induction.cvc.smt2
f025acbffdfaab9af81c904633c3fd27 uart-25.base.cvc.smt2
6fd3c2e0d5cb09786603ce7380d971ce uart-25.induction.cvc.smt2
6ed836fff97c935047ff82e4c04cc99e uart-26.base.cvc.smt2
4a3fdecdec46727321ff7f312d3d0dfb uart-26.induction.cvc.smt2
2ec8de841f8199eaa6c4735f7eab4470 uart-27.base.cvc.smt2
23269c9669d156d354bafa0d2edb11e3 uart-27.induction.cvc.smt2
163658f7c85f1cc6af8f12c4e5f0eb0c uart-28.base.cvc.smt2
8f38879b6322e17ab2f7c2348de15697 uart-28.induction.cvc.smt2
f1ce0368736a4ec29c71fc286cf53626 uart-29.base.cvc.smt2
501e80708bd6b9643e68a3e2524472eb uart-29.induction.cvc.smt2
a68b550da6108dcaca3f144c8eb8498f uart-30.base.cvc.smt2
5d1397c3fad392d638edc632b7e7eac4 uart-30.induction.cvc.smt2
6bde74e194a17805788da96929e93350 uart-31.base.cvc.smt2
1cd69b8b30709756ad6fb9baa6de28d3 uart-31.induction.cvc.smt2
1a7ed7aa297e36ec1c9670ffba4caba1 uart-32.base.cvc.smt2
5ffb9bf1e6606bea0eaa4dd28a2e6442 uart-32.induction.cvc.smt2
27bae6378f4513a862521e9b3ad7fed7 uart-33.base.cvc.smt2
1a36cbdf825bf5d3992879c363dacb41 uart-33.induction.cvc.smt2
7be60a7b06f19d258b95bf31bf1b6b3f uart-34.base.cvc.smt2
6a8e869db5a80bf6e19463e93ef66ef5 uart-34.induction.cvc.smt2
666f630921b3c0e22066ffc4052a0fd2 uart-35.base.cvc.smt2
e2a6e7c31a6afe4e2ff267b3eee314cf uart-35.induction.cvc.smt2
e308a2e4918c5c2325582db98b6e6310 uart-36.base.cvc.smt2
4b4031c9702267dac611672dbfa0f81a uart-36.induction.cvc.smt2
db7cfff365d6c0bc0277b0e032e77b4e uart-37.base.cvc.smt2
7c7dac281af92b067968c92d2ec55f43 uart-37.induction.cvc.smt2
f679539670eeb615292484252df9b31e uart-38.base.cvc.smt2
a23a163ac73148a0ee2a6de18e15c543 uart-38.induction.cvc.smt2
01226b8c2a55307d302190f261cb4a80 uart-39.base.cvc.smt2
e61f71cec08629c1e3e3184c9e8c2d01 uart-39.induction.cvc.smt2
139ca75d52fa6e736796e501da6dcc73 uart-40.base.cvc.smt2
5b69dc4e3052f9ab4b16428df8b28228 uart-40.induction.cvc.smt2
7f7a8002cc84952c5c5724e63c600519 uart-5.base.cvc.smt2
6b82292e9db28c2772d53ee89a05555b uart-5.induction.cvc.smt2
57d49548234164b2a53aebc767ab4cbc uart-6.base.cvc.smt2
764055a1b06ebc6258668be3c670ce11 uart-6.induction.cvc.smt2
7cb9174aa6b4b678996dff3ede5e5f9a uart-7.base.cvc.smt2
2e3b3f7f922a56807a030be73e890c76 uart-7.induction.cvc.smt2
e375eb98bf43cfd5be23526dc9b7888d uart-8.base.cvc.smt2
908694917b277e147ebff263870e1a95 uart-8.induction.cvc.smt2
f9f786ee1b665b679ed3d5246b20746d uart-9.base.cvc.smt2
92347cf56d6e73d4fe3e8ce080da8c3e uart-9.induction.cvc.smt2
