98bea3a8af354d7af414a97791dfb978 query.00.smt2
6290ee0d6fa0414b94029db932c1f57d query.01.smt2
5f91bf8532bc940322e059de75207d59 query.02.smt2
c4e30ce90e906b8f225d23d6d670f6d2 query.03.smt2
4b1272028ad5e2704e4279c80d9c2406 query.04.smt2
f5cb21a860c1442f2aa9bf030c78b206 query.05.smt2
c17f0a7dec26ffb659e6b546881c9e94 query.06.smt2
2c3c19b42dd1400d39ca06e0f5d0bc7c query.07.smt2
0872a3fed21388e071cb8609061ee1a5 query.08.smt2
584aeb1bce28bdd5770d9463d44c24b6 query.09.smt2
e47d050399172db6ab49c8fc3b9cfc20 query.10.smt2
60cd9b95df4fbe4e2daa5f76039c7e67 query.11.smt2
8b3dfce8b8f193202cda12c82895f1c1 query.12.smt2
3a6bea36b9dc0b1e39ff79f79b193d17 query.13.smt2
c35d1033297dc9818e694f35d2009684 query.14.smt2
d9713390f3dcaccab48232feb65e4d49 query.15.smt2
8c922c9e797233fb926af1bb1c6ef0e9 query.16.smt2
b741e7688352305811fbc0a1a500b113 query.17.smt2
a61667e23979f28a6cd00cb5f48b2871 query.18.smt2
f0bc9d796c082aa41512eee705cc9b2b query.19.smt2
8e6dd320ea67f5c9664a4b6de775b354 query.20.smt2
5ca4ca1516124daab0dcc7d34314080c query.21.smt2
a6fa88af11831670af93acc88fe009f6 query.22.smt2
dd67523d39113e407fe2112ec191af7d query.23.smt2
