40af00527a07cc31808fd1199678d08e ARI603=1.smt2
dbd8fd753602499dce9dde46dad0f8c8 ARI604=1.smt2
97b51fd6ef8d6df7ab2f7caf27aa2641 ARI611=1.smt2
266bbb3feea7477c04d7963e37a72efa ARI612=1.smt2
d55d9cbcdb5b0964fbee56cc5a18ba6d ARI615=1.smt2
37b898ca2ce766356f7f3b006ae80ce5 ARI616=1.smt2
2777be8cc027e9ec6a9fcda0ef1c6904 ARI618=1.smt2
76d9603c500f85672a5097ccea81624c NUM858=1.smt2
c3f6784c71931627a9f4e9d9cf22fd63 NUM859=1.smt2
f5b467e4d3b5ce6acd4250363d779442 NUM860=1.smt2
