1c1a9e7c0969e95a601e51255439402c graph-colouring-nodes=125-density=0.1-instance=2.smt2
d78908487e517e69bba84608e737cbfa graph-colouring-nodes=125-density=0.1-instance=3.smt2
a7dce2235772ae2ed95e405575596be4 graph-colouring-nodes=125-density=0.1-instance=4.smt2
f5898829d33ac5925356014f94869fb7 graph-colouring-nodes=125-density=0.1-instance=5.smt2
3a33268dcbfdbfa11698e3f45e936bfd graph-colouring-nodes=125-density=0.1-instance=7.smt2
43495298ff59d4575cb71afc1f3bbeef graph-colouring-nodes=125-density=0.1-instance=9.smt2
9102191c7edcf76ffda79b335136fcdd graph-colouring-nodes=130-density=0.1-instance=10.smt2
cf583ef1306f6aa6e477f74645a9c67d graph-colouring-nodes=130-density=0.1-instance=2.smt2
8950f80681db1dd7cf00fb4cbd9c2b7b graph-colouring-nodes=130-density=0.1-instance=3.smt2
86740347941bd6bb34f5342151aaf67f graph-colouring-nodes=130-density=0.1-instance=4.smt2
6fcc5acb793f5ae1d7f25643bae80c8e graph-colouring-nodes=130-density=0.1-instance=5.smt2
a26e83c0fb13bfd7fa7c799a7602b54d graph-colouring-nodes=130-density=0.1-instance=7.smt2
2ccd26a5912ece0d2fbd4709ff1e64fe graph-colouring-nodes=135-density=0.1-instance=2.smt2
4fa9268ac55bbbf2700e9b2cc6fbee59 graph-colouring-nodes=135-density=0.1-instance=7.smt2
404918d582a65ff52f1aeafc613f37b8 graph-colouring-nodes=140-density=0.1-instance=2.smt2
5ee42973130172232816c7d9d91f9d88 graph-colouring-nodes=140-density=0.1-instance=4.smt2
c66d8d210d6b8560e531ac58850305a2 graph-colouring-nodes=140-density=0.1-instance=7.smt2
44b8705ab195bd9a5cf05eda9e844704 graph-colouring-nodes=140-density=0.1-instance=8.smt2
9c730f8801b654f4df7ffcc8ef09419a graph-colouring-nodes=140-density=0.1-instance=9.smt2
8f75bea32a4f941b49d276f6fa0d1fa1 graph-colouring-nodes=145-density=0.1-instance=10.smt2
3c9bbc707573867b49fd91b0457c9887 graph-colouring-nodes=145-density=0.1-instance=2.smt2
ce70f504389fdd0bf8a3b2eddcc2e5c3 graph-colouring-nodes=145-density=0.1-instance=4.smt2
514fb16d6326013a10940650d8d52dcc graph-colouring-nodes=145-density=0.1-instance=5.smt2
a969a43f216c3408485e2c24da207dba graph-colouring-nodes=145-density=0.1-instance=7.smt2
3b21d938f6a5185b36fb121fb32c8f6b graph-colouring-nodes=145-density=0.1-instance=8.smt2
5d4f164932bc7ad892a4751907e19aa3 graph-colouring-nodes=150-density=0.1-instance=10.smt2
779bab2a20b5faa1e6df731b4fd9b0f1 graph-colouring-nodes=150-density=0.1-instance=2.smt2
a06f025f4f358b8ff801773cd5d33063 graph-colouring-nodes=150-density=0.1-instance=3.smt2
2d185eacf5bba168eda77c00993d9d3c graph-colouring-nodes=150-density=0.1-instance=5.smt2
