62db7a1cb28cf60d261fb11698a78971 pigeon-hole-10.smt2
037347fe66ac716ce71b8a289c20c90a pigeon-hole-11.smt2
a79f65f50993400ed9fbb665bfa99483 pigeon-hole-12.smt2
adb364b030825d8421e88a83a83e1de2 pigeon-hole-13.smt2
6743e83883a35f4fce479b91e404005f pigeon-hole-14.smt2
ff5ace7d838d32f033374f6648dd55da pigeon-hole-15.smt2
7da301e8edb673cca013819baf5fd03e pigeon-hole-16.smt2
3980fc3af7abb059e27d66d7d968f4e9 pigeon-hole-17.smt2
aff38b07f4601af378075996793f6c82 pigeon-hole-18.smt2
4bf6934ab7790248746babfc410d4558 pigeon-hole-19.smt2
b42f7136a97578c25ca1ea8994dab9a8 pigeon-hole-2.smt2
58bde9557c96c82bf26162eb6198f9e6 pigeon-hole-20.smt2
43e27059fe2aca5de247992744ef6e16 pigeon-hole-3.smt2
386bb5eeaad07314b5ed935c97270f29 pigeon-hole-4.smt2
098a1578a84bfebc978e93ec201ae4a1 pigeon-hole-5.smt2
9b1e8731cfa8351c126c19bf441f7477 pigeon-hole-6.smt2
4f2607dc1f58ebdbaf6aefe4f0de6b62 pigeon-hole-7.smt2
d67ffcd8de8d5b5bec3ca239f0c2e3a2 pigeon-hole-8.smt2
f13c91eba2725de0b2c2a581503a3c79 pigeon-hole-9.smt2
