c5455a73f5c32455bd817ad80b42c118 atan-problem-1-chunk-0006.smt2
44b0771172c68254e16a12ae960913a2 atan-problem-1-chunk-0007.smt2
f8a3d0ea98b199f14e01f0e956ca1e36 atan-problem-1-chunk-0008.smt2
df53ee62a879b044634978459d5cfef3 atan-problem-1-chunk-0009.smt2
37db2c49dd28c66d1ef2d51f602ae87a atan-problem-1-chunk-0010.smt2
56107ecf7a80d21c21a5564b1274f364 atan-problem-1-chunk-0011.smt2
a038e5bb5650b2ed5f3c6fb8daf95058 atan-problem-1-chunk-0012.smt2
2e50df486091452e56d9b6e58d6cde36 atan-problem-1-chunk-0013.smt2
7068de2bb384ce127f741650f25dfb7a atan-problem-1-chunk-0016.smt2
f6eeefc949ad5ff0b31b3d3e835a7082 atan-problem-1-chunk-0019.smt2
cfff0dcb6d8f1da02faf239ac95fae8c atan-problem-1-chunk-0022.smt2
21cc474a24023f4bce4e723ab658ffb1 atan-problem-1-chunk-0024.smt2
2aa9c7c603d9d7c280fa1763a4e7563d atan-problem-1-chunk-0025.smt2
e2b2033cf461180ebae1876dbfc3bf75 atan-problem-1-chunk-0026.smt2
76f7181adcd2e12ae3ba977e28135f18 atan-problem-1-chunk-0027.smt2
558ee88565ac4e47d6bd9f82e19ac6f6 atan-problem-1-chunk-0028.smt2
86a1f6ca60b45aa3975b22c27c2e9dac atan-problem-1-chunk-0029.smt2
a08fca7b1b4d3a4fdd398f90a5a6aeab atan-problem-1-chunk-0032.smt2
8047784049626ff77019222a00c1823e atan-problem-1-chunk-0033.smt2
29fc372958e442e1681f8bc281faacfb atan-problem-1-chunk-0034.smt2
72039eced5f662272d79ff631601d470 atan-problem-1-chunk-0035.smt2
ae1d734f7812fa21f7b5311f5c095a78 atan-problem-1-chunk-0036.smt2
8a69622b69064c513093edd5837424df atan-problem-1-chunk-0038.smt2
763b30d9c59416149080ccdf8877f28c atan-problem-1-chunk-0039.smt2
0178bc85d3ecd60324f742bcf71d63ca atan-problem-1-chunk-0040.smt2
0eafba9f4c67beca87370c0e0669cacc atan-problem-1-chunk-0042.smt2
443abb0aaaa6a988c9845b8d60bff5ee atan-problem-1-chunk-0043.smt2
2a2627804c7cc319774eaa09f66f84ad atan-problem-1-chunk-0044.smt2
8d1bbd7966618d867eeff554a3ff7044 atan-problem-1-chunk-0045.smt2
cfd9c191077436973ca4cbf66ca793a3 atan-problem-1-chunk-0046.smt2
e45fdedb633e77664362dca3b3f80e71 atan-problem-1-chunk-0047.smt2
3a22390692a145ca644fa743f615c345 atan-problem-1-chunk-0048.smt2
29100e997269a5b1efc26d17a83d8f5b atan-problem-1-chunk-0049.smt2
6dac29f71cb8277d78445974e267589c atan-problem-1-chunk-0050.smt2
7c5574d05569e458692b4339b8e1e8b6 atan-problem-1-chunk-0051.smt2
13be5ce27ffe63c818f57f1587ec44d3 atan-problem-1-chunk-0052.smt2
27103a63471fcd875d31c64dbfc9bf2d atan-problem-1-chunk-0053.smt2
6dc5edcc48a15a4b5e45810ab5d6bf7f atan-problem-1-chunk-0054.smt2
a2763026fb6f03131bd61a0997bb5ad0 atan-problem-1-chunk-0056.smt2
2c4673921ad1dffd974dbd8dd090e7e6 atan-problem-1-chunk-0057.smt2
9b5053332efcc60951075f24ea3587da atan-problem-1-chunk-0058.smt2
1abfa7659a17508d0825bc38253db367 atan-problem-1-chunk-0059.smt2
c59fa209b74cc9ce5d732e6ef1eac67a atan-problem-1-chunk-0062.smt2
703e29b3b03098373dffdb8ef39bc845 atan-problem-1-chunk-0064.smt2
dbc684c390ce91b5fec1bdff4f814d38 atan-problem-1-chunk-0065.smt2
ebeabb0a1c9b8c48268e78fea6be25ef atan-problem-1-chunk-0066.smt2
3e0990b0fd7056c4f9ac8f53001e347d atan-problem-1-chunk-0067.smt2
c65376c8db756d54b67d20660e79c6b5 atan-problem-1-chunk-0068.smt2
bd55dae722db5e443e5952f3183fded0 atan-problem-1-chunk-0069.smt2
fd24fc1db330216b01d92d66daa2d7cd atan-problem-1-chunk-0070.smt2
2139a92e2977da3897468c6afa890ef0 atan-problem-1-chunk-0071.smt2
171d1423ee1dff2608297b1f1b9c4fb2 atan-problem-1-chunk-0072.smt2
55ebf273d4e6c60dc9fa45c59066d298 atan-problem-1-chunk-0073.smt2
b237e5b126fab2fd31e165163548c422 atan-problem-1-chunk-0074.smt2
8ffdd8989384e0f6b7a92bd425fb76db atan-problem-1-chunk-0075.smt2
251a705ae6ac295fc49c242900cdf2dc atan-problem-1-chunk-0076.smt2
e9d7d995de881b6a71da6b7ba88569b2 atan-problem-1-chunk-0077.smt2
eab6e91b844e2b536f9ad5c2074bfca2 atan-problem-1-chunk-0078.smt2
b77fa5308e981d9a6a67ca11593f30ae atan-problem-1-chunk-0079.smt2
32d3153d0945636f9c969dc484e506ae atan-problem-1-chunk-0080.smt2
2fc08eeed112198705be75f36bd35197 atan-problem-1-chunk-0081.smt2
0e96717eac2affd4940b1a976fb30ed4 atan-problem-1-chunk-0082.smt2
7398d4c9417d49d39bb21e6afc7d797a atan-problem-1-chunk-0083.smt2
0a9f6e1535038683fd91aeded69c9b53 atan-problem-1-chunk-0084.smt2
c6dc20b1eb5504743f0723d89c25b967 atan-problem-1-chunk-0085.smt2
d422638d20f0f79ec67bb36603866bbf atan-problem-1-chunk-0086.smt2
092ed0bb969cc6c5660d250aeb10760f atan-problem-1-chunk-0087.smt2
474927ab927280fa8cb18e6c70a8b6cf atan-problem-1-chunk-0088.smt2
a4b7f6924ba1276d082bd03a6efee0ac atan-problem-1-chunk-0089.smt2
c6d524cb7492c991b40a8a0b79acf27f atan-problem-1-chunk-0090.smt2
80b28604a8abeca10a24772a598b4326 atan-problem-1-chunk-0091.smt2
5e4680ebbf10c180faae6869dc985729 atan-problem-1-chunk-0092.smt2
27034d1b3e5813bb128247293c1ac5ea atan-problem-1-chunk-0093.smt2
ee07bbeb9b185ddadb73581b9b531302 atan-problem-1-chunk-0095.smt2
592c9fc58bc996adfcfddec415e24abc atan-problem-1-chunk-0096.smt2
b0a3809b6841d504ff45742647306605 atan-problem-1-chunk-0097.smt2
08a446fff77d6d4c3302187f2202dea9 atan-problem-1-chunk-0098.smt2
469276639154bed32ead617b38234bb1 atan-problem-1-chunk-0099.smt2
3b15670b9798cbd6383fa6d6607cf2d5 atan-problem-1-chunk-0100.smt2
372a9745fe5b5947a6d980bf18599d3a atan-problem-1-chunk-0101.smt2
f8f3c004ac0b53ad727385f66126f7c1 atan-problem-1-chunk-0102.smt2
dc5f604a5922a98b1b05b917b1f9ea21 atan-problem-1-chunk-0103.smt2
7628e244c8d24abee4ccfe137d83d2d8 atan-problem-1-chunk-0104.smt2
