8ab3c0b4f3eae2f9dc459b1c864b9e74 query.02.smt2
5d4b0f3be4c48749afa183b0344aa1ba query.03.smt2
d71f5c7d7d3b16295c3b08d380809984 query.10.smt2
5d1ed6ef5eaaa0b26c451b5d4806b010 query.11.smt2
0bd97517081237eedda6b563b139b27e query.12.smt2
0207981969992a9793e1a7aded1a80fd query.14.smt2
33d039e422f7065e728a23ab23100db6 query.15.smt2
1e3aaa83669df4097997932ac90dc808 query.16.smt2
f4be037864a4590bd48b21ee55c306d1 query.17.smt2
0bd2c8519408e99850593541a6ef4163 query.20.smt2
00935c895e64db095bb7100c92182891 query.21.smt2
0cdc81a989ffa645656cfd33113920ab query.22.smt2
0d351aeaf2e0586ce287513fbe3586ee query.24.smt2
49f171b7818a7e375d72dd37408bab44 query.25.smt2
aa8f95a3476d7e33c505317d47a3e29c query.26.smt2
