7477dab9ebb5d6c036108bddf78eeb69 baby.1.1.handle_illegal.smt2
ca0cb7e18a89aeb588bf38a1601acfc8 baby.1.10.handle_illegal.smt2
00f5bba9db03c5e1248e62000afca011 baby.1.11.handle_illegal.smt2
91abb143fcf215603863109c923b9fd1 baby.1.12.handle_illegal.smt2
d414f88c4bae5ae49b8a7f113e407173 baby.1.13.handle_illegal.smt2
ddf70803d869e29e7f239456ad11dca8 baby.1.14.handle_illegal.smt2
8687a38bbacab3df4ce2b40bb38f3747 baby.1.15.handle_illegal.smt2
3b97e4d539d5e17ac5c795961a0e3c5a baby.1.16.handle_illegal.smt2
ac95a6b76571e32336317b3323cf4dd0 baby.1.17.handle_illegal.smt2
55b6bfe4ae3058a363f16f917bda1eee baby.1.18.handle_illegal.smt2
5c184f807fa3e93cb4b88747bdccb2b2 baby.1.19.handle_illegal.smt2
05cc446436a5875114241b439a72b303 baby.1.2.handle_illegal.smt2
3ce2f71b79a6cdb0cac1968446d79c21 baby.1.20.handle_illegal.smt2
dbd4290858b031383719dcac9839d05c baby.1.3.handle_illegal.smt2
480a11dfa965aae5b55b4b233da488a4 baby.1.4.handle_illegal.smt2
c10a3fb0826717662d43af74ccd0736e baby.1.5.handle_illegal.smt2
bca28064f66dc17516c45228d56820c7 baby.1.6.handle_illegal.smt2
358ca5800101068c1e51e05b0d8add7e baby.1.7.handle_illegal.smt2
c2b735e821e39277ec6c141cdbb9b29b baby.1.8.handle_illegal.smt2
ca602767cdebb6a81d070336873c5a65 baby.1.9.handle_illegal.smt2
663f5e158d09df3660e0e85824d49252 baby.1.valid_sprx.smt2
ab1ab1c4c664b814c3d8683747c949be baby.10.jump.smt2
c787f3d34d9bf25604ad94b575cb81ec baby.11.branch.smt2
62891a0b25ddb20202939ddf389e4269 baby.12.cfi.smt2
6276649a712b6c36236c6d719c4c6a2b baby.13.link.smt2
908313bfa38e320fbb3df343ddbe6e4e baby.14.jumpr.smt2
ce4099cd8e3d1075b7186491695f98e7 baby.15.illegal_opc.smt2
b629824f63d209af5309c7899169f1e9 baby.16.illegal_fu.smt2
413eee62bf4c98789ea07333b85d5190 baby.17.illegal_opcfu.smt2
db37404614afeccee5582cdebaa964e5 baby.18.do_memory_operation.smt2
24569a26ab290d28fe3097b02ddd3990 baby.19.increment_pcs.smt2
2ec680f003f1e2d71338d0934bda0675 baby.2.1.handle_illegal.smt2
16919d9cbf9f933da3f56fe1c59b376a baby.2.10.handle_illegal.smt2
b1b8e10750d2060c9642d882df24c654 baby.2.11.handle_illegal.smt2
e3946a96742a366cc807e13a9422518b baby.2.12.handle_illegal.smt2
d8072558bc9ae55fd951ca971feb30c4 baby.2.13.handle_illegal.smt2
fce6b503ff40a4beca7ff1cdf19aab71 baby.2.14.handle_illegal.smt2
0550b28c2d89d5a2184af57ef282b038 baby.2.15.handle_illegal.smt2
ec3e2800702826527b5732396c499b1f baby.2.16.handle_illegal.smt2
3ba193d3ccbf17435e792556e2dba3ed baby.2.17.handle_illegal.smt2
819d713467a947be98791527e4bb2869 baby.2.18.handle_illegal.smt2
9bde20a2e5d6e25afaeb1b0ba729d1bb baby.2.19.handle_illegal.smt2
e5a20f103b44afb5e567d08540e1c9c3 baby.2.2.handle_illegal.smt2
c5280ebe88770a8ae878bafbc6963a34 baby.2.20.handle_illegal.smt2
e7ae621b5135a7fdfa08d3d869887c13 baby.2.21.handle_illegal.smt2
1e8cf04828eaf620b17d9c460dd35bdd baby.2.22.handle_illegal.smt2
96e28b80bff78a940082084d5efbe52d baby.2.23.handle_illegal.smt2
cca98c149d897b6843fb4a3d9684a583 baby.2.24.handle_illegal.smt2
e1b4c661abbd5223db91c3d7540d973c baby.2.25.handle_illegal.smt2
7fff020f842e456979d9272c4b177a59 baby.2.26.handle_illegal.smt2
3d5c368e099b61ed156d7df5bc840821 baby.2.27.handle_illegal.smt2
10e82bd13e080ae5e55ceda82b23f98c baby.2.28.handle_illegal.smt2
e0b5b503fb71a03ff6829f8531b183cb baby.2.29.handle_illegal.smt2
8b2253cee2c114b44ef9f416e6016111 baby.2.3.handle_illegal.smt2
1974540161abe46ddcbe806b9f1dfe9e baby.2.30.handle_illegal.smt2
a5d8acb657234d1728488e491dab724c baby.2.31.handle_illegal.smt2
2cae9de09caf5eaeb11aac56afa51686 baby.2.32.handle_illegal.smt2
61f8aafe6d3522acf27e83948d1485b1 baby.2.33.handle_illegal.smt2
12d9d337441538cc885e525ec4610367 baby.2.34.handle_illegal.smt2
09d8dc6808a6ce46bb83fe104b8d2b82 baby.2.35.handle_illegal.smt2
4ccc5fce0cbcf940a37cb420e48fcdac baby.2.36.handle_illegal.smt2
12e47274b48f724e29f5f26a2a73b58a baby.2.37.handle_illegal.smt2
6a049ba5d3fe522c0db675f093ec6cac baby.2.38.handle_illegal.smt2
4abc777b31361bbdc394aff5c49bcd2b baby.2.39.handle_illegal.smt2
526364f0475e64a4c01bdc2771745e98 baby.2.4.handle_illegal.smt2
4d8c3be19aab1227ac756e5eab05c7fc baby.2.40.handle_illegal.smt2
49b189000fc2823ad362805ff3233515 baby.2.41.handle_illegal.smt2
af6fad248a6d328d7364b772dc2c0920 baby.2.42.handle_illegal.smt2
c90c8a4f68c3f0e1b4caeb1da20aa671 baby.2.43.handle_illegal.smt2
ff85929c512627c87744d6a495695d8f baby.2.44.handle_illegal.smt2
fb0372216709e4cb121b1093dc2f1cdb baby.2.45.handle_illegal.smt2
87d44f61ab8238db5c42f26911a80eba baby.2.46.handle_illegal.smt2
3a0870ff411fbdee34e1b7cce071e1ab baby.2.47.handle_illegal.smt2
812ff57a9c8eadd847a3a518eb7a76a4 baby.2.48.handle_illegal.smt2
cdff177ec78fd75722ff9cbf8001ac3b baby.2.49.handle_illegal.smt2
cfb400dfd065f8a2e2c229806f379e28 baby.2.5.handle_illegal.smt2
9f55caa7737499b193bcca0e49f47382 baby.2.50.handle_illegal.smt2
3d5743327fc133e6d007d9fcfffeafde baby.2.51.handle_illegal.smt2
2b08f74cd12b76a3d949a242324dad27 baby.2.52.handle_illegal.smt2
2379a1c169c522d9c8d7edca8c5e65bf baby.2.53.handle_illegal.smt2
04e9133f5f17b200a7ac6430b3a07d1c baby.2.54.handle_illegal.smt2
a7a69a36083572945d87d34f228f2202 baby.2.55.handle_illegal.smt2
5242a5ca0bf83851609ca8c32cdd8fb5 baby.2.56.handle_illegal.smt2
2d26f003ca18c41a3017b84834622022 baby.2.57.handle_illegal.smt2
c724818752260e8e04ea03d644b34d5c baby.2.58.handle_illegal.smt2
54d056f853542f886052cbc001fc7111 baby.2.59.handle_illegal.smt2
a2c314a347b7457be250dcf522bebd6a baby.2.6.handle_illegal.smt2
1d6aebb3d17d247ba953c8b094b80498 baby.2.60.handle_illegal.smt2
af2a3ec516402a212547cbf307c8c9ad baby.2.61.handle_illegal.smt2
acaa874aaca7f20727116e1b27a4043f baby.2.62.handle_illegal.smt2
f983596eaadf456c972ffd152c5d41ba baby.2.63.handle_illegal.smt2
2fa1888d7166b71d7c306eefc9162a21 baby.2.64.handle_illegal.smt2
db189f8132a23a55a252ecb3e73be720 baby.2.65.handle_illegal.smt2
ad39e34fc15b726caea6e91812cab9a6 baby.2.66.handle_illegal.smt2
64dc9e6e958b17666c81e06ec90df3aa baby.2.67.handle_illegal.smt2
998d116af7568fef40518c8d605e9032 baby.2.68.handle_illegal.smt2
5a4545860f59823b4e56b0b781947db1 baby.2.69.handle_illegal.smt2
f44f2f5a86a68b4ca2323c5b08b0c3b4 baby.2.7.handle_illegal.smt2
cd9b41264010f1cffafddbcc0c51070c baby.2.70.handle_illegal.smt2
8f971ce9a6c2bab3093c074a10c16005 baby.2.71.handle_illegal.smt2
e141b2dd7b058b45b02da61874269fd1 baby.2.72.handle_illegal.smt2
0e15aa3b8f8e464f81bd5db3d6d5148c baby.2.73.handle_illegal.smt2
898847c399e5cb34c9ad81150bb92c44 baby.2.8.handle_illegal.smt2
a07b98e8cbdbd52f4534a86f0072c01a baby.2.9.handle_illegal.smt2
7f30ca58d19dd72daa6217b59a4f3b52 baby.2.usermode.smt2
0dbe694c3edecd3ecce45eb066bafa29 baby.20.btaken.smt2
1ef3540519e1869a6c3c99665e9ef4f6 baby.21.bjtaken.smt2
67c2b20c4d9b3b89066c44d600796ae9 baby.22.target.smt2
2ff0cb4529f02e938f0169ae1c6c57ad baby.23.exec_cfi.smt2
9ec923d295180631988779bc7b95daab baby.24.exec_movi2s.smt2
afe1ac79f7f5f09a86e8e7806ee7f5f6 baby.25.exec_movs2i.smt2
89ab1d0c740fce5add583b65dd2cef4a baby.26.exec_rfe.smt2
b41d7c8fd88fd5f03302b804c72b201b baby.27.exec_trap.smt2
514c9d8bbcae99bde45315d5f2b507a6 baby.28.compute_ea.smt2
ae63e86779eb7eeb8cabbb833d0fb72a baby.29.exec_ls.smt2
d0c7905c4083906d04c5e368fff8ed45 baby.3.systemmode.smt2
45d7eb4fadd1c31447ca5897121cc7b1 baby.30.exec_shift.smt2
a41bc0ce491e78a7485ec727707b656b baby.31.exec_alu.smt2
3fccf7aae804ec77bdaf6aab10316ee4 baby.32.exec_jisr.smt2
27dcc7b77a8f6c118242f6bb1bd76638 baby.33.exec_instr.smt2
eb92933ce9ba8dbe33c1690862a9e152 baby.34.vamp_step.smt2
e04a282c0320b836cd5fef8573372cc5 baby.35.pma.smt2
c87b6675c9e9cd18dd827007dafcf05d baby.36.ptea.smt2
3de5f752facfe8ae592226a1e67bc48f baby.37.pptea.smt2
f253dccb52f0a51f7129a126aa3d385d baby.38.update_spt.smt2
b7b092fb2e4e0490a1e910fa30bba911 baby.39.handle_movi2s.smt2
6a82934540c594922736c896b99f8ddd baby.4.valid_il.smt2
97253ba8e4a094e9f8b6cabed872f841 baby.40.handle_movi2s.smt2
c76252cf4007aa3f0854322ae944f3c1 baby.41.handle_movi2s.smt2
73705f214c6713661a699a6af644b49d baby.42.handle_movi2s.smt2
0461d24f5a4e1ed4da310faca62089ae baby.43.handle_movi2s.smt2
3c63c53903d6196ef038c80f53dfbaa8 baby.44.handle_movi2s.smt2
1ded007fed352bee80bf1ca296f78f39 baby.45.handle_movi2s.smt2
eb6232dd4316f2222f7974fac7507abc baby.46.handle_movi2s.smt2
b2c18c58fa0fa4c3061a867898b85555 baby.47.handle_movi2s.smt2
7513a7ec953ee80e43556965dd093a2e baby.48.handle_movi2s.smt2
4b2fdd4cac44541b50da75833cb97b48 baby.49.handle_pf.smt2
4b66e8c52b93eec142c329a294618a94 baby.5.repeat.smt2
11abf4eda69ba11c3145bcfdd8146880 baby.50.save_guest.smt2
cfb9f6e7231b53c10947f05e0b4ba55f baby.51.restore_guest.smt2
c8882f6e68ab743cbd5ee97864f7486f baby.52.reset_guest.smt2
a631a6f6edbdefca60b5db82b1ddda4c baby.53.reset_guest.smt2
e80890e28f2344702d4fe2744b72f560 baby.54.reset_guest.smt2
844bc335a86f5d0fbbd9ae381c918f7d baby.55.reset_guest.smt2
c3e4197c124aa81be4684b4bcca9f7dc baby.56.reset_guest.smt2
e2ed85a7b5c7005ec74243e597d06760 baby.57.handle_reset.smt2
c41b39a23efae2d7491951f9dd6496b4 baby.58.handle_reset.smt2
21ba5cbfc5bcea4eb0786bbba42ea111 baby.59.handle_reset.smt2
576c3a7aa23681184b3429f8fd5daa7f baby.6.rtype.smt2
2bec073fd0392bc63e827bb5ab1f4742 baby.60.handle_reset.smt2
bdeae7a1a4795baccb50f3b2efb466de baby.61.handle_reset.smt2
8d8d1f51726e8c4df762004dfbfeaf44 baby.62.handle_reset.smt2
7fc5359e9035d53a32775f743b9ef06a baby.63.handle_reset.smt2
5edcfe513b3b298478418d665cfaa28a baby.64.handle_reset.smt2
73aa1419d5dfc680beeb68291709cac9 baby.65.handle_reset.smt2
3c75fab538ad35623c1ab493dcbff92a baby.66.handle_reset.smt2
3ffc02488f39cc89e2b160220e761296 baby.67.hv_dispatch.smt2
ac8ee014efdcf6487de3f2ecef1c885f baby.68.hv_dispatch.smt2
7c457bbd5ad19b1febcb5851b5263ad1 baby.69.hv_dispatch.smt2
dfd3d6a89ba97be4f6e4111f675135b5 baby.7.jtype.smt2
c244048cc82d479783cdbfdabd357d9b baby.70.hv_dispatch.smt2
d732d90aff663b226d1210a1c464d306 baby.71.hv_dispatch.smt2
bd9636f63f0170015a3bc3b3e420d2d3 baby.72.hv_dispatch.smt2
785d9a67e63eb03a1d16c6a614661f2c baby.73.hv_dispatch.smt2
584b848e3f779c73e4369d194c7fcf95 baby.74.hv_dispatch.smt2
e378d5b8d509fb152439612a896d404a baby.75.hv_dispatch.smt2
5da5e81b80ee8e24458c2edadf80bda1 baby.76.hv_dispatch.smt2
33b8a1d09d165b49f788375f1ed5d08f baby.77.main.smt2
ad188fab6ed215416e416799afa67b98 baby.78.xmatch.smt2
fb06e6b756cf23a7fd5188405fbd1084 baby.79.hpt_maps_to_gm_strong.smt2
dbe4f8e267707524e56e1f29950f5338 baby.8.itype.smt2
67af74fb337b70a43d425dd1135c93e4 baby.80.spt_maps_to_gm_strong.smt2
80e6519db6ac7fde2ab8a0a7efb7021a baby.81.malloc.smt2
7d2d42ff7f987ce2cacb8f7eebc47324 baby.9.privileged.smt2
561c45d96ff3261eac5d0578b617d8b1 BinarySearchTree.c.1.inv.smt2
0c9d302dce39852f5c1635978296ae00 BinarySearchTree.c.2.MakeNode.smt2
f8411a03466a4ab4d7fa4d41a6271470 BinarySearchTree.c.3.Insert.smt2
6dbeeffad335baedfc90db3fdebcc2b1 BinarySearchTree.c.4.inv2.smt2
3026530e8108933b027c7515fd1424eb BinarySearchTree.c.5.NodeFootprint.smt2
29d4d003369f72cacac73145defa339d BinarySearchTree.c.6.malloc.smt2
2da46ffb2419795f91f5b7d13cab4130 BinarySearchTree.c.7.NodeSetToRegion.smt2
521d2751a02a676680291258e62fdf0d CWindowsCard.c.1.strnlen_s.smt2
e00a9e0954f86c61bf96ab59e882cd6c CWindowsCard.c.10.DP.smt2
d3b3a4a185a90b59ae10caaf42af1ff8 CWindowsCard.c.11.Terminate.smt2
2458ba6ff61fbddea2b7fa5d2c2c2597 CWindowsCard.c.12.ApplyALU.smt2
6ce5c1bfbfe286d22ee01f30586460f5 CWindowsCard.c.13.OpArith.smt2
c9f731881336b0d00a59a705510f9991 CWindowsCard.c.14.OpLDA.smt2
21f6894d5569ff3c2f253fa3a0a44603 CWindowsCard.c.15.OpLDAC.smt2
5b13a3ffb8cc0087b7ca66630a42449c CWindowsCard.c.16.OpCLR.smt2
7d3615b65f5a9da71d34c583e3589870 CWindowsCard.c.17.OpDEC.smt2
44618222884492671aef94179a3cd71b CWindowsCard.c.18.OpINC.smt2
a502b5bb460d701e467ac330f2f40c39 CWindowsCard.c.2.wcsnlen_s.smt2
1012a1ab74aad2339d5ba4d2f4f0e836 CWindowsCard.c.20.OpConditionalJump.smt2
ad84e3e0950fb63eef34c63b3a381231 CWindowsCard.c.21.OpCALL.smt2
4ab7101c12db7200d0b8886fd4f0b682 CWindowsCard.c.22.OpRET.smt2
4b8ec79de74798399de8f3c75fd775d4 CWindowsCard.c.23.OpNOP.smt2
48eace29e74e5e2c407db7ad0988e6ab CWindowsCard.c.24.OpEND.smt2
de7b8f9b6fc71ae82cf56885d292cfcd CWindowsCard.c.25.OpESC.smt2
3f1d8beedff2bb529feec2de1f6f7dab CWindowsCard.c.26.MOpNEG.smt2
6c082a51b7eb5923744cd16204ea745f CWindowsCard.c.27.MOpArith.smt2
549942a86c120f3a3a1214493472c120 CWindowsCard.c.28.MOpJMP.smt2
8d38703d276135f42703d159ab15557a CWindowsCard.c.29.MOpCALL.smt2
29fc2bd19587e69488a3d7d26b2cf38a CWindowsCard.c.3.die.smt2
d0997f855ecf6d10eeeb4d4ea84ca6ac CWindowsCard.c.30.MOpRET.smt2
8f117237cedbceef8c6061237ec0dbc4 CWindowsCard.c.31.MConditionalJump.smt2
e55c7c2e6ddf308de8c0eaf0ed0ac6af CWindowsCard.c.32.MOpDUP.smt2
afd181e73ea168b1d5a64c2439f67011 CWindowsCard.c.33.MOpPUSH.smt2
73890f0d3b765283c2eb5a306e345653 CWindowsCard.c.34.MOpSWAP.smt2
169a4ae619e492725a41d3b86b0fd155 CWindowsCard.c.35.MOpPOP.smt2
b7246f356dd093995e5f3a3db9372d8e CWindowsCard.c.36.MOpPOPA.smt2
3acf37a6f82c4f16d9243a6491d5973a CWindowsCard.c.37.MOpPOP1.smt2
6d9238f827114f78b623b357c5de7df3 CWindowsCard.c.39.MOpEND.smt2
cac3845df127377ccb2907a051ab1c79 CWindowsCard.c.4.InSandbox.smt2
fc67623f776e0f03c8af53945d918e4f CWindowsCard.c.40.DecodeOperandType.smt2
1776192bed539b48eb2e77f453fab252 CWindowsCard.c.41.nondet.smt2
c8430ca741bf5c1c6e63cfef56daee42 CWindowsCard.c.42.ExecuteInstruction.smt2
667e25f454e860e40d634ef1112e9310 CWindowsCard.c.43.ExecuteInstruction.smt2
2773eda4f5fb5e06d895533360457f71 CWindowsCard.c.44.ExecuteInstruction.smt2
1267a2f04350008aa30fe9af434c1af9 CWindowsCard.c.45.ExecuteInstruction.smt2
842cc10c99cd9f5a8a04a8e56e8c9183 CWindowsCard.c.46.ExecuteInstruction.smt2
4db4a431215948a46db2f27a372f6c2d CWindowsCard.c.47.ExecuteInstruction.smt2
2e4aa4163bc238821b1e28d8e1246d16 CWindowsCard.c.48.ExecuteInstruction.smt2
195ae4b8abce5ae40607861ade681f8f CWindowsCard.c.49.ExecuteInstruction.smt2
474f63ff3c99376475ee5c054510e97e CWindowsCard.c.5.inv.smt2
a408df8fb0db08f8635b27e56ed69056 CWindowsCard.c.50.ExecuteInstruction.smt2
c12c2ea78b533b39a39bdbd51803657b CWindowsCard.c.51.ExecuteInstruction.smt2
673b1ea89530b6e9639f26e6b0b6fa17 CWindowsCard.c.52.ExecuteInstruction.smt2
23d140d4f736b082f22c114f2d56c6d0 CWindowsCard.c.53.ExecuteInstruction.smt2
9b73be3bdea231ce5cdf0dd34e3d3d43 CWindowsCard.c.54.ExecuteInstruction.smt2
c8b51720f33018ed90bbedda24970221 CWindowsCard.c.55.ExecuteInstruction.smt2
849b925faae12e8fa10abe1fff2ed365 CWindowsCard.c.56.ExecuteInstruction.smt2
6ce7b131c68cec91170373f32f4ad91f CWindowsCard.c.57.ExecuteInstruction.smt2
57dc3430bf3a53d748b04c6bf807c92e CWindowsCard.c.58.ExecuteInstruction.smt2
ef3d091da0b54338da796f1a4085600d CWindowsCard.c.59.ExecuteInstruction.smt2
5382a4abae85e4c9886b956fa3d4b9eb CWindowsCard.c.6.init.smt2
bd531cbb993217222fcbeec535d753a3 CWindowsCard.c.60.ExecuteInstruction.smt2
c91a972b7a09620de1672f24034397de CWindowsCard.c.61.ExecuteInstruction.smt2
d52a6f4c06c480252516a5871621212c CWindowsCard.c.62.Run.smt2
0a56b69176ad9b6f6dc79994edb3340c CWindowsCard.c.63.strnlen.smt2
74b4129de64c2a133e8e5f34f1418b73 CWindowsCard.c.64.wcsnlen.smt2
58967b9171a2c00c0420ea8c4248bdac CWindowsCard.c.65.memcpy.smt2
d0e9a69641841d0cbce5f9497f4f289a CWindowsCard.c.7.apply.smt2
41ce671ccae319ffb9b80d230f34a65e CWindowsCard.c.8.ApplyQuad.smt2
6813569c68cc337f4e0d4a045c82f728 CWindowsCard.c.9.carry.smt2
87d0db0c58b4f2c61a84ed16a43c354b fact.c.1.fact.smt2
4006c7adacc75f653ae9019580f5bbc7 fact.c.2.mul.smt2
4a7b1c04832d3dd45f81f33d8fdc5d56 fib.c.1.fib.smt2
1d3d11415a29d73ee1bdde87856be51e frame.c.1.foo.smt2
247e9dae12fc4d1758ae7e6d6d9ab94d frame.c.2.bar.smt2
b109eb861b072ce49b948744d3316f2e havoc-bench_001.1.main.smt2
0232d71e8bca45b25b4f5510423d400f havoc-bench_002.1.main.smt2
e223731f04eb87c5b0a5d7ed45341417 havoc-bench_003.1.main.smt2
cc0e4abb68704bfa70f2ec1aa7efac95 havoc-bench_004.1.main.smt2
af60f61bdae2be94ad24c4eec9b325b0 havoc-bench_005.1.main.smt2
a254792c0af7709d2f2f0970fe34f618 havoc-bench_006.1.main.smt2
bcb05bf467a703ab18e7c6a93c71ec0d havoc-bench_007.1.main.smt2
663caf1a06dd896ae96b5fcbe62ef3e9 havoc-bench_008.1.main.smt2
08fe1e8c502f407fa7f69ab4a3472dd7 havoc-bench_009.1.main.smt2
0683e17c63015097e1535ad42e7002e5 havoc-bench_010.1.main.smt2
11d5cfe30022785b9b06b8e81c519c87 havoc-bench_013.1.main.smt2
5878194cd3a94806fe889ee1c7805b04 havoc-bench_014.1.main.smt2
4811115375dcc9772b09c22d3cea2d21 havoc-bench_015.1.main.smt2
22952558bbaeea64c4e3ef095e9301b7 havoc-bench_016.1.main.smt2
0934bac550f07c6f846c10418ada0164 havoc-bench_017.1.main.smt2
08b45335142a9d7f4e4c333ebe60f71d havoc-bench_018.1.main.smt2
c4c5649adad3772b98bbae73f5ce84c6 havoc-bench_019.1.main.smt2
dfb4656b68eede0bb4939920ca24441a havoc-bench_020.1.main.smt2
da950fae548d32344626c78f74b5a441 havoc-bench_021.1.main.smt2
618d2fc94eccb628c1cd73844f76ba33 havoc-bench_023.1.foo.smt2
2e2bf9e2a21ed7afa04892ed3c413aff havoc-bench_023.2.main.smt2
14cf4c8ee4f8e9e9f05bc1683367fed8 havoc-bench_024.1.foo.smt2
23ee2d66e1140d6aed9cf297a6ec2679 havoc-bench_024.2.main.smt2
e8827966cd975ab7eab9d1834e99a4dc havoc-bench_032.1.AddElement.smt2
669f518e244c6af25025a6223eb8f8e0 havoc-bench_032.10.PtrToPtr64.smt2
86362674de0d8d41f2d995c659d29f51 havoc-bench_032.11.strnlen_s.smt2
36ae8f3951e1c0209bf0e542d287288b havoc-bench_032.12.ua_wcscpy.smt2
fd9f3cb858f2037bcd8a43745cf38982 havoc-bench_032.13.wcsnlen_s.smt2
c06e68c82778be25a1cf6a8012f52d7c havoc-bench_032.2.Handle64ToHandle.smt2
973b17b8f1d187a60c885fada27814ef havoc-bench_032.3.HandleToHandle64.smt2
c34c56f9b153423c95f28136ffe7ca53 havoc-bench_032.4.Int64ShllMod32.smt2
6722f73f9430d10d44d87054829e6784 havoc-bench_032.5.Int64ShraMod32.smt2
45977fffd52d02eb2f56cf92366ebaa0 havoc-bench_032.6.Int64ShrlMod32.smt2
207434706b00d964dba3defe19b56db4 havoc-bench_032.7.InterlockedBitTestAndComplement.smt2
186f223ef4146f1dc49bd2226129fbff havoc-bench_032.8.MemoryBarrier.smt2
0eb727b14914729aaca5f8ad5d727e56 havoc-bench_032.9.Ptr64ToPtr.smt2
d82be050f0671fd242daff7452a1891a havoc-bench_036.1.AddElement.smt2
d60216be9c073705123aeca3391dbf8b havoc-bench_036.10.PtrToPtr64.smt2
0eedb0b7be1a379c60024407523ef17f havoc-bench_036.11.strnlen_s.smt2
6c16a1b5c811f12d2c613ef5666a7220 havoc-bench_036.12.ua_wcscpy.smt2
66a974de8535cecb9adfcf7dca13b4b0 havoc-bench_036.13.wcsnlen_s.smt2
8a7a18e1ba5140794b27801642e10d6d havoc-bench_036.2.Handle64ToHandle.smt2
93788b3a1b2c04e5f9baf4b8c6e608c4 havoc-bench_036.3.HandleToHandle64.smt2
b3b2855c6d5f5f1f8fbeece00bbbf8d3 havoc-bench_036.4.Int64ShllMod32.smt2
a41fd799b4ff10781c2d34362b5164ca havoc-bench_036.5.Int64ShraMod32.smt2
09c79c5bbd9457f45f3b8e4133b9375d havoc-bench_036.6.Int64ShrlMod32.smt2
ba23770ba16faaab181a70b15c6a6a0e havoc-bench_036.7.InterlockedBitTestAndComplement.smt2
7ecf926812695c12682d21dccb5a0a89 havoc-bench_036.8.MemoryBarrier.smt2
63b8471da777df67c2a3b633e7e5d38c havoc-bench_036.9.Ptr64ToPtr.smt2
df7bb8a50d1a5c45a3f36f890c518460 havoc-bench_038.1.bar.smt2
21c284019a3ee03310ddc6bcf21bea53 havoc-bench_038.2.copy.smt2
60b3f87855d21444be5b4af22687b368 havoc-bench_038.3.foo.smt2
1bf7dae7b4da5f30308f192d0e5ebaf4 havoc-bench_039.1.Handle64ToHandle.smt2
1868a1623e4bd35e3bd1a2ba58d70ef5 havoc-bench_039.10.RemoveElement.smt2
1a8657fdae38e923322fdc3933f6b0a6 havoc-bench_039.11.strnlen_s.smt2
e97b519898a32e06d8f2ec07131ac747 havoc-bench_039.12.ua_wcscpy.smt2
0f063ff8500f7db62d5b72e25f45f2b0 havoc-bench_039.13.wcsnlen_s.smt2
0f3ac280258c46a994000e641645646f havoc-bench_039.2.HandleToHandle64.smt2
663441e6b878515000dd89134d9a1e21 havoc-bench_039.3.Int64ShllMod32.smt2
6d8b5a6c0be43a91c0c63b9452e021c3 havoc-bench_039.4.Int64ShraMod32.smt2
515badfc111e1e159f557c83039ac56e havoc-bench_039.5.Int64ShrlMod32.smt2
f92e2769a6df01d58017f5fe66e200a2 havoc-bench_039.6.InterlockedBitTestAndComplement.smt2
542adbaca6ea5d679dd9b751ef52cd07 havoc-bench_039.7.MemoryBarrier.smt2
e2156790a254341967a465027b286829 havoc-bench_039.8.Ptr64ToPtr.smt2
332a87b591068d9940ce50c37e679ea1 havoc-bench_039.9.PtrToPtr64.smt2
9e0211e34de2aded13553bf9e63fad22 havoc-bench_043.1.AddElement.smt2
9a3f6a76a8327fcf32ee33db91b3df81 havoc-bench_044.1.reverse.smt2
d019350bd6b68a2c3045941c3dbfc8bb havoc-bench_045.1.reverse.smt2
fdd767d2cf8d2927deafe9144eefd5b3 havoc-bench_046.1.bar.smt2
0cee07e7d524591add0f51e55cd4b752 havoc-bench_046.2.foo.smt2
5850a5314576c95efeb7980d3373cd81 havoc-bench_047.1.main.smt2
4e43e70d0727533a9f99a14ba8c9cbef havoc-bench_049.1.main.smt2
15ad1926cce4e16d4f1be95b73726432 havoc-bench_100.1.main.smt2
c4bd9e785f1edbb0bcfac786a87104c1 havoc-bench_200.1.main.smt2
6b5e184b7b54270fcfe95ed1c3634ee2 havoc-bench_bubble_sort.1.bubble_sort.smt2
c50fe06f83cf8ddd8cb56c257272aafd havoc-bench_cyclic_list_iterate.1.Handle64ToHandle.smt2
8fbc5cac316339469b9532fec60803b8 havoc-bench_cyclic_list_iterate.10.PtrToPtr64.smt2
168608d248034a127649aaaa07414055 havoc-bench_cyclic_list_iterate.11.strnlen_s.smt2
137d3ed06fb37531e514aab1030e614b havoc-bench_cyclic_list_iterate.12.ua_wcscpy.smt2
3e2a2c06ba71f50e28417c5d9de0e5f7 havoc-bench_cyclic_list_iterate.13.wcsnlen_s.smt2
385df067027ab33c8450ee3c5be8b82a havoc-bench_cyclic_list_iterate.2.HandleToHandle64.smt2
b4c127f71a39696266a9aa183e0abaf3 havoc-bench_cyclic_list_iterate.3.InitializeList.smt2
2f5b8815e901919cd9f6c8daf9559e7e havoc-bench_cyclic_list_iterate.4.Int64ShllMod32.smt2
486dbd3a5b18306bb89b171a6ad54029 havoc-bench_cyclic_list_iterate.5.Int64ShraMod32.smt2
a57d60d3dec8281224b620c283da29cd havoc-bench_cyclic_list_iterate.6.Int64ShrlMod32.smt2
cbb210835630fccc7e6e592ff79fcf97 havoc-bench_cyclic_list_iterate.7.InterlockedBitTestAndComplement.smt2
4d5a2903703b01ba7748deb958c839ca havoc-bench_cyclic_list_iterate.8.MemoryBarrier.smt2
56ae0c0417b5aad96531f97932ff8e4e havoc-bench_cyclic_list_iterate.9.Ptr64ToPtr.smt2
b4f9bbe08edf90bf9364b869a85025cf havoc-bench_dlist.1.Handle64ToHandle.smt2
eb217ac3793464ff328390a74a6e83d4 havoc-bench_dlist.10.dlist_remove.smt2
851b788d2d8bdfbc5716338648880992 havoc-bench_dlist.11.strnlen_s.smt2
46bfc52bc44ed13f3047c67a8c3a1444 havoc-bench_dlist.12.ua_wcscpy.smt2
856d7e3686ccd9aa78121b4c453ce1bc havoc-bench_dlist.13.wcsnlen_s.smt2
9fac5cd67d9e4e1c5be5969a8804a069 havoc-bench_dlist.2.HandleToHandle64.smt2
d9a359c1e9c5b68ba2d9ceda8db9802a havoc-bench_dlist.3.Int64ShllMod32.smt2
88afafa6c711a7e9e759bd077adeb0e1 havoc-bench_dlist.4.Int64ShraMod32.smt2
097d85b5afab0ebc7eb471c076431b7c havoc-bench_dlist.5.Int64ShrlMod32.smt2
23c0bf9268c3f214c1b1e14a3611b673 havoc-bench_dlist.6.InterlockedBitTestAndComplement.smt2
cc3bcd564e37e359d2758d2891b2281b havoc-bench_dlist.7.MemoryBarrier.smt2
7ebf3b7256e6a00acd809fadd9d665b4 havoc-bench_dlist.8.Ptr64ToPtr.smt2
9a0abb00efeba800d4739e513d41169e havoc-bench_dlist.9.PtrToPtr64.smt2
f19cfd7b8b8e4c03c3ffed6dd5ab6e2e havoc-bench_dlist_insert_head.1.Handle64ToHandle.smt2
5e662a2cc7c580aaab4d832a0ca8b115 havoc-bench_dlist_insert_head.10.dlist_insert.smt2
4adf1230b78e1fc45d36e4abbeb9aed6 havoc-bench_dlist_insert_head.11.strnlen_s.smt2
b2ca037a926896ea19cdeb8cd2e77eba havoc-bench_dlist_insert_head.12.ua_wcscpy.smt2
ae27b6afaee2a1cfe94eadeaea298435 havoc-bench_dlist_insert_head.13.wcsnlen_s.smt2
9c24ccb108dc23c95f100475cff6ced5 havoc-bench_dlist_insert_head.2.HandleToHandle64.smt2
c615288b09f8f0917eed912425c19a88 havoc-bench_dlist_insert_head.3.Int64ShllMod32.smt2
a58e2a2e4da5e4567ce46cbfc6e82dcb havoc-bench_dlist_insert_head.4.Int64ShraMod32.smt2
5de65688047e587f69eccc5aa77008bf havoc-bench_dlist_insert_head.5.Int64ShrlMod32.smt2
2b9a4816d2500f72e9760760045afefa havoc-bench_dlist_insert_head.6.InterlockedBitTestAndComplement.smt2
80c0c59172702b0909864b324bdca4d2 havoc-bench_dlist_insert_head.7.MemoryBarrier.smt2
e8cf2ff23a7e7948071970accc0e8308 havoc-bench_dlist_insert_head.8.Ptr64ToPtr.smt2
164bed536c9f8478f306416fdca77788 havoc-bench_dlist_insert_head.9.PtrToPtr64.smt2
e9bb63a279cea5a385f29c8c26fc07b2 havoc-bench_example1.1.CreateXlistElement.smt2
3195d07c4fcd4dd355b1972cb156866e havoc-bench_example1.10.MemoryBarrier.smt2
642952036270e493e967f6a77052604d havoc-bench_example1.11.ProcessXlist.smt2
40ac7c03ae196ae7ff55681af027f7a3 havoc-bench_example1.12.ProcessYlist.smt2
58df93c4de889ce1acbc7f695117ed13 havoc-bench_example1.13.Ptr64ToPtr.smt2
330a8cf1f6d848a77bb2925bcf513083 havoc-bench_example1.14.PtrToPtr64.smt2
a6638453adc432d1350b4b864e0f3e07 havoc-bench_example1.15.RemoveElementFromXlist.smt2
80ce3636de5364e8419dc6356e4598d5 havoc-bench_example1.16.RemoveElementFromYlist.smt2
bbcc86c33179b6933654e4b264a9ca65 havoc-bench_example1.17.strnlen_s.smt2
461c7cb0959fcf84cd2982cce018f676 havoc-bench_example1.18.ua_wcscpy.smt2
2307447f327711fe502b4c50968ecb96 havoc-bench_example1.19.wcsnlen_s.smt2
62350207fff188ee3591967242bc1d4d havoc-bench_example1.2.CreateYlistElement.smt2
9fc09af36f3faa4c34e86baa7a55dcf6 havoc-bench_example1.3.Handle64ToHandle.smt2
4ef0bd3e6e74d266da5ebd1ce9a59c68 havoc-bench_example1.4.HandleToHandle64.smt2
926a6f8cf38968239ea85c9d922cc894 havoc-bench_example1.5.Init.smt2
f54c441dc04a4a01624fb8f286cd7e27 havoc-bench_example1.6.Int64ShllMod32.smt2
11bee11d0f866c92582cb9dd05e4e8db havoc-bench_example1.7.Int64ShraMod32.smt2
d64b540ec579aca4c485d3ff9eb1d6be havoc-bench_example1.8.Int64ShrlMod32.smt2
6c22b8444af0e7b5db34c389affb8fbe havoc-bench_example1.9.InterlockedBitTestAndComplement.smt2
082def739f0243596bcc8dc56bc2c51d havoc-bench_quick_sort.1.partition.smt2
f4d2323489169a3a8ad4f1940bb62f3c havoc-bench_quick_sort.2.quick_sort.smt2
69293794e4ea1e1c1826799450fc896e havoc-bench_sm_001.1.bar.smt2
dbae303aab9bc2ddb48932147d5061e5 havoc-bench_sm_001.10.testAddressOf.smt2
be7d08d189e2f65b8ef3863e1a90a20d havoc-bench_sm_001.2.bar1.smt2
b0592d518895a4afc71cd0846f1ca8ef havoc-bench_sm_001.3.baz.smt2
bb4a1aacf0b450fca56d80bba05329d5 havoc-bench_sm_001.4.baz1.smt2
06e55e3f3c4b95de3fb7f273d670ea74 havoc-bench_sm_001.5.baz2.smt2
ef4a5547f67ba01d2ddab9a316183bd6 havoc-bench_sm_001.6.baz3.smt2
1b1996c8da84dee42f83584de89737b8 havoc-bench_sm_001.7.baz4.smt2
4d6ab454b33a2100cb7db9c8d4c56fcd havoc-bench_sm_001.8.baz5.smt2
0c7e7bd4fb6c135b2512f7351073f74f havoc-bench_sm_001.9.foo.smt2
4b15d6f65921903504c61d89cb90c58d havoc-bench_sm_002.1.Handle64ToHandle.smt2
947e108d061093fd1dca8857b1750162 havoc-bench_sm_002.10.Ptr64ToPtr.smt2
72dd4290f3e632ef003fb01d629ed5d0 havoc-bench_sm_002.11.PtrToPtr64.smt2
5863cc7e239702608261c75e08f940be havoc-bench_sm_002.12.strnlen_s.smt2
d6f6e7fea02d466d6d943cf9f616b1f5 havoc-bench_sm_002.13.ua_wcscpy.smt2
ceb73ef9d0df1ec0531c6992ad0a6e1a havoc-bench_sm_002.14.wcsnlen_s.smt2
91d3a21b7bc43e652730856582b548ff havoc-bench_sm_002.2.HandleToHandle64.smt2
136d2e540e35d1cba16ee782a742badd havoc-bench_sm_002.3.InitializeList.smt2
4876ffdb1817c3b184d593d717ed626f havoc-bench_sm_002.4.InitializeListBlink.smt2
ef9fa67e1d6979a89599136d4665f4bc havoc-bench_sm_002.5.Int64ShllMod32.smt2
cc75c99859db4f73f962f59914116ead havoc-bench_sm_002.6.Int64ShraMod32.smt2
dddbff6aa02c07546e7b3bef8f93ad86 havoc-bench_sm_002.7.Int64ShrlMod32.smt2
17c441101ecc9bd49ae1067d71f38dcf havoc-bench_sm_002.8.InterlockedBitTestAndComplement.smt2
9481aeebbc747cdaf2e4ae6466ee1886 havoc-bench_sm_002.9.MemoryBarrier.smt2
5ef693c87267cc91d5325d1a21c92cec havoc-bench_sm_003.1.baz1.smt2
8abf79d6401d8dc5ef9f75e1876cf9d9 havoc-bench_sm_003.2.baz2.smt2
a7788cf5fd41bfe1db6a3b290c14a1a3 havoc-bench_sm_003.3.baz3.smt2
cfbd32bb99d1c84ddf64aefd2d4940bd havoc-bench_sm_004.1.foo.smt2
cbde64588883bcbd8aacd5f8e8143a78 havoc-bench_sort.1.selection_sort.smt2
9b26ceb02c786cdf8f496e2910c3775a havoc-bench_subtype.1.P0.smt2
5b552e76c4c4733f924ed64477a5c994 havoc-bench_subtype.2.P1.smt2
5b16bdf5dbba46981b94b85363feedc8 havoc-bench_subtype.3.P2.smt2
a4240cbffc530f69acf9dca757788d2e havoc-bench_subtype.4.P3.smt2
1319a03222968ac09ba1a368da417abf havoc-bench_subtype.5.P4.smt2
b4c05a400d15b62220bf4e5c8f77b58c havoc-bench_subtype.6.Q1_bad.smt2
a38b052dac95af63103727859dea67b1 havoc-bench_subtype.7.Q1_good.smt2
d65efdfd700c0cadb928e548bfe1cf73 havoc-bench_sum.1.bar.smt2
0ae114a817b66a28bd672953efed6adc inc.c.1.increment.smt2
18de48d94c8e40ddd158b35bb0950c01 inc_sal.c.1.increment.smt2
6c6dd4d20582508b3cdb52777c6b2b09 lsearch.c.1.lsearch.smt2
826d607d7decff8981a4978ac1ae6459 max.c.1.max.smt2
a288f4002208cda2f6c3527586b21b76 max.c.2.max4.smt2
b3c5df72aafe5598fc08c7c0106c16e8 Queue.c.1.ValidQueue.smt2
d5af6895130d52d9c1a433b853eff22f Queue.c.10.ptrseq_length.smt2
ea77f2f8923fb057fb208721dc638e9c Queue.c.11.ValidNode.smt2
77f0b7095f7ed4410125af5261195c29 Queue.c.12.RegionIdIs.smt2
5561399e7c6a65bf4879916895f9b51c Queue.c.13.QueueFootprint.smt2
62f682cb05f4c8d355646be38c02d202 Queue.c.14.AbstractValue.smt2
43108f10989e570ca425d3bfa0bdc5f8 Queue.c.15.SameRegions.smt2
cb002b21f6aa2c4195fad8ad9c67643a Queue.c.16.ptrseq_equal.smt2
6a9f413ee5d71cc33147de740fd694b6 Queue.c.17.ptrseq_append.smt2
a3190426e714fd195a9cf8522ddcaaaa Queue.c.18.ptrseq_singleton.smt2
e09345fd17516a3943bd0c2d40bf2aa8 Queue.c.19.ptrseq_drop.smt2
ab8bc5840b78e34a1029b91985c90889 Queue.c.2.make_queue.smt2
c9cc70887fc6c6e61bd4c2754af7bfef Queue.c.20.ptrseq_index.smt2
fc019e2b9853790c4a87d54d769b9923 Queue.c.21.malloc.smt2
e4b5209b9d680dc2a429431fa8b017b6 Queue.c.23.ptrseq_take.smt2
eb0cb64de25361dbfb091e5b0ec61ed1 Queue.c.25.NodeAndNext.smt2
deae130b5932f9c9363b999f597c3fdd Queue.c.3.enqueue.smt2
cd1fc540276fc611a286f02c8b680ae8 Queue.c.4.dequeue.smt2
52fbc5d432c402df6c0391a77b2731a4 Queue.c.5.is_empty.smt2
35c61863a168093f38718ba92656714c Queue.c.6.front.smt2
5135fa99ef71f59c72a3b313e6442565 Queue.c.7.alloc_with_id.smt2
af5846e066e038d80cf70f4e33b9fb7a Queue.c.8.alloc_with_selfid.smt2
a8cc18364b701c74ab4aebc4439a3adf Queue.c.9.make_node.smt2
14031aa7e4d0256e40f53e5d1ab30bcd QueueClient.c.1.ValidQueue.smt2
17d65a21fcd6655599a7d75caf1a3f51 QueueClient.c.10.ptrseq_append.smt2
e0418f35776dfa145b1fae4151134f30 QueueClient.c.11.ptrseq_index.smt2
7ff91e5f926b7f0295314c4e9463b980 QueueClient.c.12.ptrseq_equal.smt2
d3a997a7fddde2810d744a27a3341114 QueueClient.c.13.ptrseq_take.smt2
2b7c87683fd4c703134e5a6829db9d8c QueueClient.c.14.ptrseq_drop.smt2
acc66db6a22b6d2672b8067296761829 QueueClient.c.2.main1.smt2
99ee58c7d75c7d995ab6b2e71e199cfd QueueClient.c.3.main2.smt2
2a4da7e10570d2b2fb667f36b15bd2ff QueueClient.c.4.ptrseq_length.smt2
0607faacceabf1d80dd5ed2d0c4bfb0e QueueClient.c.6.RegionIdIs.smt2
596510aae0394d2b3897d9d1838cdfbf QueueClient.c.7.QueueFootprint.smt2
58c0f6d03f8107c56a3d70183b20df98 QueueClient.c.8.ptrseq_empty.smt2
0b4a4660f6d3672061fdc102f4046b73 QueueClient.c.9.ptrseq_singleton.smt2
45970427336db9c41a23e52da1753660 rect.c.1.inv_rect.smt2
e6ad8545e2bc9cfa62c6a3d810b4a4a7 rect.c.2.within_bounds.smt2
e53a298ee04e9169f18fa157e2cdad60 rect.c.3.move.smt2
638d5aad07f876eba20721069c32baef rect_fp.c.1.inv_rect.smt2
d9c59c2c29cfcc3e78f9fbad80ae4a46 rect_fp.c.2.within_bounds.smt2
6bb047f03829a7561ad7647f9d7e90c8 rect_fp.c.3.move.smt2
7df853de5bf8e95e891d041bfe9152c0 rect_fp.c.4.fp_rect.smt2
c5265b2308c77891ec43fba18c9b5a07 rect_id.c.1.inv_rect.smt2
376d95cc9bd729b29a1ce9e300152ab4 rect_id.c.2.within_bounds.smt2
a8bd298ac5ab4aaa1ef455af7d91567f rect_id.c.3.move.smt2
b873ca410138eea5050fedca1a7cb386 rect_id.c.4.fp_rect.smt2
52c824597375537dcdbcfc69ab5aa7af rect_ptr.c.1.inv_rect.smt2
aa8439a9c2693df85c69d53552db6b3f rect_ptr.c.2.within_bounds.smt2
180b6b46e68a8bf012580ee388ae32ea rect_ptr.c.3.move.smt2
25c4061ac2b3fe1bd0c76d93bd99da88 UsePair.c.1.main.smt2
e035382efde01f85517dcc8c59264911 UsePair.c.2.intshort_make.smt2
83d5447503865cd0d5adfcb7df22c0fd UsePair.c.3.intshort_first.smt2
35030538808a47561e0456be48b96c4a UsePair.c.5.intshort_equal.smt2
7835105437c8e83ce4b38620b6bd0ef2 UsePair.c.6.intptr_make.smt2
5b0364ac30cf7424623d976c922daefd vccp-array1.c.1.foo.smt2
b408fc2ea1b4b5ed692adfbb17a8c365 vccp-array1.c.2.sumup.smt2
2ae4436cc0f30af71ac0f40bd6402ac6 vccp-array1.c.3.setk.smt2
51b5dba3101df686277ca33f8cc6ddc2 vccp-array1.c.4.setk2.smt2
36cff9f1ef621e6998440d33d4c30ce0 vccp-array1.c.5.setk3.smt2
fb0e097f835f4f754b0ea6d563e0b4cd vccp-array1.c.6.setk4.smt2
f3099aba7dc23989d7ad60049b21bef2 vccp-array2.c.1.foo.smt2
f671e8257cb19b4f8272c34f47e5812a vccp-array2.c.2.bar.smt2
b49df2dd17d752b94ebe8cc9a5d31191 vccp-array2.c.3.baz.smt2
b002e35d7103f8ca7d1ac8317f0bf32f vccp-array3.c.1.donothing.smt2
244274114d8213b5f3487688b0adc272 vccp-array3.c.2.set0.smt2
e51cd6ddb5bcb17f54d197a8cabdcc60 vccp-array3.c.3.use1.smt2
fc222a5d7870edf26706aac8403bef2d vccp-array3.c.4.use2.smt2
97b57809adca94b57433b3bb2c15cf5d vccp-ArrayList.c.1.CreateArrayList.smt2
f6d4c8ba63af44352c488421b3a25318 vccp-ArrayList.c.2.MakeEmpty.smt2
21fe8cff2f416efb33a534e36030b013 vccp-ArrayList.c.3.Select.smt2
7cc4462597095113879c1be698418a18 vccp-ArrayList.c.4.Update.smt2
6a110ced9b3edce52b6af19157216801 vccp-ArrayList.c.5.DisposeArrayList.smt2
b73324a6d72679a9b1abb834ce650e3b vccp-ArrayList.c.6.Add.smt2
425ac9825e3272df488a90054ea58f37 vccp-ArrayList.c.7.main.smt2
3ae5e80e3e3706df0a7191e438fb84c0 vccp-deposit.c.1.deposit.smt2
75c542aa72df3533b62a660e90785dd6 vccp-move.c.1.Move.smt2
55c739ca7394ce46002b6432d236f52d vccp-ParameterPassing.c.1.LowerLevel.smt2
c37af627821f84a0dc6ce9cdba152b64 vccp-ParameterPassing.c.2.MiddleLevel.smt2
73a8604a4d4938b91def4dbd140472c7 vccp-ParameterPassing.c.3.UpperLevel.smt2
d2ba5663b6501f6bbd818ea015ae3bce vccp-queue.c.1.dequeue.smt2
95c7326081fb5f11e0dd820653204b91 vccp-queue.c.10.main1.smt2
04d8e06913a936fce36755730f3518f7 vccp-queue.c.11.main2.smt2
27aaa745cd000cd150fc30523e1b58e7 vccp-queue.c.2.is_empty.smt2
b627278affcfb8b5421c03e33d466355 vccp-queue.c.3.front.smt2
5234e23109accf39412c504e973576d2 vccp-queue.c.4.make_node.smt2
25071b3b0368a23a66568e1772eeda10 vccp-queue.c.5.make_queue.smt2
858659074b491ea2ea417cccdbe13167 vccp-queue.c.6.enqueue.smt2
9bd460e4975bdb329f753c936b1947c6 vccp-queue.c.7.remove_nth.smt2
0130a81150067b4350c1bec6efdd31bd vccp-queue.c.8.transfer.smt2
cff330dc48dbf2afecf1d8df390f9ec5 vccp-queue.c.9.transfer2.smt2
ded6ac2cdb59786f69ff98b0d87344ec vccp-StackArray.c.1.CreateStack.smt2
252f0082644353c86ed9ad8bda6a0478 vccp-StackArray.c.2.DisposeStack.smt2
77bd7a25129c3dd35ec63a4a2fcfdba0 vccp-StackArray.c.3.MakeEmpty.smt2
e2cc2a94bf8a8b4351b0851b02eff575 vccp-StackArray.c.4.Push.smt2
e84f1ca2ae24b5929476e1b7e3037226 vccp-StackArray.c.5.Top.smt2
cdb3f2bf4c0930baa39742b962543a64 vccp-StackArray.c.6.Pop.smt2
9cd82412d26624cb998dbb49d1518393 vccp-StackArray.c.7.main.smt2
a196a35a46860fa7f4515d8f4a6775ab vccp-union1.c.1.foo.smt2
d72ec4435197b8d9b5a10f29910177d1 vccp-union1.c.2.bar.smt2
0845692dc94ff43ebf595dcc12e63fd1 vccp-union1.c.3.baz.smt2
7a68f1a766db44b0dc7c77bbc77abc32 vccp-union1.c.4.foobar.smt2
7f0fe1e681f7d8999bc2a6945dbae8f3 vccp-union1.c.5.reint.smt2
8c96e368e7a938a2bf2fbc0c4cb138b8 vccp-union1.c.6.reint2.smt2
fe9b00b785bb7cd689abc216a455d1bb vccp-union1.c.7.reint3.smt2
1ad16643e091ea1d40bbf9fb57de7829 vccp-union1.c.8.reint4.smt2
5c4f342e50b009482e9f1c82766d5bcf verisoft-baby.c.1.1.update_spt.smt2
499234daea6735ed9f8e8fdf2633c0ec verisoft-baby.c.1.10.update_spt.smt2
52d01a9db1ffbe381e8ee132c8b24807 verisoft-baby.c.1.11.update_spt.smt2
981257a3636e722e09d3d8ef7e479cb7 verisoft-baby.c.1.12.update_spt.smt2
3b6fa17e6856c294a88fc51b1f1a638d verisoft-baby.c.1.13.update_spt.smt2
d14003944dae42f14600d57a1e963818 verisoft-baby.c.1.14.update_spt.smt2
c3a6e019c0d50b644d12e44d78c62542 verisoft-baby.c.1.15.update_spt.smt2
42738fccd3844e153493d611008abb0a verisoft-baby.c.1.16.update_spt.smt2
91a488ef722a313b6eceddf278a25058 verisoft-baby.c.1.17.update_spt.smt2
23e2d903b120dd7e5a9972d59745f880 verisoft-baby.c.1.18.update_spt.smt2
3d689bcc47ef34150bd6f218fd70bf8b verisoft-baby.c.1.19.update_spt.smt2
f6f900651438be2011cd493c4d54888f verisoft-baby.c.1.2.update_spt.smt2
648053d62a7678693aa9af2b71301c95 verisoft-baby.c.1.20.update_spt.smt2
a917be3f69404c3ee30f3af56d5af789 verisoft-baby.c.1.21.handle_pf.smt2
0c0fcf648850dc4a049ce1c87f2d1995 verisoft-baby.c.1.22.handle_pf.smt2
de69023209b0b6a9ddaf001807a19c12 verisoft-baby.c.1.23.handle_pf.smt2
30e0dbbcc382e3a787e96450fb331899 verisoft-baby.c.1.24.handle_pf.smt2
ff2caca37527fef4faaf1298e649c147 verisoft-baby.c.1.25.handle_pf.smt2
088599a0024c35c192e2e776f6995769 verisoft-baby.c.1.26.handle_pf.smt2
085b1b02c25660bec1c1d6acff212bf3 verisoft-baby.c.1.27.handle_pf.smt2
8626a17d604762650dd28c13c1a55a77 verisoft-baby.c.1.28.handle_pf.smt2
e5f647ba499252654a03f27eaefc498a verisoft-baby.c.1.29.handle_pf.smt2
6ef8455207b698537b940cbef981816a verisoft-baby.c.1.3.update_spt.smt2
d31693724f0dd32e3f2228193ede5176 verisoft-baby.c.1.30.handle_pf.smt2
2c7fd6e4de29eebf4983200b8541bf41 verisoft-baby.c.1.31.handle_pf.smt2
8597e431ec172c6ce81858c734628f3e verisoft-baby.c.1.32.handle_pf.smt2
cd2d3a1b0a5ea60b697f276ade3be50b verisoft-baby.c.1.33.handle_pf.smt2
777065b66fffb5c9003f01335cc02fd4 verisoft-baby.c.1.34.handle_pf.smt2
f074e4505cec61b2ce3cb56b7a296d5b verisoft-baby.c.1.35.handle_pf.smt2
7f3938e818dd925b29fa8ed29f302372 verisoft-baby.c.1.36.handle_pf.smt2
d35d99bbcb2703583b3320510eb67252 verisoft-baby.c.1.37.handle_pf.smt2
785d766b8216efda26eda2b8aca15ef7 verisoft-baby.c.1.38.handle_pf.smt2
55dade167804d9412d1718353439568d verisoft-baby.c.1.39.handle_pf.smt2
55e4a83dfb46107a9f68d0158fb1d253 verisoft-baby.c.1.4.update_spt.smt2
811bcfa1a8360826b810a133ec187154 verisoft-baby.c.1.40.handle_pf.smt2
383d7afb3f9f423a046e8e04efb6ace5 verisoft-baby.c.1.41.handle_pf.smt2
2faf39c9e56ef61431daf40cc2971ce1 verisoft-baby.c.1.42.handle_pf.smt2
0cae074c16470e727f62f7dc459ea098 verisoft-baby.c.1.43.handle_reset.smt2
3a68c9f77311d83e763d5409a3cb49fa verisoft-baby.c.1.44.handle_reset.smt2
2f1eb6938260b949337a1867ceb4e1dd verisoft-baby.c.1.45.handle_reset.smt2
c429a204ea0f9d67972ee70d000faed1 verisoft-baby.c.1.46.handle_reset.smt2
eda126064d62b561bbb5e0c2e35d8e6a verisoft-baby.c.1.47.handle_reset.smt2
5e442d721e0de69ee787d58d5b7a7401 verisoft-baby.c.1.48.handle_reset.smt2
528734b583fdff2574d0b78126ef495f verisoft-baby.c.1.49.handle_reset.smt2
c5f6112604cd2da9b0e4855db7d2451b verisoft-baby.c.1.5.update_spt.smt2
494124268040809d42d448625eeb697d verisoft-baby.c.1.50.handle_reset.smt2
ff1cc38ea6701e28c2f9f879573a94b1 verisoft-baby.c.1.51.handle_reset.smt2
5ea37418adf44f6cb76913fed70542f9 verisoft-baby.c.1.52.handle_reset.smt2
02b2be827204598f3ae5fb27ad959b75 verisoft-baby.c.1.53.handle_reset.smt2
0594445864c9d83dd345180208884b81 verisoft-baby.c.1.54.handle_reset.smt2
50cd4ea0ff6bf4d639969d5b80e77e61 verisoft-baby.c.1.55.hv_dispatch.smt2
6d88dcc77235daafd521f813889aa3ef verisoft-baby.c.1.56.hv_dispatch.smt2
fae3e5c3bcdff6694cc07c5678b9926d verisoft-baby.c.1.57.hv_dispatch.smt2
d886dedbeac29b2de7d20bde10dcd547 verisoft-baby.c.1.58.hv_dispatch.smt2
aab043ef579592b6b00f9f435a27a07e verisoft-baby.c.1.59.hv_dispatch.smt2
09be0a70ee9eabd2410319bde5b935b0 verisoft-baby.c.1.6.update_spt.smt2
c99e1b91a6fd1cda53e6e0bcd4b8ae60 verisoft-baby.c.1.60.hv_dispatch.smt2
492d47d16412ebcc2b39d02db74371c5 verisoft-baby.c.1.61.hv_dispatch.smt2
d2eb78c8e6e26d8808cb8eeef66ae0ed verisoft-baby.c.1.62.hv_dispatch.smt2
c9f53db35da95f9b5a370114ab7e01a7 verisoft-baby.c.1.63.hv_dispatch.smt2
f9e4404148a409c1bff07e815d08d3cd verisoft-baby.c.1.64.hv_dispatch.smt2
3abe586e0713ab714026c41f81d8e7b4 verisoft-baby.c.1.7.update_spt.smt2
2f47ba5e6077c71347885ec103153b2e verisoft-baby.c.1.8.update_spt.smt2
e6588da544e34e0320fb2ede5486c7f1 verisoft-baby.c.1.9.update_spt.smt2
937c4792df27c12e82f34a7d25a854ce verisoft-baby.c.1.valid_mem_layout.smt2
7b1b8e3c2c20eb4f4923c0596ce3bb7f verisoft-baby.c.10.privileged.smt2
7f264879508c99f580acb28c8ecba8c8 verisoft-baby.c.11.jump.smt2
519fa11830679e1278f74da31d6c2fb1 verisoft-baby.c.12.branch.smt2
4ab3914045e7d0de7554315e14c5f70d verisoft-baby.c.13.cfi.smt2
0ea762beae26ce905f0ad85527cc5691 verisoft-baby.c.14.link.smt2
a853f5ce9f8dea6b0167b83b2ade3566 verisoft-baby.c.15.jumpr.smt2
e74531a9d17fc41e001ec7f1707658e0 verisoft-baby.c.16.illegal_opc.smt2
08ace92e402599b7aecf19bbf5aabe4c verisoft-baby.c.17.illegal_fu.smt2
027e09b29e4918c818e13914c9984b63 verisoft-baby.c.18.illegal_opcfu.smt2
2da6cb9a7b30e1c34a1f7733256c913c verisoft-baby.c.19.do_memory_operation.smt2
9d88620a469aa1ae47f1f81a227616bc verisoft-baby.c.2.1.update_spt.smt2
084db25b3047c4786010fd80dd0151d6 verisoft-baby.c.2.10.handle_pf.smt2
2a08b4fe57e41525dc557fca66ebc1be verisoft-baby.c.2.11.handle_pf.smt2
5ebb2fa0f285b948194ed50edfe89d33 verisoft-baby.c.2.12.handle_pf.smt2
7efe97d4f3113da77f6e1225e5ea0a43 verisoft-baby.c.2.13.handle_pf.smt2
e3a84a5c851c2c34a293e86763bef2d1 verisoft-baby.c.2.14.handle_reset.smt2
06fa18c6d07460a16809fc2d8c540a3e verisoft-baby.c.2.15.handle_reset.smt2
e2c5e65e786688f36856c2174d0a02cd verisoft-baby.c.2.16.handle_reset.smt2
2af1107523cb9d3c4a4d0317809dde7c verisoft-baby.c.2.17.handle_reset.smt2
84657baead2fe5b4d5ac893203e31fbb verisoft-baby.c.2.18.handle_reset.smt2
9e9b4fbd38e75785766d7bf794dccb88 verisoft-baby.c.2.19.handle_reset.smt2
01a20c162fd7d5c67842487b45b16165 verisoft-baby.c.2.2.update_spt.smt2
c896e38e0bbf795a8ab7773ec1b6a0ee verisoft-baby.c.2.20.hv_dispatch.smt2
f2dc65524d279a76fb39d7636c9993be verisoft-baby.c.2.21.hv_dispatch.smt2
6040522d00abf059f090b41c9aa08aef verisoft-baby.c.2.22.hv_dispatch.smt2
23a41938b618bf9741cd10f4077601aa verisoft-baby.c.2.23.hv_dispatch.smt2
0fad8f2c90a6776186c538dd7fd90267 verisoft-baby.c.2.24.hv_dispatch.smt2
3ae724cb3bb633fe45b9ec93cfb29443 verisoft-baby.c.2.25.hv_dispatch.smt2
fcbabcfd99f469741a358d607cab8303 verisoft-baby.c.2.3.update_spt.smt2
d755b3b8c995b428e612287b10b2db26 verisoft-baby.c.2.4.update_spt.smt2
47e2d490518b921f5901335b19559134 verisoft-baby.c.2.5.handle_pf.smt2
cbe202e47bb3f3d45d78c06fe0d73719 verisoft-baby.c.2.6.handle_pf.smt2
d61f2e0296be6c7614a8130ce7b8c34b verisoft-baby.c.2.7.handle_pf.smt2
778eab97e1b88ea04fbe864b980d8f0c verisoft-baby.c.2.8.handle_pf.smt2
8b0cd7fb153a1754d3283c87c5cfce4d verisoft-baby.c.2.9.handle_pf.smt2
9d912e43999005e31f2d84c70f109894 verisoft-baby.c.2.usermode.smt2
6578a6f377828f09f11a1924f9f58687 verisoft-baby.c.20.increment_pcs.smt2
58e7ad9966875ef2586da524e6de5822 verisoft-baby.c.21.btaken.smt2
090230f7a3344c2ddc1ab61e51f344ea verisoft-baby.c.22.bjtaken.smt2
a20b5b3030b384e683a505168010e64d verisoft-baby.c.23.target.smt2
435b860155aa8a61706ea7151498a218 verisoft-baby.c.24.exec_cfi.smt2
70d9f1a4d5331f7ea8e790f6c91715cf verisoft-baby.c.25.exec_movi2s.smt2
8ca678b86e4cdf3cccf62a39ddfe39d4 verisoft-baby.c.26.exec_movs2i.smt2
dc52086d778be832efb953c534991e6b verisoft-baby.c.27.exec_rfe.smt2
0f559c50ae5ba15828871bcfca5aab31 verisoft-baby.c.28.exec_trap.smt2
9cb86b9ade00e2667ff51ac6f317e3f5 verisoft-baby.c.29.compute_ea.smt2
35964db0ec24b4193fe5d11adca201d7 verisoft-baby.c.3.systemmode.smt2
4198918e36697a58027d784ceae333af verisoft-baby.c.30.exec_ls.smt2
402cf862d98e55a2c3022626468dab26 verisoft-baby.c.31.exec_shift.smt2
1e9fa32cc3aa9e218d99671e4ce7912f verisoft-baby.c.32.exec_alu.smt2
ffa8867e8d84aa9f2a739210984d747f verisoft-baby.c.33.exec_jisr.smt2
086f1c3b446ec9310590a0397d68211f verisoft-baby.c.34.exec_instr.smt2
08c3f86626877d0b1e57d2e3c12ce9bc verisoft-baby.c.35.vamp_step.smt2
412bc0b8ff3209b6f3e522a74cb86a05 verisoft-baby.c.36.pma.smt2
a2cbd77d3210d763acfc0683288a2712 verisoft-baby.c.37.ptea.smt2
54303dc34f9277e13e5904144d8f1d14 verisoft-baby.c.38.gpt.smt2
76cf61175cf9fdea74978a8f7ab8e0eb verisoft-baby.c.39.valid_entry_aux.smt2
ecef9365933764b539ae9122b9785c3a verisoft-baby.c.4.valid_sprx.smt2
c2ad61a9272970faa615185d5008574b verisoft-baby.c.40.hpt_inv_guest.smt2
b6ecfbffb1181374f6a82a348ec20d26 verisoft-baby.c.41.spt_entry_v.smt2
8683c34621625ebcdcf790a9f0a31261 verisoft-baby.c.42.spt_entry_p.smt2
d7aada6f6d3f51947fc7fd9e801af99c verisoft-baby.c.43.spt_entry_ppx.smt2
835c9d724a36bcdf8e3d94c875174c32 verisoft-baby.c.44.spt_entry_inv.smt2
64b383eb5de63cbba7e74f67f4425d8e verisoft-baby.c.45.spt_inv_guest_n.smt2
407b47dfea51cde69166f743163c541c verisoft-baby.c.46.spt_inv_guest.smt2
83b21560145b9098e3b5fb4bc831c747 verisoft-baby.c.47.hpt_inv.smt2
7224ff790520ba59773631a89e923810 verisoft-baby.c.48.spt_inv.smt2
3fff16c30189b40728d3564d493f1007 verisoft-baby.c.49.pf_reason_m.smt2
9b64deb0a3f8f88baae6bbf3d3dc44b8 verisoft-baby.c.5.valid_il.smt2
7ac7e9797c114579f636fe00d9b84894 verisoft-baby.c.50.guest_valid_conf.smt2
ec20f135b0ac516f5bab7e29be14ac6a verisoft-baby.c.51.guests_valid_conf.smt2
34f93e6039d40a422c68e7dc85afd848 verisoft-baby.c.52.GPR_eq.smt2
f21843f91afe5c3f9259e45dc6a3c86b verisoft-baby.c.53.guest_data_disjoint1.smt2
13295b4aec76060f5e159f6c4e41ba50 verisoft-baby.c.54.guest_data_disjoint2.smt2
7f7911d58b513fde6dc17a7b0da0bd89 verisoft-baby.c.55.save_guest.smt2
404b6fa9d5ebe365ef11368786e12d7b verisoft-baby.c.56.restore_guest.smt2
86a554268d7d36ac8a6c4db931c6f04b verisoft-baby.c.57.handle_movi2s.smt2
00580172bd9da96a4683ce39ad43c6e8 verisoft-baby.c.58.handle_movi2s.smt2
4f7361275e552cca896533afb657db81 verisoft-baby.c.59.handle_movi2s.smt2
15fc641db50f971aa9d1ffaf3922482f verisoft-baby.c.6.repeat.smt2
7446d96c995b72fd99a3ba46faae55c8 verisoft-baby.c.60.handle_movi2s.smt2
6212e82d1e1aed1c821feb7072741a5d verisoft-baby.c.61.handle_movi2s.smt2
6e19186d691316566b825997e614da32 verisoft-baby.c.62.handle_movi2s.smt2
81f405e5e6eea41d9baf6a48acb89825 verisoft-baby.c.63.handle_movi2s.smt2
97faff43f197623f5a47b4ed13cbd65e verisoft-baby.c.64.handle_movi2s.smt2
4fe458be77a5c17ae553db03c5ffe6f0 verisoft-baby.c.65.handle_movi2s.smt2
27be82094f0ca8113800bef811d1a9f1 verisoft-baby.c.66.handle_movi2s.smt2
d8d2cce9e337e954d05a71777d2a0757 verisoft-baby.c.67.reset_guest.smt2
f5703fd1eeeeb7c443b967238ea70d87 verisoft-baby.c.68.reset_guest.smt2
77d41084ed44e37630b904912de67a15 verisoft-baby.c.69.reset_guest.smt2
ffe8870304966ee992f7ba8ce623e0de verisoft-baby.c.7.rtype.smt2
8b3adcb1abb56a70caac47cf94997fc1 verisoft-baby.c.70.reset_guest.smt2
f30069cabdb9e6b92a9db3d9b255b105 verisoft-baby.c.71.reset_guest.smt2
bea0cedfe200e09d0d890295134db3ac verisoft-baby.c.72.reset_guest.smt2
5c483282c99e5e293fef9ac56d2f2c82 verisoft-baby.c.73.reset_guest.smt2
acb45a14c01603dbf62ff050de89c031 verisoft-baby.c.74.reset_guest.smt2
b2c62a0da9a261c33706b2fd549ed5c3 verisoft-baby.c.75.reset_guest.smt2
7985785e96a3e26c3be2f4c8f11a8587 verisoft-baby.c.76.reset_guest.smt2
9453efd6a9b6465ebdf7a6f16da8feaf verisoft-baby.c.77.handle_illegal.smt2
e6b371178cd4e08098646ec8d1bf828f verisoft-baby.c.78.handle_illegal.smt2
2f410a9e938959ea1ae1a8cb5744f1e2 verisoft-baby.c.79.handle_illegal.smt2
7ebefc16b367f080cb9c6fdbaee0447a verisoft-baby.c.8.jtype.smt2
320227f2f3fbbf60a88a22ac531de05c verisoft-baby.c.80.handle_illegal.smt2
4a63d08d8c66861e921fee362bd79c71 verisoft-baby.c.81.handle_illegal.smt2
5cd394daf8a9ab036b9a96098de66873 verisoft-baby.c.82.handle_illegal.smt2
dbcfa1ada971256380eea0c14b2e76c2 verisoft-baby.c.83.handle_illegal.smt2
6368b15b02e289371682b8543074bf80 verisoft-baby.c.84.handle_illegal.smt2
a0e02e49a7e2e97b2d1770029b459480 verisoft-baby.c.85.handle_illegal.smt2
bc090ba716c8f720b8d7aa02d90315ae verisoft-baby.c.86.handle_illegal.smt2
1d19c8f27ce7fa68a3feb26f94c07901 verisoft-baby.c.87.fp.smt2
3d4534225e4f9980a9a879c9be33a939 verisoft-baby.c.88.fp_gm.smt2
a67e7c047f3df99b21ddcd781e0c98db verisoft-baby.c.89.arr.smt2
4141f0022c47e2ed99f372bcbcc4794c verisoft-baby.c.9.itype.smt2
3be1d04cc425e6dbd811a2cf88440b2c verisoft-baby.c.90.arr_gm.smt2
d29da289105205924135e116b1988116 verisoft-baby.c.91.ArrayRegion.smt2
49028460f04db36142e6aab766817a5e verisoft-memvirt.c.1.phys_mem_read.smt2
d91325d3714bcd8b651ad31aff41a5bb verisoft-memvirt.c.10.phys_bl_write_sim.smt2
d7fe8a3197b86bcfad73f3969b102ad2 verisoft-memvirt.c.11.phys_2bl_read_sim.smt2
f352fe0a7737a3b123933fa08b2d2f68 verisoft-memvirt.c.12.phys_2bl_write_sim.smt2
56aadd1184d5dfd0f77268c5ca7c7c5d verisoft-memvirt.c.13.phys_2bl_write_sim_with_id.smt2
a468d9d07ed4a9e59e78de0047f043c0 verisoft-memvirt.c.14.phys_manybl_read_sim.smt2
144b4a94270cb9dc697fdfe5f1b85449 verisoft-memvirt.c.15.phys_manybl_write_sim.smt2
5002c47104c62830087952f1fa448fe9 verisoft-memvirt.c.2.rot1_xlat.smt2
7121b8ff66b34243411f55aa92b978a3 verisoft-memvirt.c.3.rot1_mem_read.smt2
c7fa82e31924d029d23f6bc7708f45f0 verisoft-memvirt.c.4.rot1_mem_write.smt2
5cdf94639a4c49797cda585876c0721a verisoft-memvirt.c.5.phys_rot1_read_sim.smt2
654072ed2e07bd42be80e7ae3cbe6f78 verisoft-memvirt.c.6.phys_rot1_write_sim.smt2
472b8ee51ebf4cf9a1ce6d737a7ee5db verisoft-memvirt.c.7.bl_xlat.smt2
13d1e2656893619f2ef395b989fe1d6d verisoft-memvirt.c.8.bl_mem_read.smt2
74b7648bdf657fd2bfddb3d48bf06252 verisoft-memvirt.c.9.phys_bl_read_sim.smt2
7e09c93624998b0865f9f99b43f876de verisoft-pop.c.1.rotatel.smt2
d743622e2813d37c3afb78101b02482e verisoft-sim.c.1.1.untranslated_read_sim.smt2
488d4432f9335e9a51aaef30a3714f03 verisoft-sim.c.1.10.untranslated_read_sim.smt2
8565251a16de1e7b0cc895139b2d3e5d verisoft-sim.c.1.11.untranslated_write_sim.smt2
fe3ee9afdef38842429a679986aef554 verisoft-sim.c.1.12.untranslated_write_sim.smt2
d3e135dd614dfabbbea78d11fd4e03b7 verisoft-sim.c.1.13.untranslated_write_sim.smt2
ff3324a1ba46d2a32c79f283751686e4 verisoft-sim.c.1.14.untranslated_write_sim.smt2
6f1590f49d358de5eaf57c2ddd190af3 verisoft-sim.c.1.15.untranslated_write_sim.smt2
ebfa7cfd829281625860ab246b63cf21 verisoft-sim.c.1.16.untranslated_write_sim.smt2
7b47fd237da9dc177032a7960f6fb0d2 verisoft-sim.c.1.17.untranslated_write_sim.smt2
5d5867c153625f3bf6fabeca4d743928 verisoft-sim.c.1.18.untranslated_write_sim.smt2
cd735d7a110a5ade6d7690db81fd4967 verisoft-sim.c.1.19.untranslated_write_sim.smt2
c9f250ac1e1aef0e7ce4a7a22eabc63d verisoft-sim.c.1.2.untranslated_read_sim.smt2
750605d7158766d1a2d6bb0df37a1f9c verisoft-sim.c.1.20.untranslated_write_sim.smt2
95edef1a3d763079c9a3fe2312f48917 verisoft-sim.c.1.21.translated_read_sim.smt2
16e83c65a025c8614eb9c0bc4e560f74 verisoft-sim.c.1.22.translated_read_sim.smt2
bfacb1ee3ead9ee98319a6dcecc74295 verisoft-sim.c.1.23.translated_read_sim.smt2
bc10af23706df90a9a2bca59e1bb78ac verisoft-sim.c.1.24.translated_read_sim.smt2
952b02df8661039c674c6fbbfc6dca83 verisoft-sim.c.1.25.translated_read_sim.smt2
19ea8fba323d8467d78ff3ab8b140bb4 verisoft-sim.c.1.26.translated_read_sim.smt2
af36aa0fac7132263d2d462cc5ad62e7 verisoft-sim.c.1.27.translated_read_sim.smt2
b81e8589581be470d37023f81932d867 verisoft-sim.c.1.28.translated_read_sim.smt2
da37ca48a92025b219afbc0e192e94b1 verisoft-sim.c.1.29.translated_read_sim.smt2
064e15634dd7e26128d3794fd8c7058d verisoft-sim.c.1.3.untranslated_read_sim.smt2
565a01bae50ceca8fc686780e77396ac verisoft-sim.c.1.30.translated_read_sim.smt2
c1b5c042deef6911a3cfa06365717c99 verisoft-sim.c.1.31.translated_write_sim.smt2
b4e463f0d9ad6d26cdf8e2ed0596294c verisoft-sim.c.1.32.translated_write_sim.smt2
734ef57dff4bbc0f9239c18d4eac1ae5 verisoft-sim.c.1.33.translated_write_sim.smt2
a8a26003f6e621b28e838fe051db37f3 verisoft-sim.c.1.34.translated_write_sim.smt2
eeb0d0fee6e884822bfc5abffb8558d7 verisoft-sim.c.1.35.translated_write_sim.smt2
60bcc33ca9ef47df5252f5e581f02f38 verisoft-sim.c.1.36.translated_write_sim.smt2
9d52a1e44854f71f1f173ab641688499 verisoft-sim.c.1.37.translated_write_sim.smt2
d79997b3b961ee57f720b9f5e2e6231b verisoft-sim.c.1.38.translated_write_sim.smt2
0d0c6e98d68d13e3e3f9f6055f6a016a verisoft-sim.c.1.39.translated_write_sim.smt2
041551a02c8eafb7035e2f2fab09a2bf verisoft-sim.c.1.4.untranslated_read_sim.smt2
e44e95742ba7b274f58cb1374ee0122e verisoft-sim.c.1.40.translated_write_sim.smt2
f1d61631a4e7e6da9125397b1736d670 verisoft-sim.c.1.5.untranslated_read_sim.smt2
9bdf6db17b21917144326f0226d08494 verisoft-sim.c.1.6.untranslated_read_sim.smt2
06f65664610eff54e6212fe1d2a5f0db verisoft-sim.c.1.7.untranslated_read_sim.smt2
dbd378080fd55a1027c704542e143e18 verisoft-sim.c.1.8.untranslated_read_sim.smt2
cd1c7bf547c8a8e3c5c042dbc75894f2 verisoft-sim.c.1.9.untranslated_read_sim.smt2
e3f8a82a0cd24671895b991c5c28406e verisoft-sim.c.1.valid_mem_layout.smt2
a5612076e7748ebab678ec33c2891621 verisoft-sim.c.10.spt_entry_p.smt2
4cfa3a366e68697aeb06322e23b65674 verisoft-sim.c.11.spt_entry_ppx.smt2
86cc61b3b457d6bee2c9d2e79a2d6fa3 verisoft-sim.c.12.spt_entry_inv.smt2
612df49c06626e5010d01d9037135c2b verisoft-sim.c.13.spt_inv_guest_n.smt2
b31caf71d756753b8506f67eb6a06793 verisoft-sim.c.14.spt_inv_guest.smt2
1a51757fc990b5926abe23fe3952d43e verisoft-sim.c.15.hpt_inv.smt2
9917e696bc8c9c946d7019b064ce256d verisoft-sim.c.16.spt_inv.smt2
53f8400f8be98c5a177fd4c261d26959 verisoft-sim.c.17.pf_reason_m.smt2
76d95cf80be50e9223d993c51537d033 verisoft-sim.c.18.guest_valid_conf.smt2
82b23f61ed3e90f276877d16059ba404 verisoft-sim.c.19.guests_valid_conf.smt2
f4b73f0bf35772ecbe5ab8e2d3525b86 verisoft-sim.c.2.1.untranslated_read_sim.smt2
2b5e04e63cff35adff029157933f88fe verisoft-sim.c.2.10.untranslated_read_sim.smt2
caf8f497f7b276cb4bdd3a2e8c26ef87 verisoft-sim.c.2.100.translated_write_sim.smt2
dddeb0a74f87b68698014b307bbbef31 verisoft-sim.c.2.101.translated_write_sim.smt2
eb1b4e36cbb90665f16c4f0ba08afdd7 verisoft-sim.c.2.102.translated_write_sim.smt2
9a6d14799c23eb8a86bc83420e217f8c verisoft-sim.c.2.103.translated_write_sim.smt2
d18a5c701e7a764dd6f1600ba6d54999 verisoft-sim.c.2.11.untranslated_read_sim.smt2
b0f1ecbe1c1773cdd92aa2c78a9d1581 verisoft-sim.c.2.12.untranslated_read_sim.smt2
8129a4de70184b7d02d549c65146a2dd verisoft-sim.c.2.13.untranslated_read_sim.smt2
557c6e27bdc3f30d39f3aa0fbf74221e verisoft-sim.c.2.14.untranslated_read_sim.smt2
bf70ff3e897b8f0222f75aaf26f0d959 verisoft-sim.c.2.15.untranslated_read_sim.smt2
25fc3e83c55695afea39d34246d83669 verisoft-sim.c.2.16.untranslated_read_sim.smt2
66e60d1a2c58be8ccc766e29b6ca9e80 verisoft-sim.c.2.17.untranslated_read_sim.smt2
25070fb00904e52b80e2b49454e85efe verisoft-sim.c.2.18.untranslated_read_sim.smt2
9469ad8ccf93b1b08a76629cd16e82ce verisoft-sim.c.2.19.untranslated_write_sim.smt2
e04b8c12c041e1fe81dcf9e3e554fd7a verisoft-sim.c.2.2.untranslated_read_sim.smt2
7751327e845d9d3bbf06316813e3952f verisoft-sim.c.2.20.untranslated_write_sim.smt2
1a500ac75c9cd1c9e99e46f1fd9240cd verisoft-sim.c.2.21.untranslated_write_sim.smt2
ddeab4b89da69dd183ad94fa96f16c4b verisoft-sim.c.2.22.untranslated_write_sim.smt2
89b10efcd60f39d03f953ab3a809e016 verisoft-sim.c.2.23.untranslated_write_sim.smt2
78bd8537eb3a99b18c6c47194b4e3878 verisoft-sim.c.2.24.untranslated_write_sim.smt2
01fb917d6aa8d8a04d5c7fa2260543ad verisoft-sim.c.2.25.untranslated_write_sim.smt2
e15abf61aa4d6f9ddc7f129cdbf02d36 verisoft-sim.c.2.26.untranslated_write_sim.smt2
bfefaaa98d68c32936a070519a8f61f8 verisoft-sim.c.2.27.untranslated_write_sim.smt2
ab57e6e9fe24430b0373be4e3ccef1d4 verisoft-sim.c.2.28.untranslated_write_sim.smt2
d1905568d37d7e8087e07cdf1cc48f7e verisoft-sim.c.2.29.untranslated_write_sim.smt2
fa08b4ced698511c81283d31bda71eb7 verisoft-sim.c.2.3.untranslated_read_sim.smt2
89c646d132c972ca0e276cf061bc77d1 verisoft-sim.c.2.30.untranslated_write_sim.smt2
c44f9582f3989bdece70c768d0a96f58 verisoft-sim.c.2.31.untranslated_write_sim.smt2
f7d4e6291c6cffa2749cf23f5902ea84 verisoft-sim.c.2.32.untranslated_write_sim.smt2
efc9ef47a1c5e0f1d598a7a96d0c3427 verisoft-sim.c.2.33.untranslated_write_sim.smt2
778b7f6739c3ee03a31660c7fdd1ef6e verisoft-sim.c.2.34.untranslated_write_sim.smt2
8afb10520baab6c36ae4ca5e736e89b0 verisoft-sim.c.2.35.untranslated_write_sim.smt2
a988d0804289423caf9e5c16479dc81a verisoft-sim.c.2.36.untranslated_write_sim.smt2
726f6d7a062a12cdb54d3db29ec58e3f verisoft-sim.c.2.37.untranslated_write_sim.smt2
868e63f689598df9acbea4dbc9b8a451 verisoft-sim.c.2.38.untranslated_write_sim.smt2
802faf11da9c7aaefb4d33eb96970b93 verisoft-sim.c.2.39.translated_read_sim.smt2
8fe1b69a52a11749b965a20db07a9080 verisoft-sim.c.2.4.untranslated_read_sim.smt2
34c21cd5fccce0576ba669a4e9477118 verisoft-sim.c.2.40.translated_read_sim.smt2
599f451c93a25e99a3bd597f5d2e250a verisoft-sim.c.2.41.translated_read_sim.smt2
5e68e47e99c3b45784071f24a9085708 verisoft-sim.c.2.42.translated_read_sim.smt2
0aa493aef27c45d665a884bf82c8dbee verisoft-sim.c.2.43.translated_read_sim.smt2
aada66f86953669eeb2cd0f3a739b0fa verisoft-sim.c.2.44.translated_read_sim.smt2
5e4c12ae3573c7dfbab7482811ffd15d verisoft-sim.c.2.45.translated_read_sim.smt2
b07616b39008d1bb9a49dd83b049cf02 verisoft-sim.c.2.46.translated_read_sim.smt2
51e6041c5c7db88ad50ac21d4a71a376 verisoft-sim.c.2.47.translated_read_sim.smt2
923d6af2f85b8312dd7ced1688174910 verisoft-sim.c.2.48.translated_read_sim.smt2
3c71815c95fae5b150e23e5c6ae9bf47 verisoft-sim.c.2.49.translated_read_sim.smt2
2ce03491a63c062ae13fa62e94f277b8 verisoft-sim.c.2.5.untranslated_read_sim.smt2
3baed5d0a2a2c320adcafb64a813df8f verisoft-sim.c.2.50.translated_read_sim.smt2
9dac2729d031c13daa842e7f52566213 verisoft-sim.c.2.51.translated_read_sim.smt2
8b85524383a79607c47c7744118efc62 verisoft-sim.c.2.52.translated_read_sim.smt2
f809a0e7363f9e3f425debb3b6b93e9e verisoft-sim.c.2.53.translated_read_sim.smt2
b28bca2b6267f633611097eb0b0ea934 verisoft-sim.c.2.54.translated_read_sim.smt2
825969e8e0a30b42eded6b566351ae0e verisoft-sim.c.2.55.translated_read_sim.smt2
252bf83c4933ace446608205b9e6a01a verisoft-sim.c.2.56.translated_read_sim.smt2
0e0f8dcc6d48f936b991a7bc5ef4d0b1 verisoft-sim.c.2.57.translated_read_sim.smt2
5cd73eb944b6d68a9997c7ffec7a428c verisoft-sim.c.2.58.translated_read_sim.smt2
112527d4109f2d1d692650516159be93 verisoft-sim.c.2.59.translated_read_sim.smt2
4acdbaad58d17019e807d3386e82fe81 verisoft-sim.c.2.6.untranslated_read_sim.smt2
4c9073fe2e9b10fbd63af264e6e86eaf verisoft-sim.c.2.60.translated_write_sim.smt2
13e60fa0126e0710a51eaa22db0fd1e0 verisoft-sim.c.2.61.translated_write_sim.smt2
ab09c63c7f76b490b8aceed78f5c4f10 verisoft-sim.c.2.62.translated_write_sim.smt2
c694290e6f014982681ceb34dbbab780 verisoft-sim.c.2.63.translated_write_sim.smt2
da348e56291253a9aa36db3558842afb verisoft-sim.c.2.64.translated_write_sim.smt2
9ef2e1235592a163d7e2b98933b59960 verisoft-sim.c.2.65.translated_write_sim.smt2
01c31b7e64eefcf96e7c15331a60dc09 verisoft-sim.c.2.66.translated_write_sim.smt2
945db99ae9a2fd5db9b80288315eba98 verisoft-sim.c.2.67.translated_write_sim.smt2
265f40deda8f8fa52d1c522a745edee1 verisoft-sim.c.2.68.translated_write_sim.smt2
4fdb647d7bb57fbed6d8b377c089eee9 verisoft-sim.c.2.69.translated_write_sim.smt2
d32af85e0c4cc162bb6c628931719a80 verisoft-sim.c.2.7.untranslated_read_sim.smt2
f20817e62d57058373b4d6164a1b121f verisoft-sim.c.2.70.translated_write_sim.smt2
143f209d68efc64522d88c29f5777b5d verisoft-sim.c.2.71.translated_write_sim.smt2
8b7f330e2f495d0717cac113c203d4ac verisoft-sim.c.2.72.translated_write_sim.smt2
27fd81b3a85a2df27cfc22de0931c02a verisoft-sim.c.2.73.translated_write_sim.smt2
90e3c3579398d0d3dc1e1642da3f3524 verisoft-sim.c.2.74.translated_write_sim.smt2
d32f82c94f6c82dc2cbf2a1ea11c1143 verisoft-sim.c.2.75.translated_write_sim.smt2
213c48482b0d5205de385922a1b6db3b verisoft-sim.c.2.76.translated_write_sim.smt2
ec2b9640f3da158e4d47e8d85c548f6c verisoft-sim.c.2.77.translated_write_sim.smt2
47d08f1ba9f507f086e450c58858938b verisoft-sim.c.2.78.translated_write_sim.smt2
700de0a5391adc84d71a2ad8961f70a8 verisoft-sim.c.2.79.translated_write_sim.smt2
0b2dbfae5c36c8063e0378e88fa557f1 verisoft-sim.c.2.8.untranslated_read_sim.smt2
bb8bbcbe261f207f53cbe2803a545e20 verisoft-sim.c.2.80.translated_write_sim.smt2
cf3f6b87909284bdab5f5544953c7090 verisoft-sim.c.2.81.translated_write_sim.smt2
2eeb367823d8f9e96f6f0bd6e7169cd9 verisoft-sim.c.2.82.translated_write_sim.smt2
1f30522e35ac034d095fc3b440b57599 verisoft-sim.c.2.83.translated_write_sim.smt2
378cccf4f5b0aa6ae59f57cbeb1e32a6 verisoft-sim.c.2.84.translated_write_sim.smt2
065593f25813b4e5bf2ab3de869c67ad verisoft-sim.c.2.85.translated_write_sim.smt2
b9b62bd98f3be7d4712242f71340442b verisoft-sim.c.2.86.translated_write_sim.smt2
494602580c47c826cc91d44c9646a1d3 verisoft-sim.c.2.87.translated_write_sim.smt2
3a7a76fdaa5f0e56064e980aec390e60 verisoft-sim.c.2.88.translated_write_sim.smt2
b247236f460ca5f8121fd3cdcd974fc7 verisoft-sim.c.2.89.translated_write_sim.smt2
c43368b6fc82df441e393658bf2f736a verisoft-sim.c.2.9.untranslated_read_sim.smt2
994851b824c0eaeb9fe15d8d6cec78c9 verisoft-sim.c.2.90.translated_write_sim.smt2
0fbd3af193e2b32a3bfd093c944fad4b verisoft-sim.c.2.91.translated_write_sim.smt2
65aca1b6e8b947b9a22ee3147c5efc18 verisoft-sim.c.2.92.translated_write_sim.smt2
45db12c1df40a91bda9010ea9e740787 verisoft-sim.c.2.93.translated_write_sim.smt2
54f9e58b5e2c354bcf0b5b2767757c01 verisoft-sim.c.2.94.translated_write_sim.smt2
15a2012920bfbc5d03feab0bff9bc72d verisoft-sim.c.2.95.translated_write_sim.smt2
8a24a5ee22efe92395113857d85d7601 verisoft-sim.c.2.96.translated_write_sim.smt2
3fea0f11e13ce1b5a6278824259d6ccf verisoft-sim.c.2.97.translated_write_sim.smt2
604bb284f3b7f424ba08d6def478266a verisoft-sim.c.2.98.translated_write_sim.smt2
bd5e9f888d7d32c9154742f071de8ed8 verisoft-sim.c.2.99.translated_write_sim.smt2
4a6507a2d266c8d55f5d26bf45c421d2 verisoft-sim.c.2.usermode.smt2
7820ac5cfe1803f8d8964cc6d482ee7e verisoft-sim.c.20.GPR_eq.smt2
6000dd3ba1e0c9d4538f15e0dc6bddb7 verisoft-sim.c.21.guest_data_disjoint1.smt2
a7e29c2214125b6b88eda70ea3f7a7a3 verisoft-sim.c.22.guest_data_disjoint2.smt2
19084e2fac8e26836431fb800ee596d5 verisoft-sim.c.23.mem_eq.smt2
7e404d805b576366792b151816040481 verisoft-sim.c.24.mem_rel.smt2
b2dadc139bd003192b4d241290306fae verisoft-sim.c.25.R.smt2
caf834def0d41ac190dfd66f4889fb42 verisoft-sim.c.26.guest_n_excuted.smt2
1894ced21229280e8594bc739d88d038 verisoft-sim.c.27.procs_rel.smt2
ea141c2224abe59979c72c85e9bc28a5 verisoft-sim.c.28.ArrayRegion.smt2
4f6d70637e0036f21cf891ebc6798114 verisoft-sim.c.29.proc_rel.smt2
226580e2875fb29363593efcd9caf0f2 verisoft-sim.c.3.systemmode.smt2
e3086fae89d72ce8170c26a914a5d5b4 verisoft-sim.c.30.proc_sprs_rel.smt2
591ffcd45c5268de62ecabac356141a5 verisoft-sim.c.4.pma.smt2
d9377ab9d57d6a1c3efb8a68ca94b8e2 verisoft-sim.c.5.ptea.smt2
69d8ebbfdc7034622d1e04e7be17dd8d verisoft-sim.c.6.gpt.smt2
d6bccbd746b8e312696da940697dbcbb verisoft-sim.c.7.valid_entry_aux.smt2
51c9e9546e7bdf49ef522a330bd38662 verisoft-sim.c.8.hpt_inv_guest.smt2
46024a120691c608e68540ff6294a8a1 verisoft-sim.c.9.spt_entry_v.smt2
f14673f7ad421fcf5a5ab28e6da9a33c verisoft-vamp.c.1.valid_mem_layout.smt2
6b4a133e189f5df6b56c1aa1354fd15a verisoft-vamp.c.10.privileged.smt2
cd7d097240920151f89207352a96e4f4 verisoft-vamp.c.11.jump.smt2
c50ef364d001f76eb4997bb779fd10b0 verisoft-vamp.c.12.branch.smt2
42ad3ed1b8b1dfc337d448e71c846932 verisoft-vamp.c.13.cfi.smt2
455dc75e0315499312fa5f6a927ec019 verisoft-vamp.c.14.link.smt2
7f59c73170c3df9fceb4777223b60fe1 verisoft-vamp.c.15.jumpr.smt2
0edc199fe71b6ff5bb4d1930e616a9f7 verisoft-vamp.c.16.illegal_opc.smt2
0eb5e15487e687bbaee6ac4e265fa042 verisoft-vamp.c.17.illegal_fu.smt2
5915225578238e2c8dbab9728a56759a verisoft-vamp.c.18.illegal_opcfu.smt2
b84344afba55599a80303d284a0ab67c verisoft-vamp.c.19.do_memory_operation.smt2
02904ad1ace70a9d3881a92dd048c42a verisoft-vamp.c.2.usermode.smt2
47060e185c18253a55740bc8b2e61bd7 verisoft-vamp.c.20.increment_pcs.smt2
d3cc1bcc87b92a4b708d48589582547d verisoft-vamp.c.21.btaken.smt2
3864e293b239b8b6041321e507de64e2 verisoft-vamp.c.22.bjtaken.smt2
d368c30d86d887cfd129bb4f9b96991c verisoft-vamp.c.23.target.smt2
4a5fe686a79bc7f99ccbc851e475f7e7 verisoft-vamp.c.24.exec_cfi.smt2
53ea80e3e5fb6164f2dfac7c64252902 verisoft-vamp.c.25.exec_movi2s.smt2
6363774fcfac432317c7e405a5c05c5a verisoft-vamp.c.26.exec_movs2i.smt2
d2b6d7e0424a19c419821ea9c4c56327 verisoft-vamp.c.27.exec_rfe.smt2
1a324e840a0b7b1ca5d6059887d14aea verisoft-vamp.c.28.exec_trap.smt2
9a19c41747fbe2613f10d8d7e1a5b525 verisoft-vamp.c.29.compute_ea.smt2
2a7001ac372fc717073d9f883ef30b1e verisoft-vamp.c.3.systemmode.smt2
a829f339143340a53368dd28bba5463b verisoft-vamp.c.30.exec_ls.smt2
770d05051e1ebbdf340a2e841594e8b1 verisoft-vamp.c.31.exec_shift.smt2
a932386ecc20f1c3aae3e0aff17da77a verisoft-vamp.c.32.exec_alu.smt2
9063f1624acc7d7eb11121d94dc8dc92 verisoft-vamp.c.33.exec_jisr.smt2
e5a3afa180d583aa67e0534566222489 verisoft-vamp.c.34.exec_instr.smt2
32d3e39372a45942ffeadcee6bde3110 verisoft-vamp.c.35.vamp_step.smt2
419a65e142c4ef04ba5433127da82db6 verisoft-vamp.c.4.valid_sprx.smt2
63734005e61b0681f0a154dfd500bb1b verisoft-vamp.c.5.valid_il.smt2
e12701425ea36f123452182b36ae83c7 verisoft-vamp.c.6.repeat.smt2
0daa7beffb3b7d3be59f5459cfda9b1a verisoft-vamp.c.7.rtype.smt2
0d0f23d52100b8da8347a59073fad3d6 verisoft-vamp.c.8.jtype.smt2
6f4d640851db0b3253596b551f70a57a verisoft-vamp.c.9.itype.smt2
7aebe9428a806fb468f0bc8ba2e30313 WindowsCard.c.1.strnlen_s.smt2
894967eb97e72af2c683e743959c93c7 WindowsCard.c.10.inv.smt2
47da4118c5ad8cb64191f7fb550174ab WindowsCard.c.11.init.smt2
63e6e48213d28d04a5c6d496aed9402d WindowsCard.c.12.apply.smt2
bd13c0152ba68adeda74a958c5ecb4e9 WindowsCard.c.13.ApplyQuad.smt2
46b450b2be9e35712ed58cb111125615 WindowsCard.c.14.carry.smt2
62efe2cf91c05892613296b4b5e21222 WindowsCard.c.15.ReadQuad.smt2
5e92f9ec09ea745a7551fc4fbffde0b0 WindowsCard.c.16.WriteQuad.smt2
fd8ff754884c0feb68a5accd534b6896 WindowsCard.c.17.DP.smt2
0c2cfd5900a1b3a824d82477226537a8 WindowsCard.c.18.Terminate.smt2
073268af390a6cf3f3aa38b364c81c05 WindowsCard.c.19.ApplyALU.smt2
a636f425b437910445f3985f94388c88 WindowsCard.c.2.wcsnlen_s.smt2
2df10703d0c5c316044650a4dad5848f WindowsCard.c.20.OpArith.smt2
adce4c2a520989f7638e92298f3b5a47 WindowsCard.c.21.OpLDA.smt2
0466eeb709570a21a5b8341f1c63fb90 WindowsCard.c.22.OpLDAC.smt2
d3060e23e06b9e9eaf43bc43b1f77e37 WindowsCard.c.23.OpCLR.smt2
bd65c6f815662fa4c711b9fa835c53d1 WindowsCard.c.24.OpDEC.smt2
3f13739b60a004a257b91a3f63a4affc WindowsCard.c.25.OpINC.smt2
91a0b382eb6ab64f97d676556311bc0d WindowsCard.c.27.OpConditionalJump.smt2
8920c053c506e66e12259b9235308b7b WindowsCard.c.28.OpCALL.smt2
9fe51bcb747df650467be84b0fb210e3 WindowsCard.c.29.OpRET.smt2
5b532685e1a20324a741250e8e2b2ab3 WindowsCard.c.3.die.smt2
dbc2ed6a8ddb33a10cc58a0c8d0464c5 WindowsCard.c.31.OpEND.smt2
784be98cc706021768e56dc44c276110 WindowsCard.c.32.OpESC.smt2
59bacbea1b5510629d6bdcce1362e396 WindowsCard.c.33.MOpNEG.smt2
ddea5fbe24411e65a1dd4fb379bed62d WindowsCard.c.34.MOpArith.smt2
3f6a8de5005e3340ae7a49a91bbc6aef WindowsCard.c.35.MOpJMP.smt2
93cc3d9de3d34bebfe79854e79a30fab WindowsCard.c.36.MOpCALL.smt2
2ed0a642e943043e792c4a24082574c2 WindowsCard.c.37.MOpRET.smt2
c532d94362926bb4fda4a672f2449fac WindowsCard.c.38.MConditionalJump.smt2
4a75503a0d44cb056c49f77ff033f855 WindowsCard.c.39.MOpDUP.smt2
1c36f1839f6a0abcb65065a06a16a131 WindowsCard.c.4.memory_fp.smt2
5f8c31d3b28aa9c6b9a9bd57278cfc3d WindowsCard.c.40.MOpPUSH.smt2
9ab7432af4d22f011f1a3a6b69c8ff14 WindowsCard.c.41.MOpSWAP.smt2
0ad6c0e1413ebe2cb39dfabeff4849d7 WindowsCard.c.42.MOpPOP.smt2
287ffe134875cb5936523698f6bfdba3 WindowsCard.c.43.MOpPOPA.smt2
0ad10a6c1f54b23f466310df16a5327e WindowsCard.c.44.MOpPOP1.smt2
e2287580b9afeacb9bc7ce81f3bda4a2 WindowsCard.c.45.MOpNOP.smt2
b5d3616ec324636d9c8fcb059090ae1f WindowsCard.c.46.MOpEND.smt2
1a72eeefbbbf4e8bf796fdcb2d30817f WindowsCard.c.47.DecodeOperandType.smt2
9b28ebdd02eb7968e1a2de1db0c85993 WindowsCard.c.48.nondet.smt2
0dcd94f6d8d7feff70042ae3e4567f34 WindowsCard.c.49.ExecuteInstruction.smt2
c6f2fc70c87885fd2a0ef92b804a7862 WindowsCard.c.5.memory_inv.smt2
701c09a5727d87665ec0147bb66bf3ae WindowsCard.c.50.Run.smt2
5fece7501476a9b8cb163d4d8dd65609 WindowsCard.c.51.strnlen.smt2
8ea49985c65ddc74960b766bfaeb7544 WindowsCard.c.52.wcsnlen.smt2
7b184d3a21068fb5ec3adbe8dbbb2fe0 WindowsCard.c.53.malloc.smt2
345a8d65c9597a214908684bc27e8000 WindowsCard.c.54.memcpy.smt2
488866e35046b3d9f6343bfed36650e3 WindowsCard.c.6.make_memory.smt2
e640da96d7ac3286cc0c51495b4d7491 WindowsCard.c.7.get_cont.smt2
3a4be1bf3e3380584ae69df361fa279a WindowsCard.c.8.set_cont.smt2
aeb3a3f7b1ef5a6f8ec188522dc2fa65 WindowsCard.c.9.InSandbox.smt2
