cbc7edd3c74f9685d643b3709779e271 adpcm.smt2
ed9f66d7fd42b7851952be1254de1130 bitcount16.smt2
7bb82bed6915297d11b7df31fe63967b bitcount32.smt2
315871c20228e03aa4384886ef88d851 ex10.smt2
90dbbed5cfbe9d9600ba2f23afa75714 ex13.smt2
d625e7e308cc34467bceb9de8bb130a3 ex19.smt2
54c35c92379ee95ff4119b2904a4156d ex23.smt2
146545605b0b222ac12a17158ed82b1b ex2_prime.smt2
c55f52dfc8682a396a40457720ed1298 ex30.smt2
35b29793e8e328334476a6ace05c6233 ex33.smt2
b97fdcc045ce6984c53cb8b68b547114 ex34.smt2
2a4837b23f09d58dc2b2f5302e64a434 ex37.smt2
38d9a53b876da7bbefd51ea9a4597496 ex49.smt2
c0d6cef79fef611f6cb3a49e3cf6604d ex7_prime.smt2
e536cc1721675d2f860e53105c3b5c40 fermat.smt2
f3e90370ce6f605ea5b96178cba3d847 graycode.smt2
16861877a0747649564f89e61d9fbe79 inf1.smt2
ab4a64da7e67e39f5f309c1a85a1854b inf5.smt2
05e644fd80858915bdbdf8f84946587c inf6.smt2
6f04e2e70fbb421f5a06dd411b777f35 inf8.smt2
f2d5027ef4bce7a8fb2f469b7a7a6fdd intSqRoot.smt2
0de620ca6eb018f250656d7db5c9fa92 loop_on_input.smt2
94472ea6427e909ba22e452eb09f1355 magic.smt2
ef24706f96f2dcf0998444194ce9976a matrixsqrt.smt2
bc1e1133cd03173dece74c482feea756 Prim_4.smt2
f8547b257cf0673816dbf03ce2c49866 queens.smt2
ff4b425ffb5016374b6883b9be0f5b01 send-more-money.smt2
87b4dd6346dbee76c0ad864d6631dd57 simpleWhile.smt2
c282ca3ad181fa6940938cd2f351f5ee sort.smt2
31dfa53072c785cb51067ab62bd38277 sudoku.smt2
