79aca901af775cf3b01bcaf174e8697c lfsr_002_015_016.smt2
705d91475252ca89cbd7af5939614708 lfsr_002_015_032.smt2
6d14064de8f6b5cf8ca7492a1be2111b lfsr_002_015_048.smt2
252126e4e9f62e11fade0aaca8e97fe7 lfsr_002_015_064.smt2
fcbb9e5489b6f9de50a41cfd2f16a309 lfsr_002_015_080.smt2
38db805d06edcaf8e4c18d20c35540d6 lfsr_002_015_096.smt2
093ee5e6ab90951c523b2c8d94fc646f lfsr_002_015_112.smt2
2e841c73aff8753da37aec7aee3e70f1 lfsr_002_015_128.smt2
2e77256e5345e41f5f263ea7b21b9693 lfsr_002_031_016.smt2
3d11e9d6da68c468ad8af84e1e4a4618 lfsr_002_031_032.smt2
e16d5632f6ac49d7cdaeb729056f2aac lfsr_002_031_048.smt2
143d64c5909587f0b3686adb3c5e4fb1 lfsr_002_031_064.smt2
9c87517e4c21f2e1ea1e3d3f9f8924e3 lfsr_002_031_080.smt2
748c84ec2d5c8b83750cfefeb90d6678 lfsr_002_031_096.smt2
abe0648ea628878e91de0457fb56dbd1 lfsr_002_031_112.smt2
78636618baabe4954fe5a4dd075ff4b2 lfsr_002_031_128.smt2
f029c592e67b3b78a5c11ef9e81f8cab lfsr_002_047_016.smt2
0d069bf2a151f7481912a3fb4764c8ab lfsr_002_047_032.smt2
89607a38c938f02a54380626c94666db lfsr_002_047_048.smt2
018553d5bb6c38e2a8155ee37b2c9331 lfsr_002_047_064.smt2
5aa71b1d366e492b0038f22cd23c6760 lfsr_002_047_080.smt2
7153d941b52cdf3a883bf96c9782d480 lfsr_002_047_096.smt2
a19f47c0d26f05ca2fb7a5a74e42dd02 lfsr_002_047_112.smt2
409423b11e18e3fd0d9f61c2bbef2fa5 lfsr_002_047_128.smt2
2a9103f082b81e4dc3c0f085cfe36c88 lfsr_002_063_016.smt2
b6aa5fc20d9181d80427991495e6aa1c lfsr_002_063_032.smt2
4e4eec90ed8a882eee6c2ff826bdfb05 lfsr_002_063_048.smt2
ae8878ac7326be3059cb3e0ca7233a66 lfsr_002_063_064.smt2
0cde1a13964a832bbf63be5002ffed71 lfsr_002_063_080.smt2
ec5cf5fc828fa38319d620272d4d5905 lfsr_002_063_096.smt2
a13db5b4c9c78428857cb65912bbc917 lfsr_002_063_112.smt2
d3c5293d3c35fa26902afb362c31cf3a lfsr_002_063_128.smt2
4206f0699a88b229a0a2429acee30e22 lfsr_002_079_016.smt2
d0a8c80682c0016478ad215657b9f25a lfsr_002_079_032.smt2
a65a01799aebeb2f3f478845c04195af lfsr_002_079_048.smt2
0704a69a5f972a6ea72f7d59ac825782 lfsr_002_079_064.smt2
91a99a010dbc82966af21d19a2d5efce lfsr_002_079_080.smt2
313ba4f11b3224e00ceb7cfa685cbb84 lfsr_002_079_096.smt2
76169ff17906eb79524f80d60e21a91d lfsr_002_079_112.smt2
b011880c50b742e2c63b6c66749922a7 lfsr_002_079_128.smt2
726f3dd32e40852d03e2f62574b8e8d4 lfsr_002_095_016.smt2
2622668cbc164f6a975ed54f0f6bde58 lfsr_002_095_032.smt2
c9270179e81684b60634de45f510f46e lfsr_002_095_048.smt2
cba87a06340779e2984f9f6f460ea2aa lfsr_002_095_064.smt2
85e2c144e60a89e274bf972bd273755a lfsr_002_095_080.smt2
6260037ecc7e6db4096c2db4d0c341de lfsr_002_095_096.smt2
e94bf64cb0271a9011f2b8524cc668a2 lfsr_002_095_112.smt2
bb2114338fb168eda95fd2f60e03b724 lfsr_002_095_128.smt2
8697392742df657dc6f06a3b8a17d911 lfsr_002_111_016.smt2
640c2960303e6045abd60160f509a466 lfsr_002_111_032.smt2
c7011f1054e8141b5596c5aff18eb1bd lfsr_002_111_048.smt2
484b32b3b3f45db2bfcb1edd8b791adb lfsr_002_111_064.smt2
d778a9ba3e2afa5ff66e04294eec9a19 lfsr_002_111_080.smt2
07222ce402178d776e264ce322fa4304 lfsr_002_111_096.smt2
b7e4d2a46cd84c870c02daae3026dde4 lfsr_002_111_112.smt2
5ab07fb32b220e52599f9fbbff3c8e3c lfsr_002_111_128.smt2
67c95b6647c5e6a182b67a8b47d39e81 lfsr_002_127_016.smt2
ee9e20962d7ce31f10c9236a4dd09039 lfsr_002_127_032.smt2
231a71c2b3790795aae62c042bd6a304 lfsr_002_127_048.smt2
a4a9d1e5c3bc4a4caa772f5c14a57e89 lfsr_002_127_064.smt2
2ef5f89f59ba1f50921d43aa73be7602 lfsr_002_127_080.smt2
4038cc335e7f72f295fbcb2005a73849 lfsr_002_127_096.smt2
aac37bcb1058e76dd3330bce61cf30bc lfsr_002_127_112.smt2
347f34b442984605a15f1b2323f02de3 lfsr_002_127_128.smt2
bfc5636b0eaf31ef112a5053a54bf209 lfsr_002_143_016.smt2
17f2d5ed80943b2640aeaaf8b12e012c lfsr_002_143_032.smt2
999b9c4a659156dab1d4c0fa511ec9d6 lfsr_002_143_048.smt2
a0b0a5a54a6d304932172890c50fc771 lfsr_002_143_064.smt2
907ceef2cc3995e00f5af3c7721dcd56 lfsr_002_143_080.smt2
5a8c44cb29933a98939f280b41fc4d92 lfsr_002_143_096.smt2
09819c5a1ae2e6859921fcfa8c432537 lfsr_002_143_112.smt2
2c3210e2d4a42a0a3331812adec38429 lfsr_002_143_128.smt2
690f7129f7b51d1c1c3bd8b8a83df87e lfsr_002_159_016.smt2
497584f8ce7d4b5d18db291836f6b298 lfsr_002_159_032.smt2
58b6dc03aad74d9955874561b3b2329e lfsr_002_159_048.smt2
6e3e191fcf8c4a893990fe8049744d27 lfsr_002_159_064.smt2
0f5a1b531f2d34344986dd2e9691f34e lfsr_002_159_080.smt2
05ea5f24fc305c1ec106f4eea86e67c3 lfsr_002_159_096.smt2
431bf7797500b00220a2e462943d8211 lfsr_002_159_112.smt2
6ab9471834fd93fbafc72f683b0d4a01 lfsr_002_159_128.smt2
2007556bc3e0906cebe9962f1274575b lfsr_004_015_016.smt2
d2883f38f11edaae096815923982fc2f lfsr_004_015_032.smt2
84e6e2848c939492a38fcd1ad5949276 lfsr_004_015_048.smt2
c7321ab8a5bff12357d84554892ead8f lfsr_004_015_064.smt2
64fb47e6ed063f3acc67288e9510d3de lfsr_004_015_080.smt2
1712f0a70ada8a40a6a16488ca4e7483 lfsr_004_015_096.smt2
2a02181363b1aa26116ccad03ce39909 lfsr_004_015_112.smt2
e5e950cb38634233732ff1a90140ed31 lfsr_004_015_128.smt2
7d6ff6f4af2bd92d279f9de6611f2d8b lfsr_004_031_016.smt2
08f720900a752a9602bdcf1d6b11bf4c lfsr_004_031_032.smt2
b1306b391a599c0392444fc106aab892 lfsr_004_031_048.smt2
7c1825137551b15572867bb4dcfcbb64 lfsr_004_031_064.smt2
e4cd768a7a001b63274d577aa2e1c48c lfsr_004_031_080.smt2
3fc207acd691bba7b4bf2950200200cd lfsr_004_031_096.smt2
2c5ec0061a46002c2b359506c1c5a72a lfsr_004_031_112.smt2
aa84dc9365064ed2235a68ddad885ef5 lfsr_004_031_128.smt2
65864fae83b64c3dd166901f79f647a3 lfsr_004_047_016.smt2
4983541d4abb5d67c65c7ef8f8f0ff90 lfsr_004_047_032.smt2
7482210581bd211531a3d895a3e4668e lfsr_004_047_048.smt2
02c5329034f1733b1982c0ac47f84bda lfsr_004_047_064.smt2
2d8263f7588715d80f3798e5703230d3 lfsr_004_047_080.smt2
681603376d23a036ecaa5ed85dc90f58 lfsr_004_047_096.smt2
d422ec6e277d4f1601c2a6b718219b82 lfsr_004_047_112.smt2
32497a97a49b31a637ec52120ceae7d0 lfsr_004_047_128.smt2
d22f73f5dc7d4a23d52891401413f24c lfsr_004_063_016.smt2
cbfbec7253d35be2a32b1b93d2034f6c lfsr_004_063_032.smt2
0f56a1eb8ca07909172f9367ca52135f lfsr_004_063_048.smt2
cecd909ddbff844f388b41a83e96830b lfsr_004_063_064.smt2
ea14f0d98dfb047f60a97f7a7ce7361e lfsr_004_063_080.smt2
4323f4c0323825af85ab4e7ee581317b lfsr_004_063_096.smt2
58cd3eadb9a039438ab134a0d6079345 lfsr_004_063_112.smt2
ffbcce7111a8a1967486b69a998a78db lfsr_004_063_128.smt2
40b3f6fdae6f58f99c432b18bd34701c lfsr_004_079_016.smt2
cc4a448818f8e7c0a99fed30c453eaf5 lfsr_004_079_032.smt2
68d98e218a35e0bdc3920bb238b96646 lfsr_004_079_048.smt2
2e8f351ef81aaca71d6e07a27e559546 lfsr_004_079_064.smt2
a17784363a6068fdfbc4de7fc8618b9a lfsr_004_079_080.smt2
b63558c843d675df6a1424ac689c8988 lfsr_004_079_096.smt2
3a65af868ba6f82d7c4b438dd24fde0b lfsr_004_079_112.smt2
0b9b57654a1993db197b2eda2fb42e4e lfsr_004_079_128.smt2
08507c95b848b8d9d07bf54fb953f217 lfsr_004_095_016.smt2
343cf72e2bd1d1999d678ea712e1dd41 lfsr_004_095_032.smt2
d9cdcb71d5580251bee5b3b0f56410bf lfsr_004_095_048.smt2
f9f7f9686b64d72e8d6a26f59edbb703 lfsr_004_095_064.smt2
57ff7bf9447ef7724d99b4b36ec93c83 lfsr_004_095_080.smt2
3d69600f89f34f74a2d638dc2f117899 lfsr_004_095_096.smt2
010124291d7844c8516685ba65947d49 lfsr_004_095_112.smt2
04c1906e3066994429ce5f3c27d937b3 lfsr_004_095_128.smt2
a719efc7bcc5eec43f3b014a5b8bdc1a lfsr_004_111_016.smt2
d20c8eff943ffcf71520ebe9a002daa9 lfsr_004_111_032.smt2
056f88668cd3f89539404ede239a2211 lfsr_004_111_048.smt2
13f13fba4da6bf31a5b076c57d30e908 lfsr_004_111_064.smt2
fcf9de853dd6b0c1ff1415fe63d2c18d lfsr_004_111_080.smt2
09b2fcf2d356fb1bc4cfff410f6689ed lfsr_004_111_096.smt2
de12a164f33158dd07374d103e03263c lfsr_004_111_112.smt2
7b3bb45199867d9d9a4fb6a293dc404c lfsr_004_111_128.smt2
43cc777e994b4e80386849129e24dbad lfsr_004_127_016.smt2
3c6244ef116aed760dcc2b6093f60762 lfsr_004_127_032.smt2
6471c4ec37d0f2d21861ca116dbd3f0b lfsr_004_127_048.smt2
e1e6fdf971f62da5e9f499c9370f3ddd lfsr_004_127_064.smt2
323a71295a530053cc9a21b693815a0d lfsr_004_127_080.smt2
42e3b42e54917b62839b223d82b9c1eb lfsr_004_127_096.smt2
04116dbe84b758a402a1af7fda04a507 lfsr_004_127_112.smt2
808bf3b963f1690ca4587768a5b611c3 lfsr_004_127_128.smt2
28023d3ad5bd263979160c5e3986d58b lfsr_004_143_016.smt2
9e316bf32b74ca521af7827aa6c07bba lfsr_004_143_032.smt2
d69e3902094384e438c47fcf2d261780 lfsr_004_143_048.smt2
ddacd54f7729a343f89bf837a60516bb lfsr_004_143_064.smt2
246532f2a1af541c63c0aebc8f88c139 lfsr_004_143_080.smt2
5236e531b653dd092e28f7240ed1d00e lfsr_004_143_096.smt2
0b0902bffc72f4b21eaa26377203ec37 lfsr_004_143_112.smt2
f9cf67a4be6d13e1dd9ed5a4ab0064a9 lfsr_004_143_128.smt2
7387f6752ff62d4ae85999b2c856c1b0 lfsr_004_159_016.smt2
3dad5bb1b3f9bbf4fb6e9e5e40512454 lfsr_004_159_032.smt2
78dab0e1eb87d17051e7fefdc371bcd8 lfsr_004_159_048.smt2
34b774b0706636d9a5345fca5416bd6c lfsr_004_159_064.smt2
f339fa69aa94b90d46097e052f8711cd lfsr_004_159_080.smt2
6870c7bfc9116a691aca1f8a76b12395 lfsr_004_159_096.smt2
4bae64a8b61ed43109c7792185a348e6 lfsr_004_159_112.smt2
09f2a23d802e004abcada873f142450b lfsr_004_159_128.smt2
0f2fde14b4c2896fd2b3f623be7b6a3a lfsr_008_015_016.smt2
7b99033fd22731986ab861fa88bfdacb lfsr_008_015_032.smt2
0615aa06e904fff1534789b818e48947 lfsr_008_015_048.smt2
cdda4c3e9d79e64238a3fe2147aa699b lfsr_008_015_064.smt2
9ec43767e8eb7d341fc9f8291699f96f lfsr_008_015_080.smt2
3b1bb03bb07977ca5bcd67689f436ff3 lfsr_008_015_096.smt2
510646bc1d93a250ba30539faa51e4b7 lfsr_008_015_112.smt2
06f6849398336ad2606b5ce54d12ec0d lfsr_008_015_128.smt2
5421c5b4bdba6e96f8eacc3f8332b075 lfsr_008_031_016.smt2
47bf0abce058ad60e04ab09d6a3a60a0 lfsr_008_031_032.smt2
48a328571a1ade955d7d0db3a99353d8 lfsr_008_031_048.smt2
9abfd75dde4f0d347b45098347556b48 lfsr_008_031_064.smt2
03fcb777be46cd0d24179a434e9b440f lfsr_008_031_080.smt2
c83e8967500016f7721fcfd9e7363e62 lfsr_008_031_096.smt2
82caa32b4324ce8c6b9d776eb9cf2731 lfsr_008_031_112.smt2
d4ebb5a88985c45405178c20f2810108 lfsr_008_031_128.smt2
405406ae2ee476249d2aff67dd27e9e5 lfsr_008_047_016.smt2
e79b8288717b5321436fa74eb59f212e lfsr_008_047_032.smt2
ff05ded4c927f656d89927febdb2b728 lfsr_008_047_048.smt2
d3e605617b900e155d1062c5d074d031 lfsr_008_047_064.smt2
56b3d29944cdf936725f38fbadf68faa lfsr_008_047_080.smt2
ce39c5f866e4ff14ec466403feef629b lfsr_008_047_096.smt2
e02d3ce08e6a564bbf5bf59911305294 lfsr_008_047_112.smt2
72a3e81ad19141fd019709cb06941d81 lfsr_008_047_128.smt2
a7dd70da258f60d53c1cd9ab3cc47eb2 lfsr_008_063_016.smt2
425b55f00c465abd7fd4bcbe8e23817d lfsr_008_063_032.smt2
dfddf95d228f654914e3a1042c645fa0 lfsr_008_063_048.smt2
6a335981760d066ac33c3f3dc286d0df lfsr_008_063_064.smt2
c51b4107dc47a09c40b533ecfd59b197 lfsr_008_063_080.smt2
3a251166bfeeeee77eaf68568d220fc7 lfsr_008_063_096.smt2
a6bf58e3dbcd9fa009e500a9b061a339 lfsr_008_063_112.smt2
74da3c8577d01111c03dc1772b218117 lfsr_008_063_128.smt2
b13891ebfd8454c976588721e9367464 lfsr_008_079_016.smt2
6b38744e0e4e2f007f6649aa0130ef76 lfsr_008_079_032.smt2
78b246ab45fc90cdecf80260414fd93b lfsr_008_079_048.smt2
ec557cb1803680f49b83132c765edfbd lfsr_008_079_064.smt2
dda177f222d634f78c9f50a471cf6f55 lfsr_008_079_080.smt2
0ab454e5944726c36c9436d595033787 lfsr_008_079_096.smt2
6efc3bfdd5fb83de769ba77eeaf7c75c lfsr_008_079_112.smt2
d5293d16c3242bdda9fa400885e059b4 lfsr_008_079_128.smt2
156e0ba48441f6dcc780a4572cf09900 lfsr_008_095_016.smt2
aa78fd1613fd18129b8d9740478f810b lfsr_008_095_032.smt2
827142d1b5a113b5cf1f10e9c4b482ee lfsr_008_095_048.smt2
75e812b5145cb910cc31f1f33627292e lfsr_008_095_064.smt2
07f86349173710d59366a9da7d9c9019 lfsr_008_095_080.smt2
e0e83fc46b6310c64ceb31be783af489 lfsr_008_095_096.smt2
cc833f561eace6fd871276960f902ecf lfsr_008_095_112.smt2
fc9dec8e9e8561564644b8d92d12c053 lfsr_008_095_128.smt2
c7517287ccd8f31fea104c323c46e147 lfsr_008_111_016.smt2
a6c15e0911935de521a1bbbf3a9b6ecc lfsr_008_111_032.smt2
bced1b9c2af989617e93473c1421e385 lfsr_008_111_048.smt2
d0b2deb2b6cc6cbd103d5f92d0ae5225 lfsr_008_111_064.smt2
aa2435fadb30c687703a8c230e639516 lfsr_008_111_080.smt2
a78a7e3ac1050fb08b77487d3e4e8322 lfsr_008_111_096.smt2
c6ea1804ad64245ea5ad7fbb22d56525 lfsr_008_111_112.smt2
b88258a5a7924245d125259a07eadfba lfsr_008_111_128.smt2
626716450db376258d7d4a4da37c37af lfsr_008_127_016.smt2
caa47d9b758c0a106110a9c75c5f9d27 lfsr_008_127_032.smt2
ac195564206e0e8a43c197e34654b786 lfsr_008_127_048.smt2
6c9f92edf793b715e0682ec9d0c34f2f lfsr_008_127_064.smt2
2cde6c534513aa3d21bd34e38320c960 lfsr_008_127_080.smt2
07226cf82ab1a226721d4d8dce85141b lfsr_008_127_096.smt2
0774e00e3d67155454ecc3e817152d89 lfsr_008_127_112.smt2
1d3da2237b792298848a68211a93c9a1 lfsr_008_127_128.smt2
0c71e2d1df916bfe68722fd765b47714 lfsr_008_143_016.smt2
e435ff2176d8d9341f19d5ec55148b6b lfsr_008_143_032.smt2
8daa8b613a82525ea98ba97dff482b35 lfsr_008_143_048.smt2
98b9f8355149801d57e685f0c9ffcd97 lfsr_008_143_064.smt2
a0e1709182d405c3f0f2bd3e4f505945 lfsr_008_143_080.smt2
8b8cbb0406de861624f18f900f32d78f lfsr_008_143_096.smt2
523338987ce37cc21292810afea9695a lfsr_008_143_112.smt2
51eb811231663e126c4ba824218a8ccd lfsr_008_143_128.smt2
d9639aecf0d260a9d0b4a0b4a08fc912 lfsr_008_159_016.smt2
db4ebd50a28839d81b0aa4f79986a69b lfsr_008_159_032.smt2
12d86bb53f4833733ca1c21c6f664be4 lfsr_008_159_048.smt2
e32640fdff0445c212bdc06bac5b0cb0 lfsr_008_159_064.smt2
f0f492ecd69ea67c6eb0e6e9a730b458 lfsr_008_159_080.smt2
76901039d731e3a215a3bc4dd4bf7d8a lfsr_008_159_096.smt2
3ca5d6b6c0bdeb7711a5fc5d2857f7f1 lfsr_008_159_112.smt2
95a4113064948701b2b57f7079effe45 lfsr_008_159_128.smt2
