7116975333b8933ccefba19209bcdc0a InsertionSort_live_bgmc000.smt2
730d65b073d36b01b6f53a55b213bcca InsertionSort_live_bgmc002.smt2
59c0fdb9f8c46557c4ac56c838e2cf36 InsertionSort_live_bgmc003.smt2
63eb8433d08f0df3382482fbe6bff5fa InsertionSort_live_bgmc004.smt2
9ecce2f4cd3d8f9c05af2a9716791751 InsertionSort_live_bgmc005.smt2
005651a61f091cce0112e3d8cf869b9a InsertionSort_live_bgmc006.smt2
efa7e42f44a7545b2fa4f09df714201d InsertionSort_live_bgmc007.smt2
8796c46dd0cb8fc959cb167098a837b1 InsertionSort_live_bgmc008.smt2
76cf06a4bea8e7ae10960d72c53c8fe7 InsertionSort_live_bgmc009.smt2
15f482592087e57479660e0d69c4ce74 InsertionSort_live_bgmc010.smt2
6cc37564c1bd8e8fe471064d742f176b InsertionSort_live_bgmc011.smt2
9e1f0780c6c5857acc270532dd698abf InsertionSort_live_blmc000.smt2
0c05140be8ada9ec76a4a8ee9b7de8a9 InsertionSort_live_blmc002.smt2
785cd79478f95808ecb1f9765bbe880b InsertionSort_live_blmc003.smt2
07d5bc8419c383901556fc9681d90777 InsertionSort_live_blmc004.smt2
b6d2d555914f7d2faf0c43176b38fb2d InsertionSort_live_blmc005.smt2
f5405c58b7e8949ccfce4d0f603ca7ad InsertionSort_live_blmc006.smt2
c14bf978440b22b527bf3f8a03cc2f5a InsertionSort_live_blmc007.smt2
bf8ac43e34e2fb3831e026820a6d0d6c InsertionSort_live_blmc008.smt2
40c9c144636bb3c62e3eae19c33572cf InsertionSort_live_blmc009.smt2
ea5999b412eca3b0c0aba2e4a2389300 InsertionSort_live_blmc010.smt2
d895bebc9a53122c5decc8c04c109767 InsertionSort_safe_bgmc000.smt2
2b46aae1b73ff71d5a4b2c44ac187103 InsertionSort_safe_bgmc001.smt2
dc70afacf0b58d720ecd1f388af8dd01 InsertionSort_safe_bgmc002.smt2
cf4bd889c61141476107ebfae62eb5cc InsertionSort_safe_bgmc003.smt2
c0052895ec04900faeff06e5affea6df InsertionSort_safe_bgmc004.smt2
8632bf17c06c770455ccd648d4edeb49 InsertionSort_safe_bgmc005.smt2
d70bf2f4fbc7e44c20c67fbf2ebbe77b InsertionSort_safe_blmc000.smt2
ae1dae0ab222a3e4f314013478ca2ad8 InsertionSort_safe_blmc001.smt2
71d87a9e2cdca01a8c218e27482951bb InsertionSort_safe_blmc002.smt2
ee457a9e64a3c3e922265a56c4b40a80 InsertionSort_safe_blmc003.smt2
897bb88cedc725a7d7b39386bd0c5b5d InsertionSort_safe_blmc004.smt2
47d8e66eef12b6378bff1f75202b5063 InsertionSort_safe_blmc005.smt2
fca5ba912a693caabdb036e678615fd1 InsertionSort_safe_blmc006.smt2
