5d3f5fb03b6e9ec4b16db9aa92fe99dd extract-1.smt2
e351eabe0d047053e7e8fe7a7d707434 extract-2.smt2
0e1dbf7c34dba83f531837e75c6a49c2 extract-3.smt2
ec34eec4f139bfb095404f9edfea9749 extract-4.smt2
df75de8d834b8eb0f9cd0290b62cbbb4 extract-5.smt2
d994f06ec8ba361e81edc3e94f4c8ebf extract-6.smt2
