8153e30a17cfaf092045ce1f089174a4 query.00.smt2
9a1d1bf09ee41b79698fa6528d2941cf query.01.smt2
ce942a7233ffc487389b6b3f09e08d79 query.02.smt2
e532a790afd498a596fd1d781a898fd3 query.03.smt2
e6a818b606d2884b2f43eb0bd161d1bb query.04.smt2
3b51bd981988880c4a8c72aa438f1f7d query.05.smt2
4e557abf3a361ec09399707ca98a30e6 query.06.smt2
32683d23966cb0588b0ab1f56bb2b313 query.07.smt2
fef2b8f5f6eee5d3bdf2976beb2971d1 query.08.smt2
6495d0d7f37ef98a2f0cdde9884b5033 query.09.smt2
