00ec0de6021e6e2343814ac0031fa6db _array1.i_3_2_2.bpl_11.smt2
a7ab06937244e554baafbe69d759c60d _array_monotonic.i_3_2_2.bpl_11.smt2
eb741f41f71ab7bc0d1ee30282554000 _array_ptr_single_elem_init.i_4_2_2.bpl_7.smt2
6ba2200eea4d2759f2b7226e32cc5b2c _array_single_elem_init.i_4_2_2.bpl_7.smt2
0b3632eda81ab2d0fb68a9ae6d9a3cac _avg60.i_5_5_4.bpl_5.smt2
266b24ef98d049980116a0920ddb0b2e _const1.i_3_6_2.bpl_11.smt2
6d929be7efd83e4525e2821287214c45 _count_by_2.i_3_2_2.bpl_11.smt2
1c4491f5d09444e7d63d3b9c0a50ea53 _count_by_k.i_3_3_2.bpl_11.smt2
4510a008fb15f7bb3f9cdc072d052b84 _count_by_k.i_3_3_2.bpl_7.smt2
2d1ab6d1c95dec19210526dba90015e3 _count_up_down.i_3_11_2.bpl_13.smt2
e1033dd784c69a49b633a60083567609 _fragtest_simple.i_4_5_4.bpl_7.smt2
df18b1def61fae6aea5e9aaa9530f991 _functions1.i_3_5_2.bpl_11.smt2
51a79d9b42f9ac24f147ceb4ce72f56d _gj2007.c.i_4_3_3.bpl_11.smt2
8edc8cc9bddcf56c00664f3de9ffe812 _gj2007.c.i_4_3_3.bpl_7.smt2
8840ea3422f1e6e9782606636de50eb7 _gr2006.c.i_4_4_3.bpl_11.smt2
e28904f17dad27c531cdcf9dbdb206f5 _gr2006.c.i_4_4_3.bpl_7.smt2
87724a22a620f49d2dc659008dcf10d5 _half_2.i_3_6_2.bpl_7.smt2
efb00ca347ada999d99f35fcb760d469 _hhk2008.c.i_3_3_2.bpl_7.smt2
1017ababd8f7a2bb5be300f1bc52976a _hhk2008.c.i_3_3_2.bpl_8.smt2
c7872dbb3961896764fc58bd0bb57bd6 _jain_5.i_2_4_3.bpl_7.smt2
102fed8750a3b535489612d3e06b85fb _nested9.i_5_6_6.bpl_7.smt2
275dbfd9f2f8d17ea97d9033fb791a10 _overflow1.i_3_8_2.bpl_11.smt2
b2c4af13ad50ae76c48ff065e317baee _overflow1.i_3_8_2.bpl_7.smt2
287ae61b36548ad2962fb10376ab1ad3 _relax.i_11_7_4.bpl_11.smt2
7a12ff65bd235461f6e92b37f249dd2a _sanfoundry_10_ground.i_6_3_3.bpl_13.smt2
b19f8ce9e3bf4a998473300769e743e0 _simple1.i_3_6_2.bpl_11.smt2
95d73d4848cc5c1cfe15bd20fad70558 _simple4.i_3_4_2.bpl_11.smt2
391640607ce5738b30382fb784ba4fed _sorting_bubblesort_ground.i_4_3_3.bpl_11.smt2
c155db22a8b33dca5c1d7410183d2804 _sorting_bubblesort_ground.i_4_3_3.bpl_7.smt2
aebc1862868c16722a92a52058e11dcc _standard_allDiff2_ground.i_4_4_3.bpl_7.smt2
58cbe7275466a059e1878aec039726c9 _standard_compareModified_ground.i_4_2_2.bpl_11.smt2
0c63010c6e9a4e80636d3264b61e85de _standard_copy1_ground.i_3_2_2.bpl_11.smt2
93c1ea58528fe3b07d270af18907202b _standard_copy3_ground.i_3_2_2.bpl_7.smt2
8c7c6216068f69034436cf9b8ba72a65 _standard_copy4_ground.i_3_2_2.bpl_7.smt2
75fef98f44282c645c5ddcc55ebd42f8 _standard_copy5_ground.i_3_2_2.bpl_7.smt2
b12dbf86777831ef137cacc2c75f7066 _standard_copy7_ground.i_3_2_2.bpl_7.smt2
85ed25e10ab6e3acf2ae7f630ad9cc75 _standard_copyInit_ground.i_3_2_2.bpl_7.smt2
ed63a645652bda39fe9274af42867300 _standard_copyInitSum2_ground.i_3_2_2.bpl_7.smt2
0f49c44400054dee09b6ef324862e178 _standard_copyInitSum3_ground.i_3_2_2.bpl_7.smt2
c8293d412300d110fe76e2777090c40a _standard_init1_ground.i_3_2_2.bpl_11.smt2
326914f318cd45338b96be2613a71c94 _standard_init5_ground.i_3_2_2.bpl_7.smt2
fa59e5552444ce2a5ee32404df59db63 _standard_init6_ground.i_3_2_2.bpl_7.smt2
5be7d2cf631f7505b24d980254bde9a5 _standard_init7_ground.i_3_2_2.bpl_7.smt2
e648acc943ec644136cb806334e389d6 _standard_init9_ground.i_3_2_2.bpl_7.smt2
a2c3e5c484706578c8b534c11c496091 _standard_maxInArray_ground.i_3_2_2.bpl_11.smt2
c334e26570d8886e43d70138163a8a15 _standard_partial_init_ground.i_3_2_2.bpl_11.smt2
d1dded2f59528213653d3bc349b944d5 _standard_password_ground.i_4_2_2.bpl_11.smt2
758d2e0cc7ffc91ab8a83c58c9250abd _standard_running.i_4_2_2.bpl_7.smt2
ffc312a310133aa5f8fe1d8f28a00404 _standard_strcmp_ground.i_4_2_2.bpl_11.smt2
d0464a1b232f3bcccd9ee40a6c3df88c _standard_strcpy_original.i_3_3_2.bpl_11.smt2
52c3c8360a1eacd8b3ea24518de06091 _standard_two_index_01.i_3_2_2.bpl_11.smt2
702dded639abf370f3f8f3214c5828ac _standard_two_index_04.i_3_2_2.bpl_11.smt2
080f99d789294fbb73af97efe7789040 _standard_two_index_04.i_3_2_2.bpl_7.smt2
849c9b0d315bb067578a1126aadfdfad _standard_two_index_05.i_3_2_2.bpl_11.smt2
728848096411ea9fed730751a488a82e _standard_two_index_05.i_3_2_2.bpl_7.smt2
834470347f655f573a7954e09a0b0916 _standard_two_index_06.i_3_2_2.bpl_11.smt2
0c68b0c75dbef8518064caf387b8b7ce _standard_two_index_06.i_3_2_2.bpl_7.smt2
d88dc0333116c5973813003df876744c _sum60.i_5_6_5.bpl_5.smt2
