e23b5be9b2a900f56f817d63dc81fa80 query.02.smt2
257797380c6e6b13989e85a47beb2a10 query.03.smt2
cb67026dc93f13eec376f0166dffedd5 query.10.smt2
63fe43b0575aff8a0059ceae5de878fa query.11.smt2
a9faa993327706223f125650028da00b query.12.smt2
a2c86433c3d57fda4006e1227692c1c2 query.14.smt2
d13a92a75e1d161320e1e3a25d2c6571 query.15.smt2
a284aaf0fbe7b3b2b5cf3d37729fa02a query.16.smt2
2cc417e81120c4997dbb28bb18a2d284 query.17.smt2
2731fa97a5c02c970b27b343cd70885c query.20.smt2
c711a5867bb144b6016d8ad7ae4443b4 query.21.smt2
3c0cbfe2575b0c43ec43b19a824e1942 query.22.smt2
5320c5bde564cd2f97416ad027e6f47b query.23.smt2
1c8eddf5fe65d70e9ff7cf69d72229da query.25.smt2
21dca979d37af2ab3c7a4d265c0ba9aa query.26.smt2
