654eea1aba79594c880f9eb43adcc019 smtlib14c92b.smt2
0f3f00b9826030569fcd390823ef4e94 smtlib5966a0.smt2
87fa3f4383b4626a60600283c878a7bb smtlib7a3a8e.smt2
2ff21c75b583bbf0a5a8c04434fb1329 smtlib8e6000.smt2
113d7bd4e97f64cc8905518793ee17b6 smtlibb47bdc.smt2
847ef19f80eda4ed2a986579742e8686 smtlibce35b2.smt2
3619424fdd7cdd7ebff80956d8b218b7 smtlibd85203.smt2
99279e4a96a0fecce50bc26d95e1980a smtlibdba7a4.smt2
8c607b88ce8f5b7daefce9274fb19249 smtlibdff996.smt2
d60f143ea780202d81f102f9b85bf7a6 smtlibf37c88.smt2
760b3bcf840efe166d30e2db9e8763cf smtlibf3ad77.smt2
3d48a163d2f188364576f11e866e6ae5 smtlibfc99e2.smt2
4bf4851de7ff2f3a7515c53f0faf3140 smtlibfe2816.smt2
