9fbb4706fa86ba3e9f6d2f4e5d889111 smtlib.1003247.smt2
48f0f17e706c2fb51465f0949612743b smtlib.1008378.smt2
3b2fa9b6b3758a43d3223f553b3d8f2d smtlib.1008947.smt2
9fce585cd6791207dd739d6a14fc92f2 smtlib.1009110.smt2
4caa996cff5af08684b11093e9b318c6 smtlib.1012987.smt2
8ac483c876a30abaa9fae63bccc3c663 smtlib.1024006.smt2
9d2d397e1caccc2684a558d957131920 smtlib.1032211.smt2
df91bb4a96bb54111c2527a8ffbc3cf5 smtlib.1034053.smt2
16041ce956b7d59c9f8b5b1ae45be035 smtlib.1034934.smt2
7d9ddb9a05953a2c4dbe377dbddef915 smtlib.1035433.smt2
a13f03e4f78a8adf2ea0b0346d7f7995 smtlib.1039292.smt2
39dfa5ec163bdfb064978e0c91b8580d smtlib.1043158.smt2
5a399784e763d4755cc533f9e690379c smtlib.1056495.smt2
614a053283d524797a32e27bf901d24a smtlib.1058125.smt2
8432a82c310ad2ad067141bf8b585afd smtlib.1058798.smt2
1193943234bf8bd2e2ceb859b42cbc4d smtlib.1059150.smt2
d8cc65bb131c0fc957b26c2c337b1f9b smtlib.1062615.smt2
0d6350fdcb78113a1fefc813062725bc smtlib.1067769.smt2
38c72f4a97df176d313736eb1bcbd113 smtlib.1078940.smt2
530ffe21f3461ceb11b9ec42714fe5e6 smtlib.1093758.smt2
07ed460d52e06c78328b468b2845d921 smtlib.1097873.smt2
fd40ba30e556079fa610bbf67900fdc8 smtlib.1098821.smt2
9021df29948be0600e4a7988f7c607df smtlib.1112475.smt2
63911b46e2186699d237e4685d169ab4 smtlib.1114186.smt2
330f0e16db47e076cba3dc92b9f71c28 smtlib.1145742.smt2
dd2048f20e5413a4793f3dd83e9edd35 smtlib.1147553.smt2
0391d92db77b247b5f837076e1216abd smtlib.1151455.smt2
b8ce69d2ebc422290be594745c03675d smtlib.1165906.smt2
d90a5090a2fbf60fa9c7c17ab77167f1 smtlib.1170061.smt2
0b885387015d846f5907064d1d9f39b6 smtlib.1176848.smt2
4c4daaff12c1f526f00699b93cca1b31 smtlib.1180361.smt2
e46cd71956a8aedbfc2d9209437872bd smtlib.1189027.smt2
b1cf161b813dfd20ca841fcfdba5e5aa smtlib.1189806.smt2
4e63e48e32acf4a60b1522921730a24e smtlib.1193467.smt2
e7240699d733255321452e76450f5174 smtlib.1197299.smt2
1ca8a8ac093072f520c6de18e1036881 smtlib.1201697.smt2
58ee3be6cd1f25b75edb4c35bd834018 smtlib.1205854.smt2
15d71fa3b0f61ec2c905d1ef7982bfc5 smtlib.1207211.smt2
cde79043cb4b3d1a24e85dfd8146626a smtlib.1207881.smt2
b3bc30999164824d8f44de9bcfabbd1f smtlib.1208248.smt2
f80659bc89fdf48df3faa86db67a6bb9 smtlib.1212066.smt2
e8f57fef0025f2d99700796f82fdfb31 smtlib.1215758.smt2
bf800622571300fda3401f0eb348034c smtlib.1217464.smt2
d07aa5f19bd4ae61f4137bae0c40740c smtlib.1218210.smt2
293217dd316dd0fe4949d95410b5e492 smtlib.1218506.smt2
f3fe5217ca998d4ee7bab32448293258 smtlib.1225759.smt2
8ec21ea4017792f3ee6b7228b8714275 smtlib.1229166.smt2
3cd8f862bcaa845e21aeeca503fa3d2c smtlib.1238233.smt2
3b886db80508b5de30d9e0dd3450a375 smtlib.1242068.smt2
9e8eb92811a15d098f29770c8e9045b9 smtlib.1246629.smt2
bea019a68a990de1d0b4c1420cb1bd79 smtlib.1250331.smt2
0a64fe31c6b48bb6f8ba7d1bbd4f5b46 smtlib.1253966.smt2
7117d5debf1da81d466993f3b5bec57e smtlib.1255552.smt2
e0f667d3ecc2f72c7721f1f428a9112c smtlib.1256302.smt2
ee8aa609362409ba1dfcf20ec21525f9 smtlib.1256624.smt2
2ab28febe48c6765baac3da24a1147ff smtlib.1260342.smt2
1bc1c549509cbb1c6a83f297e1059536 smtlib.1261936.smt2
0739d9518545967cb4515e55c994ae12 smtlib.1262603.smt2
65c4afb0a891a5e359327ad332cda34c smtlib.1262852.smt2
aac9c70847e201c3e0c84694c9b09e6e smtlib.1266492.smt2
7a726c5b5c52537ea695d9de66c0b168 smtlib.1267524.smt2
43a97a79f35774f96101829a4a0e53e7 smtlib.1273038.smt2
594540a28aeb21b7a2898cc85463f29c smtlib.1274654.smt2
019946eab58ef793408ecfd3bf6bc500 smtlib.1275404.smt2
a7a359243d35424489dde623741195f8 smtlib.1275657.smt2
ad38fa275cdb9a47b8dd4843d6264d5a smtlib.1279459.smt2
a9d2cb18252cdceceab2d10bd2b080c0 smtlib.1280964.smt2
443b562d2c861dd15df42b5dad3be8a6 smtlib.1281812.smt2
c830d2ddb72262b0ea24e816068266a1 smtlib.1282296.smt2
d3fdbc4a8428c9377efb1c6ec5298866 smtlib.1285944.smt2
5fe78ed63ef312cfffe41040559b922c smtlib.1289695.smt2
5b1363b71ccbcc50d5b4e10c6f06b3ab smtlib.1290988.smt2
4d1a8790c684a09ff6318ef67dda945a smtlib.1291563.smt2
331c346a8bdc69af607df97af97ca867 smtlib.1291795.smt2
eea8f45d5e9c41b3f4a3134aa421733d smtlib.1295158.smt2
bbb3be4ad04d1606adc07a78bed55c14 smtlib.1296512.smt2
92ebf91de5bd8ef9dc81271dad939b6a smtlib.1297155.smt2
b3a969a3635f431287461469d9301546 smtlib.1297405.smt2
997b90f7dc1b036f017d67ec4881c19b smtlib.1300795.smt2
1c6014dae68eb41825bc69205d6e586e smtlib.1301364.smt2
988da87e98325018e060e2a66b9fcb28 smtlib.1305552.smt2
3a8336a3aec611126ad48a875735095c smtlib.1306826.smt2
71847001d722dd7186f3daa939987d3f smtlib.1314525.smt2
99c56ec3573ae14ecdab3dfd3c1f9e0b smtlib.1315341.smt2
bdf12722da45d5a8303dfb8c98ec930e smtlib.1315861.smt2
2f546d98713775cc3c21aa87eb196baf smtlib.1321835.smt2
d4ad5e412ad3e7226b48f9f564d37701 smtlib.1322704.smt2
bdf001a8a030bad0662365bd9e1eb630 smtlib.1323194.smt2
1bdd712e44856a15506d09cedb26f01e smtlib.1330676.smt2
ab9f6d1b272269f4377a602a52778994 smtlib.1331192.smt2
64f4be28fc7abf7714b02514deaf6d64 smtlib.1334997.smt2
8d944c7ef9fc5dfa503601ce4669fbce smtlib.1339511.smt2
1dd789eeb3b36e1699a97207fbd9fe12 smtlib.1340607.smt2
6d2decb186468643ebf268bc37d5806c smtlib.1345527.smt2
26eb51657ef2b80a4c1f4fd60b023582 smtlib.1347412.smt2
6df79a437fd80097bd00b4f0deff7c6a smtlib.1348248.smt2
567195dbc10608d197594f4974f268c7 smtlib.1348559.smt2
96efaa787a1eb757853bb0a79d8e9704 smtlib.1352439.smt2
7997c0bd3c1b484c23130a5cbe937a5f smtlib.1354233.smt2
1d51a6ccbe14b7a8bd92de77a81e5c3f smtlib.1355033.smt2
b8bffaaf8cdc509f30120baaa364b641 smtlib.1355352.smt2
a7b1ab62d9224c1e568a4dd4fbffbbc7 smtlib.1359248.smt2
1c1234b41c143e81e4d6266c9cac0571 smtlib.1361036.smt2
5c2d540401d8dd05da5c03db5a1b9729 smtlib.1361818.smt2
3668154573bafbcc8c313a4d145d7252 smtlib.1362134.smt2
73b1ac3b52ba50ea28ca8a874e810fa1 smtlib.1374907.smt2
157f146db65d8a0e10407bc02c8eef19 smtlib.1375291.smt2
ead9ea54ae88225d0952377f9ecf305c smtlib.1379091.smt2
e2ed132217781bdac4990576cad6e760 smtlib.1380822.smt2
41f20ab1b89e4d6860d9efdf36fabe04 smtlib.1381702.smt2
e2fba60c861bef193a68189d1e9912e5 smtlib.1402964.smt2
02f079327066b40b6d43fcbc5946c5da smtlib.1403837.smt2
3247b2577c9ac0c39aff441618a88571 smtlib.1404271.smt2
cc74a593256ccec85f8bf79e3f2ded49 smtlib.1412484.smt2
b7c7ea79ad42f89dedf7188e51c10dff smtlib.1418032.smt2
41b420d0a94c0181c14ddc5596cc236e smtlib.1418887.smt2
7c9757f0c0d039a0b3588985b6b112cc smtlib.1419285.smt2
dad0f41b2d8b73eedd0a0786f5d2444d smtlib.1424997.smt2
e213a3267228cfef98eabb1401554b72 smtlib.1425919.smt2
edac423962f9bf6e31e8e0206e717f3e smtlib.1426402.smt2
59a6fcb86c2bd2ebbe5850f358d01e86 smtlib.1434920.smt2
def31e3dcd814fa28f5c5789233badc7 smtlib.1439516.smt2
4fa5d423ee453fbb1c9c123a58fb032c smtlib.1447383.smt2
5bf56d12c5889401bb48f34e67c5a652 smtlib.1448824.smt2
1988ad5c4e97061fbfa293e0703788e3 smtlib.1449645.smt2
6069851d149d676aaa4ddaaa61d95ef6 smtlib.1450024.smt2
d6f1e12ff598f83f9c070cbb600bf975 smtlib.1454628.smt2
dd3c82933dbc6f17e95b7cc006ee583d smtlib.1456533.smt2
07616314f77c7ab5b22c0550a8025a93 smtlib.1457388.smt2
44131ae7b135c9ce9b8da8c3182edbe1 smtlib.1457802.smt2
658d65be6d7fe59e9a080a1b4d507811 smtlib.1461376.smt2
66908fcf084a0d2ed5e53966051f8f6d smtlib.1466205.smt2
ed6ad467df05f0815d52256b9348a1df smtlib.1468059.smt2
105890a70070d91595170313e181ad1e smtlib.1468979.smt2
2829c3df7f0213c02fbe794924f9ef39 smtlib.1469410.smt2
9a66789803ea79d80b380c1c949511c8 smtlib.1473993.smt2
bf44ce658d2c72dbc513e45a24fc7ede smtlib.1475891.smt2
76779446629735a452f2f36ba6785cf6 smtlib.1476770.smt2
3b85d27b08cb96702a4d09e2bb6c0a1a smtlib.1477206.smt2
85d4708881dcd7a84fae6d33c6bc27f8 smtlib.1481794.smt2
462e9c19f7ef70b166793eb028620760 smtlib.1483692.smt2
166086d1303ecf139529a4b2a4b934be smtlib.1484571.smt2
f41a0a945fc3f1eab48085aece875f13 smtlib.1485007.smt2
afee168bc9a8de5dcc64355732d9f733 smtlib.1489587.smt2
fd4b66f20cebc86000d625d33532f744 smtlib.1491485.smt2
ec62c6603a9a60869cc0c4cbe3ad2adc smtlib.1492364.smt2
2eb4ce7580e5fa7cff26ab2e2de2e6b3 smtlib.1492800.smt2
17f937bc10ab93d0affcd3453752ae1f smtlib.1496217.smt2
302d04e3df0a035c9a4de2f5cf5d8534 smtlib.1501034.smt2
c33e8c1777ec72cc4a30f4b051df6610 smtlib.1502932.smt2
b25067f426e62707f8fbe64c181e2030 smtlib.1503811.smt2
c2dc803bb8fed5ddedb84cc82d6b0d3d smtlib.1504231.smt2
1b9d07fe80108fe549e4a6ac0ecccda2 smtlib.596716.smt2
444eb8a0d80210411a16af36a4d0ee4f smtlib.598610.smt2
718d0e015e6e82ce050ec3599b91a453 smtlib.599538.smt2
0407bd889f730f335fc16ef58eaffe18 smtlib.608053.smt2
26b44fe9c558286cbe84c75565744af0 smtlib.611434.smt2
ea6a20bfca9df4957e5db0f99821065b smtlib.614993.smt2
9cf3be809c83d84f045d4390eb9721ef smtlib.624769.smt2
27752b2368ab1d14e3d926c52e1f4bbc smtlib.628981.smt2
6f5efb61ae85cd74f30f567d4c48112a smtlib.632551.smt2
85b6738c04823c43f087adc12b73b42d smtlib.636448.smt2
0ffef2b126fb855fc530b0da47e3a7a1 smtlib.640836.smt2
8075aae88eeb57e3b5d72191bc5af6f0 smtlib.642817.smt2
0201cc0fd30054bab41e7204b2b6c35d smtlib.643748.smt2
677335c83e8e9c2ea3791e99deb4054e smtlib.649549.smt2
aee66a9a575117df8f1f904f961a3674 smtlib.650656.smt2
4301d18aa41be1f444eccd9758498dd6 smtlib.651275.smt2
e380f1950e6a1f70e7e234d4a090749c smtlib.651604.smt2
22d602b758fbf1d78e61758f011dec27 smtlib.655487.smt2
dd59870db2bc6357bc0c2c82aa525f0d smtlib.659589.smt2
bcecf2d05c5eccc4a21d368e3498afe7 smtlib.663196.smt2
3e9fc756e79ae5ed1d796e5fd46853af smtlib.664748.smt2
99aa32f770e4e99acf9e9360de0f4e5f smtlib.665501.smt2
e506a7813d97551a512d9d7cfbcbe402 smtlib.665822.smt2
85d75d673343a6e7689cc4886bb0026d smtlib.669530.smt2
3f1ef76685254120344e44143d865279 smtlib.670591.smt2
d7a7fda6f3d59b46e1aaaa24520605da smtlib.678634.smt2
93f3685eb5ad114ed9ffcf4033676bd0 smtlib.679876.smt2
ed25045663c771d6c19145bca7cf62a2 smtlib.680397.smt2
a1b02866157b6cdfe50d662f7af7cddf smtlib.684321.smt2
b1495b9704e7a72ac7e871ea4312d841 smtlib.688516.smt2
f3a444e7f541506c5e72814fa27387f2 smtlib.692038.smt2
f90de9f31213f7dd2e1f0c593fc358bd smtlib.693372.smt2
1efe99959fa6a27e9150b3a7a1b550df smtlib.693955.smt2
243bb9b7396d81d0d7e2728e4de565d3 smtlib.694208.smt2
65b1f4785c7c57dda28dbc5eb6ace570 smtlib.698153.smt2
1c0acd106f917645dafa997df16946ea smtlib.712839.smt2
7a8f64a9e4e3059d596fcc2d285f8086 smtlib.713939.smt2
4261b7fc0873c035bf6bf8833a931817 smtlib.714509.smt2
488dc47937791fb6c9c39fd5be4ab6f3 smtlib.714796.smt2
3d02f7f86b23733c481a18d645acf39f smtlib.718018.smt2
5a0047b2a523d203140f7ca4e2107c8a smtlib.719588.smt2
4d0e2ee30cff05ca39c02b104e38f89b smtlib.720397.smt2
b1dd640264df7066466efbb6b7499753 smtlib.720767.smt2
b209e128813a0118edbf75d1e3da7b07 smtlib.723662.smt2
a363f0a1d9d517d3ecdc5084b7087fbe smtlib.730432.smt2
d82912639367866af372c3e3070e01cd smtlib.730719.smt2
280c11e03fa45faa079d7685e984322f smtlib.733243.smt2
f5a75f89cf80c4666b1b6a958966fa56 smtlib.734366.smt2
8f00741dcb9c7b6582f47071f06a8480 smtlib.734931.smt2
73f531a1011a3988946d459bd456bc7f smtlib.735236.smt2
40c851251154a23854a6141c1df940e7 smtlib.755868.smt2
8833544cece297c081ba7bb9671d15cf smtlib.760148.smt2
0b4243e658f800e8a3811dae4c79415b smtlib.763524.smt2
e6366c02c59a2a6efe1e45da7fd95e57 smtlib.765015.smt2
273231c2b2048370b96251bfd68b966a smtlib.765771.smt2
5e347e66f4cf977c2d7a371a4fec0d2d smtlib.766094.smt2
2d93bb9457d2afbebe3ca5b0cabccde3 smtlib.768864.smt2
8ebe047c0da829ffa67b68b29a7947f7 smtlib.769962.smt2
2a9bcb617b92b78071067419ca0d880a smtlib.770501.smt2
87ed583b1c99b50edd28bdfcdb0ceebb smtlib.770760.smt2
5798486663e24b577809935112d64224 smtlib.774155.smt2
16253a3821730530828fc7bc72c5a162 smtlib.775527.smt2
a0076be7e16965c87e471b232ac8fb36 smtlib.776259.smt2
203f7525cd53c52be3c3630121ace11e smtlib.776553.smt2
1c9b693e2e78e8712ed181ea368bc70b smtlib.800531.smt2
a9ae28f295887135e441e53fc68af5f0 smtlib.800887.smt2
5090bc3aa4193eb8d9a5add137ded817 smtlib.842355.smt2
f841ba6099b5fc4f3ec395abb1f8dbd8 smtlib.867679.smt2
34e0fd465ca197a6abc11a8ee03666db smtlib.867810.smt2
0245ae7259d64d7e72dae93a5c4b1abd smtlib.875247.smt2
dc94977cca5510b81112b6969fe6d6df smtlib.881227.smt2
3b48bcd41d32f7f707e1b17cd6cac4a1 smtlib.882073.smt2
98b492a7852980df0f6e4051adf1d677 smtlib.882578.smt2
7854ba418bff72302f825f3978c6b313 smtlib.886666.smt2
ccdaf616b86e37b2f40f36c3638867d3 smtlib.888506.smt2
56fc5e6ba77e47361907dc6013f1db83 smtlib.889324.smt2
4fbafeb30ce9e18742895b716abb2352 smtlib.889617.smt2
607a19b03f71749c3fd49442f9635c05 smtlib.893449.smt2
0f89b4e265a8dd21531358e6ed425e41 smtlib.963283.smt2
8add7292e2178749c57a4058be7b2948 smtlib.963809.smt2
0e5b265645a3793e2ea5333817821e39 smtlib.969799.smt2
34caa6833ae00fa273f8bcc6e222251c smtlib.970298.smt2
2a8d5a158e0beb765601a67a06cbe9ff smtlib.980485.smt2
4d1e994237dc346c4c5aaa9285090da7 smtlib.982102.smt2
5ed4fd120c2e5f8f9cbf7721ec87e9c4 smtlib.982879.smt2
f8b83a1194e7fec76291280402d9fd42 smtlib.983328.smt2
d1299d7b30c04adf1e8c04900e215587 smtlib.987942.smt2
4a634b4df218a5c7e45a30c794f0f640 smtlib.989687.smt2
56756d0a115a7bc93ef7ed64f255b401 smtlib.990468.smt2
f0b3fd0a6eaa62b403102739bacb8882 uf.1000024.smt2
7f0013f06d1aefef2dc58fef88bcf46c uf.1003498.smt2
3815c1de89268344a7c7a1cbf21e23b0 uf.1008626.smt2
9fd7f7f58c1e5d0e350f0b8beb0b9539 uf.1018429.smt2
ee42b645b09e8505390605dabd75d7bb uf.1019948.smt2
d18771daec6620d89380df6d9a6a2cc5 uf.1020603.smt2
e957eb5c195e500bbd563a4ba6cc8f88 uf.1020930.smt2
5b537c562bb2a4eafb8ebb3b3e55ec66 uf.1024320.smt2
5c40e2b80493c835835b6d608faa963e uf.1029517.smt2
f73a75e098400d0d346965d22046e40a uf.1048281.smt2
fe0c603d2949fc23f5e9dbb3c546436d uf.1052614.smt2
3bde426d3eb32d070596b047d4186059 uf.1054231.smt2
8a9144c9696898bdcdff7179f99511e6 uf.1054902.smt2
ed317e96224224786ab7eb01e5940c68 uf.1055191.smt2
c840b6aa645327b1a19cc2784e39511c uf.1068513.smt2
144bce3d3e9a2a8c0531e15dd5e4e396 uf.1072411.smt2
3df0a1b7db8d6936aaa8df9fa0153e3d uf.1075991.smt2
5f2552eff018a2f7b0f361139ebd9005 uf.1083624.smt2
273a1aca0a44bf923a9ad79eb42cbe28 uf.1087133.smt2
9f93c19629a9867fd3e396ff39238841 uf.1090749.smt2
5914129701ebe81eeb0f9b9fe78ce837 uf.1104973.smt2
c8d48ad0b8088bc5caf36e205a5a5eb2 uf.1108046.smt2
8e324c200aacc6a7a0f23ea70bbf883f uf.1112452.smt2
fcf880c228b27e44212263c83301d530 uf.1120710.smt2
ba959ba6d9a06757959e6a7fbafe6b33 uf.1124370.smt2
9c7da3b7a7b5a6c329a9bde84e4f244d uf.1127919.smt2
ca711c231679350dec504871d45e52f1 uf.1131979.smt2
e8b600bd05df9948a9e18d88b14a21f5 uf.1135242.smt2
2f7ec0b7ed4db0646afbac1ce9388f60 uf.1136462.smt2
69a88532a5d02b10337c66afc152a6a9 uf.1136891.smt2
d79c54769a917cfa4f670d74e3ab66a5 uf.1140253.smt2
42a5a7976fc891e287542253e25f9e3f uf.1143570.smt2
432249620838d54c1a67f658a41c3bff uf.1158000.smt2
4163665ee011c4fd4e686d4d2d0e7e65 uf.1161864.smt2
24fe9ae35bd7f085f609505d85800693 uf.1163582.smt2
4e59726b15f45edb43897bd5eadb239d uf.1164362.smt2
7e17f20cb8fe57d66757c890b3d3f35c uf.1164692.smt2
c46866fc3f1227c6cd39357222acf636 uf.1176258.smt2
aba2cdd8fa76249799f4cafd826afddd uf.1187575.smt2
11cf71e07e26f02b9e7ce60930d041cd uf.1190212.smt2
ffd8079bcc5241406fb1471d6023baaf uf.1191566.smt2
8e24fe9998f49d77b109fcb1c88cce17 uf.1192738.smt2
8dc933e1a6711deb194e1293994bd631 uf.1225076.smt2
91cc37ae744b1884449a3d0b155a7073 uf.1236691.smt2
39b5f7f77193efd3e1ee6213747ccfc4 uf.1238001.smt2
a249078f2bb6e600c60341914e4413c7 uf.1238423.smt2
9504a3ecdf83ce9a36d0a51f265304e8 uf.1316465.smt2
80ef88811ae1083f210deabbfd90612e uf.1323826.smt2
c02baeb5341c771f68c2b096c09c061d uf.1331594.smt2
2b407e334faae370a93eb5523bea8304 uf.1333426.smt2
29bfd30041e0a2aa1c236c810a8bd593 uf.1369619.smt2
420402c036d047f8372cf8f53b8d2c57 uf.1371399.smt2
ff11bb4587a050b119aa95c39df59687 uf.1372277.smt2
02aac78e91b776c2fe50d0343adcd34a uf.1376130.smt2
be816f2acb07a825ab3e8e0b0878fb57 uf.1377807.smt2
a503f9a81faa00e62827996b7b28fed4 uf.1385805.smt2
6daaf2df615c3bb45a1e637aaaa2fd57 uf.1389265.smt2
525d09f5eb35f8f1855cf442a4fb2250 uf.1392725.smt2
3109d9f22ddbf2cbe9fb082dc3ac7de4 uf.1395862.smt2
a3227c6ae99ce2e1fe78e3e943ae95dd uf.1396987.smt2
a014177d28e6253cabe2fc99a72b0b85 uf.1397579.smt2
4474b9ea319b1b9798c1c821a0deaba9 uf.1397855.smt2
4168708d772f6aa1e10977e5b2d3f90b uf.1399899.smt2
77c2a4cc3e420ed3a0569ed3674b4a11 uf.1400893.smt2
ef4060e8c1bce055cb6270cb3ea3eb9e uf.1401434.smt2
552c0af1d3c732e1054379594f6b12b9 uf.1401641.smt2
8bd6d0f60c660d408623fd8397a192d4 uf.1405414.smt2
3141da309ce5df66abe157b0dc316b5e uf.1412239.smt2
9e24ff493da5f65a49a7af93e9941714 uf.1416124.smt2
bd59800dfbc6290fb82034ab8511e8ba uf.1420940.smt2
b2fece958810854a6c68d900cb68d092 uf.1427733.smt2
4283305a8cb4f1f8362b84a3debc210f uf.1434973.smt2
312d84044e1d63be984af6c3ed929d87 uf.1447859.smt2
4dd3dc527c2331c71f832f58dda75ec8 uf.1452191.smt2
a26929ef3911a70604b715db6a5e86f2 uf.1453635.smt2
728ed58c6d794fe84c50523168bd64e3 uf.1466245.smt2
d77777ac12a21c5870eec5e8d448a796 uf.1501031.smt2
4e02bb0859378ddbd4cafb17e1449cff uf.601489.smt2
af5e789a0058b56d594c515901ad5ec1 uf.604760.smt2
937057d49345367d64fc5c85142dad01 uf.618683.smt2
c13d4f72e2f0f01fcd109bb77f74fd4e uf.620240.smt2
9a67e7af5f1ab83b3bd7fa08d9e85f48 uf.620851.smt2
d9665623191a252df2e5b62dcdc1467a uf.621156.smt2
f659f6f449e685a4d2bd7bc448305d57 uf.646831.smt2
50493e7d07c923c9c1bbc5ced6df1c84 uf.649308.smt2
636792dd9b602ef892cb9321d18fcfe6 uf.675065.smt2
0fd8ff54c688bcd3dd59f0b2594b483b uf.680356.smt2
649206dd0dab5cc5d60cd29498f8f1d6 uf.683492.smt2
98b2425a720ca1abda65fd0e886fa656 uf.697342.smt2
d79a0918a63f0316f236afc206c89066 uf.702789.smt2
b44142ad5dfbb590ed1fa46130dd7f70 uf.704447.smt2
714562469d2309125991dee2990258f9 uf.705099.smt2
9172bd6fe1b87d189c603d7878fc46b9 uf.705417.smt2
2913d4d3baacce722499d243a71a63a8 uf.707581.smt2
bf11c2dda34fb8521cee9d4d16b833c1 uf.708851.smt2
5d68735ae52ee1bc75b10c0bf3d253be uf.709495.smt2
8ae882faaf5803365cb29d468b24d5ed uf.709788.smt2
54fc0868867fef3a475c35fd2fbcb427 uf.712904.smt2
f040edb97050ee3efb9671055bc62255 uf.713974.smt2
de6f4789ec4d2a5587894bc6de03d5ec uf.714544.smt2
b6ce35634d67985f2b11ddb3a81ba412 uf.718073.smt2
a13696f83f3d9a2578bf27aa7290c923 uf.719655.smt2
e6070fd663fa26f4d5108cdafe8d8bb2 uf.723945.smt2
d1343223b41f092dc002149703333a39 uf.727879.smt2
7a30ac1c89332ed87d50c169cf8028a7 uf.729392.smt2
a112448cd6b946c535f74c86e2377db0 uf.733225.smt2
f41b0b972d56f4f5fb16893b3ca9d732 uf.734386.smt2
1854dde246adfafbc106470ee8c75b80 uf.734961.smt2
47dfb6b238989edae19e6cc247b24fd2 uf.738007.smt2
f5b36f11e6612cedd34ee33250ccbab7 uf.739032.smt2
2144f67d737c1ed4b8d1086366f6226d uf.739562.smt2
ae66e20f96e6113a9ddd0e78f12925f2 uf.739802.smt2
ae14097e64472ca30a75f196cb588761 uf.742711.smt2
4be5432dc739a2c3ecda81ae293265bd uf.743745.smt2
814070180c51fb1640bbdad552ce59bd uf.744284.smt2
261724bc70d4e2dac8d712869c8e3d10 uf.744533.smt2
78c1401e11cead1c55a39f21f538ba14 uf.747383.smt2
f0fba5f3052dfc28c0e93092e811fa7e uf.748408.smt2
dd78b4f4c0d5f7e5234b7e0761401774 uf.748938.smt2
9e09fb6f3a78ac15ccb0e65aaaee5776 uf.749178.smt2
3fcf7cbcd70c3aa921ec6d32cbcd9a1d uf.752518.smt2
1dfcff8484b44a9ee786ec6d62bb5edb uf.753917.smt2
1920a0fde2a4a4f55f51e2e1b0a4bb28 uf.754681.smt2
cc83318a49c13accc64f82e10f5ff5cb uf.757160.smt2
c13744dda749b9979918740bf57b0239 uf.758388.smt2
b94929a84f4316db38bae2952a0a7997 uf.758991.smt2
69f32a614d251f96161815eaa008b11f uf.762662.smt2
79be42246bf849b0fc08d64f6aa16d38 uf.764150.smt2
953108dd178cf7a61e51aa65d13783c9 uf.768093.smt2
f8b37b3f204506cf00d2b8061a78384e uf.769223.smt2
71806b17a3ef84e0b84767c05507b1e7 uf.773426.smt2
a200b3dc1af354393cb677336a675733 uf.774818.smt2
8d40ef6b8c95daefa7895d8016c3b21f uf.778823.smt2
497f19fb42ffb6ed07938612c1b8bf17 uf.779839.smt2
55d6fa6392b04389bc9e33cdbec8b67d uf.780360.smt2
9213f0712656f3ee9dae1fe35825b05c uf.780591.smt2
991066c736f042581abd6be7b9c4684a uf.783531.smt2
fceef5ed05506686ed592fb382f5c260 uf.784556.smt2
dd33a21c69aceff6fcb88c8e3bcc4e85 uf.785086.smt2
ead411a72131d982a7110a11e92d5aa4 uf.785326.smt2
6894d1dd9b392c71ae8e7b73545ae065 uf.788377.smt2
2bee3ac01e6055a49ff2e55d06aedc13 uf.793278.smt2
997cb3715c142efed737a17a54bd0669 uf.794285.smt2
b180742c3bc6b58b2f01f80837abbbe3 uf.794756.smt2
df5ece1815b834728b8bab3756d07f16 uf.794974.smt2
ff8b1abe15802569602088d19df748c5 uf.797968.smt2
34623eb6c3c1bff7fa4857087914098d uf.799398.smt2
59853cde923fcd9854d77b7ef296022d uf.804331.smt2
0348773266c0f92856cf7ed0227e1861 uf.806179.smt2
3db69953e431b76c9223bf16d890c2b4 uf.807139.smt2
8bcf1560bccfad580f78d4550e2aa042 uf.810954.smt2
f1bfbded36b7ac8231e7bdf30d39ee14 uf.812728.smt2
f822955a0355a002c7086ba5c9dc415c uf.813462.smt2
be28945b78b9ca58768e2c6f537c13a3 uf.813813.smt2
e274ed545e656ff0f76a79612d3e606f uf.817666.smt2
05b6319a5eb413ef05b94fca9b4eb46e uf.820708.smt2
3c812e642849fbf7260da06e2951e68c uf.822026.smt2
c024a0aa44233c2ff6a748624d2b0450 uf.822719.smt2
74f72d5470a5304c560fa5aa7f6e0229 uf.826276.smt2
3b728459cc376009b3db0e02be36796b uf.830433.smt2
58cbe5ab893708fd855582e4291a6901 uf.832294.smt2
b49f7f7e82283d7107aec7643698cc0a uf.833179.smt2
e452564fcba0cd99df0fd92d14dba07a uf.833538.smt2
9b9a939f2cf74c6f26ab6bdbf43bbd5a uf.837234.smt2
c6679f8dfd3881a149701a0ac7e2acfb uf.841033.smt2
2104a4b4c9576694c763574a88a71678 uf.842647.smt2
20a632fb17d545a1646f23da64c9f90e uf.847502.smt2
cd45c257063fc6c572092e26891fe953 uf.849767.smt2
b8100bfbdb54a7bcbefb4099972f440f uf.850981.smt2
c9605988c45b07d24e50d0bacc3c9c70 uf.851619.smt2
8170fa373c01f46f825becb62749dd97 uf.855809.smt2
0a8e2d804809a643e57c8ab48906f012 uf.859724.smt2
0d3224bf640484e0d0081df2b707201d uf.861309.smt2
17f69df8f609601b6734364eb446edcf uf.861832.smt2
8b8d0c7e55a5d1a9f34f41057de46e50 uf.862014.smt2
9b2197319c1475359e0b29b99d023839 uf.865460.smt2
78f5c592a3f8d959af4f1058fc0d1715 uf.867117.smt2
5771147fd78d04b5cd2a27e9b2ab3fa1 uf.871810.smt2
96f77a711de27854f4b8699cdd92d67f uf.879561.smt2
beb70601bed2d6b12c7b4ad7d29b657b uf.897555.smt2
2a89158a2fd64b484a929672ccde494a uf.899319.smt2
656878d98e97390331012f0cf82babeb uf.900052.smt2
638bff4a185739e0e59f138d412ed48c uf.900384.smt2
3ad7e6a4415a8a3aa3e2093222692926 uf.904182.smt2
c21e689ad204cf3e17fdb9de466fe541 uf.905754.smt2
d17dfd080d37b75cb41f31b5c658c3c3 uf.906410.smt2
33e9bf083f1b40549551fc45a823d95a uf.906720.smt2
f28ea2b78231c683732f1d229d474085 uf.910184.smt2
0918bc25c963750dea3b0018b155a99d uf.913303.smt2
71690539193502b54cff8e442b45e349 uf.917436.smt2
4028704ba5b4e9184cbbfefc33d08fcd uf.918969.smt2
dbe1fefeca3ce1d34645b8eb05ca9cf8 uf.919546.smt2
23d3aa3f96a7e5b04cad57d17d5c9e05 uf.919775.smt2
3755995979995a97f2b191de2964f148 uf.923274.smt2
790e975e2c7406b620f1114da56e1b2a uf.927059.smt2
88632886df5b244b75ef4b57732d2848 uf.930739.smt2
bf680a0b16fb28461d15f6d81720e0a2 uf.932634.smt2
0f94e2837fed38c09baa162fe508a133 uf.933357.smt2
9055088131c3f6591662772b1f070526 uf.933730.smt2
67ce686fe253b1d7b122983e4e6abb38 uf.937532.smt2
4395f3c368b7d6bd88fdd02aae76fdbf uf.939289.smt2
b0693a5867d5ecc8ee939f01d40f625f uf.939999.smt2
00d7988c274a21ad198f4cf5bd7f4585 uf.940325.smt2
0450e104845a8c27cc1029243c75a582 uf.943930.smt2
cc4d70d9d895aeb4aed015443fd80286 uf.947541.smt2
508ace4b3a9a43ad9e7973999925d42d uf.951694.smt2
cef531c41eb3da00381bd60bbc40b462 uf.953317.smt2
eab61b7906a08f3dddb30ff4e7800be5 uf.953935.smt2
39386e4cc07cbf1c7946449137233717 uf.954143.smt2
93fcf9d71f0416d388718c13a2c71904 uf.958290.smt2
c132862653522c949a17db876b2d29b5 uf.962048.smt2
b01b02e40e480518c696a88a4b4cc413 uf.963717.smt2
b17f25aeaf5548e17d39719142e42556 uf.968744.smt2
70fc76e6c6b39674a8d020b324f70e78 uf.970410.smt2
0285329efe213a1839b11fd49e761cab uf.975374.smt2
d419ea985e1f22791d05e254bfb415fa uf.977028.smt2
91c2ec99d3d39312acb5ea4dbb63c80b uf.977897.smt2
ec88fcdbc514312dac9270655e9be387 uf.978420.smt2
1141a55833eb7f684c29fdb8ac79bb68 uf.996401.smt2
