f74617ca4be76a129d87dcee1b11494f ecoliFBAyicesTest-15875-16.smt2
3e99fb94d8cf7b980486a030311333b3 ecoliFBAyicesTest-1875-2.smt2
03481d7281633f0cf998f7ab6ba692d8 ecoliFBAyicesTest-31875-32.smt2
cd51d93ce9fb733a8431199f31c0706d ecoliFBAyicesTest-3875-4.smt2
6a0b07fcbf88ef7950f109538458cc53 ecoliFBAyicesTest-500.smt2
47bc59169944436fad23ba5190072c99 ecoliFBAyicesTest-63875-64.smt2
727d7c103b32d7829f7c60fa9d372057 ecoliFBAyicesTest-750.smt2
365d1aa8b5f09c2b7a8665fb96d98ad1 ecoliFBAyicesTest-875.smt2
eb583fcb3c6ea078a673b13bcff95460 ecoliMILPglycerolYices3-100000.smt2
28775011ebf956deaa9305373df86ccd ecoliMILPglycerolYices3-300000.smt2
f221b2614ed3f90bab023ee538b5e5ef ecoliMILPglycerolYices3-5000.smt2
5385474bdacd8b9819347c65879529ed ecoliMILPglycerolYices3-50000.smt2
cfdad27fdea4a87b444efc482278837d ecoliMILPglycerolYices3-60000.smt2
a9c089298648b66e15553749cd7b7ea8 ecoliMILPglycerolYices3-70000.smt2
1c282344142acc1c32cb9b5a1004632f ecoliMILPglycerolYices3-80000.smt2
db1ed63177e6fa98be6b2bedc042a6a7 ecoliMILPglycerolYices3-90000.smt2
84b7fd95dc888f58975c64cd87aad60d shewanella-compact2.smt2
3080f973e839fe1af9c43eb946610d77 shewanella-compact2b.smt2
