b0495543bd91a47cc04f8f5401488a94 RND_3_1.smt2
b70d12b0a7a596ec0bea3b446292547f RND_3_10.smt2
c9d6370af5044e59caa675cc31cca23d RND_3_11.smt2
37db84fc831872d4d401a6d50f279db7 RND_3_12.smt2
8edb3bfd09137aa26772d3d07a5b0bcb RND_3_13.smt2
29c04efb532877505cf17b4b18f97ead RND_3_14.smt2
b3c69b9058fa6491ad4779d785216eed RND_3_15.smt2
02ef2cbb4e959703c659fd0501a2a233 RND_3_16.smt2
353130967b2a56ef5e0b133f10d428e7 RND_3_17.smt2
645eff43dd08781a062fa15258653b37 RND_3_18.smt2
204abc9b9a5c704b3f4ba7a8d8c8fbb6 RND_3_19.smt2
4333fb08cdfad22911343afb8aab90aa RND_3_2.smt2
8ad178562bb730e23a6de86494cbb9a6 RND_3_20.smt2
dace255325fbdfab508a8ef5b8608759 RND_3_21.smt2
9bd8803fe7b3b575d8d86a60dac3a1d0 RND_3_22.smt2
c0765c53d943910cd33a216f7ea44b39 RND_3_23.smt2
b48903492aa98f17063b7b350cc36dc5 RND_3_24.smt2
53bbc2cbf91e0a9aa2ba592939b875b7 RND_3_25.smt2
2bca386e2eeee17e74cc61f8ea2038a3 RND_3_26.smt2
540b051870041852781a4a920a24622f RND_3_27.smt2
cf5068c10a40218749cbdaf56b24db65 RND_3_28.smt2
83c015e59b412d151919dc717c6042d4 RND_3_29.smt2
ebbe54f8ae0ce93e954d1aada5b3915b RND_3_3.smt2
aa0a19c64943064fa2ce98fa57fbb6a2 RND_3_30.smt2
bc477837f53511e75b6015a46299c7a6 RND_3_4.smt2
f23c98a9f63e7ec8ab5c16e9981389ae RND_3_5.smt2
94c04c2e44c5487505fde084f97e1280 RND_3_6.smt2
d03dd730f9caf6265c751d2ccef48f2a RND_3_7.smt2
57583d0234f15ddcc4173348069267f6 RND_3_8.smt2
b558020c07f0728af23632ebced6042a RND_3_9.smt2
a99be06b0344568707d4b112dae619f2 RND_4_1.smt2
1edb024942fa71c156106de7be29b700 RND_4_10.smt2
e3d72efb638f98a52665b8804db52a7f RND_4_11.smt2
248b8266b896fd1588867d8cbcba9e9a RND_4_12.smt2
87b7e30165c09123a37e53f4f906c26e RND_4_13.smt2
1795f6f498ef60aba3d71c87e3625d00 RND_4_14.smt2
6c4d95e6681ae22bd35416a4b3728634 RND_4_15.smt2
32008b606c018fd40d6a265726f8ff7b RND_4_16.smt2
7be552995668342bfa6db1522d19313d RND_4_17.smt2
2cc590d630c4a10a1b56db9f3a01714d RND_4_18.smt2
ba3efc0d41bcb02efa90bc1d3e431603 RND_4_19.smt2
baa6b9672e00e5644433a0a4395cd905 RND_4_2.smt2
2ebff1262c9bccc0daf6f9733e9b49a9 RND_4_20.smt2
27576e92087b38c78ff4abe2f373b4b6 RND_4_21.smt2
196e3a974cbd7a8bdab72bc51fa11682 RND_4_22.smt2
08cbd013d427a90527137b675237903f RND_4_23.smt2
4e7b8f52335bb8e614de676e89369e7d RND_4_24.smt2
b23a3125217999cfac31d900759c9069 RND_4_25.smt2
077e0383068f1b27eede0a669b4f58e9 RND_4_26.smt2
110c7b01c2dcd4b12fd3b3b2c18da93b RND_4_27.smt2
963ea24b192c00cbb78a20c77d762f90 RND_4_28.smt2
c9a161a1449eed20ee25f474345daf7f RND_4_29.smt2
7ea142535d3a8a029dde7ae344e7d728 RND_4_3.smt2
79e5978dea7ad81068d3c74c9fb26b25 RND_4_30.smt2
817ab0e1cfd10b5638dd5513c219824a RND_4_4.smt2
5a68a69924b41bb686db28369f797d3f RND_4_5.smt2
356a8670a0e31abe2d09341266307a83 RND_4_6.smt2
b5536d82d898d3d6877bd25374e76d1f RND_4_7.smt2
ddd5ebd2f56cb9f630e48e25a1847c7a RND_4_8.smt2
09e2c92b4e8ce97d1c93dd9616813493 RND_4_9.smt2
859aabeb0165b6f5258c345cecea9cf7 RND_6_1.smt2
e0d837d55e39232e358751478977b42a RND_6_10.smt2
cfac5784f16f27537015af8ca769b485 RND_6_11.smt2
efa074534cbcedff0535343a3fca4451 RND_6_12.smt2
946e48efbb1b4651632129ba6a329b42 RND_6_13.smt2
4c2fe1d1a43358b71fb7ac1bd032530a RND_6_14.smt2
b5741e34eb9718e7a1eb558b3fd704ff RND_6_15.smt2
6c116825f1a4c5062536e4a4cd18d065 RND_6_16.smt2
44b1f1b79fa44eab593441ec40f5eb2d RND_6_17.smt2
aebd06daf6a8a13b2621b38707341ca7 RND_6_18.smt2
b06e670d44b67fb2a737f8ca0b772d9f RND_6_19.smt2
39d028d9e5fc2670155596fea90b08e1 RND_6_2.smt2
082c394d0bdfc7329415d6e77dc79d20 RND_6_20.smt2
5ced7f0a95b960ee3d7282f1d310983f RND_6_21.smt2
92ceb955c82ecd34a101e4f70f093f7b RND_6_22.smt2
0b706c7242ea6a5926988a052940c5f2 RND_6_23.smt2
30fdb56d0782771b6f10dd506ba21220 RND_6_24.smt2
ce983f91b63d07ea8095ce9ad2d8f355 RND_6_25.smt2
99fd08e8498647aeb65cadb8f2d733fb RND_6_26.smt2
028f1499696ddd12f86f5e4534743595 RND_6_27.smt2
cca543b3e01711635350c34d225625a5 RND_6_28.smt2
4945a33feecbe05633adccb6b47c1976 RND_6_29.smt2
c62a3e4f1104c34561586c97167e0156 RND_6_3.smt2
3d0e87fb32cda52bb60997300cb732a6 RND_6_30.smt2
9fc105faa07d689e57fcbd4e88a93d83 RND_6_31.smt2
536d6d16486dedcae66f4869ba3b02ad RND_6_32.smt2
428f84f25f3d0bbce44d33c7835c32f7 RND_6_33.smt2
f63ac014c7558300dda0201672f71297 RND_6_34.smt2
38cd5b992c4d085d6747506eea064fde RND_6_35.smt2
01478705509de3e8cbc8e5d1d1e54a0f RND_6_36.smt2
0164e571171ffa68f17fde267890b797 RND_6_37.smt2
40a2315759e6ca3b81fa2d3a089c85c0 RND_6_38.smt2
58c23caafc94765d9178b11407296985 RND_6_39.smt2
e0df55ccff91b2718ac27ff6cb136330 RND_6_4.smt2
cd82e702d2baa4b6e41b50cd4734318f RND_6_40.smt2
752835f9d197f4c38844048a44b393e7 RND_6_5.smt2
51ec305ab90f364b7842979045623f44 RND_6_6.smt2
79bf199df56692c1111e62518fa5f0da RND_6_7.smt2
a37179bba807a5e7b923623d176e58d3 RND_6_8.smt2
c276cb68db27a6f68ae322c38552af79 RND_6_9.smt2
