6655c2119a5bda82e83f4b53aad6e1e5 tightrhombus-273-245-0.smt2
148080d51ec89e3ffe282b83e4df3cef tightrhombus-273-245-1.smt2
fe33dd47317bc94c3c0ec1f923c5a796 tightrhombus-273-245-10.smt2
1c89085d6c967267940857a1d78fdd94 tightrhombus-273-245-2.smt2
8924894550c32cf8fa1c3e90892c11a5 tightrhombus-273-245-3.smt2
052c476fb642c34cfd7be926976816c7 tightrhombus-273-245-4.smt2
076a8d4489fcb3bf3957113c3be5067d tightrhombus-273-245-5.smt2
399d0ae1caf188c1d47afbcf81ec07bf tightrhombus-273-245-6.smt2
b7dc0cf0d545755a3578f699eddf752f tightrhombus-273-245-7.smt2
61e613d44d36477e0d67d1f4722148a5 tightrhombus-273-245-8.smt2
630c9321891b4bba1475f7c7aa19e4e1 tightrhombus-273-245-9.smt2
8ebf818478a3d2ac8b0fdb5341208537 tightrhombus-283-245-0.smt2
dcc8c819c5360b3bcbb6cea1a25bf53d tightrhombus-283-245-1.smt2
2afee766bd45c22604ac0537141d790c tightrhombus-283-245-10.smt2
901517c4b92748839fb221f97fe93510 tightrhombus-283-245-2.smt2
155bbd3ffaa832dd8bf5a746ded3291a tightrhombus-283-245-3.smt2
7e6943f9bfa90c86f085d8db810b6a3c tightrhombus-283-245-4.smt2
f38916b5814c787e5d079976976132e3 tightrhombus-283-245-5.smt2
d6237232479b351e9ff3b2aeada61824 tightrhombus-283-245-6.smt2
f63bf3487cd4fcba78579886587f37e2 tightrhombus-283-245-7.smt2
e1c0c7d5b3a78e9e6e7b9df2b1316247 tightrhombus-283-245-8.smt2
09775d2f2d55cb71f9a8b0f227b70590 tightrhombus-283-245-9.smt2
