ffa555b958ff55c7c76453da6dbda374 validate-1.smt2
0815c2e88f6864067ce171bc38ea50a2 validate-10.smt2
1c6c0d3d5b49208e2e797dff402cf323 validate-11.smt2
08efaa3a1916360bbf708f36827ebed5 validate-12.smt2
f594110cb85682b183c10620d478d660 validate-13.smt2
b07cec7166f0168b48dd8ef3c19ca0eb validate-14.smt2
4b2be2b726d772487f43408c46cfcbc9 validate-15.smt2
314cbac252b5be3f966ce9b83711986d validate-16.smt2
eb462f89ddb51e1f200e6108adc04a00 validate-17.smt2
7537f85210792f4e88b12f7a39efbc85 validate-18.smt2
c89ad2ff71a09790be10ccb032c0b279 validate-19.smt2
e94b39e646e5d2b1ab5d6fa75d5eb64e validate-2.smt2
55827ffe021994583e4daf35b15ffc8a validate-20.smt2
4b67a9461219e35b80ca5cb19a467860 validate-21.smt2
ba6d55ba68245f796e4d369bdc0a9250 validate-22.smt2
aa209fbefe8f294203b10dfbad327feb validate-23.smt2
2446bcc8db0ae15441bf960a733e9672 validate-24.smt2
cec0434fa9fec105edd690ba44325dc0 validate-25.smt2
7b24b645bdbc2d08d92254c8a2890fc7 validate-26.smt2
444288a5b57ebfabe3649f588bf1c0ff validate-27.smt2
73ba0876b99d42589744cb05c00afd2e validate-28.smt2
666e81ca3880cac703006ddfc26b6dca validate-29.smt2
96207266ac2c418cc03703c828a3bab7 validate-3.smt2
2cfa2635ed33512387a11a0f844a64d3 validate-30.smt2
b7f7973279756d01b34c65e01143d6a7 validate-31.smt2
58379fd3ceae5645358192d9006dbecc validate-32.smt2
5b20b20c294a7853dbd306caca33cfd7 validate-33.smt2
3647f67307e1672bfa0186564701cda9 validate-34.smt2
76ed18c9897d82efef7a1a5766927f4f validate-4.smt2
59a14454601cb8b29cd966a885b02f6c validate-5.smt2
11bb6a61114b0d2279efeb9284f8c121 validate-6.smt2
496f4faa3d46388f5e28ec303147aff3 validate-7.smt2
b3c2337b3852232ebdb6c82d66eb422a validate-8.smt2
b9da1e107ff0eca6186d10b0deed19b0 validate-9.smt2
