a2f9068eede473e8bc62dd999345523f prp-0-46.smt2
0f46f8d9b802f5a21b3c17bd9324fff1 prp-0-47.smt2
9e794d8db2bbfa822b25cb598aa6c50d prp-0-48.smt2
185109ae161f74db8497d31f299e0724 prp-0-49.smt2
3dc15a541c907a207b4f2417593feb4c prp-0-50.smt2
acaade6b11ebfb10d5d8e76afe45ead8 prp-1-35.smt2
f3ecb35d15c5763796e9f17ac4a5c59e prp-1-44.smt2
edf95461d0855a482ee8f2c96827b034 prp-1-48.smt2
e86e0f834453df3303ef9d4460fff5e8 prp-2-46.smt2
e5d8dafc199ef65287be4526fe8ae08a prp-2-47.smt2
311663ec255f2f31f3941f8e43073c97 prp-2-48.smt2
72583b6cb7947b73dd3ebfe9ed11c52e prp-2-49.smt2
e312fdd58b4629f4781f069f0b212e6b prp-2-50.smt2
ce8a672cf1e974d83f85798a3fae2523 prp-3-37.smt2
ea075d2f07d22f2254981c0ea36dc19f prp-3-45.smt2
21c029dc652cd08c0d3807f7b053a2d7 prp-3-46.smt2
ed94a0a53cfb5cb9d138143a4687a38a prp-3-49.smt2
0dff773920a9a5fe35cb504efb9094ce prp-3-50.smt2
6752f56fae7bd958f8ac7811ddd75d43 prp-4-46.smt2
e3e072b28d667a6c3613af4b11344050 prp-4-47.smt2
0afb184142cd90a7b759b0b17a23d883 prp-4-48.smt2
a7f4405b3e5a8753f0d4e7a7cc7cf903 prp-4-49.smt2
128e7b3f3283b5de75a0c47369cb13fd prp-4-50.smt2
91be9d13f17828749c8dadd743ac7fda prp-5-46.smt2
2ee1cbffe03c95286a50f3aef7f71eae prp-5-47.smt2
066d571f333fb389b3b92ab20e757314 prp-5-48.smt2
b7d9fe250d48c75205012cd67b913549 prp-5-49.smt2
5ee0f5954ac7832aaaa55df6c8f47507 prp-5-50.smt2
