4002c261257e103022ea9a1a53b004c9 query.00.smt2
84fb1023b52791b228053091e27faa77 query.01.smt2
93c5a255d1c89810cb323c2fba599711 query.02.smt2
980fc3090e6e27e8331dbd6b2f6f336b query.03.smt2
5600eeffedc31ab2ee058e72e1dadcb3 query.04.smt2
29dfbbe1e992003e1eb12968419edf29 query.05.smt2
9cc6aef1e5aa6a5e91f76606852b09f3 query.06.smt2
bf9e6aa67dc49e8d754875cc2d121ba9 query.07.smt2
4ddd31d086c29b0bed126684df4e63f7 query.08.smt2
d0dcf88fb07947dc0c4955d1bbb87b02 query.09.smt2
d7c8310e7f5192e80b49862524d67d34 query.10.smt2
3c0ab9cf253d261d1850caa65aa85025 query.11.smt2
d165a5f2fb29435680f53ffef2523713 query.12.smt2
635add5d32267490ddb0bf9a141ac561 query.13.smt2
a3999f3d6e9b4525d7fd75ecc3b1f74d query.14.smt2
56e723d38e35a74da9d5a2c09b772a7b query.15.smt2
b67dc4fcbe449065c9ae9d384f2d5d51 query.16.smt2
4860153d103e4f190ddfa01cc63d7959 query.17.smt2
7268fb9379af5c4fd9c8bd5a1ad183ae query.18.smt2
da5963101e752432f8aa5b5d24dc1187 query.19.smt2
70ccd3a66ffca2ae63c6bba0ae44ddb7 query.20.smt2
133c66708a9f03506e40756dd21dc50f query.21.smt2
bdf3abdacf097d72a7e31e208375ba21 query.22.smt2
e6bfc9b98b30ece4fbf742af40655579 query.23.smt2
d40f0fc96a66515aa324937c0cc6fe40 query.24.smt2
638fbb78554ce500ba100bc185764c26 query.25.smt2
cbab6150952784cf9803003bd1023c75 query.26.smt2
7ff75fdd70f2f88b96afb8f995acf782 query.27.smt2
