d2f8a79d22e6d2cd797af33d08c90d0b query.04.smt2
eea900cb5d63058a235237a78fedb813 query.05.smt2
bdaf5e4d9c649a2f0348c7c4157608c3 query.06.smt2
7623da7a3cb2c9d68736557f5838b99f query.07.smt2
7dcb5ef01778635a8fab12aa1bdb5023 query.08.smt2
981a15e1f9f9838814e66c650fb37a5a query.09.smt2
196fc87a6e9e4219aebc808e22e7b0e1 query.10.smt2
396de31f4a73739fe16021885e12d5d6 query.11.smt2
71fd08a18546fac3d8baf2a5fc77570c query.12.smt2
dc0caf3e2d4db427f214620792399682 query.13.smt2
20094aabcfb01fc7684fec990b9723b7 query.14.smt2
8fd05067467da1c87bf0467c930d2476 query.15.smt2
bfd09730244d50efb3e059fa826ca16b query.16.smt2
34dd5bbd5e936352ca467a627fdd80a8 query.17.smt2
451a1f405bdf9f3d1d80c328d5410d39 query.18.smt2
