88efeafeca01ee3635c1c1fa99e73dc1 fischer3-mutex-1.smt2
897d516605020d775a7ff303e74d044e fischer3-mutex-10.smt2
a199b35ea37be239077ccd2fdcb2bb19 fischer3-mutex-11.smt2
eca7d31b44972e94589481a2afec3201 fischer3-mutex-12.smt2
b8b2c688009b92eda789a9e71c5bcb47 fischer3-mutex-13.smt2
5f34fac34f19af321ef37c5b42929023 fischer3-mutex-14.smt2
60f78af9b22323cac56516e25359357b fischer3-mutex-15.smt2
21453d565b5eb1db028988e42849036b fischer3-mutex-16.smt2
e7e303b3202963103725e284ca0dc51a fischer3-mutex-17.smt2
8d20c309faa8f8271f1a541987f465b0 fischer3-mutex-18.smt2
0a7263a7a1da72127c2b650bfcde6646 fischer3-mutex-19.smt2
3b930a1e5a9b84bb2261798d9ec0dfe0 fischer3-mutex-2.smt2
ff47d2bcc990ab1a4851941044bc1ed4 fischer3-mutex-20.smt2
68fcfa37e7e89087d3c57b551c21a6bf fischer3-mutex-3.smt2
e5901dad51e9de5d61766feb80071ea1 fischer3-mutex-4.smt2
8f692defdd729f4ccf6dc2aa20579e01 fischer3-mutex-5.smt2
a70b2d1c9b5888af46e7acf9e5fdf742 fischer3-mutex-6.smt2
e6df12a04abeddbf900303815c51e2e0 fischer3-mutex-7.smt2
653d6fce21dae27c10522f7b6e496136 fischer3-mutex-8.smt2
b2c6a9d7a2d0fe156fefbb98340fac1b fischer3-mutex-9.smt2
46d2d22bc4616794110f765aa3174626 fischer6-mutex-1.smt2
91238c6869bad69b4ad3e75d357395ac fischer6-mutex-10.smt2
06f720f203f8a6ecb43fed442fc348a0 fischer6-mutex-11.smt2
0dcdf8f5b3883f424db8288cfd65fe2c fischer6-mutex-12.smt2
d739783b6868977b8232683977a2b767 fischer6-mutex-13.smt2
ba32fe9e8191c852ce3a0db92e8a9dfb fischer6-mutex-14.smt2
c57b0cafb696c99373e4a3ff9998de2f fischer6-mutex-15.smt2
167e0f412b265c4adc834322040fe9bc fischer6-mutex-16.smt2
43ee4f21cb3a5a6675c9b7cc10a6dea8 fischer6-mutex-17.smt2
dbbd34ccfa9e2b9cbe74e6844f282069 fischer6-mutex-18.smt2
b1611bd17d18dcbf19a1c16e8de2877b fischer6-mutex-19.smt2
43fc1c88e62683e805b1d2f427b27c5e fischer6-mutex-2.smt2
6c79ae98eb6ab7f37629ba3555a5af66 fischer6-mutex-20.smt2
083c98c893114da2288e037b82e2a719 fischer6-mutex-3.smt2
ec693f7bf6cb54ff0fc26338faece618 fischer6-mutex-4.smt2
ab55a471c500d827d9a4cc6ee138b109 fischer6-mutex-5.smt2
c2de694b13888b0745455f6ed6bc494a fischer6-mutex-6.smt2
7d63ead37d3a7a92431a6546d8a0fcc3 fischer6-mutex-7.smt2
98df2090d37ced63162a89a738e8ea55 fischer6-mutex-8.smt2
366d744d29cf8359ede0901c7a4b93bb fischer6-mutex-9.smt2
85adac17a8d071cc918059a2a0449c50 fischer9-mutex-1.smt2
0e5810067020d06740b3f2644998d283 fischer9-mutex-10.smt2
1d1ad5f24e0eaceb5d398bd4a2fcc19e fischer9-mutex-11.smt2
1c91bc11fa9497291cd80098395861e9 fischer9-mutex-12.smt2
d0131c7d385f1f8973ba4131ce2c05f2 fischer9-mutex-13.smt2
abe9151b74bf6a18130c3fa6bd3bab62 fischer9-mutex-14.smt2
5a7dabc4d3b55f213c265fa2b3a98d11 fischer9-mutex-15.smt2
12ce8f82986ecddd0f188b1f83a08b2e fischer9-mutex-16.smt2
49c9bfe8c59b29e569d9f1c6e6192bc6 fischer9-mutex-17.smt2
acd9f05bf06c82a8790ae4c9e9bf94fb fischer9-mutex-18.smt2
e46cedb51e3048bdc98e73b8256848d4 fischer9-mutex-19.smt2
3bb3c53e0348912ef6f160861bf914c8 fischer9-mutex-2.smt2
9c49f6a76cb66b23bedc93ee6fb31d6e fischer9-mutex-20.smt2
c5dda96c4ca1489105df374aba3ee1b7 fischer9-mutex-3.smt2
519c41efe1ef41dfc52468a9c8302128 fischer9-mutex-4.smt2
09d034aa6f36a4b66b939bfb1859fc56 fischer9-mutex-5.smt2
2d098e0d73b406c7ff661b7f663a2ebf fischer9-mutex-6.smt2
9542de737481c86a54d0a1380ad6429c fischer9-mutex-7.smt2
78d2c1e002216aed793b4d57241bfd06 fischer9-mutex-8.smt2
445d579f0cc5fc6a069eeaf614c855ea fischer9-mutex-9.smt2
