ee6f70b58217e46a1b727148c2be747d x2015_09_10_16_56_34_054_999113.smt_in.smt2
2b714bd3956b93e7b7ace651da0a3f5a x2015_09_10_16_56_35_383_1000552.smt_in.smt2
e4de5df517c7eadcae18587b529456a8 x2015_09_10_16_56_36_459_1001812.smt_in.smt2
82c523495832c4b27ee25fbc369c09e9 x2015_09_10_16_56_37_823_1003033.smt_in.smt2
3a5d8bc546ad62c138cf2e553f707599 x2015_09_10_16_56_38_848_1004099.smt_in.smt2
9616e6563b3fb91151c6fdd391ece1d0 x2015_09_10_16_56_40_155_1005584.smt_in.smt2
d81d42ca08dd693e719cc1ca518aaf42 x2015_09_10_16_56_41_403_1007017.smt_in.smt2
b9ffe6f3748b2e85586cdb63b3fa9c12 x2015_09_10_16_56_42_740_1008448.smt_in.smt2
2b499833159ee965e0d94b4ce5d6a462 x2015_09_10_16_56_43_876_1009870.smt_in.smt2
3ead68fd630bd0bfd2014f69a5cb6fdb x2015_09_10_16_56_45_135_1011428.smt_in.smt2
ffa942a1255a6438d9fbfd6c5ec24f4f x2015_09_10_16_56_46_335_1012860.smt_in.smt2
f9e8a82d4201358691bb836f07e1e536 x2015_09_10_16_56_47_419_1014234.smt_in.smt2
aa628c5b09a7d0dedd9abbed8fb52edc x2015_09_10_16_56_48_506_1015773.smt_in.smt2
13e4a80ca8c7617cc514f7d20d890f6a x2015_09_10_16_56_49_659_1017175.smt_in.smt2
e4cd9f891a706a98af7af57c0370c818 x2015_09_10_16_56_50_879_1018740.smt_in.smt2
004cc92024b27dba9b0c147aaa85b765 x2015_09_10_16_56_52_064_1020318.smt_in.smt2
95192646ec5ef1923fcfadc763b0e484 x2015_09_10_16_56_53_209_1021881.smt_in.smt2
147919ffdc5b59c7a66ec964c93ffd25 x2015_09_10_16_56_54_322_1023192.smt_in.smt2
eb92c674a1ca1551c03ac554468b224e x2015_09_10_16_56_55_419_1024745.smt_in.smt2
1b73f81cadca158df575289f2328db7b x2015_09_10_16_56_56_527_1026308.smt_in.smt2
563844f3b6603a4c1c8ec48f0c7a27a9 x2015_09_10_16_56_57_703_1027619.smt_in.smt2
5e0eed4191ee21be6cb401e74f252d51 x2015_09_10_16_56_58_822_1029157.smt_in.smt2
f4c7626246514365e53c5d43313d9b11 x2015_09_10_16_57_00_116_1030715.smt_in.smt2
b3a1669d77ae61235e7329172ad0aa95 x2015_09_10_16_57_01_348_1032261.smt_in.smt2
9ba45829793a22eaa28bf70b1b500b78 x2015_09_10_16_57_02_469_1033623.smt_in.smt2
57c6306c1ee47345c10e9a6507b8d7c8 x2015_09_10_16_57_03_664_1035169.smt_in.smt2
dc8a798b35ddaa012ffbeaeb7bc198e8 x2015_09_10_16_57_04_767_1036573.smt_in.smt2
907841b9f6966bd5a915c5a0edfaddb9 x2015_09_10_16_57_05_877_1038140.smt_in.smt2
44c2c647ba4ab8af60e6dc2a5c2f11b0 x2015_09_10_16_57_07_054_1039725.smt_in.smt2
7ee427bd4d42074cca61c7d2ab037598 x2015_09_10_16_57_08_326_1041289.smt_in.smt2
d2711f93bf0946a7769801894edbf7ed x2015_09_10_16_57_09_434_1042561.smt_in.smt2
6a9e74faae8b6775a73daf96cc284cc7 x2015_09_10_16_57_10_670_1044114.smt_in.smt2
fe14c507ca3dc61fe0b29113a77afdfe x2015_09_10_16_57_11_846_1045678.smt_in.smt2
96a52eb0eec25c14097a6c1b2a7d3de0 x2015_09_10_16_57_13_123_1046950.smt_in.smt2
bb630ea7f76301a62feed584495eef8d x2015_09_10_16_57_14_271_1048482.smt_in.smt2
