4b39f6c4a8f1019af14febdd497f2b90 diamonds.10.10.i.a.u.smt2
0a400b4000f14899dfa51167c8a9a6db diamonds.10.2.i.a.u.smt2
d5133038dee31e11f9f2c87bc46d967e diamonds.10.3.i.a.u.smt2
2e998935146855a13d6dadbfaad6f69f diamonds.10.5.i.a.u.smt2
9bb120a931590039353403eb3738c32d diamonds.11.10.i.a.u.smt2
1608b040a5fb3b6cce3fc34b0754786b diamonds.11.2.i.a.u.smt2
fcf096526bf788b3ee635da8da6fa84e diamonds.11.3.i.a.u.smt2
9f101401067f1ae7c711b31150fbb36c diamonds.11.5.i.a.u.smt2
5db04a2836c6bfad321c271cb7aa09a8 diamonds.12.10.i.a.u.smt2
0e20bf5e48b0bdf6ca5df68f18f316dc diamonds.12.2.i.a.u.smt2
cd6143b83035dbcf3a3f3966429b1fae diamonds.12.3.i.a.u.smt2
3067f63625701dc38a589872fd34bd38 diamonds.12.5.i.a.u.smt2
305292fd26f27a8da95f18cdd8225985 diamonds.13.10.i.a.u.smt2
9f7a0eda20101d2f534ce498b48a0363 diamonds.13.2.i.a.u.smt2
b90cddb436e5dcfdbc145d3ca0709bd9 diamonds.13.3.i.a.u.smt2
f42e5ee6746c804de284f6813ace9bf4 diamonds.13.5.i.a.u.smt2
f73ca08284b8e0d3733f72502cb50f22 diamonds.14.10.i.a.u.smt2
bfad595ea64b7dc1f4306cd6d162ba23 diamonds.14.2.i.a.u.smt2
b701c9c75e2df8587c847dd66c25caa9 diamonds.14.3.i.a.u.smt2
4a310568c7e6c6652b76d8b2b286ea49 diamonds.14.5.i.a.u.smt2
1662256a84b7618c6fbd56a9f2151bb8 diamonds.15.10.i.a.u.smt2
ddbcadce08daa263b9423745b0961040 diamonds.15.2.i.a.u.smt2
548856ca8a89fec824df23dc21f042ea diamonds.15.3.i.a.u.smt2
2d892d877640db59748c99172964dce2 diamonds.15.5.i.a.u.smt2
a9d005b3539ecf59f270fc8e403b7998 diamonds.16.10.i.a.u.smt2
6a7fd0cd96f36eebb116a052d371fe34 diamonds.16.2.i.a.u.smt2
8ee8e56afbd2fc0e210fb81fa5d639dc diamonds.16.3.i.a.u.smt2
cc2a21f43ded79e94eac6200274caf62 diamonds.16.5.i.a.u.smt2
a337324335aca8daf91485c542428271 diamonds.17.10.i.a.u.smt2
c058e15ccf8a7d24a91eb566e96dd90f diamonds.17.2.i.a.u.smt2
f15a6b6c21f237b8930823dc24102c01 diamonds.17.3.i.a.u.smt2
6524a7e7a6a2f5b905a0846ac1c9fe8b diamonds.17.5.i.a.u.smt2
41ed3f9a185229c78e53f93df685ce5d diamonds.18.10.i.a.u.smt2
60c03aa778b13db88f740d9bda6694c3 diamonds.18.2.i.a.u.smt2
e90b1abdd6e5597bb129f7971428e120 diamonds.18.3.i.a.u.smt2
48741444624f19b7bee0c2e4ac5bcc66 diamonds.18.5.i.a.u.smt2
