2b521bd433a58bf4a586a98414a5ced5 gauss_init_1235.fof.smt2
a9e3b13b508aba35663fda07cc9485eb gauss_init_1252.fof.smt2
a4e3e90b498a053dca4093bf04b2a0f6 gauss_init_1269.fof.smt2
37b5e5a0e7fb125e064b6862dc22588d quaternion_ds1_init_0003.fof.smt2
5a95d741ae3db240c447be5ec973534b quaternion_ds1_init_0005.fof.smt2
df020674ae2985b720cce167f1a08ec8 quaternion_ds1_init_0006.fof.smt2
bf9382798892e74cdac2fbc01836de0f quaternion_ds1_init_0007.fof.smt2
ad7b39f617e37963d0ef9ecd34450019 quaternion_ds1_init_0008.fof.smt2
6a58a12d35b623b044f498f5f1472784 quaternion_ds1_init_0009.fof.smt2
8ee44eb80928eeaea3bb442d88d8d5f0 quaternion_ds1_init_0010.fof.smt2
e1a00a45d8f7a5437ec1d4492d94737b quaternion_ds1_init_0011.fof.smt2
0f0ccf0123c647697ccb3b3a90eb8dfe quaternion_ds1_init_0012.fof.smt2
77d628519fefc8b23946004c8815be04 quaternion_ds1_init_0013.fof.smt2
ffb8cd825c87f44574625e986e89ecf2 quaternion_ds1_init_0014.fof.smt2
f484209bd3a921bef078e5a2c4e87648 quaternion_ds1_init_0028.fof.smt2
2bb04c33c2803839a6292392e7479b8d quaternion_ds1_init_0029.fof.smt2
4519930adfebe2e9365f0f0b87b2fd17 quaternion_ds1_init_0030.fof.smt2
3fa643f7e66683a0e5c8c6f6ccdf1a6f quaternion_ds1_init_0043.fof.smt2
dcd6a4c1c3955dd4bb9539ed646a08b1 quaternion_ds1_init_0044.fof.smt2
2e4a642731a6d7403895ebf67152aaa7 quaternion_ds1_init_0045.fof.smt2
49f5a1f85afefde8b6d1f3980df4dc70 quaternion_ds1_init_0113.fof.smt2
a6a8e8834cfb6ff8dae96d6445cce4c5 quaternion_ds1_init_0114.fof.smt2
e8247563048084e020420695caf11f4d quaternion_ds1_init_0118.fof.smt2
60e0d8c5f966c9e1095828d5fba2ccd0 quaternion_ds1_init_0122.fof.smt2
281830454e1f15214ec5eab21abec7ca quaternion_ds1_init_0128.fof.smt2
972c2086a9e646815824c3f6df1b3a03 quaternion_ds1_init_0129.fof.smt2
51e44ce82ef345581e54a45526a8107c quaternion_ds1_init_0130.fof.smt2
6c802d06bbc21a0c23d1a13e2d73b10f quaternion_ds1_init_0145.fof.smt2
4e48412aa1f213cad8aefea769a93d0c quaternion_ds1_init_0148.fof.smt2
f2714b2f78074b93af977449427dcbbb quaternion_ds1_init_0149.fof.smt2
6c206b7954fcd42991638937ecdb527d quaternion_ds1_init_0153.fof.smt2
f69e91cfccacaeb62459add3f2b26fb8 quaternion_ds1_init_0157.fof.smt2
37ca44981023e73aba0611cf863fbca4 quaternion_ds1_init_0159.fof.smt2
c18c026279d5ee43aff9547ddbd40c4f quaternion_ds1_init_0164.fof.smt2
94de6a20af1016762fdea51c91aafea9 quaternion_ds1_init_0165.fof.smt2
90b698fdcdc83afa4a8097413a035275 quaternion_ds1_init_0176.fof.smt2
5e54f774da8ab84c595a994bc1865e37 quaternion_ds1_init_0177.fof.smt2
a1b5ad33b9ebfebd181e4f6c39165e8e quaternion_ds1_init_0178.fof.smt2
1593a848ddd0fa7c37f13e6df735807c quaternion_ds1_init_0183.fof.smt2
6c76b8d978603d657a05c240f068bb5e quaternion_ds1_init_0187.fof.smt2
9c1fc8c00f80b6f3122e6f68b2a4879a quaternion_ds1_init_0188.fof.smt2
337b705ced67004760e29b6095418ef4 quaternion_ds1_init_0192.fof.smt2
aa6fa02deb73f1288dea2d48c5425ef7 quaternion_ds1_init_0195.fof.smt2
5b5db96bd06835ecd8b9e066c644b551 quaternion_ds1_init_0196.fof.smt2
2e685913384bd445c563dd1d9b0943e9 quaternion_ds1_init_0202.fof.smt2
793620501954097d6022be05fc15a7d3 quaternion_ds1_init_0203.fof.smt2
2e81bf5763cd110181a1883a0173032b quaternion_ds1_init_0204.fof.smt2
a56a41ed69d9683382310853f0df6f7d quaternion_ds1_init_0218.fof.smt2
b63951b11655567bd25e919a167abb3f quaternion_ds1_init_0219.fof.smt2
04db567fe4cc8de5c042115c894a4c8d quaternion_ds1_init_0222.fof.smt2
0e9f66564e2d289f9acb72f7ccea474c quaternion_ds1_init_0223.fof.smt2
0bb03c570f6f1046357b98ccc9ab5ecd quaternion_ds1_init_0227.fof.smt2
d32341dafbc518059fda4be677923793 quaternion_ds1_init_0230.fof.smt2
5eefffffd09f961122fcdad9ccc03a40 quaternion_ds1_init_0231.fof.smt2
248c936a43c725a99f7aec05fa87a06d quaternion_ds1_init_0237.fof.smt2
0936073a1d75a5110eddbc7735af4590 quaternion_ds1_init_0238.fof.smt2
6a74bfcf6430ff281b0959b33fb3ca4a quaternion_ds1_init_0239.fof.smt2
4fd9952bcfc3eb8b436a7fc398591461 quaternion_ds1_init_0246.fof.smt2
9123075107febf409540b177c7fb22b9 quaternion_ds1_init_0247.fof.smt2
4d1ccb9635222af439de8a0789737960 quaternion_ds1_init_0248.fof.smt2
278f2746f6d55ba2fc90e666e1ef274b quaternion_ds1_init_0249.fof.smt2
6093be01f47cd5c2fbb450b1e68e9fd0 quaternion_ds1_init_0250.fof.smt2
8ea6ec87f56e83989b11eedfba8bd985 quaternion_ds1_init_0251.fof.smt2
2ce0687cc1f9eab477e21b2c254e0f5e quaternion_ds1_init_0252.fof.smt2
4d51b2b54bbb2e7a721a97fef4c42919 quaternion_ds1_inuse_0001.fof.smt2
a5268359e5a3c395fc9a4a5a7e64eaa5 quaternion_ds1_inuse_0002.fof.smt2
8da6a0e09793c9b5193f9f47cf8587a3 quaternion_ds1_inuse_0003.fof.smt2
ffa53b079ad0ddc7533c85b40be895e9 quaternion_ds1_inuse_0004.fof.smt2
9df323d3a26e07b09768fc2b7ffce23a quaternion_ds1_inuse_0005.fof.smt2
531063d0cfda4555f43f4b2dd3d1305a quaternion_ds1_inuse_0006.fof.smt2
80939cd73d9ad26885f88760437aea17 quaternion_ds1_inuse_0312.fof.smt2
6add3faa0680e9d50763be1187539dc7 quaternion_ds1_inuse_0314.fof.smt2
4af7070f4bf036d8defaa2d7ea6a0c93 quaternion_ds1_inuse_0345.fof.smt2
7535b4eb1a21ea25d323fa015e37df78 quaternion_ds1_inuse_0347.fof.smt2
f030588a00c8e3ff25c4d42fadb959b8 quaternion_ds1_inuse_0372.fof.smt2
c23fb21980ddf1e7201fa21380b69497 quaternion_ds1_inuse_0373.fof.smt2
b68d6ab244e139ddfa5d130ad4980101 quaternion_ds1_inuse_0374.fof.smt2
c77b683dc9eaa32a19998ffc2c348123 quaternion_ds1_inuse_0377.fof.smt2
9cc93cb372725982088a29a73848ba6f quaternion_ds1_inuse_0378.fof.smt2
286a2ad7d8810ea40d065dd896ed7716 quaternion_ds1_inuse_0379.fof.smt2
842777462181f32f4570576f9248a324 quaternion_ds1_inuse_0380.fof.smt2
811dcf656cd2b91fa794b7964c1d859d quaternion_ds1_inuse_0405.fof.smt2
187236ab008129dc13eb3b95c683ea3b quaternion_ds1_inuse_0406.fof.smt2
780f0e00cb64c9f58abf25e2d6e3e249 quaternion_ds1_inuse_0407.fof.smt2
a4bc45fe3db67733b6536a79ecc54d80 quaternion_ds1_inuse_0410.fof.smt2
e565d5d03478efe1c0534e254a6dd856 quaternion_ds1_inuse_0411.fof.smt2
a694d9a46937d958613d5d84322c3370 quaternion_ds1_inuse_0412.fof.smt2
f968d54d4a4f2e15a453ef916ce35850 quaternion_ds1_inuse_0413.fof.smt2
08c9e9e8399c1534bf233bced3d0abe6 thruster_init_0005.fof.smt2
e2935432746439ec1538c6cac3a6fb89 thruster_init_0006.fof.smt2
5d7f2ec543493287735cdb1d49f3e2ff thruster_init_0007.fof.smt2
4ab014b5722f9dfcd52731c3fe520ff6 thruster_init_0009.fof.smt2
1f60d409ef8990723c310e838242694e thruster_init_0010.fof.smt2
6fb4c4ef9018a561867deb88310d110a thruster_init_0011.fof.smt2
3c1886717e2e164345d16079b7ca9dd7 thruster_init_0012.fof.smt2
78cec63104ae99c42785a7e6dd270ed5 thruster_init_0013.fof.smt2
8c4ba973719e371e82f0c7b1426af4c1 thruster_init_0014.fof.smt2
8e373c3a87ac00494ff612f9bdf35402 thruster_init_0015.fof.smt2
952c603841b01796f1bb4cf7d8518c2b thruster_init_0016.fof.smt2
e538e1e49d34340ad777935d66de4b69 thruster_init_0017.fof.smt2
c7cb73e33722062c3ba21dfc51cbc6b9 thruster_init_0018.fof.smt2
6f06ddefcafa382441425539b25027af thruster_init_0032.fof.smt2
8d1c7d5d5cc6153cf9c744ffc3294c20 thruster_init_0033.fof.smt2
de7f3c6287ac27a200a0476a89dc8d26 thruster_init_0034.fof.smt2
813295439bd6dda730f2f5d3bb043951 thruster_init_0047.fof.smt2
1a45437882b37421013267ae3565348c thruster_init_0048.fof.smt2
0a8b3b8f1a7fd93ecdb337a889384449 thruster_init_0049.fof.smt2
b884ab05d6790a800990c9b23d49c4fc thruster_init_0113.fof.smt2
db0d3ef6815667c3d9d466387139abf1 thruster_init_0114.fof.smt2
9a1f6c4a8932925184f40ecb2272b748 thruster_init_0115.fof.smt2
4a8e48cee21e411c3c3ec3d9007c175f thruster_init_0116.fof.smt2
a79b12ebefdb0de108aedc2f09518e7c thruster_init_0117.fof.smt2
c8f06bac24bf2293bb9901eeae27d4a5 thruster_init_0118.fof.smt2
97d9494006f5d0241e26bd9f0bccde8b thruster_init_0119.fof.smt2
8625058d10e320df196d7977d5b6b6ce thruster_init_0120.fof.smt2
30421b89d6f541fb4c294aed252d529c thruster_init_0121.fof.smt2
c3bb1d84d4f0df5832d9dd9cdd17691d thruster_init_0122.fof.smt2
470485255c1542dba6e32145080961e3 thruster_init_0123.fof.smt2
ae9139726615d6e64252ecbb33603e55 thruster_init_0124.fof.smt2
e65b2f889dfbfa174635ca5e74b91b4a thruster_init_0125.fof.smt2
af445d16173373ef62888dd8874d288a thruster_init_0126.fof.smt2
6fdf4173fddac1762a94611ac608235a thruster_init_0134.fof.smt2
ccf78857661206dc6dcd11617f34f7c2 thruster_init_0135.fof.smt2
6a469877c9319ca2a0db59925ba65224 thruster_init_0139.fof.smt2
882995044d8a2ce5b93ea0e4a8f16d39 thruster_init_0142.fof.smt2
acea2653b14e8402ac9d2457c5459a29 thruster_init_0147.fof.smt2
229c4663fa936efc75156c79eaabf886 thruster_init_0148.fof.smt2
dee13b7066a64d360fc6e53bc0f3789d thruster_init_0157.fof.smt2
9681b2ef1909644e3d902f1a21e82f2d thruster_init_0158.fof.smt2
395d1f30a9ecbc8fb5586a3c7b2b6c87 thruster_init_0159.fof.smt2
d3510793024401051a66cd4ee8a2db00 thruster_init_0160.fof.smt2
0a05fd22d8626e9f0c5c8a197762259e thruster_init_0161.fof.smt2
d81889c0d44529b2ba5ff6ddd7add3a4 thruster_init_0162.fof.smt2
f476e74093f7929d6b9eec9f9f9b8c91 thruster_init_0163.fof.smt2
b6d56e794d51924e26c9bcba80127194 thruster_init_0164.fof.smt2
ee81489041f1223e6252caf7e71f8db3 thruster_init_0165.fof.smt2
f5256a48c864101f78d7442785df287d thruster_init_0166.fof.smt2
f93e652624dd891b29c93dc418c745e2 thruster_init_0167.fof.smt2
c863847d62b466531851b45098f967a1 thruster_init_0168.fof.smt2
76886e6bb8b6f4be6bcd9a7f0e9956cb thruster_init_0169.fof.smt2
80c43d877f540dce4f985da79878eb7b thruster_init_0170.fof.smt2
6d427c457d9e246f82f1d2fe60399287 thruster_init_0173.fof.smt2
7ebe0e767d9c2ee833b0c4c89e9feef0 thruster_init_0178.fof.smt2
cba49d9a50edc05c32f909186f078231 thruster_init_0179.fof.smt2
7caea108edf7190dddbc4088da7ca9dc thruster_init_0183.fof.smt2
acec272718291afff351a331ad3d2e3e thruster_init_0186.fof.smt2
921e6169aed0bffaa2953c313d2a4cf7 thruster_init_0191.fof.smt2
db8d2e0b2c6550e7645a0733e29eb8ef thruster_init_0192.fof.smt2
4fb9f04e3c00585ec612a265e1f64632 thruster_init_0196.fof.smt2
25222e2ca122b1e6f260785d0fc5cd3b thruster_init_0200.fof.smt2
667c36733b66ff6265f5cb3f1d1a678a thruster_init_0201.fof.smt2
07490459292bedccf6255c9f2fcf1dc1 thruster_init_0202.fof.smt2
e0924b68b3bc3d9dd5ea59352369e9e8 thruster_init_0203.fof.smt2
727c4413ae13778a3b73e263b3cb9e92 thruster_init_0205.fof.smt2
ff4f1d5d8a75f3fe6c8aad81e707afb3 thruster_init_0206.fof.smt2
4d7e739cadf65db1d2ed4280d72b6ff2 thruster_init_0207.fof.smt2
91344a340f1b37ca41c8b39a1b71f395 thruster_init_0208.fof.smt2
c1ad75b6d5e765566b332eb22a825ae1 thruster_init_0209.fof.smt2
8a1e6719b58a5f3c8629d83796d59ca9 thruster_init_0210.fof.smt2
06ce6bf912089db4ae2498acca45d5c3 thruster_init_0211.fof.smt2
2a021f9e89c093969acbbea3b62941c1 thruster_init_0212.fof.smt2
ea6b62d2d2730dfbcef3d55d873eacdf thruster_init_0213.fof.smt2
5eb75ad890754442d0fb317fca253ace thruster_init_0214.fof.smt2
91aae0caf7cea3e920aa3a7299299f08 thruster_init_0215.fof.smt2
f6816543566e6a27be0e9c2c8cae2112 thruster_init_0216.fof.smt2
3e9236d3b456e4f34ca7a487fafe7819 thruster_init_0217.fof.smt2
d9f2af8094cb6ff826ca752ace8fc951 thruster_init_0218.fof.smt2
6895ec45d48bb0f84ff7081a8da762dd thruster_init_0225.fof.smt2
91587de837c3335e86d958f6302bdb89 thruster_init_0226.fof.smt2
8157e76abfa946b61fe5f6c946c17c79 thruster_init_0227.fof.smt2
f97adbcbb08432df0961bd0fb75b18a7 thruster_init_0231.fof.smt2
9d395ffd8805a986b19649c91dd6b99d thruster_init_0234.fof.smt2
78c8cc9b8d8058944af2cbe7ee065e7b thruster_init_0239.fof.smt2
b8b3122efcdd0ec44fcc7bfe6b4413e4 thruster_init_0240.fof.smt2
d8b942aa6a344f6312be1548086e1570 thruster_init_0243.fof.smt2
757421a88c4423143eb705169dee31b9 thruster_init_0249.fof.smt2
a6c7a1a12feecc4f3d4928318d5363e4 thruster_init_0250.fof.smt2
bfe85bdc2da3f8e33f295edb9e7e7db2 thruster_init_0251.fof.smt2
505c255dc76883ba24b7cd764e8b31b0 thruster_init_0252.fof.smt2
43c72963b047940ec822ba24bbbb70f1 thruster_init_0253.fof.smt2
95eba5573320ceadb23a5b9fd96ddb14 thruster_init_0254.fof.smt2
ce8bf2253444e86195db27af45402ba8 thruster_init_0255.fof.smt2
22250196e3dbd47979c6c9aced04ed8d thruster_init_0256.fof.smt2
6383ecff3dbaebec5b41abd48120972b thruster_init_0257.fof.smt2
8204050ad66128433a5ce8450e93412e thruster_init_0258.fof.smt2
e574f5ec773c20a68cfba4e1e26b8043 thruster_init_0259.fof.smt2
9520d8123d5f3d227ad8203e3c80d88f thruster_init_0260.fof.smt2
0c685d4899467eabe690e0147a0f466d thruster_init_0261.fof.smt2
e47a942f628411b63b223842a353986b thruster_init_0262.fof.smt2
7dcfc9f7cadf4033076cd5f6d5f7fe30 thruster_init_0265.fof.smt2
c3dcad3391993e07c71788441cbec935 thruster_init_0269.fof.smt2
4a78a7e15259ed9a81f5a60a871376a5 thruster_init_0270.fof.smt2
e2cd5190d0b16dcfceef5fecea317a2e thruster_init_0271.fof.smt2
04287ffa3a45f01e5a52e48f04a01ef4 thruster_init_0275.fof.smt2
c60ccee257cfe3286537f8fc65cc9e3f thruster_init_0278.fof.smt2
a35af4e7fd24a800cd921e6bd461c46d thruster_init_0283.fof.smt2
fbfe7a2445f3a522c3bab6dcdaf79a8b thruster_init_0284.fof.smt2
b35b75ca911caa5ade3b0ef8dc29c038 thruster_init_0287.fof.smt2
10c5880ab21f64c75dc4e7396cf4a88b thruster_init_0290.fof.smt2
8fdddd1c63dd05b7013a47a64f804bb7 thruster_init_0292.fof.smt2
e81c98ea8e404af6b4f15c0bb32b6724 thruster_init_0293.fof.smt2
7bb9a86617761d0d2227554576c6be6b thruster_init_0294.fof.smt2
929d9835eb4b7b8eef331a8bbdbf2d2f thruster_init_0295.fof.smt2
8e18ce6df533b53ca6793b824774b60e thruster_init_0296.fof.smt2
91a3b106f7884d625d6d573e6c36091a thruster_init_0297.fof.smt2
9999802dadc88e383eca0eae13263e4d thruster_init_0298.fof.smt2
f5c4fe7a9a99e52e092a46317571619f thruster_init_0299.fof.smt2
cf12a741218b660e9e24aa5c214413ba thruster_init_0302.fof.smt2
b6db2f965c23d5b64892e23479170ae9 thruster_init_0303.fof.smt2
90f427f1a898f1e2100b41d9f9339c2f thruster_init_0304.fof.smt2
35cbeb2a81fedeacc417abfe1638a0fc thruster_init_0305.fof.smt2
193c2f993a56b1a94b552be13bbdad70 thruster_init_0306.fof.smt2
6c399cf9f1e2566c2f8ca18f41a2b0ad thruster_init_0307.fof.smt2
d6e6a498bfb1c772844e77fca6eacbc3 thruster_init_0308.fof.smt2
c9ff42994806831e6e7d9a36d24992c8 thruster_init_0309.fof.smt2
367f4589b480dbe4745d304560cb9d2a thruster_init_0310.fof.smt2
dad07b13e65d4da51cde866c87c0d3d4 thruster_init_0311.fof.smt2
1546352f915c347e49e89124eeddf958 thruster_init_0312.fof.smt2
1a48da5b9c2ca197b5da13afbbd579b2 thruster_init_0313.fof.smt2
59056313cb775ed454809de7bb92ca1b thruster_init_0314.fof.smt2
a8e848efdea1a839583254ad2a3aa7f0 thruster_init_0315.fof.smt2
a3296dab5c5dd5a3149fd1cc357aa7b7 thruster_init_0320.fof.smt2
117858daf360f3363a0cd0fbfe4026ba thruster_init_0323.fof.smt2
0d78a64178d8361928449622d25aaf5c thruster_init_0324.fof.smt2
45328888eebb8da1b4d38c8db58f0970 thruster_init_0328.fof.smt2
37c5850691064435b6f15ce47b3fb167 thruster_init_0331.fof.smt2
518e4bd543557aee4b61f4ea07e7028d thruster_init_0336.fof.smt2
e1597552dd12f792efbc6df813d138b7 thruster_init_0337.fof.smt2
262b7a683040ad3e4cbc08bd1b07a6e3 thruster_init_0346.fof.smt2
0df8d6303003a8d4d1f1474223151bea thruster_init_0347.fof.smt2
be27c0974cfd85472a9a9d013d633b2f thruster_init_0348.fof.smt2
15ff30bf157c7d68113271d680853a8c thruster_init_0349.fof.smt2
3cc30cd35ef1bb034d87841503edc36c thruster_init_0350.fof.smt2
2024e4f74439a77e716581fb173f0952 thruster_init_0351.fof.smt2
dc9233f766b1719cf918454b5bd50159 thruster_init_0352.fof.smt2
b188490456febd74dc4f253716bf33c0 thruster_init_0353.fof.smt2
a03fc06478f7fcbdd0f506205a76d660 thruster_init_0354.fof.smt2
e46d3e523ccec71154ee1e0e5956893f thruster_init_0355.fof.smt2
7d6a00b92abc89887c44808bb860ea63 thruster_init_0356.fof.smt2
6a1046a9256ab32f4962a84a2b59582e thruster_init_0357.fof.smt2
5a434c9795b266b416b8781ed3ad890b thruster_init_0358.fof.smt2
78f94a77726eb3fc57d03d6974c283eb thruster_init_0359.fof.smt2
44c6b5b3f636d853fd0866d23006d8c2 thruster_init_0362.fof.smt2
f028ad4d9ff4d34ecd6a1c75d4bf9fa8 thruster_init_0364.fof.smt2
bf877065edc6f15db15a50b3b8bdc063 thruster_init_0367.fof.smt2
a50926cd5349cc75d95e05183a48b594 thruster_init_0368.fof.smt2
e7432bdc15778c22fcd1e234917b0354 thruster_init_0372.fof.smt2
9b145deb0a94cc8401497b3c641407ad thruster_init_0375.fof.smt2
de48442662cd50d78dfef9df1b7529ee thruster_init_0380.fof.smt2
509109167506383eeb5e3cdaf38f9850 thruster_init_0381.fof.smt2
89bb2fabb4be69f94841d7a57118bbbf thruster_init_0383.fof.smt2
e421b27f687313205310a3b409151c41 thruster_init_0389.fof.smt2
240308a3843b12e3ca00b88eaab27c84 thruster_init_0390.fof.smt2
2dcbbb62349bc15fb5e1101ae6dd1be6 thruster_init_0391.fof.smt2
8d6e76d5d9450fa877a137c5b47ce68b thruster_init_0392.fof.smt2
95407cbdecf17813bf4b9928de97a299 thruster_init_0394.fof.smt2
bd6865b6b06a0dd86a2ffc8b98ead07e thruster_init_0395.fof.smt2
23046dc142a42c5598efc4558d062f3a thruster_init_0396.fof.smt2
592d8e4f81641f9487da8786a0801ee3 thruster_init_0397.fof.smt2
f8c2d37b097a4077b5504a9855894e33 thruster_init_0398.fof.smt2
547312360225e2988344b6e27e912554 thruster_init_0399.fof.smt2
617b4d0c9da0a354b5c3c20fa8b6e237 thruster_init_0400.fof.smt2
0c11efad055a9324ed516d289cc51e6c thruster_init_0401.fof.smt2
7abb5813c3c2c7785ca9d865e312df26 thruster_init_0402.fof.smt2
baeddcd6301216e86683e1ac928c0f2c thruster_init_0403.fof.smt2
7aff116f5c2b4f0b292ea46024866432 thruster_init_0404.fof.smt2
2c66bcf914b210f7aaae44ce57ff29ce thruster_init_0405.fof.smt2
0f5aefb62f642e084676938edb8f64ea thruster_init_0406.fof.smt2
aafb5c74b615b4dc26051d6408142cfb thruster_init_0407.fof.smt2
ea6ce1bd0b4eb28c511a1c60d4fbea23 thruster_init_0412.fof.smt2
ea5631a5f02e89acb95b5afa3cb2ed96 thruster_init_0414.fof.smt2
9cebb3402c1f9937e05f9764f9a22aed thruster_init_0415.fof.smt2
5c1673c17d25d9f98eeed7f4fdea61ac thruster_init_0416.fof.smt2
42a677ed6df1661589ea26142ef502f7 thruster_init_0420.fof.smt2
bdfef801d4db2aa30e148bffc23434a7 thruster_init_0423.fof.smt2
60c3c324b282ff9131f00923773bd645 thruster_init_0428.fof.smt2
f1012e214bead57a1b7cc4a1e91e707b thruster_init_0429.fof.smt2
0cab85164ea42b2b62acbb1cbebaeae4 thruster_init_0432.fof.smt2
cfff3712d7c03ee243fe9ff1c2099d34 thruster_init_0438.fof.smt2
d47e4f6558d90da0f80e6387b82fb25e thruster_init_0439.fof.smt2
96be20b7cea40378bee3d389e40608b4 thruster_init_0440.fof.smt2
7a101ab79d981887028557be2de1faec thruster_init_0441.fof.smt2
a360b66601e64de59b2417c1db5b3f53 thruster_init_0442.fof.smt2
92c489ebff50fdd3dcdbe317c11cde11 thruster_init_0443.fof.smt2
e6c585d050d7268bc890ec283f1a685a thruster_init_0444.fof.smt2
3b39cf4057797e8c49f84c22590a7d62 thruster_init_0445.fof.smt2
ce86f5c7f47f56743f1c2f2625732567 thruster_init_0446.fof.smt2
d004b3fa2530c47dc6fb10850ac911d2 thruster_init_0447.fof.smt2
1a85557338c4105b8f971a74b6df2977 thruster_init_0448.fof.smt2
ff56e6f40339a6cf7845453a6bdeac82 thruster_init_0449.fof.smt2
9db217ff845d01181d9ecdd45d27b4c2 thruster_init_0450.fof.smt2
91aeb7267d2d4c313c2a24b696523cd9 thruster_init_0451.fof.smt2
ecf35f7f9f706ce5c5ac452f7df1bf52 thruster_init_0454.fof.smt2
81290a4889459f0f620bc69795adaab7 thruster_init_0456.fof.smt2
ead1839913c648c92d7b8973bc11c490 thruster_init_0458.fof.smt2
a8920678546518606c50c872bbd781fb thruster_init_0459.fof.smt2
b035411901fd2ef5afad2ab50553356e thruster_init_0460.fof.smt2
de31a1cd9a371e6ae59966695234288c thruster_init_0464.fof.smt2
fcf665fec63776c8d7bd6607bb0a98f7 thruster_init_0467.fof.smt2
c2b6a5ba927e6d42b8bd17a7b170effa thruster_init_0468.fof.smt2
15b0ab66df16ff0090086d4ab2e7f9b4 thruster_init_0472.fof.smt2
d5f86479437142de7dc548a901d3b533 thruster_init_0473.fof.smt2
c9d88e61f6f2544565f6c3165514efe2 thruster_init_0476.fof.smt2
f94e6160ddbe33ac7fbbb0b02d89f426 thruster_init_0482.fof.smt2
a77fd781b39d6b4b0dbf75ac89d88964 thruster_init_0483.fof.smt2
49685ddb1e87351437bcd06b61d4e22d thruster_init_0484.fof.smt2
89afa9868751236330d35f2a22c96e98 thruster_init_0485.fof.smt2
ca8dbb2f2bdf5214d57810802c65eb53 thruster_init_0486.fof.smt2
a03784a76b33d2e70f04c04c510aa15e thruster_init_0487.fof.smt2
7d08c966527a00064e0a8597a860f02f thruster_init_0488.fof.smt2
751ca3c028898609a760440dc8d85b0f thruster_init_0489.fof.smt2
058c8ebaea3fb8a8994fa2fa4ea512bf thruster_init_0493.fof.smt2
507e11d6c20f7e2a77754e3d27960787 thruster_init_0494.fof.smt2
a6955e2e8b8fc8aceb6b2d4e15e037d2 thruster_init_0495.fof.smt2
3204da46e02c7bb604586fe3a9455e22 thruster_init_0496.fof.smt2
eb5b6a7367c723c34f1e1fe14d5bd137 thruster_init_0497.fof.smt2
8ffae10b00aab71a8558acb61df2e8a7 thruster_init_0498.fof.smt2
3a6ca8fd80e466ce7c859a3137980cf9 thruster_init_0499.fof.smt2
a31c744523447637b9b9446b7e445337 thruster_init_0500.fof.smt2
545af604d7b7a5d3d422db05490afc77 thruster_init_0501.fof.smt2
0a1e1e5b803ccc63f84b02ca092bcbd5 thruster_init_0502.fof.smt2
901e1b8633c9ecd9aa92727c7d1d7209 thruster_init_0503.fof.smt2
22f2dd3266c9bcb03711470fbccb65db thruster_init_0504.fof.smt2
fb9d5fd86049ecfa52f3c2efeb7266b1 thruster_init_0505.fof.smt2
63a489a2203fff6598c9fee5b96c79d1 thruster_init_0506.fof.smt2
66b00c28a5c3be6f5fe70c7cace756ee thruster_init_0510.fof.smt2
42e84d5d13d879be705bbfa624fc11f2 thruster_init_0514.fof.smt2
5c44a3878594216b94bb7afd1d76b845 thruster_init_0515.fof.smt2
495a1cef31357a8e49d60af051bddb35 thruster_init_0518.fof.smt2
6ec2c8281446027e7bbdf6f895d6555c thruster_init_0519.fof.smt2
c8591d73baf1e4041178fb6738484b77 thruster_init_0522.fof.smt2
b9df6a5e41d3aa96f0a3c72fad670735 thruster_init_0527.fof.smt2
cd81cf0c0ba21a7deffbf5968ec04b4f thruster_init_0528.fof.smt2
4f3362556f0d3c27785616b2a8fe9d42 thruster_init_0537.fof.smt2
3551edd1656a6cc09e4f9e6dcf3be7ef thruster_init_0538.fof.smt2
8e57099b7929d3a745ebd628fe645293 thruster_init_0539.fof.smt2
691f81da51d49fb4db5fb11e6d01b8f5 thruster_init_0540.fof.smt2
367debd653da720bfd349281c91e5b0e thruster_init_0541.fof.smt2
0f7664bbb7e33cc6e4fd6926f5f0b09e thruster_init_0542.fof.smt2
945caf51d0414cbbf3eb98163b503fd9 thruster_init_0543.fof.smt2
40f0afd806fea3526288ded5b82218ec thruster_init_0544.fof.smt2
5ec9741199bf7b9763c2f0b3225a059c thruster_init_0545.fof.smt2
db5eca7f9c7f01698ae08d011b52b770 thruster_init_0546.fof.smt2
5b57033008531494bf8597e2482c7736 thruster_init_0547.fof.smt2
80488f3dbd280cd527e95fc2d0725d29 thruster_init_0548.fof.smt2
544616b9847f009022c590aebe94e18b thruster_init_0549.fof.smt2
3a8d3e3794032edaf3f78ed8c38c1a9e thruster_init_0550.fof.smt2
fc6f5c8aa0bc6c52573303d7316e522e thruster_init_0553.fof.smt2
6e8b894545fd67a1c5b893f07ce44e7d thruster_init_0554.fof.smt2
3fb31d32f837574e1c113e41cb1c2804 thruster_init_0558.fof.smt2
70d93253c8497392d02aadbb83dc1cba thruster_init_0559.fof.smt2
57908b456d5907648bef4e2dba154ff1 thruster_init_0563.fof.smt2
f606a97370895240a34a1bcf3961cbbb thruster_init_0564.fof.smt2
30cc22ccf13a8ec6a855a50339ed6e10 thruster_init_0566.fof.smt2
3d65e1f35b4078ad3d59ec19cb607033 thruster_init_0571.fof.smt2
f35aaeaba8bc940cf6a16f6f23ebf4c7 thruster_init_0572.fof.smt2
2733dbb55a2feefc512d41ded8232d8f thruster_init_0578.fof.smt2
661629fb0fb0e76035e4bba04ea480f9 thruster_init_0580.fof.smt2
c261ee65d069902ebdbd8716b0073fb8 thruster_init_0581.fof.smt2
f4771e75be68c81b5b1722e24bdd69be thruster_init_0582.fof.smt2
fc82d43eb31d9a0aebe60c79888f87c3 thruster_init_0583.fof.smt2
f61d1380de6d063ce02698f88857ad96 thruster_init_0585.fof.smt2
e42ab04c93e3765a0d6439b8ed009402 thruster_init_0586.fof.smt2
afeb1a353f2957b495a48af6cb0e38b3 thruster_init_0587.fof.smt2
4424188bbf413084d96e8f858291235d thruster_init_0588.fof.smt2
e8ca0a78427fc72824ce82a05b368568 thruster_init_0589.fof.smt2
50209f8646d49041b3c6a551b07305d6 thruster_init_0590.fof.smt2
1fce30ef3e88e3c077a45e0b1fc1be2f thruster_init_0591.fof.smt2
401a256fd4645a4bb53c0b9c711200c7 thruster_init_0592.fof.smt2
ed479b16504497ca9a255f1a5effcb00 thruster_init_0593.fof.smt2
e2dfef2e8396fdd02786fffb7f01aafd thruster_init_0594.fof.smt2
b723befc6c5df4428d52642dbc55dd73 thruster_init_0595.fof.smt2
46f8cef75e2430cbb356db0822c971e2 thruster_init_0596.fof.smt2
19e3b846e2e1e483d1ee3f9b658d09b5 thruster_init_0597.fof.smt2
10999d755236346b86258c1b8009fc31 thruster_init_0598.fof.smt2
ca437bc2a23f691b5fa599e5afb5fcb7 thruster_init_0602.fof.smt2
ac90c0361dce4c8bc6c2666c408b3349 thruster_init_0605.fof.smt2
3c6c80ca4d4975f58b2e6f5e0df7f15a thruster_init_0606.fof.smt2
22856905d174b21e8d125a0ad4156158 thruster_init_0607.fof.smt2
b85e6127c2519737484ea3c7358c9af0 thruster_init_0610.fof.smt2
02a298de141b6192d8cd63b9b9e1fe44 thruster_init_0611.fof.smt2
f47c8f4740fe3d13302eb74a3dca88aa thruster_init_0614.fof.smt2
7f1f79fdff70bbdada0ff8569d37bdd1 thruster_init_0619.fof.smt2
787ddd5ce2fa887f517559fc6d8b9236 thruster_init_0620.fof.smt2
558de7c978bce48fbc3339c59cd03433 thruster_init_0623.fof.smt2
5fc219ab67c5de943a3a2b4d562658fe thruster_init_0629.fof.smt2
98a932277c114c831315bf5ef61a7c39 thruster_init_0630.fof.smt2
acd94d13b01a5297f3885d64cfe08950 thruster_init_0631.fof.smt2
15545b260a8a80114172bfc628d5f63f thruster_init_0632.fof.smt2
6632a697a407a2fc68979fc05597e7b9 thruster_init_0633.fof.smt2
7c447515271e51b054351394999deb36 thruster_init_0634.fof.smt2
3a5bd4809d7b976316f9b5e2324080f5 thruster_init_0635.fof.smt2
1a08e695d62fc95055170bbe83f59c49 thruster_init_0636.fof.smt2
d4bce96a57e1132a350a86e80da1e31a thruster_init_0637.fof.smt2
69789b6dc8a392de62b4be96fcba1160 thruster_init_0638.fof.smt2
8479b7c9a13c6f4c2c8b5a4db24bc704 thruster_init_0639.fof.smt2
16d4917cd4db41bd3c37f0c931505ef5 thruster_init_0640.fof.smt2
357070838ff682ef5e389a8cb057ade7 thruster_init_0641.fof.smt2
c62a598432392c380225771ec554cbe5 thruster_init_0642.fof.smt2
9110fa4d39ad1a7be78517ae9bf05ef6 thruster_init_0645.fof.smt2
e68cdf2d72273217a378f6e0acae0aed thruster_init_0646.fof.smt2
364f498fe8cf7befb77b7ca49b805cc6 thruster_init_0649.fof.smt2
b32512e5970f53c9a49baa9ded16c5c7 thruster_init_0650.fof.smt2
efac201f0e8b4c6dc9c94691b83c6a93 thruster_init_0651.fof.smt2
fe45da2be05ada5e3621dc976956cfe3 thruster_init_0655.fof.smt2
c510061d4abfe3920cf067498b2be266 thruster_init_0656.fof.smt2
97af7f24f6757a4fb6e1997276b47e64 thruster_init_0658.fof.smt2
336ac231a5a459c143c4b994748fdd1b thruster_init_0663.fof.smt2
a30c31afa36b2b874678247007eda70c thruster_init_0664.fof.smt2
4d5a04665c4905817ba999108c5ad6d5 thruster_init_0667.fof.smt2
b8396b6bfb219d93fd09b1c4c54d647f thruster_init_0670.fof.smt2
236cf37eb2632a21345f1e16f0bd0c3b thruster_init_0672.fof.smt2
b0968a6baca4b9bc46d1918be20765fa thruster_init_0673.fof.smt2
af51ff88027d0768819ee865a15be7df thruster_init_0674.fof.smt2
afd64839d2ac157c012aa56d4bac82f0 thruster_init_0675.fof.smt2
36a4d78e2902285c206141787a23ff45 thruster_init_0676.fof.smt2
9831226da792f19612b571eaa262eb1f thruster_init_0677.fof.smt2
2ac19c9250f868f7b0ef1268afc9664d thruster_init_0678.fof.smt2
ed811f0d9b9e328ce4096d25425672e9 thruster_init_0679.fof.smt2
c381a11e09fa8f871868c5a4f8476220 thruster_init_0682.fof.smt2
d7b5e3ffadc2e65db6b50f7ac20551c9 thruster_init_0683.fof.smt2
6866d4243afcf137671f38d89597d9fc thruster_init_0684.fof.smt2
a59a54a95b42456ca96d49f7c9f049dc thruster_init_0685.fof.smt2
d963f8dc229cf2cd1d89b1b15eb41117 thruster_init_0686.fof.smt2
38cb4cb06e44d801727fab76d4767535 thruster_init_0687.fof.smt2
fa383eb7a97552e483d16db2faedc23f thruster_init_0688.fof.smt2
887cf4e4130054f1a6242e155ab360fb thruster_init_0689.fof.smt2
201958ff9ee515050ce83022ebe348b9 thruster_init_0690.fof.smt2
e9f614a25eb92b7e0a8838a9bbe1e5a7 thruster_init_0691.fof.smt2
8c1030b15a1f220bd468926dc50edf75 thruster_init_0692.fof.smt2
a04a4c9e045a67d6298713a27ace77e7 thruster_init_0693.fof.smt2
f381257239bb988c3e8f190eca86a776 thruster_init_0694.fof.smt2
c1a45675537a4b2f639c8664603e91a2 thruster_init_0695.fof.smt2
90b4eab069b88caf9c5bb0125ae24eae thruster_init_0699.fof.smt2
5cc4990c23f67ab61f09c1057cf7e355 thruster_init_0700.fof.smt2
62d04f49c13e34bbcbd895a0b1e23b62 thruster_init_0703.fof.smt2
751330f118ea1ea9e4c604bed157331b thruster_init_0704.fof.smt2
049afd4bff05d692e854912d57fa1e68 thruster_init_0708.fof.smt2
171fb8470ddef9fc58525a601be794ed thruster_init_0709.fof.smt2
ffd5a0c7de2a8be6223e19adf8b1eaf9 thruster_init_0711.fof.smt2
f0a2c729085a6cbadc198fdbbb2fb84c thruster_init_0716.fof.smt2
d94bf56e3a21ca5981b4e4a4efbc9fec thruster_init_0717.fof.smt2
2c25450c993f397f0400cb0749112b69 thruster_init_0726.fof.smt2
fc180fc79ca1e3384c9891fbc8d2b65a thruster_init_0727.fof.smt2
4ca01056d24c525aa17336f84deacda8 thruster_init_0728.fof.smt2
1b37ea77c26e278345dbd3bc45ec3e50 thruster_init_0729.fof.smt2
68efd131f65fd67d0e99c476c963c6e9 thruster_init_0730.fof.smt2
cbfb59acbab7eca06f5b3ce02ff53f47 thruster_init_0731.fof.smt2
df922acf50298703d90dceef6f628d19 thruster_init_0732.fof.smt2
867a1ec479087fa268016fc04f0943d5 thruster_init_0733.fof.smt2
9196eea1e231642ba7ab22226e227f5b thruster_init_0734.fof.smt2
312302f2e5e7af00fd740fdb7ecbbd28 thruster_init_0735.fof.smt2
61b5a9ed63d6ad9ddc2410c79aa94e06 thruster_init_0736.fof.smt2
101c0ea45f8c96d8517e6424439be9da thruster_init_0737.fof.smt2
544684f44118cf314444321f496d8e67 thruster_init_0738.fof.smt2
3ee9f332581de838b63261a29ec1d972 thruster_init_0739.fof.smt2
75ec675d342d2c67d499a06456d937b9 thruster_init_0742.fof.smt2
d725378da6b41e6125d3644a1d29c5e2 thruster_init_0743.fof.smt2
454ca0b89874b75a899b625c650c84fd thruster_init_0744.fof.smt2
b2c88db920ad780ae7421216c376cfa1 thruster_init_0747.fof.smt2
4e3d9aa2139f972a01af5c15b77670a3 thruster_init_0748.fof.smt2
7a2dfdc86624153a543eb1d73a0153c2 thruster_init_0752.fof.smt2
3ea05fdd20cb508cfe7ba0be6735b99f thruster_init_0753.fof.smt2
788aef207ce7f1bdf0ac0a4a62a8d437 thruster_init_0755.fof.smt2
3d8fed33dafb2b0ed721a5487fbf91dd thruster_init_0760.fof.smt2
549f697eeafe557f8cab4b1b7d0c6e2d thruster_init_0761.fof.smt2
3bc394ab52e27957b4422a1f3d26c1ae thruster_init_0765.fof.smt2
1a45f944a5e29209d10f470a51b1777e thruster_init_0769.fof.smt2
5f2b753683140a7a6f82c780f97dbe78 thruster_init_0770.fof.smt2
846d15f21b145bad257393933bf0929e thruster_init_0771.fof.smt2
7017ca91c7cc086e19416d8e7c0ec3df thruster_init_0772.fof.smt2
e7153266b2ba69f99d6399aa50966e8e thruster_init_0774.fof.smt2
d94008e55b22faef332fd81be82d8bf7 thruster_init_0775.fof.smt2
4d3c5e931507e6f51a8b85cc3d8a9818 thruster_init_0776.fof.smt2
0de2489b8e9b65d628fbe5e4bc6358f0 thruster_init_0777.fof.smt2
f1b81ae7691a2c78329436994a835f24 thruster_init_0778.fof.smt2
71db531c3851716df6fe4c6fe9b35efd thruster_init_0779.fof.smt2
1ac3a93ea0acb8497f58356ff04cca41 thruster_init_0780.fof.smt2
e19aaa98345ad46ec0e6d09fcd0c97a9 thruster_init_0781.fof.smt2
ff68510c3038b76dcd9233bec60167bd thruster_init_0782.fof.smt2
edae4e7aa280580968ced49abd6a2680 thruster_init_0783.fof.smt2
036e4b4f4e5f48cc5e6435bbb8406ff6 thruster_init_0784.fof.smt2
efeb3940245197eafc3dba38a877485b thruster_init_0785.fof.smt2
ede207c410ed10c1d0b53334f9e43cb2 thruster_init_0786.fof.smt2
4809444335145701f4d30bd0a6fed24f thruster_init_0787.fof.smt2
397d80205e7f26117db441c58d3a00fc thruster_init_0791.fof.smt2
6c47f7411622467686f63cf5f432245b thruster_init_0792.fof.smt2
4e6da652b8a31d7a5fd49bda2b5884cf thruster_init_0794.fof.smt2
b42063286571b6f7200fc20901b95ea7 thruster_init_0795.fof.smt2
8b4af7a0e955a3721c354cd9bd418183 thruster_init_0796.fof.smt2
c3b09537446b47dd29be249dc58c1a89 thruster_init_0800.fof.smt2
53cf52505af72e4dbc040595d028e6bb thruster_init_0801.fof.smt2
f57a2088bfd970c6e905fe31ab773f48 thruster_init_0807.fof.smt2
632a831965c5df91d74d76f270805dce thruster_init_0808.fof.smt2
6cbab293304f6850f52d1254f79e3110 thruster_init_0809.fof.smt2
1c08d0e8528d7ad7958da6dffc894df9 thruster_init_0812.fof.smt2
4b6cd25695b45a27a311e79575bdb4e6 thruster_init_0818.fof.smt2
494650b0156668b067c3bbc6252f73a9 thruster_init_0819.fof.smt2
77ec5d7b2387c652f7e7fb72b4961e79 thruster_init_0820.fof.smt2
8c0f78c31144f23edfbca874bde17704 thruster_init_0821.fof.smt2
c4dfce796b847fa6dacd168da6d8fcd7 thruster_init_0822.fof.smt2
d1e2244dce75dbf73781a09c4d8f1fb1 thruster_init_0823.fof.smt2
bda97df08a71ef99cff48e7ad78cc586 thruster_init_0824.fof.smt2
774b729e214a9ae9d11c8912e7c91489 thruster_init_0825.fof.smt2
ef65dc744abc31b8229638e59cccdd9d thruster_init_0826.fof.smt2
20ec3eafd52f5b7bd1eac27f461b06b5 thruster_init_0827.fof.smt2
88804869fcecaa44dfd5e544e0d96ff0 thruster_init_0828.fof.smt2
585288394cfe412d7bbc000788d29d95 thruster_init_0829.fof.smt2
34be74a089c0bd34776d84130881228f thruster_init_0830.fof.smt2
d94a9e854579ef232b79ecb1978b0c80 thruster_init_0831.fof.smt2
25e3df2a879b9bc069805cd363e23a32 thruster_init_0834.fof.smt2
dcd97293116856efb2a2e2131ac506e9 thruster_init_0835.fof.smt2
4e388c32c0c5b7402112d0b451cd6907 thruster_init_0836.fof.smt2
8992827c4d99ecc69562f5d968a18ba7 thruster_init_0838.fof.smt2
713fd9c945638aa2232fa213ffd22437 thruster_init_0839.fof.smt2
651fb2f6499695c83be70e3ff600f153 thruster_init_0840.fof.smt2
301d661d7235bddf7a4847f9459d3451 thruster_init_0844.fof.smt2
e72c94c7aae531ccabfee25c19166dbf thruster_init_0845.fof.smt2
b2b1f463e2bf48582b0f5826000d9ff7 thruster_init_0851.fof.smt2
659c1b3ec950c9c450b2318a7a01f286 thruster_init_0852.fof.smt2
450c764e118c36a7ae12ca2f104d1d86 thruster_init_0853.fof.smt2
0e245683426be287b373c1f6b403b6ed thruster_init_0855.fof.smt2
a0505e54a87abf14095f3cfadd200941 thruster_init_0856.fof.smt2
f0731b2af231e08c29fcd639f7f2980e thruster_init_0860.fof.smt2
987422a8f2fd4b5eaa861c33dfe97698 thruster_init_0861.fof.smt2
aefe56dd5ea9a55556314f3aecce3fef thruster_init_0862.fof.smt2
5e08ddbd0830bc88cd00c4ab9ce698fc thruster_init_0863.fof.smt2
4fcf3537827cdf4a879e771095deb23b thruster_init_0864.fof.smt2
a5dea9769b23362d7fe5cc30364a9713 thruster_init_0865.fof.smt2
69e90cdfff5d3d8214f982806daec45f thruster_init_0866.fof.smt2
e567f285fa9f2882eb505742bbb7a48e thruster_inuse_0002.fof.smt2
cc4dac3076d8d6c2d8d721df6af74054 thruster_inuse_0003.fof.smt2
98ab3288565a8067015c1170e8e02d30 thruster_inuse_0004.fof.smt2
821230f94cedd2f9611e81fb2540902b thruster_inuse_0005.fof.smt2
75fade99724e3a473178fc698acb5e97 thruster_inuse_0006.fof.smt2
e3834b14a7af96d7e573fc41e55fde2c thruster_inuse_0007.fof.smt2
e0a1e329ea2808ceb9acd10645208c24 thruster_inuse_0008.fof.smt2
d0e19f7be82a21828fa03b4c0368a22a thruster_inuse_0009.fof.smt2
2eae2edcb955698773310ead033a2b72 thruster_inuse_0010.fof.smt2
6d36df07d492a49d6faccf301261420f thruster_inuse_0011.fof.smt2
f234cfee2d3966385044101ac780a831 thruster_inuse_0012.fof.smt2
b6763d50c7a7dc7b49f79f42c90ff4ff thruster_inuse_0013.fof.smt2
674178cda1102a043299e828e93d66be thruster_inuse_0014.fof.smt2
863077075a71c46dd4ca6bc47cd99be9 thruster_inuse_0015.fof.smt2
97fb00f1c97f36f4223d8787c12ec876 thruster_inuse_0016.fof.smt2
71cccae700259e626ef260f877963333 thruster_inuse_0017.fof.smt2
30f91b6b749c887a1b45d20b92f3a7a7 thruster_inuse_0018.fof.smt2
4eeb5dbd001368da23ee87e073ab245f thruster_inuse_0019.fof.smt2
f4f8244ac2e9ea86fedc4a1058e60396 thruster_inuse_0020.fof.smt2
3d3517949d9ec6bff31d63aa14349a9c thruster_inuse_0021.fof.smt2
ee1f8328c0c0bfaf93d444244624a9f4 thruster_inuse_0025.fof.smt2
ae819216c0f7f3489cf011c7b7dd40a5 thruster_inuse_0026.fof.smt2
bd133c3bec4ff516023be224fc7950e5 thruster_inuse_0027.fof.smt2
9393c1a56b8b3448327b820fc69ed327 thruster_inuse_0028.fof.smt2
df9781529008b5816ba1ce505b91c336 thruster_inuse_0029.fof.smt2
29ffff709a92a606fc04ca3a25b05fe2 thruster_inuse_0030.fof.smt2
f9e8c19af2b719f274dc593e797063f6 thruster_inuse_0031.fof.smt2
c28dc3ac22215db8ebfe64b0add08d55 thruster_inuse_0032.fof.smt2
8c041d84e089dfa8c61cccf2e2b89684 thruster_inuse_0033.fof.smt2
e14f7f7f1cbe89ee78c3f2799e93bb5b thruster_inuse_0034.fof.smt2
47c16bb76420d82b1d516c5c7eb4d9b1 thruster_inuse_0035.fof.smt2
9f2f5510b8bba4b5d3ed7a520968aecb thruster_inuse_0036.fof.smt2
9075c505444aea8ffad55ded70dd6be8 thruster_inuse_0037.fof.smt2
27c07f6cb66883bacb5f652ab81f7730 thruster_inuse_0038.fof.smt2
ff9495b0cfd697e893fc4be23827fab6 thruster_inuse_0039.fof.smt2
7fbfc19229c3c5ad62155758b1ce0784 thruster_inuse_0040.fof.smt2
760a69b30f2ac6a814259138dc97e771 thruster_inuse_0041.fof.smt2
b637c455e25298dd4e9eaf52b447b606 thruster_inuse_0042.fof.smt2
f39aa94b8ced40ebb3bb968575470113 thruster_inuse_0043.fof.smt2
6460d5315dc236900b2c9cfe45ca72d0 thruster_inuse_0044.fof.smt2
f1861f4cfe58c7ae3a7f4e4dc6035e11 thruster_inuse_0045.fof.smt2
7c172596d02303e3e5b3d19f81126d4a thruster_inuse_0046.fof.smt2
965143adfcd86f51b1d6da2b23a8fba8 thruster_inuse_0047.fof.smt2
eb36a9adc3daa41c05e0e0d45cdcc5c4 thruster_inuse_0048.fof.smt2
ba60a5027d3499063a89b6cdc8d9000b thruster_inuse_0049.fof.smt2
6efaf9ab5379b176134bafe3ed7a93d9 thruster_inuse_0050.fof.smt2
46f3bb267991c50524ee4db90f3aad35 thruster_inuse_0051.fof.smt2
924df8c81fc3597a212318c20b1cb3e4 thruster_inuse_0052.fof.smt2
43cfac7491244afe80d9b2bf5fb4598e thruster_inuse_0053.fof.smt2
587e6a346b1861b1f9ef3615de058221 thruster_inuse_0054.fof.smt2
b26d102ce6d082c7bea33f8b4c71b5d7 thruster_inuse_0055.fof.smt2
d438c30655a21da5f87be4307f630e90 thruster_inuse_0056.fof.smt2
1eabd89f4e90b7c2971620b021318ac8 thruster_inuse_0057.fof.smt2
f38877f0df05e0650580a3497d93ecc9 thruster_inuse_0058.fof.smt2
dfe2d1839009541e12400b02e7fcdcae thruster_inuse_0059.fof.smt2
f650d5ca94a336bf93c2e27cd7039428 thruster_inuse_0060.fof.smt2
37911762a2c3f52aa2f344397db1872d thruster_inuse_0061.fof.smt2
8ad0cc36bc3b169a271abca550e07335 thruster_inuse_0062.fof.smt2
70211cdcdc4561ed54bd5a96707164a5 thruster_inuse_0063.fof.smt2
c355212ebd7c0578bc0da451b00d68e1 thruster_inuse_0064.fof.smt2
a5225a82098d8dd93a442cb58cb4e5f6 thruster_inuse_0065.fof.smt2
bcc785eb75097f9931c41c75ddf7e8d2 thruster_inuse_0066.fof.smt2
e852d9d1966032d087f24581131a9a08 thruster_inuse_0067.fof.smt2
3b0d56e26d9bba6ec6f432f713c65a4e thruster_inuse_0068.fof.smt2
a2cd54f68269cf4b00ab66ace572b9fa thruster_inuse_0069.fof.smt2
03a7c5a3633b5c61ddbc291a9d597682 thruster_inuse_0070.fof.smt2
da4711fa23d65ee8dcff755675f4960e thruster_inuse_0071.fof.smt2
3b3235feb70ab0d597dc937c04d8bcdb thruster_inuse_0072.fof.smt2
93eef07e171e7498ef8f6d4643d5f9ad thruster_inuse_0073.fof.smt2
e38453a3c585690afb33301279ae5ba1 thruster_inuse_0074.fof.smt2
79a1537cc679795154aaad3b3236eec2 thruster_inuse_0075.fof.smt2
9c7c67ecf07a313a27ac9f0ecdc94432 thruster_inuse_0076.fof.smt2
0a16fd3db7f35a873fc08b421ff9913c thruster_inuse_0077.fof.smt2
4433151bd5ad67a84eeae6cf447f0fd9 thruster_inuse_0078.fof.smt2
bbacd5811cc0fd2bfae2eaeb57a2a1dc thruster_inuse_0079.fof.smt2
10e44552251c4f08869560a081c7f10a thruster_inuse_0080.fof.smt2
9baa0c8194a8e7a754ddf329d1d02b3e thruster_inuse_0081.fof.smt2
bd7bd4e4a0bc8154e05ef0ec06503910 thruster_inuse_0082.fof.smt2
0647f30f6ca3cd9566d7042825ac2171 thruster_inuse_0083.fof.smt2
99dbaaeb1fde42e9f49ea9274c4f23dd thruster_inuse_0084.fof.smt2
0d3267587cecb95713c33534a8d83ec1 thruster_inuse_0085.fof.smt2
2f1af9d1bb177977ed32e662f0e2f124 thruster_inuse_0086.fof.smt2
8bbceeb1a3f03468dc00c9613f7eebaa thruster_inuse_0087.fof.smt2
468ce060cfb6add0535c29aae9718626 thruster_inuse_0088.fof.smt2
5ae721598f5c689f525eb0c94c6c6670 thruster_inuse_0089.fof.smt2
c0902ebe94d93fab536e02da0694b163 thruster_inuse_0090.fof.smt2
beee964395b9f248a89c6856c770fe15 thruster_inuse_0091.fof.smt2
5028620b5e71171b5f163fe28a8019ab thruster_inuse_0092.fof.smt2
54404cf5047619644b4801b71522e80d thruster_inuse_0093.fof.smt2
b7aa13eb3186822b1c9dbd2498ffee75 thruster_inuse_0094.fof.smt2
c2765b57bb40eec9600b60374fe47f91 thruster_inuse_0095.fof.smt2
8ab8a6fbc138c1eba0a0f05e13bf502b thruster_inuse_0096.fof.smt2
70096ba604d86cc53023e3ccd1b8690f thruster_inuse_0097.fof.smt2
d84caa30a13ea25198f82cf2ae84bebb thruster_inuse_0098.fof.smt2
666be6aaf7b046425ef407e347f329e8 thruster_inuse_0099.fof.smt2
0570285facc27ee1e521daa1ae60318d thruster_inuse_0100.fof.smt2
a9ca5f66f8482505b468b9f39ac692c6 thruster_inuse_0101.fof.smt2
a24bfd3f81424745f99527e100094fe1 thruster_inuse_0102.fof.smt2
75f74a3ea61bf7f039aa4e240681facd thruster_inuse_0103.fof.smt2
75c17be5dcef252901242aad67e87f78 thruster_inuse_0104.fof.smt2
1b96409ed7366a863723f554b4625a36 thruster_inuse_0105.fof.smt2
200d68b7896c0538e33f5d427dcb922c thruster_inuse_0106.fof.smt2
537f631571b839ae21260ae5c45decc3 thruster_inuse_0107.fof.smt2
ef92d6f5e159702224d3a148707e72c8 thruster_inuse_0108.fof.smt2
6bcdc9cb5e004682a151f64a34377e52 thruster_inuse_0109.fof.smt2
727962bc7804ff84b7c48fe878f473d0 thruster_inuse_0110.fof.smt2
fddd503db50da7a4f93a7c83665febaf thruster_inuse_0111.fof.smt2
a3146c04ff5f20eb18b53ef76b6edfec thruster_inuse_0112.fof.smt2
49e240d453587fa12ca82f9c412c6d5a thruster_inuse_0113.fof.smt2
565fb9d091bcf37c1e76cc1859bfa881 thruster_inuse_0114.fof.smt2
eff224590375bc6f629bb4cd062b9d9e thruster_inuse_0115.fof.smt2
d62f6a036dcb1e539df989c35a0cc6bd thruster_inuse_0116.fof.smt2
713d209531a787294e5162f7d49801d2 thruster_inuse_0117.fof.smt2
995777b78a244be5d5dea1a9ed965039 thruster_inuse_0118.fof.smt2
918eb958c8e620a7e62bd0a211e61f70 thruster_inuse_0119.fof.smt2
f3fa8428ba6c0ac9fce1ccdd8248d74d thruster_inuse_0120.fof.smt2
310b54e4c400df9938a88cc5c0747e3c thruster_inuse_0121.fof.smt2
8b46fad05e8dd32b343e302f137a910c thruster_inuse_0122.fof.smt2
dcb40d15048187982d6ac2dec714df83 thruster_inuse_0123.fof.smt2
e30dbedfb19c1a48177c7ba4a28d301b thruster_inuse_0124.fof.smt2
bb74c1036c87f93c75757682428967b6 thruster_inuse_0125.fof.smt2
5fb4475c766edbaa24ffc11d710a45bf thruster_inuse_0126.fof.smt2
d315222f9fb50e462c8348bccf87a8b2 thruster_inuse_0127.fof.smt2
2604c75cdc96c157cd8867c39d15fe17 thruster_inuse_0128.fof.smt2
2ffd47d9091765cfc1b853416d9be028 thruster_inuse_0129.fof.smt2
450ed2dbe5936727e2f008b8467211d6 thruster_inuse_0130.fof.smt2
48c69dd83b0c286903f202e922e5137f thruster_inuse_0131.fof.smt2
7a7828b3ca2fded1645ce84aedca8dd0 thruster_inuse_0132.fof.smt2
b5fc30d101fe51a2f65308321ab904fe thruster_inuse_0133.fof.smt2
3f06bcd92f033c9dd1e448c921920051 thruster_inuse_0134.fof.smt2
30495d8707c48f4eeb9a871274d7a466 thruster_inuse_0135.fof.smt2
3810f441252fe235c7b969b5d4e96a5c thruster_inuse_0136.fof.smt2
9caceb0f710b781eb8f73c7591ab301b thruster_inuse_0137.fof.smt2
1c0d1e8d847ba301ab896085f8d55890 thruster_inuse_0138.fof.smt2
a22d9a7ad9e9c70074906bf11228912c thruster_inuse_0139.fof.smt2
93688934609d0a1b41f4bd03d6842970 thruster_inuse_0140.fof.smt2
fe3ffb0fc8a2f67d7d91279bf4bba352 thruster_inuse_0141.fof.smt2
05ffe51aebd9f794da8d4d4381b49e8e thruster_inuse_0142.fof.smt2
cc3f487c3d15eb2230a9f878b3178081 thruster_inuse_0143.fof.smt2
65922661b413af44a8400952078ba5a6 thruster_inuse_0144.fof.smt2
400cddf501643bfdd4299b9b51002e22 thruster_inuse_0145.fof.smt2
1e1d26b3195080c1a695f6959ebdadc9 thruster_inuse_0146.fof.smt2
d8cc9d6b9875a7a3a095c3a7c743d940 thruster_inuse_0147.fof.smt2
a38b878bfb5dab54048d9b2b3d12b898 thruster_inuse_0148.fof.smt2
a31e3bfa04c30433c5461857fce38a22 thruster_inuse_0149.fof.smt2
cf4343943d9db6d5a3e6ae06cb07e559 thruster_inuse_0150.fof.smt2
fdbc17750d8fe48a7eda9e38c6a964cb thruster_inuse_0151.fof.smt2
fff0452afa7b214216cfce7272fe89f2 thruster_inuse_0152.fof.smt2
2f9b8c227bf7cf2026e6a2076c6d1260 thruster_inuse_0153.fof.smt2
dec730aee757f377fec500f0e80160d1 thruster_inuse_0157.fof.smt2
b408c727d117f50c0881e9c925ce0a06 thruster_inuse_0158.fof.smt2
4b4ebbc15a6b981deef382b46e8d348c thruster_inuse_0159.fof.smt2
dc52da2047a2dc7aba020b1f4a939bd0 thruster_inuse_0160.fof.smt2
ccc061bdbd0158cee269f8c105127230 thruster_inuse_0161.fof.smt2
ed99493ebee4a2584c85be9bf3872b3b thruster_inuse_0162.fof.smt2
5e72b2952289a3081777a871c7779efb thruster_inuse_0163.fof.smt2
90461a9b7735201eb87e18d86b507f1c thruster_inuse_0164.fof.smt2
fbabadb350e158a74721ac84150f8c6a thruster_inuse_0165.fof.smt2
3a45b08e4fd6382acdeb89e29fdb5b54 thruster_inuse_0166.fof.smt2
2a51e4cffc17ae24adf79a3658e4a12a thruster_inuse_0167.fof.smt2
9602715484724e6b2d3c3a88b3ca8f4d thruster_inuse_0168.fof.smt2
9659ee64a63b840bf729d8f57a62d551 thruster_inuse_0169.fof.smt2
941fe0e5da6f010d4ff1e9366cb8d6a1 thruster_inuse_0170.fof.smt2
ce6aef758dd031d377cb0b772b24ae98 thruster_inuse_0171.fof.smt2
d3adf3b8b32e21ccab3f9ae34f9964b2 thruster_inuse_0172.fof.smt2
c29d958a6efaef1900201cbf819dd963 thruster_inuse_0173.fof.smt2
a9d2e4fd9876ed117c9b4b20cf51f7b3 thruster_inuse_0174.fof.smt2
911376667d8441fdca02fd36ebcd1ed8 thruster_inuse_0175.fof.smt2
bc6bf366801661665c943538cb5828ca thruster_inuse_0176.fof.smt2
9fb467bbea3bcfbff466bd19785f2217 thruster_inuse_0177.fof.smt2
cb7b013bb9060bf88f78ab3cd4f53c9e thruster_inuse_0178.fof.smt2
abff4337b1cfc7cb5778638264260be5 thruster_inuse_0179.fof.smt2
03a861c338b50f76e9f96a4d2cdbead6 thruster_inuse_0180.fof.smt2
d4434c9204dccd2d00521b2f51bc9516 thruster_inuse_0181.fof.smt2
576ed28a669b616eae067e51614d5080 thruster_inuse_0182.fof.smt2
7695a8624cb38ae4eb45a9baf09cce70 thruster_inuse_0183.fof.smt2
89e3fa916293d91b11dd3d218af25c1b thruster_inuse_0184.fof.smt2
15be91ce92065b73d5b2e0ee25a0667b thruster_inuse_0185.fof.smt2
526f873496f9a6233e289e75280ca203 thruster_inuse_0186.fof.smt2
b6d7ab68834388d80eece24f6e776577 thruster_inuse_0187.fof.smt2
2c59e99f28b02766f73d17ae0e479a94 thruster_inuse_0188.fof.smt2
ae2e75e872eaccd5b55f942f0e3eadc6 thruster_inuse_0189.fof.smt2
59969a501c94a14a18436cd182399f1f thruster_inuse_0190.fof.smt2
bc033d674df053523b55d29825577371 thruster_inuse_0191.fof.smt2
f5d2a9635ad0250e3c98bd10aefecd37 thruster_inuse_0192.fof.smt2
43b917bc5851e460fe42d819c37897ff thruster_inuse_0193.fof.smt2
2f66a2fe784bb91b5acca39f76247d84 thruster_inuse_0194.fof.smt2
98a5c702bec659e790368d6e07d5cea1 thruster_inuse_0195.fof.smt2
d61a5d47f8233eb321278bdc47664373 thruster_inuse_0196.fof.smt2
a90518142848e3547087c8fd07d5e9fa thruster_inuse_0197.fof.smt2
c1a782de08e6f57e9ca3c7747eeb8f90 thruster_inuse_0198.fof.smt2
aa8237406c33e99c521532fd12301ed4 thruster_inuse_0199.fof.smt2
a8dc3146c3412d5da0bd29692795acff thruster_inuse_0200.fof.smt2
240351ffb0a579b0df323c0e4bd35f40 thruster_inuse_0201.fof.smt2
0ddcf8a8b22743094c04215619a3ee2d thruster_inuse_0202.fof.smt2
23b47b34cee5601bd7c80c185c9b5a61 thruster_inuse_0203.fof.smt2
7b6f6e295e6e3e85e3a790bd4e5b7940 thruster_inuse_0204.fof.smt2
8a5be7799461114ad7d360213b413001 thruster_inuse_0205.fof.smt2
656c2ff4c9ada851434c41b27a4058fd thruster_inuse_0206.fof.smt2
8ede46edce1a87632314d24e3ac1d62c thruster_inuse_0207.fof.smt2
afb974b7011bd1a5d4b48c6b9183faf7 thruster_inuse_0208.fof.smt2
31908693dcd87f40816580bc671d8c7e thruster_inuse_0209.fof.smt2
3e0c8d5a81e8e39f4bb0d43daea251e2 thruster_inuse_0210.fof.smt2
0f99d9906f9bce8c0a4db11c99b425c5 thruster_inuse_0211.fof.smt2
9d558471d77387227f81bf253b510eaf thruster_inuse_0212.fof.smt2
b57369f7b90bd132695e1066490145f0 thruster_inuse_0213.fof.smt2
bf268e00de4e95ef6f095eaeffba4a1d thruster_inuse_0214.fof.smt2
7af95b27467ea13f0092bf631533fac7 thruster_inuse_0215.fof.smt2
fb4bfa91b7124861d2519b0baf1ab6c3 thruster_inuse_0216.fof.smt2
4ff66be08fc993e9fb315e68b24aa110 thruster_inuse_0217.fof.smt2
b08ee9288e1c4eb4fdef472ca4724d27 thruster_inuse_0218.fof.smt2
37856fc7d8591ce0da661905f7205b4e thruster_inuse_0219.fof.smt2
725fc070f1c58a681d16b3b0b59cbffa thruster_inuse_0220.fof.smt2
c608f17a52e16126953c29cd2c9428f5 thruster_inuse_0221.fof.smt2
e41e2e3e0819146e0587c29007c9072b thruster_inuse_0222.fof.smt2
60c6766445713ef41c9fd413cbd35b2c thruster_inuse_0223.fof.smt2
44dea9e027feb17f84b3ba6cdff95f2c thruster_inuse_0224.fof.smt2
a064c3d248860d0fba7015f256cbb858 thruster_inuse_0225.fof.smt2
33288201b9c823c8c6e49b51af475517 thruster_inuse_0226.fof.smt2
a2f1d8704eae07673cb3b53f7e820915 thruster_inuse_0227.fof.smt2
d070be635b265b3e140a2016bab42f61 thruster_inuse_0228.fof.smt2
46b64576b1ec6cf584d2f1c1e6346c62 thruster_inuse_0229.fof.smt2
b90cdccc11a32267d9b92a5034a3bbc2 thruster_inuse_0230.fof.smt2
2c0af491083fa3388713bc1b5b36c81f thruster_inuse_0231.fof.smt2
89d3eed1a625fc5c680c297df347d7e5 thruster_inuse_0232.fof.smt2
d1262eb4ef4c6c0f66c0b57d43099fa8 thruster_inuse_0233.fof.smt2
a0ab3dde96be23c6ee3da125d7d050ed thruster_inuse_0234.fof.smt2
2134437ea39dd72598486b6aed87485b thruster_inuse_0235.fof.smt2
f51a0492c78ba34b05ff3a49b5499a1d thruster_inuse_0236.fof.smt2
9d005fbd466ac07d6b120177580266e7 thruster_inuse_0237.fof.smt2
2fd546494318ce0864c79e304fe42e6b thruster_inuse_0238.fof.smt2
326f9fed8245a726cce5fdd363ec92de thruster_inuse_0239.fof.smt2
8af25a8dde74a4b006888e67b14f8327 thruster_inuse_0240.fof.smt2
aab875f661f7e4fa3b4ea583187a3d9a thruster_inuse_0241.fof.smt2
2476f9720db01bf187b6ba511046cdd8 thruster_inuse_0242.fof.smt2
ff9b28189fc029ccb1ca3328ed9ebd64 thruster_inuse_0243.fof.smt2
7394666266bac3922217cd4d0aef24f5 thruster_inuse_0244.fof.smt2
735707b8645319ed98b3e1f250804c52 thruster_inuse_0245.fof.smt2
a6ed4775ec5d7363b0ed90ab4d208309 thruster_inuse_0246.fof.smt2
b70da72d0dfbaa99acb409bcc0838312 thruster_inuse_0247.fof.smt2
2042a61d64dd7b883425f62e3f6db490 thruster_inuse_0248.fof.smt2
d4a8bd306e327a02751accce9119ecbb thruster_inuse_0249.fof.smt2
6e0b5176226d6cf65b27de1152a832aa thruster_inuse_0250.fof.smt2
05ef3ea586b463fb8213c130c432fd6a thruster_inuse_0251.fof.smt2
d15d8b00e0b35584d926a39857ec96a0 thruster_inuse_0252.fof.smt2
3535a09eaa99f295343c62a5046f10c0 thruster_inuse_0253.fof.smt2
aefc939f6b26a1d9062a80e7e3c60f25 thruster_inuse_0254.fof.smt2
d591c0a011af1e7317c4c3ece7fa8239 thruster_inuse_0255.fof.smt2
e13024245cfc0d70677e76a2833c0ed0 thruster_inuse_0256.fof.smt2
53b0d8d481e9a4fedc85649a6140a09c thruster_inuse_0257.fof.smt2
370ae3d88ea6641643623af96f04ee48 thruster_inuse_0258.fof.smt2
28c029e118f7c0a848f51a3eb8d7a3f1 thruster_inuse_0259.fof.smt2
140313dc7ba627acb4b884c39ca5d86b thruster_inuse_0260.fof.smt2
1c087c0a63c9dd0f7b7b0189ac6fb32b thruster_inuse_0261.fof.smt2
3b6662c170f52829ea449a8281272667 thruster_inuse_0262.fof.smt2
d22d6eb9ec238152fb2bbdd08f7189aa thruster_inuse_0263.fof.smt2
09ba561c7d718cfe057908d4943a0349 thruster_inuse_0264.fof.smt2
f5b61b4a54284698aa7597465c513158 thruster_inuse_0265.fof.smt2
03c2800edd9c03b161dc4bdf4970916c thruster_inuse_0266.fof.smt2
e11e2188e8a61467ea0dd806f02fa95d thruster_inuse_0267.fof.smt2
0f003dea51271bc178189f2796c4e14f thruster_inuse_0268.fof.smt2
59b6d2080bdf8ebaa22ec480407b8103 thruster_inuse_0269.fof.smt2
ea00f521dff15db945ac763e1632d1a0 thruster_inuse_0270.fof.smt2
ff38a2d44acf082fcb05bf8ce1e71f82 thruster_inuse_0271.fof.smt2
36861d0eba6804f00e140c38b89b1288 thruster_inuse_0272.fof.smt2
bf0610682cb1efc743bc4e396cd66895 thruster_inuse_0273.fof.smt2
4b6f33811ec38174846799b137369f26 thruster_inuse_0274.fof.smt2
63545769264d5c066a3b9adcefd9c227 thruster_inuse_0275.fof.smt2
cf58b984816691497a705de0b61f68c5 thruster_inuse_0276.fof.smt2
05376eb27268fd01a9160f3a446e598e thruster_inuse_0277.fof.smt2
56badab3a942b0a8e554187d3f0e6c33 thruster_inuse_0278.fof.smt2
8537ad49bcf6405cdc8279224dea5211 thruster_inuse_0279.fof.smt2
f91574b24f79ece98508ac87fc70cda9 thruster_inuse_0280.fof.smt2
10c65163f834142fc2b42be89f0e313b thruster_inuse_0281.fof.smt2
5380fe5fa993103b55f483c0a5674f36 thruster_inuse_0282.fof.smt2
cc8ec084fbbbb420ef9122bd7e00d2cd thruster_inuse_0283.fof.smt2
dd478f61fff3d9be6ea85103abedca09 thruster_inuse_0284.fof.smt2
eaa9c34c4b171c85cc6ec8e82a2a09b1 thruster_inuse_0285.fof.smt2
04fd8e673196fe7f523f4d149e86f026 thruster_inuse_0286.fof.smt2
daca6aeaac079da03651e555604c0577 thruster_inuse_0287.fof.smt2
5fd203c0e97ac672b4eb00fffdb29ac1 thruster_inuse_0288.fof.smt2
ed55316e4fce5c301221e1c66be6883b thruster_inuse_0289.fof.smt2
f0a30737b63bc433c98d3a916a6c7859 thruster_inuse_0290.fof.smt2
d5e5d46a2b05c685fc5c21e2d8c4c9f1 thruster_inuse_0291.fof.smt2
d2274be3eaee8e2940c954bd9ce307c9 thruster_inuse_0292.fof.smt2
63a6f5ee279b6c33fcc64bf5d24c64c7 thruster_inuse_0293.fof.smt2
c05add859fc95d11d45bdec9fc0cf13c thruster_inuse_0294.fof.smt2
3854d4d5d77b3c1fbf163ec71fa7260c thruster_inuse_0295.fof.smt2
126c55470e2425c83c9c9f50609084d6 thruster_inuse_0296.fof.smt2
3b05760dad422cd74cf0beace09b19f8 thruster_inuse_0297.fof.smt2
ba04eff6a642ac6dfbfb06cebe99d9b5 thruster_inuse_0298.fof.smt2
298dbee5979965c717fc4d0186a8b02a thruster_inuse_0299.fof.smt2
5896c06b27328e9c42695067b2dbbbef thruster_inuse_0300.fof.smt2
5272901241add4a1f1a575ab8dce8ffb thruster_inuse_0301.fof.smt2
93642ee8b0ee9410527a108660612872 thruster_inuse_0302.fof.smt2
a2b8b7415adfb2875c5657b5faed8d90 thruster_inuse_0303.fof.smt2
d9ba30c092e39f1cf8f1a7df58d18b71 thruster_inuse_0304.fof.smt2
1408db9d4c3cc4e1f293ff8209303be9 thruster_inuse_0305.fof.smt2
b1d9469ad12af9cd3fe4aebf54666260 thruster_inuse_0306.fof.smt2
1da7c02ca3357895baea3aadbe38dcdc thruster_inuse_0307.fof.smt2
d2cc7afa86e1f6a29914153fe60c28b7 thruster_inuse_0308.fof.smt2
dcb45809617abd5d2a3ae8c12e0be633 thruster_inuse_0309.fof.smt2
93533515f585f85f2d21c8486f487e87 thruster_inuse_0310.fof.smt2
e2e3a53132dd456a9d47d8e0dd56434a thruster_inuse_0311.fof.smt2
2f9a3fad7c016f0ace5148e9c8feb9d7 thruster_inuse_0312.fof.smt2
98daf9060b45d3248442105af136ee12 thruster_inuse_0313.fof.smt2
01b7c5ff23d202cb0aed114049243661 thruster_inuse_0314.fof.smt2
e63c15f3657470654d6ccfd7698310c5 thruster_inuse_0315.fof.smt2
48c7c09406fbb466f9857efbe74d5914 thruster_inuse_0316.fof.smt2
51c1bb2e696aac53ab18504de64c4ddd thruster_inuse_0317.fof.smt2
8f3c12c3ef107746b8ce835d08971183 thruster_inuse_0318.fof.smt2
4b86ec98d97aa124b2be15bb68d364af thruster_inuse_0319.fof.smt2
9e25ac4ac45ebd58ad443e755cafb179 thruster_inuse_0320.fof.smt2
4958240157e530cea2afc092f6e968c7 thruster_inuse_0321.fof.smt2
919fdc690588d3af632b4798673b4b0f thruster_inuse_0322.fof.smt2
8406bcfaa407e87f7d9bc39a8b7b94d4 thruster_inuse_0323.fof.smt2
6b4cfca90c61710c08aecb32d16b5e43 thruster_inuse_0324.fof.smt2
e4af3c360b6c61d542566b8ce869c852 thruster_inuse_0325.fof.smt2
9c139e5985e0e3543bd8c52146cfbe8a thruster_inuse_0326.fof.smt2
f4ead83e53d9900ea4f1d2368ac8a17a thruster_inuse_0327.fof.smt2
aa83d6bac7ed4e5fe488437284d166fa thruster_inuse_0328.fof.smt2
b526c648d29f5fbb6a6430bb1e0e6fe7 thruster_inuse_0329.fof.smt2
08e4ac5cc56925d4171bb3ff4617c261 thruster_inuse_0330.fof.smt2
c0bf67b2b80e13a729c6880788da2368 thruster_inuse_0331.fof.smt2
b9c0458906c82cfffca92b2f533dadd9 thruster_inuse_0332.fof.smt2
d4efdac6abbb1cfb45397cda0feb9373 thruster_inuse_0333.fof.smt2
9bd0ceeedcb57759c14a231d39bb8eb5 thruster_inuse_0334.fof.smt2
ed03bf6166a4a41e2b088f9be285f086 thruster_inuse_0335.fof.smt2
1fe9f4291fbdeca3e9ee8894840cca5a thruster_inuse_0336.fof.smt2
04fce71952f2116dcad3ab713679bdcb thruster_inuse_0337.fof.smt2
f4c8ef56146b55687240d7e6bb1da1df thruster_inuse_0338.fof.smt2
4941e7de870e63097faf0a1f8245a016 thruster_inuse_0339.fof.smt2
5bddd721c5c931a1bfb7d2d717cb3fcb thruster_inuse_0340.fof.smt2
e13cbbcd60b54cb501830ab3850533ac thruster_inuse_0341.fof.smt2
6f5cc938613efc98f01e0247d125dac8 thruster_inuse_0342.fof.smt2
c320cbf48e740a1ec3f0e0d546bdfd3f thruster_inuse_0343.fof.smt2
65980351d12890940eb9a9aa082d657a thruster_inuse_0344.fof.smt2
f737712c82af8405b1709ded5510865c thruster_inuse_0345.fof.smt2
2650db3805ea88ed2dbbb328d36cca16 thruster_inuse_0346.fof.smt2
0b08ef7312644a2e25743053d27e4313 thruster_inuse_0347.fof.smt2
740e732bb125d7411f46fdab80bd0949 thruster_inuse_0348.fof.smt2
168ada4ce3aacbb29e2dc596416940e8 thruster_inuse_0349.fof.smt2
3579218dc61b53da8767e7153e9c60f7 thruster_inuse_0350.fof.smt2
1df035cbcaaee7c4609523a5dbbdd932 thruster_inuse_0351.fof.smt2
a8e9938f04ef1ca8c93654ed10b04fd4 thruster_inuse_0352.fof.smt2
d2b227cc77910d7d433630e784bd5235 thruster_inuse_0353.fof.smt2
102fa0dc605eed4dcacd53de9faf1b1c thruster_inuse_0354.fof.smt2
f6d26e30a96df3fcc4e66a62a8b7b4da thruster_inuse_0355.fof.smt2
e52a428f25fc1d49b27dbbe23d0d00d0 thruster_inuse_0356.fof.smt2
1da02a3f21348f78b2dd2d503da0abcf thruster_inuse_0357.fof.smt2
7cbad4097803de85c98e5698ea66f4b3 thruster_inuse_0358.fof.smt2
a9a9fa62837bd0d791889424f5dc2a80 thruster_inuse_0359.fof.smt2
02357fc21d53f01f6ef8a3d719aee51b thruster_inuse_0360.fof.smt2
8a5bc0eafb424f24ac1dfadd0e88e409 thruster_inuse_0361.fof.smt2
0a3167d558de64cb98dc882b28eed094 thruster_inuse_0362.fof.smt2
f7f6867f556c1eb335ba3b69cb75a257 thruster_inuse_0363.fof.smt2
164036868e6d04ab9da6c247a5c8b69e thruster_inuse_0364.fof.smt2
e56efb38a667618e318210b39e0ea5a5 thruster_inuse_0365.fof.smt2
ed24bb36a38c19648db138783bfd5669 thruster_inuse_0366.fof.smt2
3eff742ff6bbc895679d55772f61c3c0 thruster_inuse_0367.fof.smt2
2848f69763070e8ddd7e761ed67e1cb6 thruster_inuse_0368.fof.smt2
93a5817ae6f6bee58fa8814aeb8e8ba3 thruster_inuse_0369.fof.smt2
8fb7efffef3545088606f1b979daf0c5 thruster_inuse_0370.fof.smt2
132501a1f06172010599b4a05273207c thruster_inuse_0371.fof.smt2
80056ee8f359a42d4f63d77120d6abc5 thruster_inuse_0372.fof.smt2
d77840336900e6d16282a86468a5da9a thruster_inuse_0373.fof.smt2
ef4b21b044e0ee0b540df25b3068ef48 thruster_inuse_0374.fof.smt2
648b3fd4d480eb6804efd31ea2696c9e thruster_inuse_0375.fof.smt2
cbc40cba71e87b2d29eb4ab06ea7f897 thruster_inuse_0376.fof.smt2
fb427039cc49975f862bf8cb46615aac thruster_inuse_0377.fof.smt2
f63b9ce0bdf7dbe2eb305ed6649af701 thruster_inuse_0378.fof.smt2
1d6553514666d92c9a904ede6c75b65f thruster_inuse_0379.fof.smt2
32ab01012a0dbb66b723e351b04e8491 thruster_inuse_0380.fof.smt2
cc0622f2fc6c8a5d375129a60582d928 thruster_inuse_0381.fof.smt2
c1973978c22f1b4999d671d034ba1da0 thruster_inuse_0382.fof.smt2
5f0df393b08bbc9cfef11b72d2dd937a thruster_inuse_0383.fof.smt2
4a07bb151bfa0aa1a63511f5e1b23b57 thruster_inuse_0384.fof.smt2
aa5513fd7c99281449106aafaf635e4a thruster_inuse_0385.fof.smt2
546bfb6d764d0ab35d04835e6a65e695 thruster_inuse_0386.fof.smt2
856a6b24a6d4025b510c9192d90c1cfe thruster_inuse_0387.fof.smt2
56918505280192e729c3e1a8dfa4453a thruster_inuse_0388.fof.smt2
bcdc9d8d1c761ceb6df75b17750b78dc thruster_inuse_0389.fof.smt2
1e7cf84256af0c74e614307c9e9a341d thruster_inuse_0390.fof.smt2
f1ee46c3d5741bf4d97ee607efad4ead thruster_inuse_0391.fof.smt2
445f663b1e0ffdfbeda2895d2f22edc1 thruster_inuse_0392.fof.smt2
1a97d9c7b9743a543770f7fa182bbd57 thruster_inuse_0393.fof.smt2
a51004a1d3faa74d3b265151b946b8ec thruster_inuse_0394.fof.smt2
ee0e6691f649c8871a39a198d07c8608 thruster_inuse_0395.fof.smt2
e1f588ac4dc1066778885d222c888518 thruster_inuse_0396.fof.smt2
e6ea4929c5b2775da60b11585bf464ea thruster_inuse_0397.fof.smt2
a2b3de8f792e8f99fb8872e8813cb99e thruster_inuse_0398.fof.smt2
e900659ecbb4b600b22e41bb325d2c19 thruster_inuse_0399.fof.smt2
002c0dd7e57f8a7e60c61daa63994319 thruster_inuse_0400.fof.smt2
144a65332331711b4f470dbacbec012a thruster_inuse_0401.fof.smt2
ffb3abdecb1e9758e5652028b716d10c thruster_inuse_0402.fof.smt2
f3e1d88a6e1ddb8410a31634efd0f428 thruster_inuse_0403.fof.smt2
c6540e5862bc975d32ce9b66f6c03bc5 thruster_inuse_0404.fof.smt2
a72f3f584b06bc0d26dd280205e61a20 thruster_inuse_0405.fof.smt2
f454ee4c2ad08f19b6c743c53e713c9f thruster_inuse_0406.fof.smt2
faa566bd93ea6ae57fb02b00c968b2ba thruster_inuse_0407.fof.smt2
b1ae16d87306bbf82dada06b9d26c771 thruster_inuse_0408.fof.smt2
774aa0a66ddfef5d7693fc5d49f0b912 thruster_inuse_0409.fof.smt2
13fd90b3da677650f667c059a821e1ec thruster_inuse_0410.fof.smt2
3b4d289be5477863e623ce3d32b3656c thruster_inuse_0411.fof.smt2
125894fd4a03cbf086c4064e38f82c86 thruster_inuse_0412.fof.smt2
9de54633d876629fec9f223292dd7f02 thruster_inuse_0413.fof.smt2
6398bf7545d47d68d22f5ad68e20f527 thruster_inuse_0414.fof.smt2
f7788aff751e71bd9b707436d562b411 thruster_inuse_0415.fof.smt2
0d5d7c40c80f3a4f1138cdb36b0d082f thruster_inuse_0416.fof.smt2
e2e6c425d6acb079f64daf0e30219a38 thruster_inuse_0417.fof.smt2
7a243eeff8387c885d0bf92595f4d564 thruster_inuse_0418.fof.smt2
93a3602ef2b35fc1664205d0b6581115 thruster_inuse_0419.fof.smt2
0231cdc614a6ce5d5073cb56830613ab thruster_inuse_0420.fof.smt2
193a3ae16bef4d2d068e57bd2b9983cd thruster_inuse_0421.fof.smt2
aabe06066586e713243f69af262c47b0 thruster_inuse_0422.fof.smt2
92a465456d084c008d6919f685da4ad8 thruster_inuse_0423.fof.smt2
b6a4dc0a663359aec450453795f6a9be thruster_inuse_0424.fof.smt2
6df65dfd57bef565dc23d50013358518 thruster_inuse_0425.fof.smt2
320bf8ef2c163a6e1a23ada004b72dac thruster_inuse_0426.fof.smt2
d4260aa6485d42dd2fd2d30092b12cae thruster_inuse_0427.fof.smt2
92d0f263bac96cb57e416501af245f91 thruster_inuse_0428.fof.smt2
809adeaae4d529a4c3edefad1afdcf48 thruster_inuse_0429.fof.smt2
e1abbd3d553ebdb832e9e2f7aa4a56b9 thruster_inuse_0430.fof.smt2
81793be166e480954ff7b8a430d2a893 thruster_inuse_0431.fof.smt2
5b8b86593ad275713d975918fa89b8f7 thruster_inuse_0432.fof.smt2
a0ede0f1cad067571557960a47757802 thruster_inuse_0433.fof.smt2
30e4c70bad2bef2d5ed8f0cd89b39f30 thruster_inuse_0434.fof.smt2
874920eccb8b7b1531acfd74adab1c75 thruster_inuse_0435.fof.smt2
06b12836171247f602432e1b679183f0 thruster_inuse_0436.fof.smt2
4f304e38fc330f55e333e1019ca32ecd thruster_inuse_0437.fof.smt2
d0d36955b9af524056ac06888c301fbc thruster_inuse_0438.fof.smt2
3fd82ab8904b33e4e38e1cb37b011713 thruster_inuse_0439.fof.smt2
4a95a3bbbcdcd31e77328230de4594e8 thruster_inuse_0440.fof.smt2
45711fddcbd61032504e4e4ced9cbaec thruster_inuse_0441.fof.smt2
8fe19cb5af6aeee63d2654c9862d6a17 thruster_inuse_0442.fof.smt2
0af0f9c645bf60ee117d71db57af42bc thruster_inuse_0443.fof.smt2
1f979cd358f4d8ee77a65b769221c3af thruster_inuse_0444.fof.smt2
7dec1650f04feaa7da01c50e45b1f0ca thruster_inuse_0445.fof.smt2
3120d4627063dfee45cc2f6ade1a6034 thruster_inuse_0446.fof.smt2
62b799ecb0b187bc290652f610164ea7 thruster_inuse_0447.fof.smt2
b2bfc76a4df0a98f70fdae43dd4f50b1 thruster_inuse_0448.fof.smt2
046e39bbf4b6c323d5297d6c969615a2 thruster_inuse_0449.fof.smt2
2a696a32bbaab9d5e60630a06eb4b73e thruster_inuse_0450.fof.smt2
33caca943fa3113231aba871ea1c2426 thruster_inuse_0451.fof.smt2
b532c1240ab3e9b24cac14f126ea11fb thruster_inuse_0452.fof.smt2
d8da0487a42a657f1bff5a7d779d19dd thruster_inuse_0453.fof.smt2
8e121cec231b6ed55eb8f807f583c058 thruster_inuse_0454.fof.smt2
b3746a40efe92408027e9553f9f3fab8 thruster_inuse_0455.fof.smt2
98ff6f8daf2a0b4e9a08b990a78ab32f thruster_inuse_0456.fof.smt2
14286e8b55cc918114c11780a4129aa2 thruster_inuse_0457.fof.smt2
e0583df6ffe5dc2da6a2da93b11c1f81 thruster_inuse_0458.fof.smt2
977bebd7a467a2cca9a794719d7fde48 thruster_inuse_0459.fof.smt2
8511da59427e7d2b653c03b481898252 thruster_inuse_0460.fof.smt2
e3ade7478c766b75caa36380a05b2cb3 thruster_inuse_0461.fof.smt2
405f5c21b08abefabc0f74c9c52083de thruster_inuse_0462.fof.smt2
9cf8f4ff21f1dd6e50ca4a179d5fc6f3 thruster_inuse_0463.fof.smt2
366ee3f89d8782709ff803cc582b2f70 thruster_inuse_0464.fof.smt2
3ee17c0d1d9a8c62ca4214ab3bf4662e thruster_inuse_0465.fof.smt2
8e7b857b7c682435f78bc9d34b16da8d thruster_inuse_0466.fof.smt2
75951be7b9cbc9a8232b0ba00108eb82 thruster_inuse_0467.fof.smt2
f2d147b6f2c68d6cf66bd76021c8719c thruster_inuse_0468.fof.smt2
4ff3a2a56e7d162cb482fcbe26bdad56 thruster_inuse_0469.fof.smt2
8b0ddaafee5bf0d232983b0f8bc14772 thruster_inuse_0470.fof.smt2
95e0eb5e805a9368cadb636af776a988 thruster_inuse_0471.fof.smt2
f7ffacdd3f9c9134175d28566ae451f6 thruster_inuse_0472.fof.smt2
c5d9598914df55fe605732aedfff2205 thruster_inuse_0473.fof.smt2
42d56484023ca37d63a1191226b872a2 thruster_inuse_0474.fof.smt2
4934c8e696b560bbf2728db81e72aa28 thruster_inuse_0475.fof.smt2
296cc87e2f2e4acce59d0e3f99b12014 thruster_inuse_0476.fof.smt2
8caa13007b520625d2c4bec43fa796ce thruster_inuse_0477.fof.smt2
a9d221acb389bad54425ad12e8f02dd9 thruster_inuse_0478.fof.smt2
b9618c9e725cf43b05c7fca73ea3d1e6 thruster_inuse_0479.fof.smt2
d46058607f753da7ee05ef7d112ec1c2 thruster_inuse_0480.fof.smt2
0b8dbd1367fa2f2c81e9abe676606a95 thruster_inuse_0481.fof.smt2
ae9001989aa072489aa644a89d80bda2 thruster_inuse_0482.fof.smt2
e078e94f3b623d2614421955e5c777cd thruster_inuse_0483.fof.smt2
5fda84275f7c1a8ddfd10f04d865f380 thruster_inuse_0484.fof.smt2
e1922915039a23f2c8bd80e9acdd67e6 thruster_inuse_0485.fof.smt2
1fb24b93bdf2a464d43f3f155fd4c720 thruster_inuse_0486.fof.smt2
498e4068d575869dfffec352dda848af thruster_inuse_0487.fof.smt2
5266697b40732c820e16afe7779e10e2 thruster_inuse_0488.fof.smt2
7fa6d40a501a1815488c8efacc690b64 thruster_inuse_0489.fof.smt2
654169d54a220b693b224b76c40f6210 thruster_inuse_0490.fof.smt2
ebb4d31387d8336f8467cbce65a31fb2 thruster_inuse_0491.fof.smt2
a714e3001d49afee2d4fc266730ffbf6 thruster_inuse_0492.fof.smt2
7aa7dbfe610117349d663d0953545e25 thruster_inuse_0493.fof.smt2
3fcaeddf4f2317dbc68e2955b1c2003a thruster_inuse_0494.fof.smt2
a95fb923b8e84d7314cb41df10739d5d thruster_inuse_0495.fof.smt2
c15c5f9b7d2ed5cc09b25259ea0634b0 thruster_inuse_0496.fof.smt2
7b24166ec5c89dd3468b5e8673d56ddc thruster_inuse_0497.fof.smt2
30505c25ca38bcaaea8ce6671339ad85 thruster_inuse_0498.fof.smt2
4645103a854fbbb07cdf5bdb926dced8 thruster_inuse_0499.fof.smt2
15d6c84b6c475fc53d19b2b88d7a124f thruster_inuse_0500.fof.smt2
26e07aca1ba719fcc9bba9aa8a879144 thruster_inuse_0501.fof.smt2
83243444a696db5e160e6b51b30153a2 thruster_inuse_0502.fof.smt2
415ce0cd7157767cebd2d0e4dd43b541 thruster_inuse_0503.fof.smt2
838b82f5fdad869bc1d7621a0aeca415 thruster_inuse_0504.fof.smt2
97ded79e1a72478900d1b44ad397d55d thruster_inuse_0505.fof.smt2
7e0bf2e78414fa4e0e92324bfaa12b17 thruster_inuse_0506.fof.smt2
738498b046e23b389219ff147491d902 thruster_inuse_0507.fof.smt2
72fbb1f3fb711d1b5d7da40e821bb367 thruster_inuse_0508.fof.smt2
0fb89779b508efc2b48c002328e6eecf thruster_inuse_0509.fof.smt2
aa249805cfbd43f9fa468b4e849dabb5 thruster_inuse_0510.fof.smt2
00b8426f6ca0d31fd13f008964650e36 thruster_inuse_0511.fof.smt2
599a5cb9ad9789e75a03836858d265ed thruster_inuse_0512.fof.smt2
0d9dc1a92d5e06c3cc44b02af868f57c thruster_inuse_0513.fof.smt2
a6adc630bfaf3de03b5a4c264fc13207 thruster_inuse_0514.fof.smt2
9207574597e266b8b21dccfdd24faeff thruster_inuse_0515.fof.smt2
cfc258a1f3156de6e4d5fa69650255d9 thruster_inuse_0516.fof.smt2
51da8c656e8d4700f5383ef98df23650 thruster_inuse_0517.fof.smt2
bf01515f6d1242244fb1ed3e5461f19d thruster_inuse_0518.fof.smt2
652b04b706d0f5a93e31ec9b3e42ef03 thruster_inuse_0519.fof.smt2
9f924c63e664e0fa341cb046ab79f520 thruster_inuse_0520.fof.smt2
b6646b41e27023c1af3a046db04f3523 thruster_inuse_0521.fof.smt2
56644aae689a0b22d71956e10a4f3e59 thruster_inuse_0522.fof.smt2
b81d82495e6032d484d73b1d64c82474 thruster_inuse_0523.fof.smt2
ef6623b57be004785959344a6db39b43 thruster_inuse_0524.fof.smt2
04ece72cac7c76dd7783d7ee307886d2 thruster_inuse_0525.fof.smt2
44aefd096838a13cfb0f7968623a37df thruster_inuse_0526.fof.smt2
b70926e09db42ccdd6dc448efbe0da89 thruster_inuse_0527.fof.smt2
b644562538df9c8113e871fa38a5f062 thruster_inuse_0528.fof.smt2
7ee8af9b22b9036ad6a0b817681b5554 thruster_inuse_0529.fof.smt2
136f70fbe4db852e040bce889dfd9bbe thruster_inuse_0530.fof.smt2
54359af00e291c4e4e762ee7951a3032 thruster_inuse_0531.fof.smt2
5f39e0bad1d079ea1f9ba0018f1da8b6 thruster_inuse_0532.fof.smt2
fe9089d28a63d2e02cfa783b680b87b2 thruster_inuse_0533.fof.smt2
5e4dfecd8b6f56f132435e88baebe2f4 thruster_inuse_0534.fof.smt2
d46180eee18fbe752f9ffc0434c65345 thruster_inuse_0535.fof.smt2
187485604898245adea9d06374ab6e78 thruster_inuse_0536.fof.smt2
5760f15509bcddad583f0f376f9c78ad thruster_inuse_0537.fof.smt2
fc6cee1690fe73bc20743c4b22c19942 thruster_inuse_0538.fof.smt2
13b657be7e1af5a23dbd9488c7b7f1f8 thruster_inuse_0539.fof.smt2
fac57802bb4d51088f495f4856d1921a thruster_inuse_0540.fof.smt2
fb15441d502a436f5b28c3e1529695c6 thruster_inuse_0541.fof.smt2
727e88148bf9cde60f15d98d7b1a6d6c thruster_inuse_0542.fof.smt2
dde5a32497437ab2f36847dcc9c6f87f thruster_inuse_0543.fof.smt2
5979169a659c488ffab218df28f7c26d thruster_inuse_0544.fof.smt2
94ba9a039b2e500d6697848c1cc8a5f3 thruster_inuse_0545.fof.smt2
50553c44ab9540d37bb6f8226da582f3 thruster_inuse_0546.fof.smt2
4dcad1b1e77bfa5db96763c4536405bc thruster_inuse_0547.fof.smt2
35631e47778a34539c1829aeddf6e8be thruster_inuse_0548.fof.smt2
26e38cd93e334aaac2ae8fd34a06589e thruster_inuse_0549.fof.smt2
74c0f12d71e824be00522b995723e523 thruster_inuse_0550.fof.smt2
0b0cdfe1bffa9d49374742d1cb1646a0 thruster_inuse_0551.fof.smt2
631958f72a2b36c095e3ec4d3c23bec5 thruster_inuse_0552.fof.smt2
8461567b1f40b9a32e5c681c3af3ef45 thruster_inuse_0553.fof.smt2
224d94d0c011af111df84f9adcc654b9 thruster_inuse_0554.fof.smt2
b355c56365d088d02c7feb525ad9e0a1 thruster_inuse_0555.fof.smt2
541e94acf3e839a09f8133aeea7ea1ef thruster_inuse_0556.fof.smt2
bfcee42aa2f056e9cad7e682d2b313a2 thruster_inuse_0557.fof.smt2
22a2faaf57fbd50262212c690300d769 thruster_inuse_0558.fof.smt2
df9def13f99cc9c477bfa48203d3118b thruster_inuse_0559.fof.smt2
a5da5ed614b8047c8b3539394c9b907b thruster_inuse_0560.fof.smt2
73dc357dc27da9805122b496cd3a749b thruster_inuse_0561.fof.smt2
f87ae8745b5760412b0a102e9da586e8 thruster_inuse_0562.fof.smt2
4f3386c300ce68fb4174c4eaf4278382 thruster_inuse_0563.fof.smt2
8073eddff5f38d7648d45628e2898b0d thruster_inuse_0564.fof.smt2
614c9cfc6dcbbb393a2d8c3b5495ef5d thruster_inuse_0565.fof.smt2
1dd60dbda6dac048346e4ec612f0dfed thruster_inuse_0566.fof.smt2
e7cc1f7be7d0170ac90754ba9bb9e6fa thruster_inuse_0567.fof.smt2
39ab208d586417148038894c862386ea thruster_inuse_0568.fof.smt2
41fc255993a103dc904438d0337ac532 thruster_inuse_0569.fof.smt2
84e721eac5009a3eec67137c06ddc782 thruster_inuse_0570.fof.smt2
88e77204b43d4c04f477924e6d1ccd5b thruster_inuse_0571.fof.smt2
1e3b455efc0afffa7bd2b1c64354eff7 thruster_inuse_0572.fof.smt2
84912012f456e7a08b2c9226bc8cd937 thruster_inuse_0573.fof.smt2
b079de684992b6ac8b5acc83446096bf thruster_inuse_0574.fof.smt2
a3b930bff66fa54f054fb5f5801bb292 thruster_inuse_0575.fof.smt2
2ca448f83c8e052e8321d4a1ad6ce356 thruster_inuse_0576.fof.smt2
1ca2c335409d173d070319e09b558ad0 thruster_inuse_0577.fof.smt2
ea2664aa45c47dd62acab5f0fa3f3231 thruster_inuse_0578.fof.smt2
f40f9663b8b1096b9364b4ac4310939b thruster_inuse_0579.fof.smt2
d5fa19715961e3a02a6afb577c81dab6 thruster_inuse_0580.fof.smt2
8205d7b9de3ead4ebea6957edc0fc1cc thruster_inuse_0581.fof.smt2
53dd487a1527ca7240f92a4f8dfd62b8 thruster_inuse_0582.fof.smt2
79fef7379f166c5d66045caa69805bd9 thruster_inuse_0583.fof.smt2
67b94fae2db0541723c947778d7695b2 thruster_inuse_0584.fof.smt2
2a792bf45540283a0a0c1ccb1aa27fff thruster_inuse_0585.fof.smt2
aec4a49f41f33bf1487e6599eff59f8f thruster_inuse_0586.fof.smt2
c4ca693d39d92faafc5fb8cd901010b6 thruster_inuse_0587.fof.smt2
ecbf6598a72dcb1e62ecce83bce0e357 thruster_inuse_0588.fof.smt2
ed79ba890758911d516ab195e761b9a8 thruster_inuse_0589.fof.smt2
9d3f77eadf71ee018342f64dca6d3557 thruster_inuse_0590.fof.smt2
9d6645b895d3ff5183d5a4babaa68137 thruster_inuse_0591.fof.smt2
f79ca79eba07e0d7d081e6cfa7c59a41 thruster_inuse_0592.fof.smt2
65c7531b9698be720f646a8f56d22242 thruster_inuse_0593.fof.smt2
4f445e327cdce13a047735fbb9c97e62 thruster_inuse_0594.fof.smt2
ebd6f19b9973cb1f028afe2a728f51cf thruster_inuse_0595.fof.smt2
89826f5e7397685bfd4e5a14eab6d9ad thruster_inuse_0596.fof.smt2
35ed08edde80d8db0aa5e7ff72db1e3e thruster_inuse_0597.fof.smt2
f2b8a796bb69dc7dbcdc0a9e94c7c76e thruster_inuse_0598.fof.smt2
aa9b1e5920316a42cf5815dfdbb3cdbb thruster_inuse_0599.fof.smt2
362164c4bfa60e525dbe76746a91dd32 thruster_inuse_0600.fof.smt2
5b0ef7bac13ed6ddd0811772155c1ed7 thruster_inuse_0601.fof.smt2
15816736389b5859bbe9a1db68c45b7b thruster_inuse_0602.fof.smt2
4eafb80bc4a78b12ed1b4360b31d2f13 thruster_inuse_0603.fof.smt2
f480b740f9ac3a91ef542aeca518985a thruster_inuse_0604.fof.smt2
3988a3ed8bd2d783b26e894e9b368ca0 thruster_inuse_0605.fof.smt2
af37be879905d247e28c3ad63dff5ca8 thruster_inuse_0606.fof.smt2
9ee64b61b486ebf088ec3d48dab295c7 thruster_inuse_0607.fof.smt2
11b6424bbafdca909f85b293ab16a7a5 thruster_inuse_0608.fof.smt2
edb1f4c6c16819d0723c2d494438c4da thruster_inuse_0609.fof.smt2
7647dfc9f8f4323e48ded47172bc46ff thruster_inuse_0610.fof.smt2
3128f5cc5f02dfa98e05198e7c0942d4 thruster_inuse_0611.fof.smt2
f45400902f5f049c8273421d8c698d66 thruster_inuse_0612.fof.smt2
8d290fafdc91297d41c75eeac62547a3 thruster_inuse_0613.fof.smt2
029ec8170df6d12ac95031ea6d5924e1 thruster_inuse_0614.fof.smt2
7d4f83459913a4dfcccb53670bcc04cb thruster_inuse_0615.fof.smt2
10d3619b517bb19b2dd2ceb44a464ad0 thruster_inuse_0622.fof.smt2
6437e2ef6b5d5c575c1d21dbcbbde0e8 thruster_inuse_0623.fof.smt2
352f3480575aebf96934237758dc412a thruster_inuse_0624.fof.smt2
77450f4fd1d3cebbdb82b5542fe45092 thruster_inuse_0625.fof.smt2
9af813ac1de7d8efafd46ace29c5db58 thruster_inuse_0626.fof.smt2
5f3626db02dacb9ad4e14f43fa8d5eb1 thruster_inuse_0627.fof.smt2
0c7c8cb545bfa4e20fcf1a7c28f55c1f thruster_inuse_0628.fof.smt2
2e0e2a612911ab6f365ef5a11d2cc648 thruster_inuse_0629.fof.smt2
5094395ba98180d2cad76e7c4011e1c6 thruster_inuse_0630.fof.smt2
3da1b5dd2ba5d3b961ba9aae8fccdca8 thruster_inuse_0643.fof.smt2
4ebbe8c705871d8673b9ca707527e4b1 thruster_inuse_0644.fof.smt2
1768b07a9f9b1d0bdd40e94117253f6d thruster_inuse_0645.fof.smt2
cee79174d50fa743013df8eb521ec971 thruster_inuse_0646.fof.smt2
6f388a8866ca5684ad2bc61ec0fbee42 thruster_inuse_0647.fof.smt2
36ac2a0e99db2cde57fa6786373f4172 thruster_inuse_0648.fof.smt2
4ea66456057ace12100f928d467fb466 thruster_inuse_0649.fof.smt2
bd5b5eb160d8a6ca7ae85e14fe63568f thruster_inuse_0650.fof.smt2
c9576909d952628e699d0267cc8142e1 thruster_inuse_0651.fof.smt2
b49a4ba80407842b15b4cdc8fc6d8297 thruster_inuse_0652.fof.smt2
7b7c0b7307fbb48708bf23e5d6e7f013 thruster_inuse_0653.fof.smt2
ddf032c98a07994fd83a878dd2da7159 thruster_inuse_0654.fof.smt2
573811d0cd1b62cadd71392376d655f8 thruster_inuse_0655.fof.smt2
a63e6eff3ab96774f01371daaf5c975e thruster_symm_0001.fof.smt2
6613ee79840b12a952621d29e403242b thruster_symm_0080.fof.smt2
4a2359f9e14209a1806ccb5b15a311ea thruster_symm_0087.fof.smt2
8e694ee62aa6075dff2cfe3464d3e17c thruster_symm_0108.fof.smt2
2c9e32db75325e5d225c0be865609c29 thruster_symm_0115.fof.smt2
5cdde2cc222579b9466c502fd2a35fb8 thruster_symm_0136.fof.smt2
a958df60ae58d081ff90c1ac18d7f2d3 thruster_symm_0143.fof.smt2
96d21312d5bb6b3c5549156862639fd4 thruster_symm_0164.fof.smt2
df6dd98f1c7ef7a108126130faf467ba thruster_symm_0171.fof.smt2
