b3665ff9023d4b39ae591aff6463b026 prp-0-48.smt2
8a0efd395a0133cad5a72f80df1f8068 prp-0-49.smt2
4bb7750c286d47e51e21f2a81363c5d8 prp-0-50.smt2
1b550ab45515a9827ec56152828995f6 prp-1-48.smt2
fe6e227e69aa2774c71f0c0f69594fea prp-1-49.smt2
0d692919992eb3a703c7c7d99aab50d1 prp-1-50.smt2
