b02b64433f6156269da6444d8ce97da9 servers_slapd_a_vc149570.smt2
2b2d9df74e9b914eb8f3f9f243a0f09d servers_slapd_a_vc149571.smt2
4ea1e0cce28eb6f8a0ed682e1d706c2c servers_slapd_a_vc149572.smt2
82eaa2e0b0dd92c365ec67b8815084dd servers_slapd_a_vc149787.smt2
d9c030ab4ef6e7d9766d70f052b054fd servers_slapd_a_vc149789.smt2
0307b7e4fcab0bb0623d11884d7479cc servers_slapd_a_vc149921.smt2
70f79a52c0fb369cd437fb5caaf79979 servers_slapd_a_vc149922.smt2
c655f5772a838ff63a31c8e5cc0fa985 servers_slapd_a_vc149923.smt2
