797e0d58b0b11c391a8ed206a11eb41a problem_2__001.smt2
bdff9898a834d935eb8eb3165afe37ae problem_2__002.smt2
d40052738682cacd973d83f84aae6586 problem_2__003.smt2
6134aabc04082eecf75f780078bb0264 problem_2__004.smt2
76cebd1de62ee48bde746f450cc18213 problem_2__005.smt2
e6fab6d15049cd26847357e455ad1576 problem_2__006.smt2
52503411c836fbb9e06b583f750c949f problem_2__007.smt2
93b97ac836eb3cfe5c92c5403e8616ba problem_2__008.smt2
50413645e2556c5a9ecabb175bad3d71 problem_2__009.smt2
99af40d26d77cedeccb4bc00e004cf34 problem_2__010.smt2
8eed28f26e68eaa5c4fd208a69fdd5c4 problem_2__011.smt2
e51f86414eceff23a86716847f3f6641 problem_2__012.smt2
70704818fb173b22e23d09f878cb3a65 problem_2__013.smt2
6279efa12258ce6f2ddd96920ddd6208 problem_2__014.smt2
f43e43f1db701dfd4b081eb3c7086ef2 problem_2__015.smt2
e2aec10b5d0b751015b1c9aa539f2f68 problem_2__016.smt2
795345dad97162c52c700e2722232a23 problem_2__017.smt2
2f1e86cfb648e58535388ae09291201f problem_2__018.smt2
99b152b767ef2813c1247f3367f1a0f4 problem_2__019.smt2
7b90b9f6bdd963713802f132d0fe10a9 problem_2__020.smt2
cb90c701b47830c5beb5d6b6ece0fbff problem_2__021.smt2
8044e04781542c911c8997c20d111118 problem_2__022.smt2
340696e9ffe3df23f90c28581baeb712 problem_2__023.smt2
3119c5be6c1c181c9f32b17019d080bf problem_2__024.smt2
517ca84a08d9a9b5a1b21098e06eb045 problem_2__025.smt2
f89fb3f49731058ff69bd4b29e594179 problem_2__026.smt2
f36ed74f6e49bd1d0196888030204922 problem_2__027.smt2
b4d5967d375d4b19e0c1a5d4fa729449 problem_2__028.smt2
10a8a4677dc37c6320779cd05ff0c97e problem_2__029.smt2
43a8b7d6c80a3aa95ad0b92a8cd96c0f problem_2__030.smt2
280f649c8d0c76dc1a7664fad6a931d2 problem_2__031.smt2
bdbe3cccf06c378d9bcabdd0d3e8afa4 problem_2__032.smt2
37637f0a84ad373277bc0e260e167f33 problem_2__033.smt2
65180f3a49c546722316ae92deebdb2e problem_2__034.smt2
fc07af94f72ab01b3e0e0bfb45e1bb78 problem_2__035.smt2
8942ba4597594e10c3f2c2a8a95225ed problem__001.smt2
3d1dda373da760ef71ccab5efb63993c problem__002.smt2
888dfff50f3d2e255323f102ef9c8ffc problem__003.smt2
0e387f57253d5c663bd264786d4a2f20 problem__004.smt2
2c5d6fdbb9fbc56ad987ef3eb4c2e34b problem__005.smt2
bb6198bfa97bc7d51275948c0651a405 problem__006.smt2
aa8efa5f40341d13ca84548feac1be1d problem__007.smt2
fb2edb962a6227c4782e449d0b0b64e9 problem__008.smt2
db107211e5ba44681226edd6795a9996 problem__009.smt2
f9aefda2e6e15a64acec281ae92bf065 problem__010.smt2
167c9baec71f97a2df93c06f0069d81e problem__011.smt2
6575cbc94aa1055963727e4d0e660fff problem__012.smt2
508c00f9e9df459227b3ab5d47988869 problem__013.smt2
b720653f8e9a65e03a923492cda9534e problem__014.smt2
2f0e16867791a8c22e57c97fea3d87e6 problem__015.smt2
653ec6c70583f683cd9f48564b0a3fce problem__016.smt2
d9a48e506fc1bca09f97b500bb8db6b8 problem__017.smt2
a02cc2c014c6b54dba20eba035e41176 problem__018.smt2
69094cdf9d03dffc4e39ec92713195a5 problem__019.smt2
5a5186a219247923170d6104502ac982 problem__020.smt2
61ebbbb3c31272c8a2f64fb65f67a4a8 problem__021.smt2
06d3f3a4a5692b138e4f9af62a43dfcf problem__022.smt2
be21110393cf039514f82fcc86746ec4 problem__023.smt2
5602a799eb235ee522cec7adb9ad7c62 problem__024.smt2
a0c4c024b520f138292c7870422b3f19 problem__025.smt2
eb46449f590fc0bfb40a24f7f2a19d72 problem__026.smt2
ff98d0d7b835e196f9a87e6192a2cf9d problem__027.smt2
69f1360666d4fc757f34ed34d8851884 problem__028.smt2
d5930b04c1866bf1379269284b645b04 problem__029.smt2
81a5add3398083e0c58561c91d603a8e problem__030.smt2
b1833f74fe36c5ef7bb893146bf3ea86 problem__031.smt2
3963a408271475071a1f980a47e8ec60 problem__032.smt2
54bde4a2f5a892265d7132de78ebf133 problem__033.smt2
bc934b0caf727f826cd96209d8f89ac9 problem__034.smt2
1c2ddd429d46c096411b3d5e16083839 problem__035.smt2
