03bb7d4a226a0695c06c43c648fd762b _6countern.ind_k100.smt2
c7bc1b8ec23015d0ce080cce6620cd29 cd.bmc_k100.smt2
1ff2775697a7df27abb78822ad0a44f1 DRAGON_all.bmc_k100.smt2
89988b7320167f2d195eea9c80c29923 DRAGON_all2.ind_k100.smt2
1d65e02aa0852bc0914e9c218d79f3fb durationThm_1.ind_k100.smt2
9bfb72351490e81a5e51e11a5fc3407d ex3.bmc_k100.smt2
610f5ded3fccd2aff730fa55ba310603 FIREFLY_rt.bmc_k100.smt2
b3f3d75418b6fef52f81636a8f663651 FIREFLY_rt.ind_k100.smt2
f6fc76f41e4bccf07612f48eb1f5449f hysteresis_all.bmc_k100.smt2
a59ae486ca0e9500d67790633c9eb258 ILLINOIS_all.bmc_k100.smt2
729642e68be0058e24f42f13b12dd4c3 MESI_all.bmc_k100.smt2
b5b1584bb9f976c844837721f1909abe MESI_all.ind_k100.smt2
4979a2617c60c62a1a79f17198aa999c metros_1.bmc_k100.smt2
43dce663ed54c5f197b544f44491fb11 PRODUCER_CONSUMER_all.ind_k100.smt2
0e1588e5d266e91bd01d68cc2f20a61e PRODUCER_CONSUMER_vt.ind_k100.smt2
165305454de63016670f11eb2d6256c6 rtp_all.ind_k100.smt2
404c9322d253c191f08b57a51c132f72 rtp_vt.bmc_k100.smt2
d847750c6e7527fde37c96e9924125ec speed2.ind_k100.smt2
7cf540c91125808674e5d3a411428430 swimmingpool_1.ind_k100.smt2
19bc2f0e73945f2025862dcd0eb12de9 SYNAPSE_all.bmc_k100.smt2
94f9891f6da03b7ccdf5df83e4c291f1 SYNAPSE_all.ind_k100.smt2
69f0277febb31d413fafd47875dd680a SYNAPSE_i1.bmc_k100.smt2
7974ca4ae24e7f9770b86299bbcf5366 traffic.bmc_k100.smt2
bc34b09ef7ea2358e1b9007510722aea two_counters.bmc_k100.smt2
ba090ff750b4e3894ffd1d22fef3e71e two_counters.ind_k100.smt2
