6adb61b51b30e6bc072a0267ec6aeacc addauthcert-1.smt2
0491c881fe17ee59141ef3fdea5975df addauthcert-10.smt2
b849099db2eb8c5e0d02e8bd861ab2ee addauthcert-11.smt2
5bba4cc77059868c3891c470d2fc640b addauthcert-12.smt2
dae392366dd1cc053c3fac55579209e9 addauthcert-13.smt2
07d644d14d8c92c8adf7d22b8226a004 addauthcert-14.smt2
befe9d06a7d245293ae8deb4696b1c1e addauthcert-15.smt2
9473012336bd0a70aba8aae71d94cf11 addauthcert-16.smt2
d17dbb308b23168918050b621340c9b2 addauthcert-17.smt2
e392d9ba5217ceff0a7471d074106226 addauthcert-18.smt2
63b80009b6f0dcbea28ba88edb7a4eec addauthcert-19.smt2
43c217ea940ccc83d31e1b647a8cb783 addauthcert-2.smt2
2d5546f2a66f9028aaca7ef43dd117af addauthcert-20.smt2
dd3d79cdf2a34bef4611b94844485a4f addauthcert-21.smt2
12227e090c5dfd9b31397f17d26d8a9f addauthcert-22.smt2
e4911f1ad8030a25d2f93c4f92f85e34 addauthcert-23.smt2
62cc88115ee22cf0f5fd0316f3dfc8e7 addauthcert-24.smt2
872eb5b47e2a1750ac1d35fc6f8186f0 addauthcert-25.smt2
25298c2d16a17c287dbc09015687ca27 addauthcert-26.smt2
9169039d028d673f429612b8285579d4 addauthcert-3.smt2
722252ba02b7fb4a54edb0a61262caa6 addauthcert-35.smt2
812e57f4fe199b2bfdff32d52d15d0b2 addauthcert-4.smt2
6edc48777c4adf641e90168c6a830b7a addauthcert-5.smt2
601a50f485b131b5510fc82c93b72f44 addauthcert-6.smt2
8d8d4d0f4494e878a41b5b9a99dcae99 addauthcert-7.smt2
8f2203ea30192228ac5bab31eebee5a9 addauthcert-8.smt2
afd725a09cbbe237a653cf4cbc1cedd7 addauthcert-9.smt2
2be60f8eb2627ff4ba8402ea083caa59 clear-1.smt2
8648b6618143d10a9fb37bcec35a6111 clear-2.smt2
2d86f592ae663603bb9502dd581042fc clear-3.smt2
891ae78dca041fd6e50824a1c1a4b57b clearidcert-1.smt2
8f6a36344000c1097eb95294ad04fc79 getclass-1.smt2
21de368e9c3c8dc6d654bdfa92591dc7 poll-1.smt2
899967b79ab58fb2d3a3c859b60b0b84 poll-2.smt2
a4b3bc3421a3a69646fe6f5f6a046d39 readandcheck-1.smt2
fa5aa3017502e76aae85feda863d4480 readandcheck-2.smt2
9cee1ef8204a2cb558f5816310c75037 readandcheckauthcert-1.smt2
276d0067818804f81506203b561f646b readandcheckauthcert-2.smt2
6529bf911e4ea4889a1c1f51dd051aa6 readandcheckauthcert-3.smt2
042c092b8f67036a4f217bc99a89627f readandcheckauthcert-4.smt2
