10a73234542c0b6900fe322d73648269 query.00.smt2
9b17ca9891f73a840a1c92c275efd616 query.01.smt2
bd7af203cadfb1fd627c42d3aa1fd96b query.02.smt2
0e7b066c0ec44569e66eb2cf98dd2720 query.03.smt2
57056f6b336a0f6b8d0203e9e834008f query.04.smt2
8b057cccc6ed9b931cc304be63684e31 query.05.smt2
9e768342bcd6dac8ee36e49a10ea8344 query.06.smt2
58a021f19e80fe9adcdd07de0e48b36b query.07.smt2
df8581621ed11eab8679fa4e1e8671aa query.08.smt2
16b6999d1c595b99c52c0fd88b78238a query.09.smt2
9273e937504e371444c9d9663326a613 query.10.smt2
0d40f207e980fa91c4d408d5c6ecab62 query.11.smt2
a366445a2d76c4544c7fde7586097ce3 query.13.smt2
324283c2f3e2f9d14fac0acba9b0064e query.24.smt2
