21ba3837d40c74a2e5fde902dbb34f54 cl5_nebula_norm_0004.fof.smt2
38d005ec59b4c7e91238b40f9080a4f2 cl5_nebula_norm_0005.fof.smt2
e8f9dd98210484936c0c0bc5a7ea25b0 cl5_nebula_norm_0006.fof.smt2
7c8417c7b7323e534bbb2227779151ef cl5_nebula_norm_0007.fof.smt2
a1dd644bb9bc8c497e839d0a7b8ed382 cl5_nebula_norm_0008.fof.smt2
f0337f222473b630405d8eec11d63ced cl5_nebula_norm_0009.fof.smt2
339675a2b6398a199c34a7b62766419e cl5_nebula_norm_0010.fof.smt2
f42dc2183245f46f702c5e71f01aea2e cl5_nebula_norm_0011.fof.smt2
3afa0f541a7333e5e9fea6dfa8cf1228 cl5_nebula_norm_0012.fof.smt2
0c414b8185a9d90e3533f4a0a6cc041c cl5_nebula_norm_0013.fof.smt2
c91473f1b09f16acbc0be45083b385ed cl5_nebula_norm_0014.fof.smt2
a1bf3d9ae371dea0a3acc588cc2cf008 cl5_nebula_norm_0015.fof.smt2
2ed9a935934175eb31930a82fc2e3f11 cl5_nebula_norm_0016.fof.smt2
fa463f9b6506e87213c73726bac9bf8f cl5_nebula_norm_0017.fof.smt2
82c4e9b0dc225483899410ad5b53945d cl5_nebula_norm_0018.fof.smt2
10d0b0ff530399dd3366012807bfac2a cl5_nebula_norm_0019.fof.smt2
77e756c9c2f547409ec84a3fc9726925 cl5_nebula_norm_0020.fof.smt2
79926ef4c3f252c286e7d10db436b294 cl5_nebula_norm_0021.fof.smt2
9ee0638063a5561d21202a587699009c cl5_nebula_norm_0022.fof.smt2
9089a88e8b5a5bc4611e7b6d6c213709 cl5_nebula_norm_0030.fof.smt2
bc49f64129f84fb3396337e3b7c8a50a cl5_nebula_norm_0031.fof.smt2
29dd556e1f1aada876fa563ccd4963a7 cl5_nebula_norm_0032.fof.smt2
58fff4634d641573dab2b894b340131c cl5_nebula_norm_0033.fof.smt2
1efbe04cd590b49a2a87f14988dd8b40 cl5_nebula_norm_0034.fof.smt2
57bd74ad760461f8524e440a80931807 cl5_nebula_norm_0035.fof.smt2
647fbc3965075c4d7d8235c88fec8e4f cl5_nebula_norm_0036.fof.smt2
602115dd287b2539a120e505eee988c1 cl5_nebula_norm_0037.fof.smt2
8a034be12dcaefc795d46d3f841d009c cl5_nebula_norm_0038.fof.smt2
f756bc6af48b11d94dd998a3ab4bdc3d cl5_nebula_norm_0039.fof.smt2
7d2dae94f5926cde4a9df05dce7479a8 cl5_nebula_norm_0040.fof.smt2
91bf614a75e3a8aba3430fd51be1b4ce cl5_nebula_norm_0041.fof.smt2
4ae609e07ececaef846c7d73c5cf7ad9 cl5_nebula_norm_0042.fof.smt2
1b361312441c7493962a1dd4e007db46 cl5_nebula_norm_0043.fof.smt2
6f93de9fcafe1ac8980977678ea686f2 cl5_nebula_norm_0044.fof.smt2
16537916a8d370fd69a0ec35a0606f92 cl5_nebula_norm_0045.fof.smt2
8c296dc46db20560491e85b640a63a91 cl5_nebula_norm_0046.fof.smt2
432f0c742440868e04dcc07a66244438 cl5_nebula_norm_0047.fof.smt2
4754f6c00a7d9b5a3a69819c2a593417 cl5_nebula_norm_0048.fof.smt2
0a1fc102ced92dafd2e1492bd2db01e1 cl5_nebula_norm_0049.fof.smt2
1e4459caa80cd019461a5c3e1cec9807 cl5_nebula_norm_0050.fof.smt2
f2708d259ed46cc3c4b445b3a78e1af1 cl5_nebula_norm_0051.fof.smt2
7a4113dd553f9fccc1efd4c7718d94cf cl5_nebula_norm_0052.fof.smt2
d19974b4e4e9416f989cda236400a091 cl5_nebula_norm_0063.fof.smt2
3a49b3c8569b5c392865373a746cd5bd cl5_nebula_norm_0064.fof.smt2
d8c26b1d61fe01ac845114e453c2e945 cl5_nebula_norm_0065.fof.smt2
d48acd23883be52985a8006ca88e7e52 cl5_nebula_norm_0066.fof.smt2
22cee931039ee9d23ef3d7dcef48dbc1 cl5_nebula_norm_0067.fof.smt2
3fa6ec9c1b245a0829c9435ffdf6d44f cl5_nebula_norm_0068.fof.smt2
70a6e92b8bcebe6748d510b2d0c8a2e9 cl5_nebula_norm_0069.fof.smt2
e67005b4fae458cbaf66d820d13a2f76 cl5_nebula_norm_0070.fof.smt2
46e4686a83f43a6af30587f90715d458 cl5_nebula_norm_0071.fof.smt2
9864ad68368ea5477ce9ee7bacfcd7e5 cl5_nebula_norm_0072.fof.smt2
d0fe520646485f3d3eec1bc022c4edee cl5_nebula_norm_0073.fof.smt2
84cd393200cc72b04728929d6a21a153 cl5_nebula_norm_0074.fof.smt2
b2bcdf2859785f631844bb0a7336872f cl5_nebula_norm_0075.fof.smt2
984eb4f3b49451fe3044bc9efbc321da cl5_nebula_norm_0076.fof.smt2
e1e348f4f1ca0bbe42406f196f7b985e cl5_nebula_norm_0077.fof.smt2
6802e447d400e7f4e93586a1e0c745a2 cl5_nebula_norm_0078.fof.smt2
8bde171035b3547c7de985389239b991 cl5_nebula_norm_0079.fof.smt2
e4676b1420491951226175b3ffd796fc cl5_nebula_norm_0080.fof.smt2
621dc09e2f1fff57a1d4d3e717da378e cl5_nebula_norm_0081.fof.smt2
f7921d7bf7897e5d2611aec90a234cab cl5_nebula_norm_0099.fof.smt2
50310c3777a07ea692d5b1912419ec40 cl5_nebula_norm_0100.fof.smt2
b945ef724514b37890f9153408e20ad1 cl5_nebula_norm_0101.fof.smt2
b788304b3cc9184cf7fb4b72c0d2f4b1 cl5_nebula_norm_0102.fof.smt2
5cc270f0826b9c1497c1d999918f5f6a cl5_nebula_norm_0103.fof.smt2
8d2e4376a91f2da78351c3b64bd6db3f cl5_nebula_norm_0104.fof.smt2
e7fb1ba11758eb14e123c5afe5a32552 cl5_nebula_norm_0105.fof.smt2
d6d81c1bf4449510e39bd9695036c5ff cl5_nebula_norm_0106.fof.smt2
dc7abaab4237b759621cc76a5c4f7473 cl5_nebula_norm_0107.fof.smt2
646f9d1446cc854d3cfd715007dda9a3 cl5_nebula_norm_0108.fof.smt2
ee4f9c8e493f1eb40b4529266508c9c3 cl5_nebula_norm_0109.fof.smt2
5fe7fd2c27d6d1d6d4746c2041645931 cl5_nebula_norm_0110.fof.smt2
6609c0918c60c0f2d8970cf755ac0611 cl5_nebula_norm_0111.fof.smt2
92d816679bac79302680952b798d3a09 cl5_nebula_norm_0112.fof.smt2
c1d5b93a485602b02f1bf2a8b71fccef cl5_nebula_norm_0120.fof.smt2
78eccca8881b33ed051ea790718b172e cl5_nebula_norm_0121.fof.smt2
8cf980f049cb146b1f70dd75ea57e43d cl5_nebula_norm_0122.fof.smt2
818be041aea9b26b8e0e8609a8aa8d94 cl5_nebula_norm_0123.fof.smt2
1deda9c34b636a056c28f6e09b8e0ba2 cl5_nebula_norm_0126.fof.smt2
50f4e00f229bb16ba0b042b9946c4b06 cl5_nebula_norm_0128.fof.smt2
0aceed0718866bbd75252ab4efa02619 cl5_nebula_norm_0129.fof.smt2
89c7c3f64b89d0fb2bee30b0a1fdbb92 cl5_nebula_norm_0130.fof.smt2
acf53b8b6bbcc1cfbd2d91bd239cb0ca cl5_nebula_norm_0131.fof.smt2
98e0d59898bd1c8c635d9ec996499b44 cl5_nebula_norm_0134.fof.smt2
58b0be370579831290608cb27e2e36d0 quaternion_ds1_symm_0001.fof.smt2
5d932c27614413dce522a50f1b997b36 quaternion_ds1_symm_0002.fof.smt2
559dfe69735b992b635294233ff315e4 quaternion_ds1_symm_0003.fof.smt2
b41e62ef02cd783c5851878e31d523a9 quaternion_ds1_symm_0004.fof.smt2
28de81e18fded1a3a42668bad8c1e6d4 quaternion_ds1_symm_0005.fof.smt2
8b768db38437c83b498fbc62bd143fe4 quaternion_ds1_symm_0006.fof.smt2
8479654f65389fdc0c88b062258a43a0 quaternion_ds1_symm_0007.fof.smt2
1a548ea320b97a5025a7756dd1e47d82 quaternion_ds1_symm_0008.fof.smt2
a411066942ac1822b56bf6eb020ca334 quaternion_ds1_symm_0009.fof.smt2
04e3fada49cccb0f62e9f256d859d81d quaternion_ds1_symm_0010.fof.smt2
a6cef94f0d08b00e0020780c6d900ecf quaternion_ds1_symm_0011.fof.smt2
eecf0cef82e72d4e939a438e8acbff7e quaternion_ds1_symm_0012.fof.smt2
510528fb2842c74e56fd8f02c71bc2e5 quaternion_ds1_symm_0013.fof.smt2
a5b5d97964e97d930aa3af506f611e53 quaternion_ds1_symm_0014.fof.smt2
a7159359a329d89178285301f7987d30 quaternion_ds1_symm_0015.fof.smt2
01cae0c5ee2a5f969d62fd82a360eecb quaternion_ds1_symm_0016.fof.smt2
5b809f25e035580f6a3f0875e70bf044 quaternion_ds1_symm_0017.fof.smt2
62b6389ef942eacdfdefe47562a07262 quaternion_ds1_symm_0018.fof.smt2
9bdecef33c6190424e6334c80421e426 quaternion_ds1_symm_0019.fof.smt2
b12786a6a82e3c054ef462fa224e33ea quaternion_ds1_symm_0020.fof.smt2
918289512bdd44957c433f6597518b0c quaternion_ds1_symm_0021.fof.smt2
1f005ee39e348fb1bbb7572a898e4beb quaternion_ds1_symm_0022.fof.smt2
948a3204d29a8e3b5ce25204835ff731 quaternion_ds1_symm_0023.fof.smt2
45b282040e2672bd462423c2f5c5f3db quaternion_ds1_symm_0024.fof.smt2
53f56e646da7a9ef2c352cfb1046137a quaternion_ds1_symm_0025.fof.smt2
1251aafd319bd12f0fd5997147de0e2a quaternion_ds1_symm_0026.fof.smt2
63104c52c7f8ca754db3510761377838 quaternion_ds1_symm_0027.fof.smt2
36554841af8d1a9404f231ff50fcba12 quaternion_ds1_symm_0028.fof.smt2
6bbf8663e1b1607235e98edc5cbe539f quaternion_ds1_symm_0029.fof.smt2
aa364dd72e32a8aac97312813b621594 quaternion_ds1_symm_0030.fof.smt2
79db8da672e9b16b0fa44109724692e6 quaternion_ds1_symm_0031.fof.smt2
0f8215c623797eca640b1231d1a506f7 quaternion_ds1_symm_0032.fof.smt2
b2f0ac904b3dc66806b97b14d36c996c quaternion_ds1_symm_0033.fof.smt2
0a2cdbe72d55d56f2cdb0a8d7a0399b8 quaternion_ds1_symm_0034.fof.smt2
c56473eccffa594e0935e1e643025528 quaternion_ds1_symm_0035.fof.smt2
05d483316295592228920b8d2d03f9c8 quaternion_ds1_symm_0036.fof.smt2
b637fa136acfb070f008749bb265cc9d quaternion_ds1_symm_0037.fof.smt2
df948f10fd81a215db9f718727b2f22c quaternion_ds1_symm_0038.fof.smt2
0f998ac8db612e7d1de7d9b4bc3cbb36 quaternion_ds1_symm_0045.fof.smt2
5aee30d509db2a715e7fdcbc9b3e2e05 quaternion_ds1_symm_0052.fof.smt2
43f3278815e36198aafd6e4fc20f510c quaternion_ds1_symm_0059.fof.smt2
6ecbe05d95b018356a4b1510b288c748 quaternion_ds1_symm_0066.fof.smt2
5b659e22ba85c3db626071f2ebd1cdcd quaternion_ds1_symm_0073.fof.smt2
ed8c247511b517467bae67b6719485c4 quaternion_ds1_symm_0075.fof.smt2
0666a926854984e57f5f4ed8c7faa06e quaternion_ds1_symm_0082.fof.smt2
6df601e3daf4dea490725a763234e54b quaternion_ds1_symm_0089.fof.smt2
7bac9d9a93355e803569cd25cc7de948 quaternion_ds1_symm_0096.fof.smt2
8e45cd5f59722856a6dfa1cc193e3573 quaternion_ds1_symm_0103.fof.smt2
2606b604e47976ae81bb4c9983a1d936 quaternion_ds1_symm_0110.fof.smt2
d4208ec3a52278262739eef9c36e2fd6 quaternion_ds1_symm_0112.fof.smt2
93d35ddb6dfd8f4e63e1bf4309c9c0ab quaternion_ds1_symm_0119.fof.smt2
4f38a35f21ebb6ba56cde6a0f8c20cb8 quaternion_ds1_symm_0126.fof.smt2
9f7e5788fb54b619f3ba5eafa4bcc8a9 quaternion_ds1_symm_0133.fof.smt2
755dbc404b62333876f17e072cc60e22 quaternion_ds1_symm_0140.fof.smt2
b4b3c7e27c946e14c2a1966bce754eff quaternion_ds1_symm_0147.fof.smt2
6ec75a681d47fb8b90a0b28aa70b92e4 quaternion_ds1_symm_0149.fof.smt2
35622a09deaad79837c81e5c4357659c quaternion_ds1_symm_0156.fof.smt2
3274cad2c88b28567b07b546a2708b28 quaternion_ds1_symm_0163.fof.smt2
7c2bda3d8e391b41843a9f7b309bbbd5 quaternion_ds1_symm_0170.fof.smt2
1d467695f10f9fbda83b7ff2c8586bbb quaternion_ds1_symm_0177.fof.smt2
9194c4fe8c9ab36ccd39df9bbd7045df quaternion_ds1_symm_0184.fof.smt2
4ae1c6e08dcad88ea0d7c8368f99bedc quaternion_ds1_symm_0186.fof.smt2
16023b88e91b6851fbefa9348a3dcd53 quaternion_ds1_symm_0193.fof.smt2
90f4819fa080ed35e734bd792e8b97f5 quaternion_ds1_symm_0200.fof.smt2
9a48da03dc3c326e91dd2f7364e4beb3 quaternion_ds1_symm_0207.fof.smt2
53b361c3cf8340718771a6454a602912 quaternion_ds1_symm_0214.fof.smt2
1254f8e9b222a1ad7aaa71b64a5004b9 quaternion_ds1_symm_0221.fof.smt2
c2e944b2119707fcb41811abd273f40e quaternion_ds1_symm_0223.fof.smt2
7140df67a9a186c9b476900211aa0fe6 quaternion_ds1_symm_0230.fof.smt2
4e19e3290807f683c29f0de144a9278f quaternion_ds1_symm_0237.fof.smt2
ef85fb52afa159c06a75b3d6b891bf46 quaternion_ds1_symm_0244.fof.smt2
7a9a9dbfaa632b204db48fd8adb6f40f quaternion_ds1_symm_0251.fof.smt2
319cd6e4799b1e02e37578c02dec917a quaternion_ds1_symm_0258.fof.smt2
00b62f2b44b03c8f901e62c90c1f9b1e quaternion_ds1_symm_0260.fof.smt2
0e9361a1e970443664f98dad62d51e74 quaternion_ds1_symm_0261.fof.smt2
c72f538896258ee786a23e7cfa9cd90a quaternion_ds1_symm_0262.fof.smt2
90370c792b96449e6496d833b37df858 quaternion_ds1_symm_0263.fof.smt2
70177e4dc2c0dbbcfa01f3f9e03106dd quaternion_ds1_symm_0264.fof.smt2
740ab358b5703e200b70772fede1761d quaternion_ds1_symm_0265.fof.smt2
27d025ba19b052e40d271fa38cdcac4d quaternion_ds1_symm_0266.fof.smt2
f7d0926e6818a856bdd0ae74d7680b89 quaternion_ds1_symm_0267.fof.smt2
d6a46f1b17b153af7e3c18e5f7ab1030 quaternion_ds1_symm_0268.fof.smt2
b6266ad5640b2c30b094c86c5e7fdf82 quaternion_ds1_symm_0269.fof.smt2
113afae1948fb08737d5f2442375e46f quaternion_ds1_symm_0270.fof.smt2
e726ff61ce6ed519b13d9713b90fe728 quaternion_ds1_symm_0271.fof.smt2
e14957f7566318b99752add5ae31adfa quaternion_ds1_symm_0272.fof.smt2
c07e437dcc234948d70b1bec5448f4c1 quaternion_ds1_symm_0273.fof.smt2
76d96b0177bc43c164d33182b9598a98 quaternion_ds1_symm_0274.fof.smt2
d0e1694519dc37b701265b039257103f quaternion_ds1_symm_0275.fof.smt2
1c3a1a75645af8851b0796767f6c3b7f quaternion_ds1_symm_0276.fof.smt2
a594e1e05a4c4e20821a6a2440e6cfb6 quaternion_ds1_symm_0277.fof.smt2
4fdb7a6f637ac66df5ef54e19d2b8b89 quaternion_ds1_symm_0278.fof.smt2
9387c1c36f4aeedbbc1715778d84c57c quaternion_ds1_symm_0279.fof.smt2
3d5349a1cc2f74e4e96b388d049ae1dc quaternion_ds1_symm_0280.fof.smt2
e0d84769225cc56c6d71f764018c8152 quaternion_ds1_symm_0281.fof.smt2
52fc3db03f41755ce2ec982b441493be quaternion_ds1_symm_0282.fof.smt2
2a6bbb7ac3f4116b5a992a8a9befa1c0 quaternion_ds1_symm_0283.fof.smt2
86d893c8d9ab3ac98f4abfc18fe3f6df quaternion_ds1_symm_0284.fof.smt2
7af60d670546c99a19420b4f9f2ee2c7 quaternion_ds1_symm_0285.fof.smt2
f913d7844f8789ea64c7d062db98dce8 quaternion_ds1_symm_0286.fof.smt2
9976bad16640786dbad5d4888e223757 quaternion_ds1_symm_0287.fof.smt2
a24e6e509a82d4e2f070907c57845950 quaternion_ds1_symm_0288.fof.smt2
24ea2679e58c2835c76e019725017552 quaternion_ds1_symm_0289.fof.smt2
2cf1a5ba588b5ab58dbab67a120abeee quaternion_ds1_symm_0290.fof.smt2
4c03a6a77381be9cbe78c5a6d9565568 quaternion_ds1_symm_0291.fof.smt2
704e6cd9bb78a455f259717d555a705f quaternion_ds1_symm_0292.fof.smt2
4649d710668882c1759ca9016c25f4da quaternion_ds1_symm_0293.fof.smt2
1f897fb76f8cdd7577800a5cb79789d0 quaternion_ds1_symm_0294.fof.smt2
bedb892a70db934b8100e386c2e821b6 quaternion_ds1_symm_0295.fof.smt2
311318b7762012af3cacedc36e605b96 quaternion_ds1_symm_0296.fof.smt2
30ba1efca643fb0f74fa62fad9b3f0cb quaternion_ds1_symm_0297.fof.smt2
54c3804425ae054a81f79ebe35363e38 quaternion_ds1_symm_0304.fof.smt2
0ecd43581eaf5532584e4acfe8c05dad quaternion_ds1_symm_0311.fof.smt2
90e59849a3dd5ec0d3b6328633a82f21 quaternion_ds1_symm_0318.fof.smt2
eed153f7145183cd5158944747133380 quaternion_ds1_symm_0325.fof.smt2
f1d93b436bb10caf9d2af843ddf719c9 quaternion_ds1_symm_0332.fof.smt2
bed298ffecea1a3f21585eeceecef370 quaternion_ds1_symm_0334.fof.smt2
48f955cb900b434f6d5cac12d084bd75 quaternion_ds1_symm_0341.fof.smt2
15753675d208dcf04e989adc14688167 quaternion_ds1_symm_0348.fof.smt2
d2d74b5ea020bf8989ac79281a014b8c quaternion_ds1_symm_0355.fof.smt2
77489de5bef4619741037c2c0a5e979b quaternion_ds1_symm_0362.fof.smt2
cf28938751e0b169243ca0a30da41114 quaternion_ds1_symm_0369.fof.smt2
056b34e68db81c0c3b372217872e71b9 quaternion_ds1_symm_0371.fof.smt2
d167c75699a0369a295d90c8dba9acda quaternion_ds1_symm_0378.fof.smt2
fd40705fb4806d705ea4eadf872b933b quaternion_ds1_symm_0385.fof.smt2
ffb4d25db4fd4eb29228255014698a2d quaternion_ds1_symm_0392.fof.smt2
a3d88dfbe60cb91701d850967479f84a quaternion_ds1_symm_0399.fof.smt2
905ff4cfaa2fafc0039a0879eb1076f3 quaternion_ds1_symm_0406.fof.smt2
9cdda12ed0b81baa79f1b7827da02f5a quaternion_ds1_symm_0408.fof.smt2
1aa758003ede7915d65cd4448487e187 quaternion_ds1_symm_0415.fof.smt2
ba0ae534e2e66ab16ec8b783590b5811 quaternion_ds1_symm_0422.fof.smt2
3b75aa1409216658316ab45e95e95d83 quaternion_ds1_symm_0429.fof.smt2
806cd1aa70484e2d98190e110b642051 quaternion_ds1_symm_0436.fof.smt2
758969d9fef1fe31d26ce0e64df09b05 quaternion_ds1_symm_0443.fof.smt2
d3bcd86f57e070e1320e0ab15a0dd731 quaternion_ds1_symm_0445.fof.smt2
d01661c67ee13435761b0a0fcd4f6524 quaternion_ds1_symm_0452.fof.smt2
a927ada7b1a17629dd74fcab8375c866 quaternion_ds1_symm_0459.fof.smt2
e7db6d03e0acddbc49f5bf042b21aa31 quaternion_ds1_symm_0466.fof.smt2
45882d2e240b17374eafb2f1be90271d quaternion_ds1_symm_0473.fof.smt2
bcd3ea08c436540a1449f825ee0d269f quaternion_ds1_symm_0480.fof.smt2
7d1f671e6026f25faee7921412c298c0 quaternion_ds1_symm_0482.fof.smt2
61703271630b8fcc0568c4627452192a quaternion_ds1_symm_0489.fof.smt2
b6e744e4a64466e02bfdab72019b5df4 quaternion_ds1_symm_0496.fof.smt2
a6df164e217a5cb4dd0f5a8caac09e2a quaternion_ds1_symm_0503.fof.smt2
d9a9f665e0c2f0edb0f783cf0b8e828d quaternion_ds1_symm_0510.fof.smt2
5ccd268cd1856edac166f86be8d1716e quaternion_ds1_symm_0517.fof.smt2
36346153018438211014e9c617118ed7 quaternion_ds1_symm_0519.fof.smt2
366f5dadbd5c9ef0eb2a0acc6a58144e quaternion_ds1_symm_0520.fof.smt2
2bbc622b107821a76e66df53b07fcd7b quaternion_ds1_symm_0521.fof.smt2
c34d9a201342ae82a8dd415d58a63551 quaternion_ds1_symm_0522.fof.smt2
935dc434c90f8d23a2a9987b264e2d68 quaternion_ds1_symm_0523.fof.smt2
0e7a70f58b3cb72d4cb87f761795f607 quaternion_ds1_symm_0524.fof.smt2
eb59dfd4ee388a77a3ee5d0b47ea4042 quaternion_ds1_symm_0525.fof.smt2
218a2c83be36f9b85f398c2bd7e56241 quaternion_ds1_symm_0526.fof.smt2
d3d11526af2fb3581bff17c9feebe7c4 quaternion_ds1_symm_0527.fof.smt2
6b46d5e51de0d3f16285a959e9111564 quaternion_ds1_symm_0528.fof.smt2
4edae4f614d152b98907afb92870835f quaternion_ds1_symm_0529.fof.smt2
42edc9b5d4ff6031b89379034707f926 quaternion_ds1_symm_0530.fof.smt2
a99b012c1527974dbd34c3325780168b quaternion_ds1_symm_0531.fof.smt2
2a6b9220108a728d5bcd45c6142de93d quaternion_ds1_symm_0532.fof.smt2
ec920c6e148aac2a8efc50a6a7c4b62e quaternion_ds1_symm_0533.fof.smt2
3cddd1460f44a033f6485428b2913f1b quaternion_ds1_symm_0534.fof.smt2
491e204a191adcccec1a00bf9cac24d9 quaternion_ds1_symm_0535.fof.smt2
c183132e9db845328d3353203ad04323 quaternion_ds1_symm_0536.fof.smt2
d6dc76ce5918ea47980f4bd39bbd1885 quaternion_ds1_symm_0537.fof.smt2
324516c29d1471cfa707f55fc21be615 quaternion_ds1_symm_0538.fof.smt2
14a0ed009f032c671b88e89b1a1cbdb7 quaternion_ds1_symm_0539.fof.smt2
a3a3b7e23776eb89ea6e8e343e71718a quaternion_ds1_symm_0540.fof.smt2
5caa285f1ffb6de6b96b47fae5fcb147 quaternion_ds1_symm_0541.fof.smt2
45657e310ad2202d0de7a7b40f0b4366 quaternion_ds1_symm_0542.fof.smt2
56813c808177b967f1e3f335709fd78c quaternion_ds1_symm_0543.fof.smt2
6a732480930f32ff25c597c66e2dd1c3 quaternion_ds1_symm_0544.fof.smt2
a5fc42388bd8cf2ceb4abc27f42d8bf8 quaternion_ds1_symm_0545.fof.smt2
33193c32dc85eaf8e9fd92883d686e90 quaternion_ds1_symm_0546.fof.smt2
1463b41373fbb443ef94edfd22c39330 quaternion_ds1_symm_0547.fof.smt2
7f62cce13b54e4fcfab7586d8ec2ecac quaternion_ds1_symm_0548.fof.smt2
4a01a3559dcc700ddb793dd9bd20dd66 quaternion_ds1_symm_0549.fof.smt2
c283c2cf4f072f967c5d396e8a8599c7 quaternion_ds1_symm_0550.fof.smt2
68126cce7b96e9e34787d6bf95b7fff0 quaternion_ds1_symm_0551.fof.smt2
e88087e4cda85d64ff1c33d9c154f871 quaternion_ds1_symm_0552.fof.smt2
596f3a8454142e29d7940217af84df0d quaternion_ds1_symm_0553.fof.smt2
1f7de0fdb45b2a275865c7b9f28dcfc8 quaternion_ds1_symm_0554.fof.smt2
32da7416fd50499d0e02b05d78a8574f quaternion_ds1_symm_0555.fof.smt2
51571d5694d70e90961bc4c6441beb5b quaternion_ds1_symm_0556.fof.smt2
71e2b9bb2ff5133928b9363fc808825e quaternion_ds1_symm_0563.fof.smt2
8e98630483915083b10adea260c271a3 quaternion_ds1_symm_0570.fof.smt2
62a0bfc032e799ba072cdb0568c6b22c quaternion_ds1_symm_0577.fof.smt2
9744c1d2a6e3960f6553d528f16667e9 quaternion_ds1_symm_0584.fof.smt2
fe1489a499f1d35cb8df4af7ab686035 quaternion_ds1_symm_0591.fof.smt2
d357fc2dceaea1a4301ee266ade7b983 quaternion_ds1_symm_0593.fof.smt2
b894032b8f5dfb8a5fe056f63f8f5e82 quaternion_ds1_symm_0600.fof.smt2
e6e9449856f3e80a1bf6d7baa5590edf quaternion_ds1_symm_0607.fof.smt2
5850362c61dfad3b4643bfb5424ed81f quaternion_ds1_symm_0614.fof.smt2
5b9611ae0cfcad10e54584572bdfec45 quaternion_ds1_symm_0621.fof.smt2
9a904fa657e8564f547ad1e6f1431b71 quaternion_ds1_symm_0628.fof.smt2
e3b61266ba9e82cdc64164516a3ee143 quaternion_ds1_symm_0630.fof.smt2
4535e63feb84e51be9c3454c3ea65ba9 quaternion_ds1_symm_0637.fof.smt2
72151ef607bbe9af9638725ddff08489 quaternion_ds1_symm_0644.fof.smt2
823faff9dff121c86310edba6154a2ec quaternion_ds1_symm_0651.fof.smt2
99d6273c463f4ca65583fc02ab6224ef quaternion_ds1_symm_0658.fof.smt2
25c7842498b381129c074c6f77afcea7 quaternion_ds1_symm_0665.fof.smt2
145abb02925bcb87be41f26c77dbd7b2 quaternion_ds1_symm_0667.fof.smt2
95fd4387493e9f7e38f1684bdaa381aa quaternion_ds1_symm_0674.fof.smt2
2a8824e2c36f236d03cf553b954beb7b quaternion_ds1_symm_0681.fof.smt2
05ec696979af1f2d1a1afecf6d4b8ce8 quaternion_ds1_symm_0688.fof.smt2
d83c568c401f12394a85a3c36b493177 quaternion_ds1_symm_0695.fof.smt2
6be12962b460896213b176cedc5191b6 quaternion_ds1_symm_0702.fof.smt2
d78ccda5e146dd0b1b433f30f5801945 quaternion_ds1_symm_0704.fof.smt2
c2743bebac095af5b278ddfd7c14b504 quaternion_ds1_symm_0711.fof.smt2
653ff19ff577db31ab233d7723eed2d6 quaternion_ds1_symm_0718.fof.smt2
7d2d23febd6f66742fb2f5f4eb4b6d20 quaternion_ds1_symm_0725.fof.smt2
5f8e0f74905d63a589e89b015de626a8 quaternion_ds1_symm_0732.fof.smt2
dc5cae7d4a3db8918330c26ed61b0ac2 quaternion_ds1_symm_0739.fof.smt2
62b41f829b13fbd6370597427ea12443 quaternion_ds1_symm_0741.fof.smt2
63289410bfb021f0604a99709eb625d1 quaternion_ds1_symm_0748.fof.smt2
0968d523ab706d191f6e9b6570bc5c00 quaternion_ds1_symm_0755.fof.smt2
f7e6f53366454c49804baa9da08ccfd9 quaternion_ds1_symm_0762.fof.smt2
6cfb38c68f10c1442e9d54d33a2b5869 quaternion_ds1_symm_0769.fof.smt2
c8890e43b65a0aae51e17a06fe875ee8 quaternion_ds1_symm_0776.fof.smt2
cf0a30395d2c95c1c1ada2aa6d1a49d7 quaternion_ds1_symm_0778.fof.smt2
dbeb36f9977ac379f35d3f64a41afc1c quaternion_ds1_symm_0779.fof.smt2
e729aecb6070e58078f211e38eb4bf02 quaternion_ds1_symm_0780.fof.smt2
8753e015281be6d4a316da0b042b3d14 quaternion_ds1_symm_0781.fof.smt2
47a9111990a90d6ddf4f06dada62a751 quaternion_ds1_symm_0782.fof.smt2
45c705a9990c03af1a452e0429fe76c2 quaternion_ds1_symm_0783.fof.smt2
e9217222e2603b8e2fb90e21fcc8f7c6 quaternion_ds1_symm_0784.fof.smt2
e21a8ebcd5309a95b0faad931ae16007 quaternion_ds1_symm_0785.fof.smt2
d948858fc7f2d01551017ae897b744df quaternion_ds1_symm_0786.fof.smt2
e6077f916fad513160810cebe5a1e1f8 quaternion_ds1_symm_0787.fof.smt2
20b8083200916967c6f77ff9b17d06ad quaternion_ds1_symm_0788.fof.smt2
d72fceb3ebc7607c64712459273f9097 quaternion_ds1_symm_0789.fof.smt2
1c556f227f7d5c634c49d67eb701f232 quaternion_ds1_symm_0790.fof.smt2
0d0a78a0feae922b62a72507275af266 quaternion_ds1_symm_0791.fof.smt2
f3a39db83fac3314c37c35e7260f46ca quaternion_ds1_symm_0792.fof.smt2
2978519511156ec555e19c3610c8cba9 quaternion_ds1_symm_0793.fof.smt2
170d05a752522400f79f4f8c70baa42e quaternion_ds1_symm_0794.fof.smt2
ba00a0d815fcd9fe89de69411b913c6e quaternion_ds1_symm_0795.fof.smt2
1c16d732adfeb82c58dad281f7e9e303 quaternion_ds1_symm_0796.fof.smt2
f4232c2c1d391986a2aaae19c3c688a5 quaternion_ds1_symm_0797.fof.smt2
20c8cb75a7ade65d168ab0a8645d3eb7 quaternion_ds1_symm_0798.fof.smt2
7336ada6f7571f8577bc9553bc78720a quaternion_ds1_symm_0799.fof.smt2
6d98335064041ba96a645046f8d751ec quaternion_ds1_symm_0800.fof.smt2
b685eac816f8bee96bf73a956df77ed9 quaternion_ds1_symm_0801.fof.smt2
1ab6271fa445ba016336dd643fd3573a quaternion_ds1_symm_0802.fof.smt2
03229cc0637e44c159f899cedcb3b5f5 quaternion_ds1_symm_0803.fof.smt2
69160cf98aab6a3e89fe50f8f45b8f18 quaternion_ds1_symm_0804.fof.smt2
5adb9d720ed843e982739dd594ff6e52 quaternion_ds1_symm_0805.fof.smt2
82ebd64317dd444aa56ea37b03018871 quaternion_ds1_symm_0806.fof.smt2
69e947079df40eff1d4415a9a1cc9117 quaternion_ds1_symm_0807.fof.smt2
ff0317058d93a6d30495c15e2443156f quaternion_ds1_symm_0808.fof.smt2
00108ada530f6ff0d44fcb9becd0f76b quaternion_ds1_symm_0809.fof.smt2
1754d4a1f17c882d23854d1dfe3e739b quaternion_ds1_symm_0810.fof.smt2
10b4205995594c2f8bab2b99488969d6 quaternion_ds1_symm_0811.fof.smt2
4b1548506925b2950f31808c291d8b3e quaternion_ds1_symm_0812.fof.smt2
4304d9b56ab75854303b06b7dee23c9e quaternion_ds1_symm_0813.fof.smt2
fe4dd9b3fe205c3b3b0a76e76295fbf6 quaternion_ds1_symm_0814.fof.smt2
587baef432d310d71d9f9e17bcc6ffa1 quaternion_ds1_symm_0815.fof.smt2
baa4bd26e6187c5c5a08d6125ccf2f67 quaternion_ds1_symm_0822.fof.smt2
68b3afdb32b493bb8022e15c846c7232 quaternion_ds1_symm_0829.fof.smt2
514e1ddd6fb4e3e9d36773f1c95445cc quaternion_ds1_symm_0836.fof.smt2
2cbba4fa67d6311b24fb1d8b73a07a1f quaternion_ds1_symm_0843.fof.smt2
3eeefc6666641c3111f3f1859858e29c quaternion_ds1_symm_0850.fof.smt2
f9267e82096ebea59e0e4afd90f5920e quaternion_ds1_symm_0852.fof.smt2
e5bad089ef65d5ac10a8d44e6a040c12 quaternion_ds1_symm_0859.fof.smt2
b19634e8de97d1cf61e702994362fcaa quaternion_ds1_symm_0866.fof.smt2
b8551f45fcb29317b277f6160d758d66 quaternion_ds1_symm_0873.fof.smt2
5821febc82cadfed37a6cb5b934a2385 quaternion_ds1_symm_0880.fof.smt2
b457e5694579c9c3b297fd59e42644ff quaternion_ds1_symm_0887.fof.smt2
fe68ef3b262ea5a1ce553c913b31b35f quaternion_ds1_symm_0889.fof.smt2
a588da3bb6c91c2983dab1b9f6566844 quaternion_ds1_symm_0896.fof.smt2
df6ad3d9134483218954f8b138f91a1d quaternion_ds1_symm_0903.fof.smt2
e88fc676b352889a5a208523b603d825 quaternion_ds1_symm_0910.fof.smt2
7ae4628db855f3f2db34f5190b3bb239 quaternion_ds1_symm_0917.fof.smt2
ac4164251819a8bd6641c10a51d4da59 quaternion_ds1_symm_0924.fof.smt2
9bf02af38315547a7c8fc430d4e63658 quaternion_ds1_symm_0926.fof.smt2
6c35c3c644c4556a2005a3bf24c68d87 quaternion_ds1_symm_0933.fof.smt2
2cfc531acfe7663c98ac9e6a65e29e99 quaternion_ds1_symm_0940.fof.smt2
4d5780fab2a51e1e71afc7c3e815a573 quaternion_ds1_symm_0947.fof.smt2
51bc7026088a8cb2291ccac18f757f2d quaternion_ds1_symm_0954.fof.smt2
f38b771c01b836e47e94c9fa842cff31 quaternion_ds1_symm_0961.fof.smt2
5895b1f0957f7d58879934188adedaa7 quaternion_ds1_symm_0963.fof.smt2
8fb6a0166f83fb70850355df21123834 quaternion_ds1_symm_0970.fof.smt2
fca1591c4ec126a587b972318de6a3b6 quaternion_ds1_symm_0977.fof.smt2
77107fa1f4790b67c9d0268f2aaabea9 quaternion_ds1_symm_0984.fof.smt2
b2a75a726fdd74af9a4a41f15c8a2d0f quaternion_ds1_symm_0991.fof.smt2
3e6a6155c2fcbb09c74e4c7f79449e9f quaternion_ds1_symm_0998.fof.smt2
ce6091da4037bc37e2b5cc8e786115ed quaternion_ds1_symm_1000.fof.smt2
b35d6d9b3c17889fa68cc9768bc53729 quaternion_ds1_symm_1007.fof.smt2
3d8018ce8ce7eb098d28980ae676fd98 quaternion_ds1_symm_1014.fof.smt2
e281af8ec44888d41009f57496b06942 quaternion_ds1_symm_1021.fof.smt2
7f04764de88833647689906ed8f925c4 quaternion_ds1_symm_1028.fof.smt2
b6a7990187916c198616ea3e179441ac quaternion_ds1_symm_1035.fof.smt2
fa8a2ec7e49113977ac6f09c853533e9 quaternion_ds1_symm_1037.fof.smt2
8f8c45518f9f3e5cfffa56d094b08b21 quaternion_ds1_symm_1038.fof.smt2
589faed28bb385d74134b8deae09b9a0 quaternion_ds1_symm_1039.fof.smt2
cb3016b0ede2ecf9c4f4d990bedfb4c3 quaternion_ds1_symm_1040.fof.smt2
41f15f647838a0194ab940cb3fcbeca3 quaternion_ds1_symm_1041.fof.smt2
9d9140708f8d93b1d86f025fad8d9fe4 quaternion_ds1_symm_1042.fof.smt2
94920648fc20b3c1fe54ca360c019bce quaternion_ds1_symm_1043.fof.smt2
9b1d821a9afb93c93278837cc067dfad quaternion_ds1_symm_1044.fof.smt2
03f1dc2dff37b16c239ac64b598e16b7 quaternion_ds1_symm_1045.fof.smt2
13049bc00a77120605a0fa6e1f0c859f quaternion_ds1_symm_1046.fof.smt2
1fc39d5d7f08b6012f7c86c0a2cef3b2 quaternion_ds1_symm_1047.fof.smt2
e87f03a17cbac045b0c7a34f20c1bcb3 quaternion_ds1_symm_1048.fof.smt2
e0d3285cf07a5d840e20d9a21d52d269 quaternion_ds1_symm_1049.fof.smt2
85be71a0638af5327f8a32c38c44fd18 quaternion_ds1_symm_1050.fof.smt2
e8dfad6085403d43c6693864bcb1fdf6 quaternion_ds1_symm_1051.fof.smt2
7307124e04c2f905059ae329e7c81a85 quaternion_ds1_symm_1052.fof.smt2
817812dbf14a310bba3aed7ac89b5787 quaternion_ds1_symm_1053.fof.smt2
244eab37a883bb2a4be354cd61cd32ba quaternion_ds1_symm_1054.fof.smt2
bec73494b14b8abdad558164423d2e91 quaternion_ds1_symm_1055.fof.smt2
e01ad1abe9d281d0fb4da058de927395 quaternion_ds1_symm_1056.fof.smt2
9b9a4c425dcd3614252a65aafde95750 quaternion_ds1_symm_1057.fof.smt2
435e2c18b44164f3fa14dc51474e2e6a quaternion_ds1_symm_1058.fof.smt2
f6af2c050f121b55d5b58f6472ddb179 quaternion_ds1_symm_1059.fof.smt2
6b90fe8b015bab56acefe59abce3ddfb quaternion_ds1_symm_1060.fof.smt2
177cd2c51574989ad7008180fc3424df quaternion_ds1_symm_1061.fof.smt2
929d9d5939adeea71285daac53917d17 quaternion_ds1_symm_1062.fof.smt2
4c88745078d6fa3f67f3e18914b79886 quaternion_ds1_symm_1063.fof.smt2
c7a2a30e440c981f2e51467c714e746e quaternion_ds1_symm_1064.fof.smt2
1236a8f88c850736f644f608e4bc7448 quaternion_ds1_symm_1065.fof.smt2
b4d6222a6b8f974182277f180e952d1c quaternion_ds1_symm_1066.fof.smt2
ee2a09a23a7bd773b205a3b8e7479cee quaternion_ds1_symm_1067.fof.smt2
73cce57d6e95926314eb35afc3c6b121 quaternion_ds1_symm_1068.fof.smt2
f0521a842c5f37daaf66070cb38f6bc4 quaternion_ds1_symm_1069.fof.smt2
2cd021cfec922948972c08b4c3e65781 quaternion_ds1_symm_1070.fof.smt2
07a8b6dff355ed92f29dbbd06f730b84 quaternion_ds1_symm_1071.fof.smt2
9e27c3ed6ee824a99b1eea276823755a quaternion_ds1_symm_1072.fof.smt2
49f6889ce4cbf697468a8a212faeb743 quaternion_ds1_symm_1073.fof.smt2
2eb81b41de0d0a253fd644715fbee8d5 quaternion_ds1_symm_1074.fof.smt2
479d7a476dd5e21519b87855676dc041 quaternion_ds1_symm_1081.fof.smt2
5869af7bea324ea96fcbc00da58de22d quaternion_ds1_symm_1088.fof.smt2
42cc18024d851a6055b25804f9117448 quaternion_ds1_symm_1095.fof.smt2
4e77624c8b30ceef13fb0719c5e6dfe0 quaternion_ds1_symm_1102.fof.smt2
346a050ba747cced624133712666cbde quaternion_ds1_symm_1109.fof.smt2
bee96518dae7a0a3d4503d0d32c80e8a quaternion_ds1_symm_1111.fof.smt2
ab0a60110fbdf9adc1877a63bd3f7ffe quaternion_ds1_symm_1118.fof.smt2
6a2d0c9eee16941aa863ddb5a61c78d7 quaternion_ds1_symm_1125.fof.smt2
eb6acb3fe873318fd7da30904de6677e quaternion_ds1_symm_1132.fof.smt2
e927192a1948c276ce9f521d850c5360 quaternion_ds1_symm_1139.fof.smt2
d3ed2f35d57a134f90c5e7b10624e1c1 quaternion_ds1_symm_1146.fof.smt2
d459a712c88362741739f81434b61d8a quaternion_ds1_symm_1148.fof.smt2
b26aaa187f7d4b71b9085b338800fa9b quaternion_ds1_symm_1155.fof.smt2
de136be2437caed28ced641bd4bbdf0a quaternion_ds1_symm_1162.fof.smt2
5d67047e3c4d490c7f199e99ca964d9b quaternion_ds1_symm_1169.fof.smt2
1ae2739c08a43396b9712536b33b3cfd quaternion_ds1_symm_1176.fof.smt2
a97621551114cb56add75b739b118bed quaternion_ds1_symm_1183.fof.smt2
750fce26b6cf56685866024bcac51f23 quaternion_ds1_symm_1185.fof.smt2
1408f9cf36a13eb7e2736b00f2773ec3 quaternion_ds1_symm_1192.fof.smt2
485dafc12c6fa11e222e1bba6c7438a7 quaternion_ds1_symm_1199.fof.smt2
b37ec845837e7cb4b7d57d8cb5c8cc03 quaternion_ds1_symm_1206.fof.smt2
91ba58b08613998878eaa70272cee37a quaternion_ds1_symm_1213.fof.smt2
bf6d83ae81addad59ba4c2a680b2ed78 quaternion_ds1_symm_1220.fof.smt2
ea2fce27404c615c41c5b9fdfb7fae37 quaternion_ds1_symm_1222.fof.smt2
1f009bb1713de9ef33dac977912ed291 quaternion_ds1_symm_1229.fof.smt2
41e60bd9c10a72431f3dfa3ad45c511c quaternion_ds1_symm_1236.fof.smt2
5b8b39e6d835b82752e8d97c1017e2f5 quaternion_ds1_symm_1243.fof.smt2
fb554955d7657137a6729c5f1ee075fc quaternion_ds1_symm_1250.fof.smt2
9475210b9780fbcb95fbbec6087e2939 quaternion_ds1_symm_1257.fof.smt2
b8c1f776cdb8835ab0e35190d8cccaaa quaternion_ds1_symm_1259.fof.smt2
a986fc9d3b8d6404b46f69c983465738 quaternion_ds1_symm_1266.fof.smt2
f12fa1535252dba03f4518251cf276e3 quaternion_ds1_symm_1273.fof.smt2
33985583115614ac34213307b4d576bf quaternion_ds1_symm_1280.fof.smt2
5850c05a54422b9caf86cd4e8fb0ee1d quaternion_ds1_symm_1287.fof.smt2
b3830f24d497ae5d4b093203d1a8ea11 quaternion_ds1_symm_1294.fof.smt2
2c95d017c294caae6b295e65e7e930d7 quaternion_ds1_symm_1296.fof.smt2
93478e53a2f1c1f70a95fbf43421e7b9 quaternion_ds1_symm_1297.fof.smt2
35f9868acc12fc898f6f7b1f826577db quaternion_ds1_symm_1298.fof.smt2
05f1b84d1afa7a86f18c39eca41d536f quaternion_ds1_symm_1299.fof.smt2
2b2b0621a5db1948a29e85b772d41f3f quaternion_ds1_symm_1300.fof.smt2
a20301a1772c040ec2c7b7aae866c7c8 quaternion_ds1_symm_1301.fof.smt2
887dbd509cc82b716cb1c19d05e8e0c6 quaternion_ds1_symm_1302.fof.smt2
f215d667c415a5294d61bb60c2b325ff quaternion_ds1_symm_1303.fof.smt2
de8a952904f7cf570dd1cd8309cbc0db quaternion_ds1_symm_1304.fof.smt2
47d95539860ea5943fce69cf61ba10a6 quaternion_ds1_symm_1305.fof.smt2
3c5b7d8bb1fa5c352ac04b074d9f46af quaternion_ds1_symm_1306.fof.smt2
8c18204256328f217709035234c19e65 quaternion_ds1_symm_1307.fof.smt2
ad4dbdb0b8462eb437a86723f4823bc3 quaternion_ds1_symm_1308.fof.smt2
cdb3604b73ea79d275a5034303f6fa0f quaternion_ds1_symm_1309.fof.smt2
cb0e6cd7fb18b849212c1a7372b2c54b quaternion_ds1_symm_1310.fof.smt2
72674684844beb6f553630547b874b9b quaternion_ds1_symm_1311.fof.smt2
25142f94b7886a47f429e37725ee9c5d quaternion_ds1_symm_1312.fof.smt2
b4d9dba964b8d219e5c0f1c69b16fecb quaternion_ds1_symm_1313.fof.smt2
99eae968e95de3efcb0d862af4f66896 quaternion_ds1_symm_1314.fof.smt2
3e96095a052249aab776eb7c05365854 quaternion_ds1_symm_1315.fof.smt2
f9c206bb5ae6c010723fda4cb7b1ef13 quaternion_ds1_symm_1316.fof.smt2
6920396852d3e7fc1e88787293cd590e quaternion_ds1_symm_1317.fof.smt2
29da8142814746d934394813c25cdee3 quaternion_ds1_symm_1318.fof.smt2
2093aef437cfaa45f44e1aab401ebbcf quaternion_ds1_symm_1319.fof.smt2
de26398587c37d6526c43825fa35a6ab quaternion_ds1_symm_1320.fof.smt2
4210df935c52c04385d38e5236f3ef56 quaternion_ds1_symm_1321.fof.smt2
e5a051c088c9cab63e01cddd89c3af62 quaternion_ds1_symm_1322.fof.smt2
d87983dac50f659566327429cd08e397 quaternion_ds1_symm_1323.fof.smt2
ccb810be6bc6df257b8acda5805d64a7 quaternion_ds1_symm_1324.fof.smt2
812e601d161ca2b54ca4a0c2d2054146 quaternion_ds1_symm_1325.fof.smt2
0d568421955c7d7ac1fe186ffe7b6ec5 quaternion_ds1_symm_1326.fof.smt2
bca14947b54e48796316c09e49de04c8 quaternion_ds1_symm_1327.fof.smt2
db653d7a710dba45a788786feaa75fbf quaternion_ds1_symm_1328.fof.smt2
4d42e51922faefc07af9564777b43368 quaternion_ds1_symm_1329.fof.smt2
5ed3c5c5928119e586913ab188704491 quaternion_ds1_symm_1330.fof.smt2
77547c4ef0f9a87b2520997e36b3d68b quaternion_ds1_symm_1331.fof.smt2
92f393e2ef2d8a0373178ed977cc74ee quaternion_ds1_symm_1332.fof.smt2
63eb8f095a1c9e2e7ff921d1e83a7936 quaternion_ds1_symm_1333.fof.smt2
1345f3f9d66f9401eb3ef6bf6ab53ef9 quaternion_ds1_symm_1340.fof.smt2
2796f6ed79013655596007c2bb8b306e quaternion_ds1_symm_1347.fof.smt2
b93d6dadb70e53f5dea791b3da8e1028 quaternion_ds1_symm_1354.fof.smt2
5990e84ac5bef46513bd2e86bb8327e3 quaternion_ds1_symm_1361.fof.smt2
de7b1e46e9498c49366ff81f57b6b681 quaternion_ds1_symm_1368.fof.smt2
c26b3a5f34a86fa8b8dee1e00fe8b1ee quaternion_ds1_symm_1482.fof.smt2
dff620551ab48e38224b94a5013b8891 quaternion_ds1_symm_1490.fof.smt2
c8029246aae1430dd203cd7b27331e14 thruster_symm_1475.fof.smt2
32e794759f6c1647bbdffa69697140da thruster_symm_1537.fof.smt2
527493b01d89928adddc69818258f260 thruster_symm_1552.fof.smt2
7c415f51ac8151a65e787ff9c0d66da6 thruster_symm_1614.fof.smt2
0f482ee470b25e8952ee753be87be6cb thruster_symm_1620.fof.smt2
38a9a29f16188b4fd3f04a97006a8b25 thruster_symm_1628.fof.smt2
c042057ed6d406d5f43bc77886390cc4 thruster_symm_1658.fof.smt2
60dfc71f05e19e80426a0d23d2f6a1aa thruster_symm_1689.fof.smt2
6ef12943a75c3ce654c51515677b546c thruster_symm_1697.fof.smt2
0acf3bf7d2aff042270b74874240438e thruster_symm_1704.fof.smt2
08b5b220624dd889e56af8e59c660145 thruster_symm_1735.fof.smt2
c75056acb5b93f78e0e26f20556c96d2 thruster_symm_1765.fof.smt2
