f0c18eec11157bf55eca88315a56f85b query.02.smt2
020f31a59e8344379753acd51af42d68 query.04.smt2
afb5c4601b5820e9f27c47d4e9cfa7f1 query.09.smt2
f4dbc1afa22dd30aea4d00d500b1f80d query.10.smt2
2370e91350a5074002cdfa8f7219366e query.11.smt2
0924fed4f6939ab773c859d308a67132 query.12.smt2
c3e782ea47e309c557a59ce573501f38 query.13.smt2
1b52bd9897854f07342e24a7cd785182 query.14.smt2
d0a9daabec83595433e62cf92f9169a2 query.15.smt2
833437b499971a99f063d90c39e5bb8f query.16.smt2
3eaf709b98dbbbc51b3637593658d327 query.17.smt2
2f268a7987ee053637cab9b628bdebc5 query.18.smt2
