1183d140d644ae7260e51073e5ae91d9 sqrt-problem-12vars3-chunk-0010.smt2
8b0a488a3895968b4aeebd95448fcc56 sqrt-problem-12vars3-chunk-0012.smt2
f8c4015ccb08631af23f1420475b59e2 sqrt-problem-12vars3-chunk-0013.smt2
954558a035b848d1babcd2a2023fa948 sqrt-problem-12vars3-chunk-0015.smt2
af5d7e19c37c6d093cf3d6b71fe1f292 sqrt-problem-12vars3-chunk-0016.smt2
f47ffcd2a28307f8992ab4d9d30fb8d5 sqrt-problem-12vars3-chunk-0017.smt2
10bc5c26b7c4fe54d8591ad717b44667 sqrt-problem-12vars3-chunk-0019.smt2
307d337eef31ce221bfaec5fca60245e sqrt-problem-12vars3-chunk-0020.smt2
c57f9d0b0e770c8dfa0dd757a1fcf368 sqrt-problem-12vars3-chunk-0022.smt2
70d22ba215f5756fec89ade69f58b882 sqrt-problem-12vars3-chunk-0023.smt2
12c6f7fd947a33f4cc8bcf1dd0227b02 sqrt-problem-12vars3-chunk-0025.smt2
f9ec959f51e32ac015100ba28d12749f sqrt-problem-12vars3-chunk-0027.smt2
8a9d0a0fa0f88f82026bebe823911558 sqrt-problem-12vars3-chunk-0029.smt2
10a8b1b8199236051d12f662d021c91d sqrt-problem-12vars3-chunk-0030.smt2
d6faf29a7ea34c5edf0f939afa20572c sqrt-problem-12vars3-chunk-0032.smt2
ad357b41bef778421e82f2ff8b2931ab sqrt-problem-12vars3-chunk-0033.smt2
2cec09ded7f6b9054a797768f9b50a37 sqrt-problem-12vars3-chunk-0035.smt2
5732ba0a013dcb62a3c0234b1e2c2d34 sqrt-problem-12vars3-chunk-0036.smt2
ad30eeb22272d4a7797374929d272cb6 sqrt-problem-12vars3-chunk-0037.smt2
c9de6cfc3373ae46f6062db3b3d44852 sqrt-problem-12vars3-chunk-0038.smt2
0be0553b6d120c6ac6df97cff2c33a69 sqrt-problem-12vars3-chunk-0039.smt2
c1cb4465e885731d08efed8b033d3906 sqrt-problem-12vars3-chunk-0041.smt2
1077a4e8b638b014a79fce59aa94bf93 sqrt-problem-12vars3-chunk-0043.smt2
e6f4baaa85a709a4eff5ad84944af2e1 sqrt-problem-12vars3-chunk-0047.smt2
38fce9827aaa4f4d6ecb292d8414c48a sqrt-problem-12vars3-chunk-0048.smt2
9f5b89730779d1ca6f167f0d52c5b88f sqrt-problem-12vars3-chunk-0049.smt2
3362f4a57941583ae4509034fce13175 sqrt-problem-12vars3-chunk-0050.smt2
f2c5cebe0a659fe8b9c253aeafeb69c6 sqrt-problem-12vars3-chunk-0052.smt2
e277a528ef3808d1e8f749d1ae7ddfc9 sqrt-problem-12vars3-chunk-0053.smt2
d53511826ac10e3a9645407a4113ba36 sqrt-problem-12vars3-chunk-0054.smt2
ea1baed2a23989e8c7fe023692a39e14 sqrt-problem-12vars3-chunk-0055.smt2
afca16e56d3275e50c13505986e5d766 sqrt-problem-12vars3-chunk-0056.smt2
4425dfe903f4b7b00dcfd6ca7fac8007 sqrt-problem-12vars3-chunk-0057.smt2
45034e81f58e2a976845640abce56168 sqrt-problem-12vars3-chunk-0058.smt2
e23f7a89e6b50138dcaee9155a315577 sqrt-problem-12vars3-chunk-0059.smt2
7c60aa8bc70a4a744a77269d1cee5fe8 sqrt-problem-12vars3-chunk-0061.smt2
add720d3642f8d80f3b0dcd44fd153ea sqrt-problem-12vars3-chunk-0063.smt2
a8ca00fcedf5f544b728291a0801a5e7 sqrt-problem-12vars3-chunk-0064.smt2
2388b42b1bea3bf4769f5ced3697e7b8 sqrt-problem-12vars3-chunk-0065.smt2
5f3ff5dbe735514d5639d867bce3ba5d sqrt-problem-12vars3-chunk-0067.smt2
80287dab5a0db10adcb890df1bc16213 sqrt-problem-12vars3-chunk-0068.smt2
b985a12854fd7219860cdd81a27a8afe sqrt-problem-12vars3-chunk-0069.smt2
ef33ed350c1674f7132c015d65f85351 sqrt-problem-12vars3-chunk-0070.smt2
9db30e0aaf6e76ed323d182473cc8dd2 sqrt-problem-12vars3-chunk-0071.smt2
9046a8c47d2eba166c7def5db0830290 sqrt-problem-12vars3-chunk-0072.smt2
e66c07e062a80ff29d184dd0e2134deb sqrt-problem-12vars3-chunk-0073.smt2
e50d06f54407466f31dfe5a329994003 sqrt-problem-12vars3-chunk-0075.smt2
79909518f0ac03cce91ee6d2ee9030d6 sqrt-problem-12vars3-chunk-0076.smt2
cd131ea321f7c237a4478c862f478fb3 sqrt-problem-12vars3-chunk-0078.smt2
4fa42e32adc8ebdcc1c1ec2b379f941c sqrt-problem-12vars3-chunk-0079.smt2
5278e011a7200aeb1af67c298f5aa746 sqrt-problem-12vars3-chunk-0081.smt2
727ca438f4e07f9493b49cef5f318b34 sqrt-problem-12vars3-chunk-0082.smt2
bb843c0c31f1bc3f12d2018898b1110d sqrt-problem-12vars3-chunk-0085.smt2
7c40a7c9eda149f69465d0c2dd8f519f sqrt-problem-12vars3-chunk-0087.smt2
7ed1f02ebb967686e8ce5d2578d3947f sqrt-problem-12vars3-chunk-0088.smt2
b60eb52859acb878073ca36f6f5d04a3 sqrt-problem-12vars3-chunk-0089.smt2
d5e814e386f5dd5f328ef3c5a3a3f3f4 sqrt-problem-12vars3-chunk-0091.smt2
7ea8b21f868a3bff29de32c4b6dfa021 sqrt-problem-12vars3-chunk-0093.smt2
37ee4bc09b9919e7c14608b06926d0d0 sqrt-problem-12vars3-chunk-0094.smt2
47b3c04718e046f649d38bbd173fed2b sqrt-problem-12vars3-chunk-0095.smt2
6e3642990b600d4a9a3a4d654be88723 sqrt-problem-12vars3-chunk-0097.smt2
38fbb24982b28d41bff8efb504d8212d sqrt-problem-12vars3-chunk-0098.smt2
cc13f75edb353dd015cb59d89e462d0e sqrt-problem-12vars3-chunk-0099.smt2
5e689108cbf017d3149add1974c084a7 sqrt-problem-12vars3-chunk-0100.smt2
62c9b363925086839ee5da7a7fb8a01a sqrt-problem-12vars3-chunk-0102.smt2
d863a1f9d7fd4ad5063b79ed97c1eda8 sqrt-problem-12vars3-chunk-0104.smt2
