d1abde987ed355b4f378bc7010cb1965 cooking01.smt2
5bbfac3eea154e9ca776e131291f10b3 cooking02.smt2
c6c25ca4a329e4f3b66ec78c8704aec9 cooking03.smt2
36dc3f30ea8e93a2e589c166561a5bcd cooking04.smt2
744ffeb1077c20d0b16588671376d76f cooking05.smt2
290ab763f12d67db16cb020b15ef470f cooking06.smt2
5ef9738b6332379239c1350f23961357 cooking07.smt2
6c57b6ce6a5d6121fe6632b064de70a2 cooking08.smt2
78df47269ef4d0d9a8786b919003d206 cooking09.smt2
d5872212f283f3a2772d06079cd7aa0a cooking10.smt2
c87506d570cb5569d989f1d54ec4a8a5 cooking11.smt2
01f68913615c47d97b2ea97d87bce316 cooking12.smt2
294e3e56b09ecb37ab9f2a0c2b27f6ad cooking13.smt2
1cced3f62262e4dae94ff4495963befc cooking14.smt2
4405fba83b021b1fd889bfae3fcea544 cooking15.smt2
f82a52147f3a1bb1e2468982476b5091 cooking16.smt2
8b3414f1cddaf12bb0383cff8a4bd045 cooking17.smt2
b132aefe2013d7b7810ef664f6a0d232 cooking18.smt2
fe96e38a14462a5dce0ddcfb2b2c89cf cooking19.smt2
250ce54e17ef4e7bded597c2a5b7d0a5 cooking20.smt2
47dc5d95dbd8e5213dfe690c4319cfbb cooking21.smt2
cd058de42c00c3ed331be95efd78b5af cooking22.smt2
c70d5a69bcc1d5381eac7c0f39c68c10 tempo-depth-2.smt2
dfc25fd055806a3b79ae6fa712a048ff tempo-depth-3.smt2
b09adcc847959e32ff215379a4e48d0e tempo-depth-4.smt2
35975ab88b4545d284c71c94ab982a8a tempo-depth-5.smt2
5fa55c311f92fc2dbf265105a957c51e tempo-depth-6.smt2
cec378a153a43c943755370455f64247 tempo-depth-7.smt2
4d1641bfffb3cc859f80f76f9c60940e tempo-matrix1x1.pddl.smt2
f3df253234fcfee5811fe1a5295995ea tempo-matrix2x2.pddl.smt2
310b3cd5b34c3bfe5e90b72934087266 tempo-width-1.smt2
5869ebdfb25a0b3cd4f5ed95ce1f71da tempo-width-2.smt2
705658f0c7ffa1c6b714890d51c9f0dd tempo-width-3.smt2
552cc5a95e414ce12b182920b622b1f6 tempo-width-4.smt2
8f98dc6b5904fa3e66d4b831de80c460 tempo-width-5.smt2
921198a6276ea9a464b31641e64b2ab1 tempo-width-6.smt2
ebac08bb2f1924f547895f8cdf2d249a tms-2-3-light-03.smt2
a6ebc19b4cd16fef10cd175f2a4af17e tms-2-3-light-04.smt2
6a0c2abdfa1e862f0481ff3da47afbc8 tms-2-3-light-05.smt2
fba9e7a09bf3d7cd260ba463fb8be6a0 tms-2-3-light-06.smt2
8d95b61d635d7cc6fe37e17447aaf0d3 tms-2-3-light-07.smt2
16ecc2bc8bd6f54ed95f70cb6ceec0b5 tms-2-3-light-08.smt2
96c505b619be935caae3cb7ce4613f4f tms-2-3-light-09.smt2
10f91dbe6518923f22a04980a896c8d4 tms-2-3-light-10.smt2
5e7d1cb49b1f4b2e8a1c23d6a7e783a2 tms-2-3-light-20.smt2
70e2cec08425a2c6c0a77af63e2b1401 tms-2-3-light-30.smt2
daeff7ea53c7dc0bab6cbd771b440139 tms-2-3-light-40.smt2
b0adba5cf4278418641728f5d470a4c8 tms-2-3-light-60.smt2
f827d17864d25e88b0f446932e49c22e tms-2-3-light-70.smt2
8b255befdffa42ac032b242abc1c2800 tms-2-3-light-80.smt2
b90d94e5db7403ded8f5ea0aa2f95898 tms-2-3-light-90.smt2
