044bfb1c669f1756d674996bfc5573c4 nunchaku10185557.nun.smt2
37ef9103e2fd55f08bba676d03d17126 nunchaku10185641.nun.smt2
f5209d53e65a809a51f2f84907ec9b65 nunchaku10185653.nun.smt2
73aecf0fc03c0af9ba3e13dc2d417dc3 nunchaku10185665.nun.smt2
4cc835be4ae894cc4b36157b944fe201 nunchaku1770761.nun.smt2
fafed041ddcb7c0d94766466b49aea01 nunchaku1770767.nun.smt2
4050be2978bbbe3ddb8ca40267c4e427 nunchaku1770779.nun.smt2
5af8d4fa44fcc0242eb20746ded6f7f6 nunchaku1770785.nun.smt2
cf4750baa2fe3cc48f21e63922eac87e nunchaku1783942.nun.smt2
0ec2367bed565e061c332c8e2a3a43e3 nunchaku1783948.nun.smt2
64ddc4a60de89a5c95fa7976754333e5 nunchaku1783960.nun.smt2
fb46360771aa5edcf6a0ca5d0c08fdd6 nunchaku1790809.nun.smt2
463e14f728ec16f58abad14378367b5f nunchaku1790815.nun.smt2
374e0f99339fc0106e9f25c4d5936da5 nunchaku1790821.nun.smt2
45d330e193e4f92eff04037dc334b4bf nunchaku1801160.nun.smt2
c2316f7cae82f6baa0afddc4a6f28494 nunchaku1801166.nun.smt2
cbda87afd5fc36021fb5fa36a79260eb nunchaku1801172.nun.smt2
9129b1151b1d5fee1eceaf407c54af1d nunchaku1801178.nun.smt2
c4670f944f785831ddfcdd65d92da4a9 nunchaku1801184.nun.smt2
8f44eb97e7561b448cd7f76cfd73bf26 nunchaku1809622.nun.smt2
e6f8970c2e64d8021559329554871e9e nunchaku1809628.nun.smt2
1debc037e545c6e621325da9dd0ba729 nunchaku1813986.nun.smt2
2d0392653ef1b7c3d3f137edb4a59738 nunchaku1813992.nun.smt2
ccf4ec5391d7fe54a7039ed140145bf5 nunchaku1813998.nun.smt2
0d425d0542e643a31ae37bc90c7c4852 nunchaku1814004.nun.smt2
992645dfa9d28aca887f1a3a8091346a nunchaku1814010.nun.smt2
fa307a8be3d48570610cb9519a4711d6 nunchaku1818258.nun.smt2
760d9336c82817a51170e69a427c3758 nunchaku1818264.nun.smt2
b1dd359a598d6e9d490cf83ff680c92f nunchaku1822342.nun.smt2
b4616c20b0e2bb76128c2db2928b6b80 nunchaku1822348.nun.smt2
1e0586a5323de63bb781916549742aca nunchaku1822354.nun.smt2
60af8d2655e688cd511d98206066a8de nunchaku1822360.nun.smt2
be0125ca7e5ba01cb98a3ce46297f643 nunchaku1826184.nun.smt2
02a368a31e442b86f0d3f70c03e46e19 nunchaku1826190.nun.smt2
10210885072cdfb4f0af54b42dc12f31 nunchaku1826202.nun.smt2
2f818c33800bbf0f04eb35a3dbac64c9 nunchaku1826208.nun.smt2
45c9d5ec21f755677c1852d62bc5dc28 nunchaku1844724.nun.smt2
e1c62fa499d53e730e2bd5e80d263585 nunchaku1844730.nun.smt2
51bd4a183b281f9f1abe2e9c75513410 nunchaku1844736.nun.smt2
ab63e7b28af51aed05691a2918c72c72 nunchaku1844748.nun.smt2
db42fa8b5fb6f8ed52d15b4ff9bb2175 nunchaku1850490.nun.smt2
3cb59813b2673ca0986b7740fbfd889d nunchaku1850496.nun.smt2
262f5d7c5f3e558a8543afafc98daee7 nunchaku1853951.nun.smt2
c321b12e8e23f7f29a9c1edcb2a72305 nunchaku1853957.nun.smt2
e84d3ee41da4664617f309bbf24fee70 nunchaku1853963.nun.smt2
322ef0f762b0d333264a0d602afa86d5 nunchaku1853969.nun.smt2
6057c09f7d96f9c0a9f07c42f9e89e89 nunchaku1853975.nun.smt2
f63a4202205ef0676e9371c8caf81cfa nunchaku1861796.nun.smt2
7a528498f5815e99f5d48a8989d6f363 nunchaku1861808.nun.smt2
1146d656e26e2ccfd4086209b5b4db54 nunchaku1861814.nun.smt2
c59d2779a03f9ae87b96e7efd6b6e81c nunchaku1861820.nun.smt2
bfcb384f0c0ec6e227ff2f6adf69778d nunchaku1894975.nun.smt2
61795504ae2b0566acc5b15c830e54a9 nunchaku1894981.nun.smt2
107749cf6bfe4f05210cb4fb4a6290e1 nunchaku1894993.nun.smt2
8b898130a4b06ccea470974cab441735 nunchaku1895055.nun.smt2
bcc797bf89c58df9a0d726d94c81c5ad nunchaku1895061.nun.smt2
b15ed7c8debb5261330cc4fe0f6d2a21 nunchaku1910193.nun.smt2
98d4ffbd4ff96f53c259a9e55da6d8a6 nunchaku1910199.nun.smt2
4e39cac9804c79acfffb9e14b433713a nunchaku1910205.nun.smt2
b5e72d9bf61ec98211b9f97a89edadff nunchaku1910211.nun.smt2
2074cfc4f02ee62229567a8c82d2121b nunchaku1939607.nun.smt2
f5acac75a8473872c29bb4a281c47084 nunchaku1939619.nun.smt2
0f2f2e33a51408bc9ddc0cbbda856f90 nunchaku1939625.nun.smt2
895fcb1ed7c2c2012dad35f11b4277db nunchaku1947140.nun.smt2
db6bec37a3f53e348ba0f63c31485851 nunchaku1968818.nun.smt2
bf763973c616fb00a80a406a2adfc4ae nunchaku1968824.nun.smt2
13e151d29c0a618bebeafd33ae50defb nunchaku1968830.nun.smt2
c132e70985ed3fd5ff43ff5b7ef47d75 nunchaku1968836.nun.smt2
c321a05258bd288187379bf33c2be3d0 nunchaku1968842.nun.smt2
b81598c249fbdb2a52efbcdd6ca6bb92 nunchaku1979314.nun.smt2
81b541bc8285c0e7a5e11dbb55473f79 nunchaku1979332.nun.smt2
12679a4f37abe615d8b52267aa508b16 nunchaku1988318.nun.smt2
1792012adfcce45716a1c104f716ef56 nunchaku1988324.nun.smt2
88f99d02e852b82a0d8faf88b3334195 nunchaku1988342.nun.smt2
e948be9c35c60addd67f5ab9b2e82e79 nunchaku2016990.nun.smt2
b82420dda8003cc6d166489412883f2b nunchaku2016996.nun.smt2
74b9c1968f36a7ef710dcdebb3a0fca5 nunchaku2017008.nun.smt2
1ddfd1bb7bdbf903f85fba388c18c6dd nunchaku2030372.nun.smt2
5a30a25a918ee0ab954fcd39bfedc391 nunchaku2030378.nun.smt2
870ccfdecfc1371665362cab7377ed8a nunchaku2030384.nun.smt2
e37b5ca1fea86eab91a0ea0c71f434c7 nunchaku2032288.nun.smt2
db9fb0e558b10b356e927dffd3856039 nunchaku2032294.nun.smt2
63f609a466319d945781d6d20926d968 nunchaku2032300.nun.smt2
540d6700d73d6b1316d0b495f7f4d781 nunchaku2032306.nun.smt2
3a741e723343690e36ab6b334358d807 nunchaku2045464.nun.smt2
599fcba93de89d049066b44d19fc5286 nunchaku2050962.nun.smt2
306e1eaa40d73dfcef79b81f9af82cc2 nunchaku2058704.nun.smt2
bcf62b59400ab48ddc7969522ac5dba3 nunchaku2058716.nun.smt2
5dbfd7a7142d4e3943c5ed43ad07449d nunchaku2067278.nun.smt2
181f8aa34c8f3bb53bba8e5db0111da4 nunchaku2067296.nun.smt2
d41974267a27c5a4d9f81902d6956b58 nunchaku2067302.nun.smt2
790799cdc8a84498ef54b42db3f0a8ac nunchaku2074643.nun.smt2
10f5e9bdb8cbb8637aac046ef18cfa05 nunchaku2074655.nun.smt2
457c762a533a6f97f114d329c0e94e87 nunchaku2074661.nun.smt2
bede69f9f375ca70020333eac71c37b9 nunchaku2078493.nun.smt2
b1f990e7d032dfc23d05aac240aa9a0f nunchaku2078499.nun.smt2
9c48906b3f69b025312068451d548e77 nunchaku2078505.nun.smt2
8e5803d83c22a1c50391552a3bd9f450 nunchaku2078511.nun.smt2
9906a02a1349bff05449060d41568406 nunchaku2087893.nun.smt2
70ee24d63296d0973898fdc77c46c2ba nunchaku2087911.nun.smt2
c8f8fd038f0fafa60959ccf35206d666 nunchaku2090223.nun.smt2
77d133e03befdf2427da3aabbb7365c7 nunchaku2090229.nun.smt2
96fa2e55042c597f9a4c181bcf803a70 nunchaku2090241.nun.smt2
6997173eaf7b38afe47d37d6fb404ce1 nunchaku2090247.nun.smt2
807623f095d6efe57a2c1d4558a147a7 nunchaku2094296.nun.smt2
183edf0916093de3bc080daecc01a46b nunchaku2094302.nun.smt2
c806203c77f2112d2a1ba578464e8ee8 nunchaku2094314.nun.smt2
ba1a50e78ea831bc8c22eb320588bd8a nunchaku2102638.nun.smt2
d90cde57065f69d4263af0d75481ccee nunchaku2102644.nun.smt2
af9f7e0125d429f52463d75730463dc0 nunchaku2102656.nun.smt2
10c0bef9b74a0c567cdfbeb0eb47de85 nunchaku2112597.nun.smt2
d99f014065561f8c8e7d864abd4ffb28 nunchaku2112603.nun.smt2
0f1a8e73f75423fdb371eec492cb9096 nunchaku2112615.nun.smt2
0b2bd481c86df47f056ef8b026f3c24a nunchaku2112621.nun.smt2
ff3c8f69a9b6f99e4b9e1a86253c4902 nunchaku2125055.nun.smt2
5729642f8ed79c6883c464715ea9feec nunchaku2125067.nun.smt2
b8073c81a6fc48b69062af1f24389230 nunchaku2125073.nun.smt2
059d2af4a7a679b8fadfc0df3c6d9316 nunchaku2125079.nun.smt2
ba2b6c5c70b3a8e12939d306a903f9c4 nunchaku2129737.nun.smt2
acc89aa585ca04286e4f8c5f03f0fe8c nunchaku2129743.nun.smt2
50cdafce2e0bf2c77b9d073830be5185 nunchaku2129755.nun.smt2
8213195ddd41d95bb61f78b4a75680d4 nunchaku2137895.nun.smt2
00b1823b09d35c16d9afd0876487b81c nunchaku2137901.nun.smt2
cbfe81497bc3774b01454c0b2ec74600 nunchaku2137907.nun.smt2
4ee8d68b325778f8627fbcfe5d6e8659 nunchaku2137913.nun.smt2
975bce76d59c73adce1ebd0df63220fc nunchaku2144171.nun.smt2
c2cf1e06962eb815af09c5eec42c14e2 nunchaku2144177.nun.smt2
1b1e34d92e385f384eb5130c510f5bc3 nunchaku2144183.nun.smt2
314e7885320f74032e2e1c9420c3fe46 nunchaku2144189.nun.smt2
05e781baca69d2ec0a31a5d7c2d4b2a9 nunchaku2148238.nun.smt2
9b18ed55558e686cae371000514fddac nunchaku2148244.nun.smt2
d1c40989b17da18c25d093500afcf4a6 nunchaku2148250.nun.smt2
6feb9969d361078b5ccb98d99e386051 nunchaku2148256.nun.smt2
931845f010170ecfe025429e0d8c0981 nunchaku2148262.nun.smt2
55df19a64b4efd2724d2094e80cc827a nunchaku2154182.nun.smt2
fa57d371d3baceece77abbc1fe71f3ee nunchaku2154188.nun.smt2
05a8d1f88f54eb0fb46b2b5c33037a88 nunchaku2154194.nun.smt2
643df4a90b7fb62f2dc2e0a69c92d401 nunchaku2154206.nun.smt2
7082efcd44d41ef22762529dafaae8f6 nunchaku2161300.nun.smt2
81c3d5503589fcc7e2a743ae3f2b57f5 nunchaku2161318.nun.smt2
819ee2f7f8e85f04ea5667d9a0f4e258 nunchaku2161324.nun.smt2
526f479af90feb23c7ce9a5ed06ef809 nunchaku2164850.nun.smt2
9c993c8c5ff34f9b3f74f6902316abf2 nunchaku2164856.nun.smt2
03d52ea79dea1705b0ac184d87927394 nunchaku2164862.nun.smt2
7f781f25977eef117afec6cf84f0b5d2 nunchaku2164868.nun.smt2
d8294172bc21a989af311f264766a914 nunchaku2164874.nun.smt2
d4f937d5d99b7a5f7f837d026eed83a7 nunchaku2168775.nun.smt2
51233efea41049ae6bc21dc2e8865192 nunchaku2168781.nun.smt2
a7638bb11e65d380a41fa0b65d23f913 nunchaku2168787.nun.smt2
ec9a9abea759193fc672a20fc1d82a0d nunchaku2172535.nun.smt2
45145c7f4edb78993d0d4c2556d9120e nunchaku2172541.nun.smt2
02bd3745eac6208158e19d7df627d9df nunchaku2181306.nun.smt2
cfc3ca175783044f05970ac40f8339d8 nunchaku2181324.nun.smt2
e4e6d1baad71ef2b30b752198c21f3e7 nunchaku2183525.nun.smt2
dbb65a8a49c3db128aefb660f6b67815 nunchaku2189483.nun.smt2
cf04b23b6a1077f1d11257141145f3bf nunchaku2189489.nun.smt2
4ca98a4751fe0dd4abe68678f4111d47 nunchaku2189501.nun.smt2
dd04459851c3eca9461d1c8eb4f26198 nunchaku2189507.nun.smt2
5643f93caf1d040519cebc877728ed97 nunchaku2211126.nun.smt2
7abb8c904b9dbb5155229df6800e0c9e nunchaku2211132.nun.smt2
0061b9859b156713aa491ec7ceb683d9 nunchaku2211138.nun.smt2
889addd182b292f782c05b1a9f664218 nunchaku2211144.nun.smt2
0df0e1ca868590ff075bf062128c8bbe nunchaku2222155.nun.smt2
7cd397f17aaf58375c02ce1a7448e82e nunchaku2222161.nun.smt2
913688cb641bde8964190d00482fd647 nunchaku2222167.nun.smt2
7b0e9bbf04635550e2a904aaf3739290 nunchaku2222173.nun.smt2
3087721f207789a7442b3dc8674a4248 nunchaku2222179.nun.smt2
399719afa54b898c23976f574e44ca97 nunchaku2252893.nun.smt2
86555b9e5ee2dcb81abbbc8c2b0b6f32 nunchaku2252905.nun.smt2
091b13d68678b6afef10313eb7d80827 nunchaku2252911.nun.smt2
18299baeeebd107b8ca8c794892eb921 nunchaku2252917.nun.smt2
f2027ed7ba73f9f3c999e7b316d4a172 nunchaku2262785.nun.smt2
c64559dbfe517b9eb158043d33a0e1cc nunchaku2262791.nun.smt2
558a7d65a635d242d03c8d5b8502a13d nunchaku2262797.nun.smt2
350d505850125899d90ddf086122f3ac nunchaku2262803.nun.smt2
a00e2ee7dc3ab64f803e55f0d968fcab nunchaku2262809.nun.smt2
af138b73c13ad898f6a9e7ebb5904477 nunchaku2280082.nun.smt2
427b40f1ebdb4625fe433c6cff984865 nunchaku2280100.nun.smt2
ee98cbab43e234fcf5c46e9554ea926f nunchaku2280106.nun.smt2
e820d6fa66194f21ee0168d4aed08579 nunchaku2297454.nun.smt2
d645f97946d0de3e7609c07a264867c9 nunchaku2305560.nun.smt2
9d1862d6dca26706639cf5b99dc81adf nunchaku2305566.nun.smt2
7c029f185f123390d3f1e241f81884c1 nunchaku2305572.nun.smt2
2e34d75be52d47dd005479643ec56377 nunchaku2305578.nun.smt2
560e7eebfb6624c691bf3ec0b14f604c nunchaku2305584.nun.smt2
378714b838329604bdd6364cb70732d8 nunchaku2309657.nun.smt2
0ed1d7cb254de357f97c902d295f0335 nunchaku2309663.nun.smt2
149cc02d511f0e4676ad1dc7ff64fd69 nunchaku2310902.nun.smt2
19a6dbca94ad9fea35853229549502fa nunchaku2310914.nun.smt2
6c76a26219e77d4ec2dc601d5804194d nunchaku2314363.nun.smt2
eddb646abbed8ccc2c85502d99cf9108 nunchaku2314375.nun.smt2
608ece8cd6053f840f7a8a76d285d1bd nunchaku2314381.nun.smt2
7e60db408b4c1b1073fc694fb3a0ff50 nunchaku2330987.nun.smt2
fd2075f33c04ef94b6b851872f6c04ed nunchaku2330993.nun.smt2
8e64f792141e3145cc641e1273252c7a nunchaku2340460.nun.smt2
a49e9436bb412c920075648b8fed0f22 nunchaku2340466.nun.smt2
0e1c8f13e602e7338a754f5729987fa3 nunchaku2340472.nun.smt2
e9495304041cc85df85010cbc6a8e9dd nunchaku2340484.nun.smt2
2e8f5e4d18b2b8593fed846d56bc54c4 nunchaku2341619.nun.smt2
15861fe1a57353a3e1a73a2462c5dfc3 nunchaku2341625.nun.smt2
a1d42f2603395eb0e8e007f444ab001b nunchaku2341631.nun.smt2
229ca56c85e2309a96885b24b70af09b nunchaku2341643.nun.smt2
4c8305764df46ec99a9b3a35a7ac9b5d nunchaku2348163.nun.smt2
ffb3d5aaf6081a5d9e21aed8ef75581d nunchaku2348181.nun.smt2
e60de42a738004cb406e710c908d3ecf nunchaku2359444.nun.smt2
cb8e6ab973b796009cad68a368fa60c4 nunchaku2359456.nun.smt2
ff30c523f085c486890881e99a3d367c nunchaku2359462.nun.smt2
c82379bd9c40eb329c5538af72aa6cb7 nunchaku2446688.nun.smt2
a3c714f88094d09de29d15525332f19b nunchaku2446694.nun.smt2
ee6e68c49b61c3b74871306512721e26 nunchaku2446700.nun.smt2
d87c496547acc9e280ee4e898e4e0417 nunchaku2446712.nun.smt2
68800eb4fa1fa1c6779cc6c8b7396149 nunchaku2463329.nun.smt2
43c71890ebbbb3aca902a9aeabb43af1 nunchaku2463335.nun.smt2
3523f26382b4a9bd5eaea87d3c582a6c nunchaku2463341.nun.smt2
573d00a0c7bd2c11fcf69023aa224547 nunchaku2463347.nun.smt2
7f09b508d5f0f52af2e55132a7cab6b0 nunchaku2476172.nun.smt2
bb35cbac52d77f4f262f65f1532dffe0 nunchaku2476178.nun.smt2
611de772015b07e6e8c6743a23f8cc60 nunchaku2476196.nun.smt2
e344ea16658f24d0e8d926424a63cee5 nunchaku2492379.nun.smt2
507ba7d28127fb7b833ad296fbefa92b nunchaku2492391.nun.smt2
0d1162988a39a40e23bbfbe48581359d nunchaku2492397.nun.smt2
a2015e8dcd61d6659b4eff8a2096408d nunchaku2492403.nun.smt2
218f1e35557ba40275917187749eda44 nunchaku2513247.nun.smt2
e954e713c3ee6e35eb2aa03c504e8a03 nunchaku2513253.nun.smt2
3ceea3fbf590ee93ee642ac43599873a nunchaku2513259.nun.smt2
697bc95c4b1713290def4cf23a7b2b0a nunchaku2513265.nun.smt2
7a8814ce8f0742e6c4acec811865eacf nunchaku2521114.nun.smt2
219984d335cf21949293d14c5ac4324f nunchaku2521120.nun.smt2
b2327ae0e88f165a4cfbb5ca7e2285c0 nunchaku2521126.nun.smt2
2f341bd743ab5f27685376a3abbdb2f9 nunchaku2521132.nun.smt2
b329579a0d8528aa86e71e84b58093e0 nunchaku2521138.nun.smt2
711fb47e8a7860ff360e10a7effea1c7 nunchaku2532287.nun.smt2
7f75e47b2b300d2d5df615c88bb71518 nunchaku2532293.nun.smt2
619f0f8ac39e756877491290fba9c096 nunchaku2545241.nun.smt2
42c78b9c514b826753af35e61badc493 nunchaku2545253.nun.smt2
c23efe080dd706b868f6c94f9111f316 nunchaku2545259.nun.smt2
26f51723d8fea16a5a8d6b4d45f703fb nunchaku2545265.nun.smt2
48f11e3dc3ff2959b0dd93478bb9db91 nunchaku2553399.nun.smt2
61e019b57e0e3ac120636879cc4330ff nunchaku2553405.nun.smt2
791c467c615460ae684577f63a90cfc4 nunchaku2553411.nun.smt2
afed42d0a1892126d74fa46cf33a1202 nunchaku2553417.nun.smt2
612fb9e271023078a57528b843a7b86b nunchaku2553423.nun.smt2
7bd54b1846d8580160a07d488c1633af nunchaku2561553.nun.smt2
1e03c3ab26193791be90cac64c8401ed nunchaku2561565.nun.smt2
84cf7d5555ce9a929569839059c3b712 nunchaku2561571.nun.smt2
ae97b4c29bf137afb2dfd8e6ce0da45f nunchaku2592292.nun.smt2
2f0eece5a913418033c4e8eeeb5d67da nunchaku2592304.nun.smt2
02d881f92d0fd52071f25ee961382dc4 nunchaku2592310.nun.smt2
e5a9c9cd49bbf2c00cb209d19d580121 nunchaku2592316.nun.smt2
323e04d2c74554f83c787feb02f0b088 nunchaku2670080.nun.smt2
49986147512cde54b4e58d661d32f23b nunchaku2670086.nun.smt2
b54ab4b9bbcf8797b2cda07d784a33c2 nunchaku2670098.nun.smt2
3cdd894b01aa8015f16a76259d71b31b nunchaku2670104.nun.smt2
530dee69ae207f3d3c49e9547d1686b5 nunchaku2674456.nun.smt2
64941626e309b1ecb00d030aa1afe0ad nunchaku2674468.nun.smt2
127f01a4bda7cde532b2dbd708c31f53 nunchaku2674474.nun.smt2
5bddda74e1103c58931e79e90dbcb166 nunchaku2674480.nun.smt2
df8b8378b469bd46e3ce0537d987c578 nunchaku2706502.nun.smt2
fc45ffccc1af13fa7910e00a0ff9157d nunchaku2706520.nun.smt2
6685c9e881745eefbe39613945d7d6e9 nunchaku2709567.nun.smt2
376dc582da39a77e4e183597eabe979a nunchaku2709573.nun.smt2
dcfbc8e89db7d370f8414c5431c2c6a1 nunchaku2709579.nun.smt2
5f4ec4b2d905a806f1fe1cb157167a50 nunchaku2709585.nun.smt2
d7c6ce3dfbfa8d0da4b49c4e151f66c8 nunchaku2709591.nun.smt2
dab87a4e6f032bcdcadd9d222165f9e7 nunchaku2812169.nun.smt2
1eb8388e64021b70dbefe8b3b550e86f nunchaku2816246.nun.smt2
6b743aa79910a7a884c78de1b2449851 nunchaku2816252.nun.smt2
b9907c40fecf6a79fcc40ab33d3872a8 nunchaku2816258.nun.smt2
965e28822a0b643d26532621af77ae2b nunchaku2816264.nun.smt2
d6ec4cfd2ea239251df6debba21f75d8 nunchaku2816270.nun.smt2
9aed1b8e64a52a44ad9afcb790056bf0 nunchaku2885985.nun.smt2
6cf28f6b36ed5defd0b3c3296c9da39b nunchaku2889162.nun.smt2
26f5034c680585fe6d39c10d6b8b5adc nunchaku2889168.nun.smt2
11fa960a69e68f99829a363e69acb1cd nunchaku2889174.nun.smt2
db52d323952ef79a56a0bab316de3d19 nunchaku2995515.nun.smt2
37fac1d9ae9dead1c0aa573d2aa27a32 nunchaku2995527.nun.smt2
92b9a0d54d5ce9ad4ca75077d4c4c410 nunchaku2995533.nun.smt2
114dd57e08b688eecc5f6c7c0ec9e6ff nunchaku2995539.nun.smt2
56e30e0548b7721bd9ff9fefb750d975 nunchaku3003837.nun.smt2
ea48ee6f050bcbf0bfee89b723394133 nunchaku3010313.nun.smt2
f6b2dfc6ca4e0ca55bf1a83be4b8fb7d nunchaku3010319.nun.smt2
67d18004e4bdaeac8b74c253233d1283 nunchaku3010325.nun.smt2
a453df5b91a37a48512bd2d8f17c0c48 nunchaku3040595.nun.smt2
c562bde3adbc1d8af662d3058ca84eba nunchaku3040601.nun.smt2
1e90a1a7297b12e5e27fa9eea5345543 nunchaku3040607.nun.smt2
bf4eb7f2577f5145fe6883eb27b1e5c4 nunchaku3040613.nun.smt2
13f60753f5af5b4deb56eb9a1b4a15ea nunchaku3056703.nun.smt2
1cd744314e3c486d34706c260d6a1863 nunchaku3056709.nun.smt2
80a96f46e51561844daaa0121e660214 nunchaku3056715.nun.smt2
4fd14000bff52e54612194b662598a20 nunchaku3056721.nun.smt2
bfc23312619698fddc662745b278d44b nunchaku3056727.nun.smt2
7a1c4283dde53984475a77e4884436e3 nunchaku3078226.nun.smt2
3f57da87f0293f7d55851ba9d8837f7e nunchaku3078232.nun.smt2
5d0a813f89b8c9284a72b2767667c0b4 nunchaku3078238.nun.smt2
3f19f46edc7a00da89eb22a4cfd60844 nunchaku3078244.nun.smt2
6fb4069a896ae3305d94e463479f98a3 nunchaku3078250.nun.smt2
6909426b438f7eaf0485b1f1a148030e nunchaku3084859.nun.smt2
68fe933defd39fd96d43473f802cb42d nunchaku3084877.nun.smt2
42b5fc35439733344920266226ec2bc4 nunchaku3084883.nun.smt2
2820307893c8ea5fbb9036ad5c773ec7 nunchaku3318575.nun.smt2
bfe01f8da705be22f539e38233cc67ca nunchaku3318587.nun.smt2
be8cc327c3962d3279f3985c925dbdc4 nunchaku3318593.nun.smt2
e59ed4e27573f683ba79971bf41745dd nunchaku3318732.nun.smt2
614f7937be772799ab6ccdb17b322ca6 nunchaku3318744.nun.smt2
b90c4b50a0bb2fd35dbd44499537795d nunchaku3329179.nun.smt2
bd35d8cfb51214c80254961f713f5b0c nunchaku3329185.nun.smt2
7b43dfc9b9e65e1633ea75273bf045d1 nunchaku3329191.nun.smt2
34d83ad93ea60229e0be59050434cde3 nunchaku3329197.nun.smt2
1d7df5f698a2cf340dfa35c3527401eb nunchaku3329203.nun.smt2
f09ada01c2f1af524a681b0cd88a09fd nunchaku3361632.nun.smt2
fb84ff6cdc742964722eca8ac24901de nunchaku3361638.nun.smt2
0d1b8318851685ab5c431315e75add77 nunchaku3361644.nun.smt2
d410a4914741621301ab6be0287a0378 nunchaku3361650.nun.smt2
5164b924ff2065c750fc6654af19c775 nunchaku3361656.nun.smt2
5438fbcde9ba65c0480d9451234464ed nunchaku3371046.nun.smt2
9749a75ed55412bb91c62078b4df8f4d nunchaku3371058.nun.smt2
e311bf9e48a20c87446d866b2253bdb2 nunchaku3371064.nun.smt2
63df855c26925df1bf9d419173664b18 nunchaku3371070.nun.smt2
0943964e5448b54528266da098d61298 nunchaku3400945.nun.smt2
be9131be407f7581a0310a65c64d4f94 nunchaku3400951.nun.smt2
6435be072b51df8fa1230142ae552e81 nunchaku3417069.nun.smt2
4520eb577e8aa6c0c4212020eb281b4b nunchaku3435649.nun.smt2
58fb886c8cb98471248668d019a1471b nunchaku3435661.nun.smt2
1c530180a25574f6d9efb36f1efd336f nunchaku3472837.nun.smt2
65f23cf23e5b63ceb53c91b589059ff3 nunchaku3472843.nun.smt2
