ee7b1fc64cecd46d04f6212013d266f5 concat_check_heap_access_36_4.smt2
550b8a7f8da37673ccfad29b7c2efd79 concat_invariant_31_4.smt2
b9199569f7b2994e9586db81847dfcc6 concat_loop_check_heap_access_34_6.smt2
4c1f93dcf2d2d8f4b8632000156fbcb7 concat_loop_invariant_35_5.smt2
003f35ca50a33e2a0a072f62012779cf concat_postcondition_of_concat_27_4.smt2
f97efce93af999272f1f4932b0a0b7fe concat_postcondition_of_concat_37_4.smt2
d7ea2979fd64a6a98b90f5f9c56931f9 contains_invariant_36_2.smt2
a279df4c9b908d4cfb407676faaf93ec contains_loop_check_heap_access_43_4.smt2
dacf75b1ac5c06d2dba38d55df760e06 contains_loop_check_heap_access_44_4.smt2
10af50002af61f889852f83563802a72 contains_loop_check_heap_access_46_4.smt2
249bc844e8d69442ca87d7aee5fb3082 contains_loop_invariant_47_3.smt2
d3cd745e589da03b00fafc9aca6d48d4 contains_postcondition_of_contains_48_40.smt2
6be830ad81b029fe465b1334ac5b508f contains_postcondition_of_contains_49_7.smt2
d034496fed6fbc5502f61a17b9c94166 copy_check_heap_access_33_4.smt2
f9d0c94167b2695339662c09bbacfc40 copy_check_heap_access_33_4_1.smt2
4cb84cc59e311eda44846781296e6615 copy_check_heap_access_34_4.smt2
28d72f049ffd9679531a02299e07cbba copy_invariant_35_4.smt2
833b7b848785897f95dcd0b32917b076 copy_loop_check_heap_access_46_6.smt2
cb10d9be9570cd452878282485467781 copy_loop_check_heap_access_47_6.smt2
428a55c38720483896a87a789eb0ea09 copy_loop_check_heap_access_48_6.smt2
3d09c58942579f730d58dd95656a5225 copy_loop_check_heap_access_48_6_1.smt2
54309689f77438ad51e81f0ecf9ed758 copy_loop_check_heap_access_49_6.smt2
67fc34c9a93c062c7f091e96a8bb4afe copy_loop_invariant_50_5.smt2
2d719f0a0ec73612bd3dff1c715a1566 copy_postcondition_of_copy_27_4.smt2
2fa9b0ed53d0ce29efd624486b1092b3 copy_postcondition_of_copy_52_4.smt2
a8e462df4040b93e4565381b8a58decf delete_check_free_51_8.smt2
ce9bbd3305ce23657a8f685fcf3f1077 delete_check_heap_access_50_8.smt2
61f0ca9da213638402b7a1ecb728a4f8 delete_check_heap_access_53_12.smt2
f6866e19e855a5840429adf98999fea6 delete_invariant_35_4.smt2
9148206df79e799ed1aa818c65d21136 delete_loop_check_heap_access_42_8.smt2
a154ec94e3587590deb915e462c4e557 delete_loop_check_heap_access_43_8.smt2
6e823a6a319960cf71b55f7e5e2ad540 delete_loop_check_heap_access_45_8.smt2
39a174dded36569a842289733b6b9dbb delete_loop_invariant_46_5.smt2
a4cdad9154194f3fa1db758f3fb0c169 delete_postcondition_of_delete_54_12.smt2
3111e2335feab01ed07f4d45e7cabfbe delete_postcondition_of_delete_56_12.smt2
04c3cfda18fc65c56a643e57d6b0cdd9 delete_postcondition_of_delete_59_8.smt2
782173bf8ae5cce1ba79aabd0db394a8 difference_check_free_42_8.smt2
ba00f245cfaba04c4f64dc60a3733098 difference_check_heap_access_35_21.smt2
1bfb6b6d0c99c4afc00f8af4e5a35097 difference_check_heap_access_35_8.smt2
f41896570e25da38a08e42cdf3a83f4a difference_check_heap_access_38_15.smt2
da9bf7be8bd85d5976d4841af9c60026 difference_check_heap_access_41_8.smt2
33df1ddbd8ce6fff498ec1a986faaf13 difference_check_heap_access_43_15.smt2
506f35499e5d9ffec33656b6d8871ad3 difference_postcondition_of_difference_31_8.smt2
3efea134f00ad74835c6a9f3c87db97c difference_postcondition_of_difference_33_8.smt2
9dc77556c1596f1a9de628cd553b8f1a difference_postcondition_of_difference_36_8.smt2
0a82fb4794d569a825af242ed31d044d difference_postcondition_of_difference_38_8.smt2
113cbdb5f9e513550e20b91cc14c0c79 difference_postcondition_of_difference_43_8.smt2
e6dcb4e2cc176c5888f042c5835268a6 difference_precondition_of_difference_35_21.smt2
57370da41973980412e768fe79982234 difference_precondition_of_difference_38_15.smt2
a3084c13ffd223e61802352f4a335f9a difference_precondition_of_difference_43_15.smt2
cc9dd0771d8c7b37690b36c4015f08b0 filter_invariant_30_2.smt2
41ca42bbead5ba4013c9028e338d9ef7 filter_loop_check_free_44_6.smt2
2a02fd906afceb2f97d88aa3b872f1b8 filter_loop_check_heap_access_36_4.smt2
eece4c3b2244a7b4aa2387d01d658446 filter_loop_check_heap_access_40_8.smt2
c607c19da47878d4fa21264304c85d30 filter_loop_invariant_48_3.smt2
245b3b73e2c3318c5db92a953eb51379 filter_postcondition_of_filter_49_1.smt2
710d5bd79351e21fcf9de5bf367cd382 insert_check_heap_access_52_2.smt2
846e87af269bc02745e72d47d542acca insert_check_heap_access_53_2.smt2
d78f3060b2e864062c1568ebb8d9dbf7 insert_check_heap_access_55_4.smt2
46e8c3743a6e412d1b567551be473a6f insert_invariant_35_2.smt2
89c520f7d9164d7ea73796680f19ec2d insert_loop_check_heap_access_42_4.smt2
81765f390267cf9d00aa20fe8c845448 insert_loop_check_heap_access_43_4.smt2
41a3ba0afcc3d81315083c0ef3e4502f insert_loop_check_heap_access_45_4.smt2
0e3695c9b39eaf7cab8d0e7f8d23d15a insert_loop_invariant_46_3.smt2
ff75439533db85e21624cfc14f3c1fd2 insert_postcondition_of_insert_49_4.smt2
55a8607b0f7b7ae114300861be51c8f6 insert_postcondition_of_insert_56_4.smt2
c83846f14b7a42a46aa9aeb4c56ad2a2 insert_postcondition_of_insert_58_4.smt2
6a5c3afd428049309f65366c0314274f insertion_sort_invariant_37_2.smt2
e7022f33ea4a2f61fdbc1183b0c7fdd4 insertion_sort_loop_1_check_heap_access_54_6.smt2
6876062c5d0fb515cb1699c1ad4b6127 insertion_sort_loop_1_invariant_55_5.smt2
c52d34800aec40562f5ebdd77932f2df insertion_sort_loop_check_heap_access_42_4.smt2
7fb7762bd0dac12b11eb077a209098a8 insertion_sort_loop_check_heap_access_57_4.smt2
4bfcab764be45bd6ea52720b19d79dd8 insertion_sort_loop_check_heap_access_58_4.smt2
06700ddaa94d30828c0b92910ed0aaeb insertion_sort_loop_check_heap_access_58_4_1.smt2
7db47900d8951480e3ceac416f9b7649 insertion_sort_loop_check_heap_access_59_4.smt2
bb52bc0a1eef9e8aec970bb79dd7488a insertion_sort_loop_check_heap_access_61_4.smt2
8d73546cd6f57c1fae22c19bca4742bb insertion_sort_loop_invariant_44_4.smt2
fbf65920b864a5adea5e24fb0de4f449 insertion_sort_loop_invariant_62_3.smt2
f16eeb2bf0693b04f6b12c2cccfa720e insertion_sort_postcondition_of_insertion_sort_63_1.smt2
723f92ee3474135e52902c79cd37ed25 merge_check_heap_access_37_4.smt2
c03391270642a1bd4c0cad74b61b0752 merge_check_heap_access_40_4.smt2
d565eaad93094b673d8938a27caaa4c3 merge_check_heap_access_43_4.smt2
a61ba590fe4a876e21dc0087e4b0767c merge_invariant_46_2.smt2
849107d2ce2a1ebd620f1fd783dca308 merge_invariant_49_2.smt2
1f2adeccacd3ce013a7f43329f36f144 merge_loop_check_heap_access_53_6.smt2
be2761b5910bf58b1b50ffdca01ae4ee merge_loop_check_heap_access_54_6.smt2
0391dbc50bf80726f677c59975df0c69 merge_loop_check_heap_access_55_6.smt2
d0c1156cf3b198149dfd48b7c6f3e7b8 merge_loop_check_heap_access_56_6.smt2
972962e3848a733718c2514cf2e6dbe6 merge_loop_check_heap_access_57_6.smt2
4b740ca3d8a100f593c4af16b02e49c3 merge_loop_check_heap_access_58_6.smt2
a00c7c3c2fa5d3dc4a8d73113a85c512 merge_loop_check_heap_access_59_6.smt2
50007335ee7d80f66a965df0222580df merge_loop_check_heap_access_60_6.smt2
3f8507d538b1ba21343cffab56ea2195 merge_loop_invariant_61_3.smt2
4c9aebc660fd992b8c67e9967132dc76 merge_loop_invariant_62_3.smt2
6761a6e495e9febd6886885c8f8f8849 merge_postcondition_of_merge_32_4.smt2
7bde283d66fe280ef7f002953e991379 merge_postcondition_of_merge_34_4.smt2
0cfebb1b076123e71e9f4c46266425f9 merge_postcondition_of_merge_35_4.smt2
19b895508cf3d3d48ba633549717c33e merge_postcondition_of_merge_37_4.smt2
12699a7dc86ce9d9e206bc98fd2feb28 merge_postcondition_of_merge_62_2.smt2
7fca7df6bab504a474834dca83d5a492 merge_postcondition_of_merge_64_2.smt2
e165e0d715b662dbeee7af266d9e6613 merge_sort_postcondition_of_merge_sort_102_2.smt2
c0973865294dd799ddd27a634058f7b9 merge_sort_precondition_of_merge_102_9.smt2
edd06221755ce938f6fc880c16c6255c merge_sort_precondition_of_merge_sort_101_10.smt2
b9736ad1b81026c98c0836bd811be292 merge_sort_precondition_of_merge_sort_99_10.smt2
4f7807d2a884de1ac1b92696a381a2a6 pull_strands_invariant_78_2.smt2
68fa800e5fe1b350dc993ffe22497588 pull_strands_loop_check_heap_access_87_6.smt2
61c3fbf693d2d6eaa504c83fe00ef9b9 pull_strands_loop_check_heap_access_88_6.smt2
eeafdec76a48d188dea1459bf9881312 pull_strands_loop_check_heap_access_90_6.smt2
2f07c110808dc18f1af7c39a7cd04c48 pull_strands_loop_check_heap_access_95_8.smt2
c1ef2e8725a5ecdefea552714eb94c91 pull_strands_loop_check_heap_access_99_6.smt2
098ba62eb9575b7feb7b1856ec9baf9a pull_strands_loop_invariant_101_3.smt2
c98cc36d4ac8e6c8f471629c468dc0e5 pull_strands_postcondition_of_pull_strands_102_2.smt2
e8511d45712f4db808d1f4fb3c468793 quicksort_check_heap_access_54_4.smt2
e39a31ca82f88427f87434ad2335086c quicksort_check_heap_access_55_4.smt2
38a24cd402f2f11270843b4a33ef4558 quicksort_check_heap_access_55_4_1.smt2
ee8969ab9f941050f8126a3c91e42247 quicksort_postcondition_of_quicksort_55_45.smt2
3e54745f292dfd61b627eb1d0e11f630 quicksort_precondition_of_quicksort_54_4.smt2
15398bd915837d8830694e7aa5bb6d6b quicksort_precondition_of_quicksort_55_4.smt2
54e1497e7b0f5679f3795947657126b3 quicksort_precondition_of_split_53_13.smt2
618364e531bfc128eb1a9605162b31c9 remove_check_free_43_4.smt2
434616509b237b703198fc38db72305b remove_check_heap_access_39_6.smt2
e9b7888e72b3e2993c390270a7913731 remove_check_heap_access_41_6.smt2
f359ce96599ebcb5c90b7cb9c3c8879d remove_check_heap_access_41_6_1.smt2
75beface2f6507532d8d8ed9cd802229 remove_invariant_29_2.smt2
d05d03896f5175df8a3bbc91ad763548 remove_loop_check_heap_access_35_4.smt2
fda21b93a7de014a5216efd362833c99 remove_loop_invariant_36_3.smt2
a7b29db35b87d59106a7f72a1268a329 remove_postcondition_of_remove_45_2.smt2
fb41e7add6a59593540c6f39be600d48 reverse_invariant_29_2.smt2
91376e1b01d44791bb8c1fdad021f136 reverse_loop_check_heap_access_34_4.smt2
b46692621ac3866135ff82e284a99777 reverse_loop_check_heap_access_35_4.smt2
ae36d2258c6fb16f44dc73dc34fa766b reverse_loop_invariant_37_3.smt2
20ae69ae93aead0ca09203e2d9bd3a5f reverse_postcondition_of_reverse_38_1.smt2
811accb8d8fe850bb0dab5338ce5ed98 sls_dispose_invariant_20_2.smt2
a196157c3b767af2231334b43586a5e0 sls_dispose_loop_check_free_26_4.smt2
f71ca666067521cadd8b1a4489e49b96 sls_dispose_loop_check_heap_access_25_4.smt2
0a72bd0f2a0e72856efccaab968d339a sls_dispose_loop_invariant_27_3.smt2
f43ff8e8360db642868263d1d6586123 sls_dispose_postcondition_of_sls_dispose_28_1.smt2
e81668c866a8627e002d65e6801dca7b sls_insert_check_heap_access_27_4.smt2
134b2f6b5e4c26e0659a61ba7cffd40e sls_insert_check_heap_access_40_4.smt2
095744c1a7f627f83208ddc4c22fd8c0 sls_insert_check_heap_access_40_4_1.smt2
14b12b77b38f104b55749842ceb2f9e7 sls_insert_check_heap_access_41_4.smt2
45ed8999bf7214756d08d214606ef758 sls_insert_invariant_32_4.smt2
1c067ed7f54b2fa2a9d0bc93c492128d sls_insert_loop_check_heap_access_38_6.smt2
d63ab00f0c33cbf0e939ae0d3f7144e9 sls_insert_loop_invariant_39_5.smt2
ce83b796f004e4b5610de5a064948180 sls_insert_postcondition_of_sls_insert_28_4.smt2
54871f7969d17778e034e7e9e78f11b2 sls_insert_postcondition_of_sls_insert_42_4.smt2
fea9b7f25c32630022bf760396d1f43f sls_traverse_invariant_28_2.smt2
0a293e3a3c47fbe80afd97a80a1a44e1 sls_traverse_loop_check_heap_access_31_4.smt2
76cdb9f8452040665bf060a0a051ed24 sls_traverse_loop_invariant_32_3.smt2
6adb672f745f833b9291b1e453b6595c sls_traverse_postcondition_of_sls_traverse_33_1.smt2
b2d5ddff4c76a0268d26a65056ab359d split_check_heap_access_24_2.smt2
3275025b98677966766f6d8d14f15535 split_check_heap_access_85_4.smt2
93abe996e1590c2b9057dd4321b4cdfd split_check_heap_access_86_4.smt2
420277cdfe8497d89d2525d80ae07906 split_invariant_27_2.smt2
ec11127ee78ac93126a8f7f2b174cfe1 split_loop_check_heap_access_37_6.smt2
a38a3d07672eaba75bab8ff9a3a2a45a split_loop_check_heap_access_38_6.smt2
62977e482a0a91f81858aeda5b3e9d33 split_loop_check_heap_access_38_6_1.smt2
4d8f080aa6b91897f1bf5025e5d8fc8b split_loop_check_heap_access_38_6_2.smt2
73699832d82ff59bb8bfdf78f277ea84 split_loop_check_heap_access_39_6.smt2
c1643c3b162aae4f60824e275c5bceff split_loop_check_heap_access_39_6_1.smt2
8a3abd66c11a668a6c013d99da017373 split_loop_check_heap_access_40_6.smt2
d49f1ffea5d87a499032fae419255751 split_loop_check_heap_access_41_6.smt2
475b3b0978667456a4b172d9714b3688 split_loop_check_heap_access_43_4.smt2
5de875a93b2e1b580a34e2c7cbc7d8cb split_loop_invariant_44_3.smt2
a445db9194b597f8429889c61ad9e53d split_postcondition_of_split_45_1.smt2
b16014a4e0f2b812345456ad419350fd split_postcondition_of_split_88_1.smt2
f5a148686362c9502940f4649c23a431 strand_sort_invariant_111_2.smt2
4d9be70e49acfaabe24a912ce8067b1d strand_sort_loop_invariant_118_3.smt2
ac49835a5fd41ca57cd8b0266efb9c39 strand_sort_loop_precondition_of_merge_117_14.smt2
cf9f7e9f19e5dc76bb2176b5d62d71b6 strand_sort_loop_precondition_of_pull_strands_116_23.smt2
8d876d0a79edbd6ad269c5f59ab5f1a4 strand_sort_postcondition_of_strand_sort_119_2.smt2
a5db9669264e45ef7cf34297ca0359b7 traverse_invariant_35_2.smt2
25f89373b0eec9a1e9910755c44dd459 traverse_loop_check_heap_access_42_4.smt2
e0c41cd5a0dfdd815da7116e216ce32d traverse_loop_check_heap_access_43_4.smt2
63cd6451b66c0ad707db5029809dab47 traverse_loop_check_heap_access_45_4.smt2
21d99a37b8e9b3e1cd522c6896864f9c traverse_loop_invariant_46_3.smt2
bf084a00c5e08c44e924326662221d5a traverse_postcondition_of_traverse_47_1.smt2
d7b529d4601e067c9eedcb7bd37f273e union_check_free_43_8.smt2
1c2ee8a12d365c9949942ce09848a325 union_check_heap_access_35_21.smt2
42704c5b8966bac142cf15afb80b9282 union_check_heap_access_35_8.smt2
35f2161bdcfe8f2f2d2da0f61838a81f union_check_heap_access_38_21.smt2
9ab12f354d0cd0580764e0ffcfd550f9 union_check_heap_access_38_8.smt2
65afd213c139eb7e83db93e0a7b6bd3a union_check_heap_access_42_8.smt2
5a980932722c6d885c35374eb2b953a7 union_postcondition_of_union_31_8.smt2
891a834cfe4f19466de42300a12101bf union_postcondition_of_union_33_8.smt2
3ae98b4c3165f8bfc61d654aced8a00d union_postcondition_of_union_36_8.smt2
01fc66b1b738f6b1d3dd57efe155d055 union_postcondition_of_union_39_8.smt2
e396495f04c9a094855d17f93abdc53c union_postcondition_of_union_44_8.smt2
3def62734341cbc036fd1cc4a7918bd6 union_precondition_of_union_35_21.smt2
8f37978ea93f5f97fca4e86eb25dfff8 union_precondition_of_union_38_21.smt2
c1580baf29c9f111678ee35aeaa149ea union_precondition_of_union_44_15.smt2
