2369264fa43f35da14a34b9ddf6a07a7 no_init_bubble_sort_safe12.c.smt2
a08fc3fd1922e26b2ca328239c1a0100 no_init_bubble_sort_safe17.c.smt2
2a7a45f0b76ff7d9c095366b68074099 no_init_bubble_sort_safe2.c.smt2
b30ceb253abd78227d7a060a4e1ee238 no_init_bubble_sort_safe22.c.smt2
fc1e2054bb86d8e1ef0d36db832789bd no_init_bubble_sort_safe27.c.smt2
972cce91d86bdf54c872e7353e4d1073 no_init_bubble_sort_safe7.c.smt2
3facc822bb9310276886b9b8976f7573 no_init_bubble_sort_unsafe12.c.smt2
8faf35b3e741723893fea7a05de05b5e no_init_bubble_sort_unsafe17.c.smt2
db45ea2da98a77ba4cf5fea93f769f0a no_init_bubble_sort_unsafe2.c.smt2
5cde326b30da07c310b6cf5a330204e4 no_init_bubble_sort_unsafe22.c.smt2
228db5fb9279361c9436fc7f455391c5 no_init_bubble_sort_unsafe27.c.smt2
4c6edf83ac748926c9832b9c28d27a9c no_init_bubble_sort_unsafe7.c.smt2
