2aaa6f744188442f034bac695459a442 query.01.smt2
15a2d152019e458725a1464dfc473b72 query.02.smt2
5b4eb39ad861e097282df806e41582d0 query.03.smt2
001ae7faec2efe3e48f448614f87f0b3 query.04.smt2
cd52968d052f39e7e514c78d0ebb8aac query.05.smt2
56f5a8b5a006defaf4f9bf169aa7ddb0 query.06.smt2
27fe0126325df7ee7ec3ccc9a4b92e70 query.07.smt2
6ca0c0a831047a86edbd3c8d45f373b6 query.08.smt2
a3bd2052609d7ef76066b414683ec555 query.09.smt2
