9be357afb386a4f419e9444f5c0c0774 com.galois.ecc.P384ECC64.decFieldPrime.short.smt2
88253fb4f206b0b2cd320d08e615e6d0 com.galois.ecc.P384ECC64.decFieldPrime1.short.smt2
de19be99c51362e97c93cbbd33f45703 com.galois.ecc.P384ECC64.ec_full_sub.short.smt2
eaa60093b8acc022b542359a73ee1489 com.galois.ecc.P384ECC64.ec_mul_aux1.short.smt2
ffe843f1cd56e71d6c34042a213120b2 com.galois.ecc.P384ECC64.ec_mul_init2.short.smt2
e8cb77fb64b76a0ce8d3156b994403e1 com.galois.ecc.P384ECC64.ec_mul_init3.short.smt2
2feb9220757ba9e0aa1b4b108640c7ae com.galois.ecc.P384ECC64.ec_mul_init4.short.smt2
00993e0268805fd21d555914d1b01ad6 com.galois.ecc.P384ECC64.ec_mul_init5.short.smt2
115eeefc177f3fb4682a13ed40b39552 com.galois.ecc.P384ECC64.ec_mul_init6.short.smt2
92de40b3c506f5083d91d945574cf0b5 com.galois.ecc.P384ECC64.field_add.short.smt2
60e36cdad9fefa26fabf023ee7f037f5 com.galois.ecc.P384ECC64.field_add11.short.smt2
837318826e6f23a5166646a1b96f485d com.galois.ecc.P384ECC64.field_add14.short.smt2
49a5f65adc9a03842a4331108fb03686 com.galois.ecc.P384ECC64.field_add3.short.smt2
7e2d72183ce9c7f6d8e61f36168db563 com.galois.ecc.P384ECC64.field_add6.short.smt2
5aefc46466806d5b346fda66c6fefbf0 com.galois.ecc.P384ECC64.field_add8.short.smt2
b9cf5c4ae561b095e6b74327672af3be com.galois.ecc.P384ECC64.field_add9.short.smt2
840481e29e4246ab3e07ac4055d2539b com.galois.ecc.P384ECC64.field_dbl1.short.smt2
8639a231069ed7ef11aed233e3449aeb com.galois.ecc.P384ECC64.field_dbl2.short.smt2
ba551098b79b97d544c19a3058513010 com.galois.ecc.P384ECC64.field_dbl3.short.smt2
b8c465251166647102fab8343d399794 com.galois.ecc.P384ECC64.field_dbl4.short.smt2
09ad651fdc05ac0c58eb4e24b342b095 com.galois.ecc.P384ECC64.field_red1.short.smt2
dfb3fbdb251d556cd111ef105841be12 com.galois.ecc.P384ECC64.field_red2.short.smt2
14965697b0e069c5a2768bec512e6d82 com.galois.ecc.P384ECC64.field_sub.short.smt2
de8448242e9d96d74a472d29988ea2f7 com.galois.ecc.P384ECC64.field_sub1.short.smt2
755343b7b60e2ef31e57047cc0f5fc61 com.galois.ecc.P384ECC64.field_sub2.short.smt2
f1ba0a514cff5f619d2caf6ee15f54bf com.galois.ecc.P384ECC64.field_sub3.short.smt2
74dae83993bc773cacfaaf0661601c54 com.galois.ecc.P384ECC64.field_sub4.short.smt2
f33ff51d5152d1489d56add21046db89 com.galois.ecc.P384ECC64.group_add11.short.smt2
54d0bacb40c84d87395311feca2c5f91 com.galois.ecc.P384ECC64.group_add14.short.smt2
5758b3de97cbd254587ea63711f93ccd com.galois.ecc.P384ECC64.group_add3.short.smt2
a8b5ed0aa4c5004bcb8bbff30822608e com.galois.ecc.P384ECC64.group_add6.short.smt2
4ed23591c81f33a499e3750257cd90e4 com.galois.ecc.P384ECC64.group_add9.short.smt2
c4a3cd1216b8abd00d6e0456f00d9629 com.galois.ecc.P384ECC64.group_mul_aux.short.smt2
d4c8fc9547ad0cd8706206108511269a com.galois.ecc.P384ECC64.group_mul_aux2.short.smt2
0e6e7a481f48ea3c0e089290655421c4 com.galois.ecc.P384ECC64.group_mul_aux3.short.smt2
eacbfac247c0f29b1dcbfb59547dc141 com.galois.ecc.P384ECC64.group_red_aux.short.smt2
02a8c20ae0fe854ee556e58e2225adbc com.galois.ecc.P384ECC64.group_red_aux2.short.smt2
296e3f8e9e122fbbe30a69420aa66840 com.galois.ecc.P384ECC64.group_red_aux3.short.smt2
25350044d18f72449c44a28b0e8f1147 com.galois.ecc.P384ECC64.incFieldPrime.short.smt2
bd1cf81d79156d897df9c3b682fe8e07 com.galois.ecc.P384ECC64.incFieldPrime1.short.smt2
29b7504e72049d0b507f76db62e94ca0 com.galois.ecc.P384ECC64.mod_div15.short.smt2
d53a25dad06bbe6d6fd3db2672aa99b7 com.galois.ecc.P384ECC64.mod_half.short.smt2
7004124cc2e3e18e0da0aa2cc09e4a8f com.galois.ecc.P384ECC64.mod_half1.short.smt2
5b1162424c71c099999336cbf380715a com.galois.ecc.P384ECC64.mod_sub.short.smt2
ee589ad1e0b0dffae3e874875f401f33 com.galois.ecc.P384ECC64.mod_sub1.short.smt2
031aca14cccb61c47aa21143f888d0d6 com.galois.ecc.P384ECC64.mod_sub2.short.smt2
ae74104ec04286695ef5798185862a82 com.galois.ecc.P384ECC64.mod_sub3.short.smt2
513637eed2f7d168167173f2ea103d0f com.galois.ecc.P384ECC64.mod_sub4.short.smt2
6ee11259fd25a48ae241a491bd13652c com.galois.ecc.P384ECC64.mul_inner1.short.smt2
170a61132b970b3223034dda22b43151 com.galois.ecc.P384ECC64.signHash.short.smt2
1c83f5808d6210b53af4a407e7504d7b com.galois.ecc.P384ECC64.signHash1.short.smt2
b0fef44da1df2e33b90280af91d4b445 com.galois.ecc.P384ECC64.signHash2.short.smt2
