eaa1abdaa10ca52f5f39896a06dd9c85 inf-bakery-invalid-1.smt2
f608326a4e19e337e89ff41846e0a032 inf-bakery-invalid-10.smt2
9ead06adb708455b629e522a50b5cf2a inf-bakery-invalid-2.smt2
34663e05540a7ae2ac8fb834acdd03e2 inf-bakery-invalid-3.smt2
40452bf4f8ea7ecd5bb0d2038f64dac1 inf-bakery-invalid-4.smt2
0775054d65a5208ce2e476f2b477c10f inf-bakery-invalid-5.smt2
eafa15206ca565e63d843646ec012c32 inf-bakery-invalid-6.smt2
36ac63779dad5ee6cea8fe468eb801de inf-bakery-invalid-7.smt2
56e9c0c6745d5e978136cd4b1d9b0d10 inf-bakery-invalid-8.smt2
b8471630a771aa364e4f4d61774274c4 inf-bakery-invalid-9.smt2
e9242c31b8241613e9b1cca0839d8c02 inf-bakery-mutex-1.smt2
37313a557dc449fed8c5bce7f0fe0099 inf-bakery-mutex-10.smt2
456b7a23c6c8cba4578f611f373ac932 inf-bakery-mutex-11.smt2
06a62fcd0393b0ce752cb7f35fd7db73 inf-bakery-mutex-12.smt2
61237bc85edb4b5b919bd6326b9f2237 inf-bakery-mutex-13.smt2
b88d0cbe09e2b7aa5d496d3ac4b3c5ea inf-bakery-mutex-14.smt2
4dfe704fb95d694f8032c60739d95053 inf-bakery-mutex-15.smt2
7648937ed7349a5be4773a517466737d inf-bakery-mutex-16.smt2
e98bd884e4c18c8b147912af9ec5171a inf-bakery-mutex-17.smt2
4771f2f5e7eb2c6972145257cdc1d540 inf-bakery-mutex-18.smt2
951eb74b4ada8431dbc6f7d16a95fa33 inf-bakery-mutex-19.smt2
3c8849ee67c024058ff557d219eac072 inf-bakery-mutex-2.smt2
a262c90c52d4cf58d8f786b82b0a3cb2 inf-bakery-mutex-20.smt2
090d18175eb3c43335b561d4f3f50564 inf-bakery-mutex-3.smt2
846ccc000334a08af142526d78dfcd7d inf-bakery-mutex-4.smt2
658e5727d2858930717143c3b53ea122 inf-bakery-mutex-5.smt2
68be78e48505428ffaceb2192adfb39e inf-bakery-mutex-6.smt2
64ad54c680bc9850f133636372ba6e32 inf-bakery-mutex-7.smt2
1f1ded9f0d3f27f37a1ce5046c733586 inf-bakery-mutex-8.smt2
9f72f7e374b8ca87bb05333e66739208 inf-bakery-mutex-9.smt2
