cba7519d3eff9881b6c22fab0b5d1571 prp-0-110.smt2
8e888c2be44d8581c0e3d5203fbebf0d prp-0-111.smt2
18b789bc9bcdb26fcf654f140fefa919 prp-0-112.smt2
16f94af50b2b7c76b0603c9eb9abdc29 prp-0-113.smt2
a48500e379d82e5c89fc3e60b600ad04 prp-1-109.smt2
4b475458d96ece3656ed65ed21ddf45e prp-1-110.smt2
e78a1d19ccc0cfa8bc5eb0819567df15 prp-1-111.smt2
dc355516c1c40d28efa40732260bee30 prp-1-112.smt2
9437cffadfc14644b53826f422edd2c1 prp-10-46.smt2
e77ca1efc732514a0792b41bae3c5638 prp-10-47.smt2
df97dd254a849e9cef4c8d4fc3b15089 prp-10-48.smt2
c7e7fb4a201b45e875911eb200887274 prp-10-49.smt2
145f99f66acff55e3b00e2f9f88cb6ba prp-10-50.smt2
c8d5075d8ecd4ab07480204929a8a514 prp-11-46.smt2
98b48918435b24c8a1e69639765106eb prp-11-47.smt2
238420ccbcafa597dc594b3a886628c7 prp-11-48.smt2
d60915b828527b7f311d19deb38ecca0 prp-11-49.smt2
e23c71fb06b8a1c061ebebe7d02a991f prp-11-50.smt2
588281698784d0e297921403219bbccc prp-12-46.smt2
48dccdf82810d65954bebb0644d52635 prp-12-47.smt2
62b295cf7680ffa10c9852d9b413e7c7 prp-12-48.smt2
deff985baa0a78287c9d00f0054ce77c prp-12-49.smt2
7ba6768dd7a9624bacdeff2bfba07c4c prp-12-50.smt2
0e839f1178ed647be592b90a9cfbd7a6 prp-13-46.smt2
a09739635b09ed2c82a526da6de06586 prp-13-47.smt2
c59988ee7ae3e8e4b9779d5094778d19 prp-13-48.smt2
797dc6b7019a600b6151a2f019cb4b97 prp-13-49.smt2
4a7b6782aab9236a7bc9c7964c17d073 prp-13-50.smt2
f1dd4dabbf55843f628195d7a095d8ea prp-2-110.smt2
3e1af6c2e598012c7057c8e27fb38f94 prp-2-111.smt2
3ae8ca1e7bf8e4350befbe53b3f7b040 prp-2-112.smt2
d0b15271dd60264c6f9b75ddbed3bd42 prp-2-113.smt2
9f2752a181d965e96069452664183814 prp-3-110.smt2
56f411d4fd5b767f71e30586c30529bf prp-3-111.smt2
8922e70711acd633f5420ce4a0a477a7 prp-3-112.smt2
b96aea6d9b221e745dac0c11b006aae5 prp-3-113.smt2
b3598ee17aa332c9c458a9dc0d3ca75d prp-4-110.smt2
459bd8262f3b8902a45d91ba4e902123 prp-4-111.smt2
c24597d910f0c27900c174274bfb4baf prp-4-112.smt2
45acd8a0cb1dc1bea80e6b7856a3a52a prp-4-113.smt2
e012eeb2ad86c6f9b2504cc2f060a222 prp-5-46.smt2
b861a829af8be609ebef4bf5dda22f75 prp-5-47.smt2
a8467b85557617bd6be3f648c3f67aed prp-5-48.smt2
58ce7886e6215171436381de4d8475f1 prp-5-49.smt2
b431a20733d2d729850c88ae97712545 prp-5-50.smt2
e56ab8b4289c2225fc722cb7787bfc3b prp-6-46.smt2
df60dd9b7a5dffa431b02f3b33827fc6 prp-6-47.smt2
b7438c6baad8f9363e27941bab7e5c9e prp-6-48.smt2
30589c6168b4fb9c683cc5be46bc556c prp-6-49.smt2
9e18bb604833b88eb6f0fccd0db09e5b prp-6-50.smt2
1c56f373ad3df087528ff2a6478f12bd prp-7-46.smt2
84fe337c5bf9aa33736b9eb0cb7d4fdd prp-7-47.smt2
74436f9df6fdf8a844e616fca24ebea3 prp-7-48.smt2
6d185f1f77727e55df6e98d857d0de93 prp-7-49.smt2
bfd926d0e0049813dfac2ada5bb7788d prp-7-50.smt2
e4a49fb1887984d6fc055b0f4bcb61a2 prp-8-46.smt2
568536010433ee89ddbf1b29d496ea80 prp-8-47.smt2
56b69fca44d6e271cadc97715f1cea49 prp-8-48.smt2
cd06dff59de22473c5fdca983fa66a52 prp-8-49.smt2
5a70494a84e3b488ab19075659a14ca4 prp-8-50.smt2
4667180156aaab3ed327ebb6ee1eb24d prp-9-46.smt2
a464d8229c440bec55a495d093d7a51e prp-9-47.smt2
447a23fdbefa3220e35eb8f768ad8c2c prp-9-48.smt2
4d2202b18de0fa83651f8bb4d4f9eb8c prp-9-49.smt2
e04051c83338d7136c0c4eeb6729d717 prp-9-50.smt2
