8f1249afbab33a9da03bed15c6ff8f3e swap_invalid_t1_np_nf_ai_00002_006.cvc.smt2
427ec13a2c54de1d10b621e9429a37db swap_invalid_t1_np_nf_ai_00003_001.cvc.smt2
fc66125eadfb76c8d9b7b6c590926a8d swap_invalid_t1_np_nf_ai_00003_004.cvc.smt2
72d9370fd2e3f4708a11c1f41b6cf1d1 swap_invalid_t1_np_nf_ai_00003_005.cvc.smt2
f74ed08a4adbfee7b0431cbd7b76bacc swap_invalid_t1_np_nf_ai_00004_002.cvc.smt2
6eeb72aae9385660df2e82452557259c swap_invalid_t1_np_nf_ai_00004_003.cvc.smt2
691eecda4399404b6cdc8e9ca7c7c662 swap_invalid_t1_np_nf_ai_00004_005.cvc.smt2
86b8690d24282ac8bfdd46b8114105d7 swap_invalid_t1_np_nf_ai_00004_006.cvc.smt2
76eae9c737a8e16f7c0fb11249efa451 swap_invalid_t1_np_nf_ai_00004_009.cvc.smt2
829f78b4d3ad04553bf163c4c8bdbf60 swap_invalid_t1_np_nf_ai_00005_001.cvc.smt2
a1445be9c2695b6e3a5c3f83cbff688f swap_invalid_t1_np_nf_ai_00005_002.cvc.smt2
ae4ff416cd3d5345518869402b2a0625 swap_invalid_t1_np_nf_ai_00005_003.cvc.smt2
06afdbd590781d9ce8115f21ca9c101d swap_invalid_t1_np_nf_ai_00005_005.cvc.smt2
b684c2e50628a6bc9a5c141db8b529ec swap_invalid_t1_np_nf_ai_00005_006.cvc.smt2
74d82282c8d01a5af50fb7e929473e52 swap_invalid_t1_np_nf_ai_00005_008.cvc.smt2
46f44ee645685529918bb29ed3be4765 swap_invalid_t1_np_nf_ai_00006_002.cvc.smt2
a191baae532f5b9524cb91d7b215c5a2 swap_invalid_t1_np_nf_ai_00006_009.cvc.smt2
98c413c39c27eca0ca20df7b8f340077 swap_invalid_t1_np_nf_ai_00007_001.cvc.smt2
8b9ba8961871ae3ecdfdbba99651cc5c swap_invalid_t1_np_nf_ai_00007_002.cvc.smt2
ea7fd630eef1802dc245e7fe0fbade20 swap_invalid_t1_np_nf_ai_00007_003.cvc.smt2
0eb25cf51dcfa23772b846926b51693f swap_invalid_t1_np_nf_ai_00007_004.cvc.smt2
a47441969c31e68fa3b34f9b03f03d59 swap_invalid_t1_np_nf_ai_00007_009.cvc.smt2
5f93cb0689b5ffc2fc07ff91f3a46e93 swap_invalid_t1_np_nf_ai_00008_001.cvc.smt2
50a9c8e0f7c94991c94eb06ddd62b627 swap_invalid_t1_np_nf_ai_00008_002.cvc.smt2
f8cdb05fbaddf4d1fffa54e02b020b19 swap_invalid_t1_np_nf_ai_00008_003.cvc.smt2
adfb7ac940056795a0cbc49031ef63bd swap_invalid_t1_np_nf_ai_00008_004.cvc.smt2
20cdcab65a8eb41c0b6281cf204b3e16 swap_invalid_t1_np_nf_ai_00008_005.cvc.smt2
e54a85f84e57d465ac95b220ba392eb1 swap_invalid_t1_np_nf_ai_00008_006.cvc.smt2
438a19098d437382adc7222f5c0ce165 swap_invalid_t1_np_nf_ai_00008_009.cvc.smt2
d8b4aaeaab2384083fd03a6f6dce648c swap_invalid_t1_np_nf_ai_00009_001.cvc.smt2
2b0052094d2964b042d1ec9b514df3d4 swap_invalid_t1_np_nf_ai_00009_002.cvc.smt2
7a3b2484ea55406d0e30da99ee6eafa1 swap_invalid_t1_np_nf_ai_00009_004.cvc.smt2
f5efc9c14188d60997e727bd1661a650 swap_invalid_t1_np_nf_ai_00009_008.cvc.smt2
39e4d845a5264fbc0a91fcd5642bb85c swap_invalid_t1_np_nf_ai_00009_009.cvc.smt2
9bb046f6186f48a7e136bf3b3f2cd39c swap_invalid_t1_np_nf_ai_00010_002.cvc.smt2
4be4eb03392610bd599ff1f305f69b54 swap_invalid_t1_np_nf_ai_00010_004.cvc.smt2
ea1b782ad84993217e3f05ebecf82818 swap_invalid_t1_np_nf_ai_00010_005.cvc.smt2
bb66af970c105d68f37d0fbb03d90b72 swap_invalid_t1_np_sf_ai_00002_002.cvc.smt2
3fb442deffe0c15b962e99f893da6af7 swap_invalid_t1_np_sf_ai_00002_008.cvc.smt2
d92be89b2c85d7bb089fbd1feb156a64 swap_invalid_t1_np_sf_ai_00003_002.cvc.smt2
7214a08a8d3be29f03ec8ebacf8bcb97 swap_invalid_t1_np_sf_ai_00003_004.cvc.smt2
2ba373e103c5eb2b0d4b61b1e5c33ceb swap_invalid_t1_np_sf_ai_00003_005.cvc.smt2
88ba7318ec3152ab9712f9c40a44c8dd swap_invalid_t1_np_sf_ai_00003_008.cvc.smt2
447ad762885b6c73684a20677f2336da swap_invalid_t1_np_sf_ai_00004_002.cvc.smt2
3d2c8848badf0731371e3fe4abb3d5a0 swap_invalid_t1_np_sf_ai_00004_003.cvc.smt2
9692c7a7fafafb03625e24be65e57c2e swap_invalid_t1_np_sf_ai_00004_006.cvc.smt2
e9dbe001d8ec485b0df83d5d20669e0b swap_invalid_t1_np_sf_ai_00004_009.cvc.smt2
024b15fa3a0815c5f03fca5861308bcd swap_invalid_t1_np_sf_ai_00005_001.cvc.smt2
02f0d44658d3999bace39d2cb04bb90b swap_invalid_t1_np_sf_ai_00005_003.cvc.smt2
d2e30fcb787d18ec8b6e1d329e607b01 swap_invalid_t1_np_sf_ai_00005_006.cvc.smt2
45330510f19235a8a9526acc48fbbf52 swap_invalid_t1_np_sf_ai_00005_007.cvc.smt2
cd20f71063ff14317fd026f823e0795d swap_invalid_t1_np_sf_ai_00006_003.cvc.smt2
ab5b5782cbe5841f59cd73213f355765 swap_invalid_t1_np_sf_ai_00006_004.cvc.smt2
5ecf30e4a02639701e3db7b0c4f67666 swap_invalid_t1_np_sf_ai_00006_005.cvc.smt2
ed66123d5db2adc7880d3335ec3e5716 swap_invalid_t1_np_sf_ai_00006_007.cvc.smt2
5fbe9ae6ff412ce91788a0258c25ef12 swap_invalid_t1_np_sf_ai_00006_008.cvc.smt2
bdc5ffe4b1198c3896f0352c69d959d1 swap_invalid_t1_np_sf_ai_00006_009.cvc.smt2
f422ab009970b7fdc8a34cbc7e3412ef swap_invalid_t1_np_sf_ai_00007_001.cvc.smt2
bc82974779a5ca52c1aa4f5a2420dd4c swap_invalid_t1_np_sf_ai_00007_007.cvc.smt2
76ba37f3b000d2a98dc8ddbf77c9d617 swap_invalid_t1_np_sf_ai_00007_009.cvc.smt2
572bf8da9ceea57db4b6021634ecc225 swap_invalid_t1_np_sf_ai_00008_002.cvc.smt2
962c8ea7dc13e1fc3db0eec4d2b44dfd swap_invalid_t1_np_sf_ai_00008_003.cvc.smt2
a4837f53f1a3beeadbb6e4d1d204ffd2 swap_invalid_t1_np_sf_ai_00008_004.cvc.smt2
20e8ba10f826a6096caec6a68464a339 swap_invalid_t1_np_sf_ai_00008_005.cvc.smt2
de2b945f830acc23abd4f40b0d61f41c swap_invalid_t1_np_sf_ai_00008_006.cvc.smt2
1f210d020984c6dbc927161e9edc775f swap_invalid_t1_np_sf_ai_00008_007.cvc.smt2
15ed462585273444b9bab5c03afb26d2 swap_invalid_t1_np_sf_ai_00008_009.cvc.smt2
74c118fb327e69265ee6fd632e43c326 swap_invalid_t1_np_sf_ai_00009_001.cvc.smt2
c82ff9684dda8987775947f0a98ec14d swap_invalid_t1_np_sf_ai_00009_002.cvc.smt2
8ac8b4f36fc99f8ddcc48b6b7e62ea78 swap_invalid_t1_np_sf_ai_00009_004.cvc.smt2
c954e10cbb8f800adef9e0d0a2260515 swap_invalid_t1_np_sf_ai_00009_006.cvc.smt2
4f3a4efecca66bc1ac713b9ec962e3bf swap_invalid_t1_np_sf_ai_00009_007.cvc.smt2
41e44a6e8b7a42a2ccbb066f824be80d swap_invalid_t1_np_sf_ai_00009_009.cvc.smt2
5676602124861912bac60afbec1a244a swap_invalid_t1_np_sf_ai_00010_003.cvc.smt2
7fb7ac0c7e185886224cd9c0b4c7dfb6 swap_invalid_t1_np_sf_ai_00010_005.cvc.smt2
900914148be17ce30146a2f876a2c323 swap_invalid_t1_np_sf_ai_00010_007.cvc.smt2
0ac87b9be500a0ddfa77661b06eab7f9 swap_invalid_t1_np_sf_ai_00010_009.cvc.smt2
ea3c3f6f3ea33f97668b62adeda63bc4 swap_invalid_t3_np_nf_ai_00002_002.cvc.smt2
0a692bd1424183f0ab3ec19da77844a0 swap_invalid_t3_np_nf_ai_00002_005.cvc.smt2
f09eb5a7342b30b758678590c73494a6 swap_invalid_t3_np_nf_ai_00002_009.cvc.smt2
79782549f0114e7fcdeb39a9ab9a1004 swap_invalid_t3_np_nf_ai_00003_002.cvc.smt2
95cbd3edd3d6b79c83fd22b0b30daf62 swap_invalid_t3_np_nf_ai_00003_006.cvc.smt2
0fff4de7385981233a401da592b8215c swap_invalid_t3_np_nf_ai_00003_007.cvc.smt2
5a05f2af2554da915142834d76e6a581 swap_invalid_t3_np_nf_ai_00003_008.cvc.smt2
383f381df59003efaaea9bda2abe3f08 swap_invalid_t3_np_nf_ai_00004_001.cvc.smt2
c9eb2698ffdc547931cb11902ecb7b1c swap_invalid_t3_np_nf_ai_00004_004.cvc.smt2
2165a3a697c73d51eed5e872133503b8 swap_invalid_t3_np_nf_ai_00004_007.cvc.smt2
f64191dde805935b172a2fc7fd739b5d swap_invalid_t3_np_nf_ai_00004_008.cvc.smt2
10b8da673071361bda7eebda7bfa03c8 swap_invalid_t3_np_nf_ai_00005_004.cvc.smt2
3582cbfdcf3983bc2652b2a79a68e956 swap_invalid_t3_np_nf_ai_00005_007.cvc.smt2
233932a0764f037e412e7c5e1a1bcae0 swap_invalid_t3_np_nf_ai_00005_009.cvc.smt2
43f768b12b0b3ad4be2e2356dc9638a9 swap_invalid_t3_np_nf_ai_00006_001.cvc.smt2
1d85d04f91a03722d22d851f4273e8d1 swap_invalid_t3_np_nf_ai_00006_003.cvc.smt2
90b56c19c0adef9008c4779301712d44 swap_invalid_t3_np_nf_ai_00006_004.cvc.smt2
3894819ccfd09222a1df058e2819a6bc swap_invalid_t3_np_nf_ai_00006_005.cvc.smt2
c7e1a333249aacc6ad1f01d416a06ba2 swap_invalid_t3_np_nf_ai_00006_006.cvc.smt2
7cff063e7c3e4fe2b9f41c07003c8186 swap_invalid_t3_np_nf_ai_00006_007.cvc.smt2
a1f2aa28722706f9af0245724090e512 swap_invalid_t3_np_nf_ai_00006_008.cvc.smt2
fce7fbba5c79be012d104a674718649d swap_invalid_t3_np_nf_ai_00007_005.cvc.smt2
71d6c0d6b31e11c3d9035f2888246635 swap_invalid_t3_np_nf_ai_00007_006.cvc.smt2
d5530327efcdae08e0b563e4c1973a4e swap_invalid_t3_np_nf_ai_00007_007.cvc.smt2
19f090b730eeb512b9b1a342d5882b3b swap_invalid_t3_np_nf_ai_00007_008.cvc.smt2
f8f06a0fc045d7e99bbc32864db7314e swap_invalid_t3_np_nf_ai_00008_007.cvc.smt2
345ae39ae5eb41222655e9abb8ff495b swap_invalid_t3_np_nf_ai_00008_008.cvc.smt2
724493df5d109cfaadfa859cd8e12e11 swap_invalid_t3_np_nf_ai_00009_003.cvc.smt2
cc9d141f7c2831156b94445866bae7d3 swap_invalid_t3_np_nf_ai_00009_005.cvc.smt2
122e6d28b608d52395b267c574d6fcac swap_invalid_t3_np_nf_ai_00009_006.cvc.smt2
e60eea30b7479f7b615ecadcd2ee6d5a swap_invalid_t3_np_nf_ai_00009_007.cvc.smt2
10eaf6a4f88855b44fa3a1aef61de424 swap_invalid_t3_np_nf_ai_00010_001.cvc.smt2
2097e64384a408caf2a24ff3e7cfff40 swap_invalid_t3_np_nf_ai_00010_003.cvc.smt2
cb36450dff6ebe001b06342cfb9c59b5 swap_invalid_t3_np_nf_ai_00010_006.cvc.smt2
469be3150df6bb2d9030d6a9ada1fc29 swap_invalid_t3_np_nf_ai_00010_007.cvc.smt2
47d6ecc69d4a914dde9367c7687baf79 swap_invalid_t3_np_nf_ai_00010_008.cvc.smt2
c1d94de41427e2d0fa7d55f1e45b33f2 swap_invalid_t3_np_nf_ai_00010_009.cvc.smt2
e5426084de6232325c34f4bd89ab1cba swap_invalid_t3_np_sf_ai_00002_005.cvc.smt2
ae796e25af4e320fc6b59092dd2183de swap_invalid_t3_np_sf_ai_00002_006.cvc.smt2
cce05f8c48e85cf5560f66390774ef4a swap_invalid_t3_np_sf_ai_00002_009.cvc.smt2
ff4f907bb89a3a38f05582d52f136baa swap_invalid_t3_np_sf_ai_00003_001.cvc.smt2
42c6d0872ce300a2e9308880c4237ec0 swap_invalid_t3_np_sf_ai_00003_006.cvc.smt2
1ab3e11f4e29da67ae3e1093af5c3d0f swap_invalid_t3_np_sf_ai_00003_007.cvc.smt2
56a813432125ad3ce0d92a212e6ff008 swap_invalid_t3_np_sf_ai_00004_001.cvc.smt2
44ce444928aacfa9aae90759196847ba swap_invalid_t3_np_sf_ai_00004_004.cvc.smt2
3c23081f9bc473387a50fbfec0907af3 swap_invalid_t3_np_sf_ai_00004_005.cvc.smt2
598ed3014296a75c861a0b456d533e88 swap_invalid_t3_np_sf_ai_00004_007.cvc.smt2
87c62778b6f37a3baea1b88574e6a37c swap_invalid_t3_np_sf_ai_00004_008.cvc.smt2
47d19cfe393bc2c1c2478d810104aa02 swap_invalid_t3_np_sf_ai_00005_002.cvc.smt2
bf5f3b8b106fc6eccd0222d72e3aea58 swap_invalid_t3_np_sf_ai_00005_004.cvc.smt2
d8d3a14bcf29fb5afe071f7646500c46 swap_invalid_t3_np_sf_ai_00005_005.cvc.smt2
71a758590f36c07559980ff4ddbb8095 swap_invalid_t3_np_sf_ai_00005_008.cvc.smt2
2333397235657b3d6a1ae0df589081d9 swap_invalid_t3_np_sf_ai_00005_009.cvc.smt2
911c7d6cdd646b5d9ae1aeff6ba23fb5 swap_invalid_t3_np_sf_ai_00006_001.cvc.smt2
494e94276877742c1afd176afc38bd99 swap_invalid_t3_np_sf_ai_00006_002.cvc.smt2
3cb4977f11ffa5aa405fa1b2abad5a95 swap_invalid_t3_np_sf_ai_00006_006.cvc.smt2
dff98ef035de6e008cfaeb50a959799d swap_invalid_t3_np_sf_ai_00007_002.cvc.smt2
7f3d01784b55ee7637d13b181ef47a5d swap_invalid_t3_np_sf_ai_00007_003.cvc.smt2
9d0ff3459e72f52919a1503fc009cb17 swap_invalid_t3_np_sf_ai_00007_004.cvc.smt2
6dbf24c41ed21c5abe01193545df7f3b swap_invalid_t3_np_sf_ai_00007_005.cvc.smt2
d43a6cb8dbc49c579204da9ad51e5db5 swap_invalid_t3_np_sf_ai_00007_006.cvc.smt2
a5dd232730c1e18eb73a6841d1b6733d swap_invalid_t3_np_sf_ai_00007_008.cvc.smt2
68aa164905ffe2ea32f78cda6fd69b9b swap_invalid_t3_np_sf_ai_00008_001.cvc.smt2
c85649a2961ef560b6cd41e9b4673ee2 swap_invalid_t3_np_sf_ai_00008_008.cvc.smt2
3bc3bc6e5aa25ec10eb1d998a1780e70 swap_invalid_t3_np_sf_ai_00009_003.cvc.smt2
7fd217ac7b431043a1ab2334af401150 swap_invalid_t3_np_sf_ai_00009_005.cvc.smt2
e9776ade85bf4fe7a99c1b6f8e953f76 swap_invalid_t3_np_sf_ai_00009_008.cvc.smt2
84052b2ca0bbb9276ec290a495ec2ff0 swap_invalid_t3_np_sf_ai_00010_001.cvc.smt2
8347c3430341beda34e5e3c81ac3c315 swap_invalid_t3_np_sf_ai_00010_002.cvc.smt2
a9e0335ce5ad413908a0c26b663d3172 swap_invalid_t3_np_sf_ai_00010_004.cvc.smt2
14aab46c591f07ac8549ad14ce0d963f swap_invalid_t3_np_sf_ai_00010_006.cvc.smt2
0cb4860d8af622b7bbba9d28ac4b2d8c swap_invalid_t3_np_sf_ai_00010_008.cvc.smt2
07a2f82831c0067a099cd288485bb061 swap_t1_np_nf_ai_00002_003.cvc.smt2
e2d6b420a9ea8c646757284c3f536c79 swap_t1_np_nf_ai_00002_005.cvc.smt2
95c64100b1e878c48acdf9513efd92da swap_t1_np_nf_ai_00003_006.cvc.smt2
f6316b856ba363bb537259b6f501fc8d swap_t1_np_nf_ai_00003_008.cvc.smt2
13b2015fb55fe075e829762b47312b59 swap_t1_np_nf_ai_00004_002.cvc.smt2
5dd8d38b4288fc4dd878182d41f6dee1 swap_t1_np_nf_ai_00004_003.cvc.smt2
e95b67a235f0e66b1ef734d36df6c4aa swap_t1_np_nf_ai_00004_006.cvc.smt2
435964b7a934af5863d5e8f0f529c41b swap_t1_np_nf_ai_00004_007.cvc.smt2
871425dd5d8f68dc7e77b9df1f01759d swap_t1_np_nf_ai_00004_008.cvc.smt2
311c0ff12ab8998e58883073225fb76b swap_t1_np_nf_ai_00004_009.cvc.smt2
996ea730a6a774d3a5a94a23589a120c swap_t1_np_nf_ai_00005_005.cvc.smt2
39a2ba0af5d79b3e4e5e3aef27745f07 swap_t1_np_nf_ai_00005_007.cvc.smt2
3b0a79ce16aa0a1a99160fdc94e5e185 swap_t1_np_nf_ai_00005_009.cvc.smt2
c469833dd092aec4ec02109f6a97ce8d swap_t1_np_nf_ai_00006_001.cvc.smt2
43f19807f418ae4a6e3217c55e3ec88d swap_t1_np_nf_ai_00006_004.cvc.smt2
f6c0743a10230666b2180ad406816a84 swap_t1_np_nf_ai_00006_005.cvc.smt2
6509f7e7801352236e6500052c966260 swap_t1_np_nf_ai_00006_006.cvc.smt2
1a00a7be2535cd7115bdfe5d3cb375c5 swap_t1_np_nf_ai_00007_004.cvc.smt2
1cfd16c0ccb01983df107c565d083bdc swap_t1_np_nf_ai_00007_008.cvc.smt2
ecf37575692a6dcc645f60377e39a3ee swap_t1_np_nf_ai_00008_002.cvc.smt2
9fdde4fc27db2480622cf5616b5c95df swap_t1_np_nf_ai_00009_002.cvc.smt2
87ca8b31ae44b060fc62069e71e178da swap_t1_np_nf_ai_00009_005.cvc.smt2
5e5719cfa3b235e45de2414f84ba0588 swap_t1_np_nf_ai_00009_006.cvc.smt2
6e7320b509f6030bf7007cddd941b8b2 swap_t1_np_nf_ai_00009_009.cvc.smt2
c0f40022891df5216bf6e9f5846b4c63 swap_t1_np_nf_ai_00010_001.cvc.smt2
4a7c951bb2fe9ae3e4b0186b54f7a67b swap_t1_np_nf_ai_00010_003.cvc.smt2
690535a4f9e035e06f2ecab344b390fc swap_t1_np_nf_ai_00010_009.cvc.smt2
81f4a3ca813ab3a06a8af203ae512871 swap_t1_np_sf_ai_00002_005.cvc.smt2
83998f3da2f744f234d3f8c1a6706238 swap_t1_np_sf_ai_00002_006.cvc.smt2
6b42c4dafc1c20f0e4d173bd3235aaea swap_t1_np_sf_ai_00002_008.cvc.smt2
1ff196431f0e26e2a3d9f6bd25b4dea2 swap_t1_np_sf_ai_00002_009.cvc.smt2
71f50473f11d8c28985ec963f334c35c swap_t1_np_sf_ai_00003_001.cvc.smt2
eb49804bdca40eb45dcf8fbb0292a07a swap_t1_np_sf_ai_00003_002.cvc.smt2
629a0be4b603a5226c65718bee6fe62b swap_t1_np_sf_ai_00003_003.cvc.smt2
847d1326daa451a08399612dbf321566 swap_t1_np_sf_ai_00003_007.cvc.smt2
b519c8991423bb41d833a627633e0b38 swap_t1_np_sf_ai_00003_008.cvc.smt2
d07c0eec4d0da625b0fc229b2501547b swap_t1_np_sf_ai_00004_002.cvc.smt2
0189fabbfebdd92f4bb6a464c0c3d3f1 swap_t1_np_sf_ai_00004_006.cvc.smt2
3a87437c54a64f15cadac8ae4ff27065 swap_t1_np_sf_ai_00005_001.cvc.smt2
eb1bce2fe4f4f217bf1d35145008fe25 swap_t1_np_sf_ai_00005_002.cvc.smt2
1fcdf6a5dbdddec172d3234dbae991cd swap_t1_np_sf_ai_00005_003.cvc.smt2
c05a76f58f0d840b8211257c3a056b70 swap_t1_np_sf_ai_00005_004.cvc.smt2
bdd5fe79362cf3f4e048fbf4d2590885 swap_t1_np_sf_ai_00005_005.cvc.smt2
85996feed0be982ade37172f2af4e614 swap_t1_np_sf_ai_00005_006.cvc.smt2
2cf9d698223f9cae120ae0d7032643e4 swap_t1_np_sf_ai_00005_008.cvc.smt2
8cc08c01be67d55e0f0aaa4affd75858 swap_t1_np_sf_ai_00005_009.cvc.smt2
abbe2099784be10c14671427a91d11d1 swap_t1_np_sf_ai_00007_003.cvc.smt2
58634ea198fdcafe0fcfcfa3db800003 swap_t1_np_sf_ai_00007_004.cvc.smt2
2b5887e23fc3cca5f291cddb7d3c3881 swap_t1_np_sf_ai_00007_007.cvc.smt2
970e46a395c4fb44beafee51408bc1f7 swap_t1_np_sf_ai_00007_009.cvc.smt2
d90af48b9ad0dd0decb0cda0bf7f024e swap_t1_np_sf_ai_00008_002.cvc.smt2
d3e1f0adbf0f647476af184afd4f279e swap_t1_np_sf_ai_00008_004.cvc.smt2
3e534c0b54b3d1ff63b90bf27372c3c9 swap_t1_np_sf_ai_00009_001.cvc.smt2
8aa2428071f1f9b863af013ab25d3b66 swap_t1_np_sf_ai_00009_005.cvc.smt2
4f02717e804f6aaa3ba1ebc22d7c693a swap_t1_np_sf_ai_00009_006.cvc.smt2
17eaeac021e0dbd6637efd4bfb753466 swap_t1_np_sf_ai_00009_007.cvc.smt2
ac85bcbb9fad82da86728cdacf444898 swap_t1_np_sf_ai_00009_008.cvc.smt2
2dc15810f5cf78d9d8ebd84e1a4b88eb swap_t1_np_sf_ai_00010_001.cvc.smt2
362be14121c202be4c42549f965c341e swap_t1_np_sf_ai_00010_003.cvc.smt2
726fbcdee0da11fb8879d129cc430095 swap_t2_np_nf_ai_00002_001.cvc.smt2
a865fc6b844eac9eaf09ecce1eab0ac5 swap_t2_np_nf_ai_00002_002.cvc.smt2
1802108f9d16c43d59cdd12acdd8c621 swap_t2_np_nf_ai_00002_006.cvc.smt2
020da360b73065419c75ec5ae028de3f swap_t2_np_nf_ai_00003_001.cvc.smt2
2b5c4ab9de13ed0b20e6268fbfcf3c5d swap_t2_np_nf_ai_00003_002.cvc.smt2
d457d2001f5d64ad3f6bcaea7b8c999d swap_t2_np_nf_ai_00003_003.cvc.smt2
ac90fce24c4b96b7c44323413cd4c8f5 swap_t2_np_nf_ai_00003_004.cvc.smt2
a2a8f60a6ee5d737bf8403e9bc9f4dee swap_t2_np_nf_ai_00003_007.cvc.smt2
b6024c9d1458b8f2e54bf0a51fdc1048 swap_t2_np_nf_ai_00005_003.cvc.smt2
8bc120d777f6638fc677b2b0e1b93485 swap_t2_np_nf_ai_00005_006.cvc.smt2
3e0f56d3bf86b0db7818728b0012f9c3 swap_t2_np_nf_ai_00006_002.cvc.smt2
dff24b88811c9ea23b92c91f2ee7afba swap_t2_np_nf_ai_00006_007.cvc.smt2
e3dd9eadb55657377914d0b95d8e5c5b swap_t2_np_nf_ai_00006_008.cvc.smt2
b6be332e5615773c7f86e07cb9ba60fb swap_t2_np_nf_ai_00007_002.cvc.smt2
03e760df8854aaa4724142315a12644d swap_t2_np_nf_ai_00007_005.cvc.smt2
37c4316e2235d81b1d527a6865165da3 swap_t2_np_nf_ai_00007_007.cvc.smt2
60396705e8cf47654a1f3d850600ebfc swap_t2_np_nf_ai_00008_003.cvc.smt2
65e0df6ecb7d8d6e998931419b023527 swap_t2_np_nf_ai_00008_004.cvc.smt2
b10b6f2b9bb7fb031f7985b441b0b930 swap_t2_np_nf_ai_00008_006.cvc.smt2
23a55e23bde06c3a7a1a00205c9ab622 swap_t2_np_nf_ai_00008_007.cvc.smt2
25a3f5a5f8c2fadfedb7170227e82be6 swap_t2_np_nf_ai_00008_008.cvc.smt2
a3a157cd13eb6257931b20d6d9fbba92 swap_t2_np_nf_ai_00009_001.cvc.smt2
29ef7ec90a4589c5ab332c7a9c32b4a9 swap_t2_np_nf_ai_00009_007.cvc.smt2
3ccdb9a260225fd8727d896ae224e2d2 swap_t2_np_nf_ai_00010_002.cvc.smt2
a0b6eb044b2f0a3588a169916757ae92 swap_t2_np_nf_ai_00010_004.cvc.smt2
91fd74d117f2f4cc4bbd6ab0c654d706 swap_t2_np_nf_ai_00010_005.cvc.smt2
d6da1754ce69a9a6b759e76bc0ec8798 swap_t2_np_sf_ai_00002_001.cvc.smt2
4041fdb876b8d6ba57ba85ec11af4219 swap_t2_np_sf_ai_00003_006.cvc.smt2
7b0e6b75ab672f06c4d7ee58eabe99f4 swap_t2_np_sf_ai_00004_001.cvc.smt2
55948bc2407e7e0fd252f884e63288fd swap_t2_np_sf_ai_00004_005.cvc.smt2
e2fe0d2d5c2074cfa757a5d15c313d05 swap_t2_np_sf_ai_00004_008.cvc.smt2
4a5d080d4b7b2776f2021654932e3776 swap_t2_np_sf_ai_00006_001.cvc.smt2
48399335d101abba662b5cdf2b606bd6 swap_t2_np_sf_ai_00006_002.cvc.smt2
a80b46e1b340a0e3f9b34b8f4f5c9add swap_t2_np_sf_ai_00006_006.cvc.smt2
2af24b44758b2d939635e12f5872e577 swap_t2_np_sf_ai_00006_007.cvc.smt2
95f696742b6de86e31480632ba6cfd3e swap_t2_np_sf_ai_00006_008.cvc.smt2
6d324a85c64b0884bb7953e193886059 swap_t2_np_sf_ai_00006_009.cvc.smt2
698ebc19cc36d5c64961896a6433c501 swap_t2_np_sf_ai_00007_001.cvc.smt2
db97742c7659b07de29a66969475cd4e swap_t2_np_sf_ai_00007_002.cvc.smt2
618a011a139d6fe18e84820df0c6ea4d swap_t2_np_sf_ai_00007_005.cvc.smt2
1005614dba52cb326209d8cdf9de7a3d swap_t2_np_sf_ai_00007_006.cvc.smt2
566fc3760efc3150beebd057c370161e swap_t2_np_sf_ai_00008_003.cvc.smt2
a6c48b5a63a18cb4838059b499ee966c swap_t2_np_sf_ai_00008_005.cvc.smt2
e3bc8a3b1a728f0cbe76719d7d7fbc17 swap_t2_np_sf_ai_00008_006.cvc.smt2
1c7e3e8af1fce1f9335febaff2fb3e2d swap_t2_np_sf_ai_00009_002.cvc.smt2
0883a6790d926ee7a3511ed8bbaab003 swap_t2_np_sf_ai_00009_003.cvc.smt2
07e4d3eb68b1786208688ba68a87cc32 swap_t2_np_sf_ai_00010_004.cvc.smt2
c2a7016956defde54ff717a1f10867ad swap_t2_np_sf_ai_00010_005.cvc.smt2
824bcdc95466c07280db2f0288700e64 swap_t2_np_sf_ai_00010_006.cvc.smt2
0c72bebaac866fdcaea8b8f3e836a087 swap_t3_np_nf_ai_00003_005.cvc.smt2
377ed3b5f320d759137f5da9209abf50 swap_t3_np_nf_ai_00004_001.cvc.smt2
262ddf79a4dbf6c41d34bba73127a76d swap_t3_np_nf_ai_00004_004.cvc.smt2
04aac63dae7436c7e3297aae6f7af6fc swap_t3_np_nf_ai_00004_005.cvc.smt2
eb52f6be812611dfecf9242c78756940 swap_t3_np_nf_ai_00005_001.cvc.smt2
4a28e58f8de4dc39c9894663f11737b8 swap_t3_np_nf_ai_00005_002.cvc.smt2
84fd3f33e53b4f1710519101fb5520f0 swap_t3_np_nf_ai_00005_004.cvc.smt2
912b7d4d4a5876299fd8c806b107ef32 swap_t3_np_nf_ai_00005_008.cvc.smt2
f1ebc8e45aeaeb3214e0149fa0a92c7e swap_t3_np_nf_ai_00006_003.cvc.smt2
934aed58e394415f73698fafd68c8e30 swap_t3_np_nf_ai_00006_009.cvc.smt2
6b9e30bb6694435e51d73f2b6d0602ec swap_t3_np_nf_ai_00007_001.cvc.smt2
77317f9885b662721ad254e1e440a0d3 swap_t3_np_nf_ai_00007_003.cvc.smt2
5330400aadc2f10c8b08c7237e8d42e9 swap_t3_np_nf_ai_00007_006.cvc.smt2
af626a719b3233d6c14122ce35e68737 swap_t3_np_nf_ai_00007_009.cvc.smt2
e65d358bd42554cee0886ea1eedb96af swap_t3_np_nf_ai_00008_001.cvc.smt2
95d26d03f081e3798186e1bfff7679d6 swap_t3_np_nf_ai_00008_005.cvc.smt2
fbb980b5f13e589d3cbe76fdfdf4c95c swap_t3_np_nf_ai_00008_009.cvc.smt2
322a55234d683e39030784bd46f0b621 swap_t3_np_nf_ai_00009_003.cvc.smt2
ac7b7ddc64f888298e3b3727bafa9358 swap_t3_np_nf_ai_00009_004.cvc.smt2
e0161d0f46c82b1af6a9d55ad734b626 swap_t3_np_nf_ai_00009_008.cvc.smt2
da2ac8a765eb8ec38816efb00a6a8e3b swap_t3_np_nf_ai_00010_006.cvc.smt2
651b237803a27632613e3f309140c902 swap_t3_np_nf_ai_00010_007.cvc.smt2
3baf4d24ba542dacee97fafda8622c57 swap_t3_np_nf_ai_00010_008.cvc.smt2
4cf457f36de2d053bf45770959add25f swap_t3_np_sf_ai_00002_002.cvc.smt2
c07d72001610632e8438aec7a12838de swap_t3_np_sf_ai_00003_004.cvc.smt2
652c80bf301fbbb252dc51b4f63e919d swap_t3_np_sf_ai_00003_005.cvc.smt2
8c1a2bad0d0a5f228cdaadf0874d7dcb swap_t3_np_sf_ai_00004_003.cvc.smt2
bdaf66184d2f185ef7c71f9784373693 swap_t3_np_sf_ai_00004_004.cvc.smt2
ecb73ac7d6a6950b6ac4a47f0a7fa7bc swap_t3_np_sf_ai_00004_007.cvc.smt2
0fc57d831b942ba1fad94961e9c65997 swap_t3_np_sf_ai_00004_009.cvc.smt2
1b471682acd0439edc19f9ad9c180e07 swap_t3_np_sf_ai_00005_007.cvc.smt2
ac18c7e9944eca03e49c06868c4c727a swap_t3_np_sf_ai_00006_003.cvc.smt2
337861d944b70055c4232c0fd15a3353 swap_t3_np_sf_ai_00006_004.cvc.smt2
03584974cd1e69bde08d2253204f03f5 swap_t3_np_sf_ai_00006_005.cvc.smt2
bfcd82f97f2874c7e8fcef06661103bd swap_t3_np_sf_ai_00007_008.cvc.smt2
b93bf0ffc43fd42d298f4ecedf3e624f swap_t3_np_sf_ai_00008_001.cvc.smt2
6ceb17387e027e7780de10097088d37f swap_t3_np_sf_ai_00008_007.cvc.smt2
40cf8bd04005e3ba8c1315a1be95ef95 swap_t3_np_sf_ai_00008_008.cvc.smt2
ae82fc84b0cbfbd4c3864aa1e44d5af5 swap_t3_np_sf_ai_00008_009.cvc.smt2
6a576b5af953b2ab983e3c76d49085e9 swap_t3_np_sf_ai_00009_004.cvc.smt2
08c0954691046a3a1f0f335df0ea4b84 swap_t3_np_sf_ai_00009_009.cvc.smt2
acfd60506550e419ff455fa6517d6ef6 swap_t3_np_sf_ai_00010_002.cvc.smt2
1b111cae523d9dfaf1edc85a945a014b swap_t3_np_sf_ai_00010_007.cvc.smt2
85c1772a0ad2a031232ce9d5f63f7d0a swap_t3_np_sf_ai_00010_008.cvc.smt2
7bd2a4be025c02fcc3c89015592e9cf6 swap_t3_np_sf_ai_00010_009.cvc.smt2
