00d9cad32d5158c82fb804f3eaaf1356 BubbleSort_live_bgmc000.smt2
5ce22aa2afd6de73e266018310f88116 BubbleSort_live_bgmc002.smt2
7351c607e883407006e4c82d059c7bf4 BubbleSort_live_bgmc003.smt2
1f4e96a4dc0bfb7b3b048b668d50c33b BubbleSort_live_bgmc004.smt2
b416ec75ffec29552b34689722dcce81 BubbleSort_live_bgmc005.smt2
668d9627594873885c188d12d69d12e2 BubbleSort_live_bgmc006.smt2
2ef20df2a40f9b6278c42a31df2f259a BubbleSort_live_bgmc007.smt2
ebc6b3487eb71db8252a6ac32418dd5f BubbleSort_live_bgmc008.smt2
1dfdaaca3892d55a61d7dad07e8b014f BubbleSort_live_bgmc009.smt2
358b441cfc609672a3dc5289ecbe12d3 BubbleSort_live_bgmc010.smt2
56884fd3d75c8e073d9b9ceea25b9018 BubbleSort_live_bgmc011.smt2
2df167e024cb0a33a1b0f87bcf9eb6f6 BubbleSort_live_blmc000.smt2
4cb43d5f308be1f963156ec999b3335e BubbleSort_live_blmc002.smt2
cff710d4b5092f267235b024298432da BubbleSort_live_blmc003.smt2
7a722fcf369de293f33d7d8f225a6d14 BubbleSort_live_blmc004.smt2
a6e2a7a68b2640ade04c8fbe28fa2027 BubbleSort_live_blmc005.smt2
91abeb692275c076fa2ca825e53d920c BubbleSort_live_blmc006.smt2
c4408add0280ce1f1307220ed879f6c3 BubbleSort_live_blmc007.smt2
7b68467ef30995a0e890db7bc3fe0cb6 BubbleSort_live_blmc008.smt2
b447d280162b6f66d6514589b457b70e BubbleSort_live_blmc009.smt2
43f613c65b6492e4e53a2755f11707bb BubbleSort_live_blmc010.smt2
3d40d5125668fc65afe31272fc21ba41 BubbleSort_safe_bgmc000.smt2
e55a617d9af31553b61f249d566c19b3 BubbleSort_safe_bgmc001.smt2
08f2bdf137f12d0686053ba263a60a77 BubbleSort_safe_bgmc002.smt2
69b43af9a57f2011b93024a78f8fd417 BubbleSort_safe_bgmc003.smt2
dc900d38b6ba5dd19c29e1da15f93f0d BubbleSort_safe_bgmc004.smt2
33dcf66ece88d1c7d4b3a3b87f09dc6e BubbleSort_safe_bgmc005.smt2
ca572bdda45b5c93dfe2155be5fb1c24 BubbleSort_safe_bgmc006.smt2
e61a2a0488ac3f3199381f4a1c4b6633 BubbleSort_safe_bgmc007.smt2
d8cb34666c576eaf7669a4d2e983b55f BubbleSort_safe_bgmc008.smt2
25b4c7218b1963f2f14fec3476a09ea1 BubbleSort_safe_bgmc009.smt2
4430d21f1d20bde8a14778ff64c8fc39 BubbleSort_safe_bgmc010.smt2
2118c4cc7d7894f6cb1a0669d3454e8b BubbleSort_safe_bgmc011.smt2
23b2a4353f553ae37acf0b2330b62a6a BubbleSort_safe_blmc000.smt2
e6f14070d6487138564f955b3b07ba05 BubbleSort_safe_blmc001.smt2
8b108d1118a8dcd6b20a4810599822de BubbleSort_safe_blmc002.smt2
761eef804529387198b811df3cdaa5e7 BubbleSort_safe_blmc003.smt2
c535b90deb8f1eb1d564108940ba4680 BubbleSort_safe_blmc004.smt2
c717c460991b30f6545c7be80d0a7166 BubbleSort_safe_blmc005.smt2
e2c130a97e4baa1019dd811467ae6bd5 BubbleSort_safe_blmc006.smt2
ce845aa67cc98859f5babe55d56db7d4 BubbleSort_safe_blmc007.smt2
81bb70d5c5c93a724e7825c90f42753a BubbleSort_safe_blmc008.smt2
5e6665cdd9f77e85a5a8f3368f9783ce BubbleSort_safe_blmc009.smt2
8038d3d3fcd704265883a8d0abdc692a BubbleSort_safe_blmc010.smt2
8dbbfba40b7b4dcc8fc3c93c8dbc6e8d BubbleSort_safe_blmc011.smt2
3b3aa21c1e8c239f7b3a8dd15a2d5393 BubbleSort_safe_blmc012.smt2
147c1929e9ab9ade3b6d8bd44718493f BubbleSort_safe_blmc013.smt2
3782244e248d081247364c82013fb348 BubbleSort_safe_blmc014.smt2
c39927eb95029795ea727c4c2173c045 BubbleSort_safe_blmc015.smt2
5e6b0a6ef19c2b4a7d0ab8b0a6bcbd14 BubbleSort_safe_blmc016.smt2
364a8024fec69ebb1915de6ccbf7e02c BubbleSort_safe_blmc017.smt2
cc25b519d7a2839d941d12d71fb9b04f BubbleSort_safe_blmc018.smt2
