626c50a275fbacbae18072e61543485b toroidal_queen10-1.smt2
184f84ebe6d84bfeaf5e8aeaee1322df toroidal_queen100-1.smt2
782d895971f85192261faae802f6bc54 toroidal_queen11-1.smt2
09295094f732ed530b7746adc924ed87 toroidal_queen12-1.smt2
570012c49c8925ea51a45d717efc4000 toroidal_queen13-1.smt2
2251c120cf696ff7f8bbba781dbf28b8 toroidal_queen14-1.smt2
a81b4d0b80dafedb169e4ea885edec86 toroidal_queen15-1.smt2
a643306d3a695597ab5222e8a6dc2c6b toroidal_queen16-1.smt2
1390206bda1937ff1764a5b951c71687 toroidal_queen17-1.smt2
320c0111a563c8e17e372ec9ed0b49a2 toroidal_queen18-1.smt2
f1ca29a8892d2c7bd916578292d62b43 toroidal_queen19-1.smt2
7acc8072b554b0085960249dce6ea890 toroidal_queen2-1.smt2
4d312ab89bfbba686cc50a88882244c7 toroidal_queen20-1.smt2
bba651c04444bb04d69532b74ab8e1b5 toroidal_queen21-1.smt2
8467502d0ea9343eff576cafba1f5860 toroidal_queen22-1.smt2
8a97c5da5bae68a7238d3141fe3551bb toroidal_queen23-1.smt2
e11ec5ffd5a114b129e35df27a0c66f9 toroidal_queen24-1.smt2
523ebcf0a74ae9d44a90d180a1686461 toroidal_queen25-1.smt2
e5b4efd67fdbc8461f20e5b868adc1dc toroidal_queen26-1.smt2
c34ec7ea9dcdb91a26f318be4dfd4461 toroidal_queen27-1.smt2
3cb659b7f6d47d81aa3d3b62f73e0807 toroidal_queen28-1.smt2
2e15b1b701a9980c3445c684bb4e1574 toroidal_queen29-1.smt2
58e3ac1092451c83de63cf727aaac270 toroidal_queen3-1.smt2
1676d6c6a7fea9cde4ac68d8e4ec16a1 toroidal_queen30-1.smt2
b79f9c319dc33279a9c0940645507c0b toroidal_queen31-1.smt2
487dfc1fceb4cd90d575cac5070a481a toroidal_queen32-1.smt2
21b9c0ddb83827371b312661b57ea6f7 toroidal_queen33-1.smt2
190531477637ac9edc8c294dcdd5e753 toroidal_queen34-1.smt2
be5bc3327ae85638850b7505ec4e706f toroidal_queen35-1.smt2
193ef3e0e794efa59e5f4ec85ff1eef3 toroidal_queen36-1.smt2
d10a534f7c5fca81f8be469540756d18 toroidal_queen37-1.smt2
ad6c8351f6da8b1bcd293d88993f8868 toroidal_queen38-1.smt2
09fce8529553eec6e4273c1c02bb2646 toroidal_queen39-1.smt2
2b5071914455f47c1545ff0c3f66a8e6 toroidal_queen4-1.smt2
054cf13cec2d22508042bb14dd6d67a2 toroidal_queen40-1.smt2
27de24c19948b2cfa5db31dc0e3cb153 toroidal_queen41-1.smt2
23e27b775980c1d1766a92291a464593 toroidal_queen42-1.smt2
805d8905fe9318900249aa66d4fba227 toroidal_queen43-1.smt2
76dd49aa9fa1dc0d28e180eef6faf100 toroidal_queen44-1.smt2
2bb686caa2fefad6aabc356210510fa2 toroidal_queen45-1.smt2
649bbf633473161910bc336a0d97ed86 toroidal_queen46-1.smt2
1646218c205ab86b3841746ee4c5eeb9 toroidal_queen47-1.smt2
a5c8673984521b9e4d64459e7b751f89 toroidal_queen48-1.smt2
c7a1cf04d90ee03b66a0f2788df4f3ed toroidal_queen49-1.smt2
b23a8161e6c7b4c363a2e244dd343f14 toroidal_queen5-1.smt2
3dff0250df284b719d95230a8d5d5c08 toroidal_queen50-1.smt2
f1aa500b6556100c442da41c3e8e2ff0 toroidal_queen51-1.smt2
583a1cbb19bd56a98f33c8bf3c4987b3 toroidal_queen52-1.smt2
fc26b5e9743f792b162df7bf0283cd11 toroidal_queen53-1.smt2
4dbd04996c5cce8bc885789161884fb1 toroidal_queen54-1.smt2
1e7bb3bb9673d52c57e25f7241591a25 toroidal_queen55-1.smt2
894e70f9fcaac347e6fff1e0852ced7b toroidal_queen56-1.smt2
9688309a01b5907778f8fdad837259ef toroidal_queen57-1.smt2
7e12ead4e9b8b5e67859d7b1174d5242 toroidal_queen58-1.smt2
354fc5902e662c70edfe881eb9b9625d toroidal_queen59-1.smt2
7c6316e06dff0f5aabb40f79df128cea toroidal_queen6-1.smt2
3c84e17d2ccfa3d07a8767279401d9bb toroidal_queen60-1.smt2
779b4314ee3d359aa2137de41bc894fe toroidal_queen61-1.smt2
cbeed94aecdbe00051dfb8c0c6257d97 toroidal_queen62-1.smt2
138a0dc6748bd68d69bbbf1eebecf617 toroidal_queen63-1.smt2
3cbff477d5232c28ecf11c066cf72935 toroidal_queen64-1.smt2
2f41e2df8f1f3bfaf519ee230b4fdbd0 toroidal_queen65-1.smt2
aa528d3ced0e9ea27a81f518fc0d3e8c toroidal_queen66-1.smt2
d73b034434e21e8b76f338ac995d55d9 toroidal_queen67-1.smt2
2c4cc7bcdc89377f3a99f71ffb1f41e8 toroidal_queen68-1.smt2
8fd99161d43016a0cb05648d6ac65ed3 toroidal_queen69-1.smt2
2839efffd433a796dce451c0131bbc24 toroidal_queen7-1.smt2
af30f06f94e5e0f81a871e11e9b8f524 toroidal_queen70-1.smt2
39a47caf9af9794b51a2eadf99543f7c toroidal_queen71-1.smt2
4baba6ebcc52ba698c4aad62ab33d457 toroidal_queen72-1.smt2
a3957d278bc0f1d3d2efbf7bdae6b641 toroidal_queen73-1.smt2
d3a0a2c3d20a85bc78474cab98780376 toroidal_queen74-1.smt2
dcee147ee31b39e9f89b6c72e9b1c83a toroidal_queen75-1.smt2
270093c270c8b16f059f4d1f770776f2 toroidal_queen76-1.smt2
1bc8447ff1de2b0c3d9884f9d4eff9b1 toroidal_queen77-1.smt2
bc0c2fe1ccc1153600217d9f00f4fb07 toroidal_queen78-1.smt2
eb4cfd1cd971ad4e9873f5d864fcbbb5 toroidal_queen79-1.smt2
a2c88df525a12859bd00376e74b3d84a toroidal_queen8-1.smt2
25b2cba987262a6ebb3280506e0dc3de toroidal_queen80-1.smt2
e6e1691979545e2cedab9b94f090d4cb toroidal_queen81-1.smt2
7a50b5abd9e69872f2d593928af05ebd toroidal_queen82-1.smt2
3e7f0c358974094c49e0ced0b6287388 toroidal_queen83-1.smt2
b0a01897b93c1eb80ffaab9edf45c864 toroidal_queen84-1.smt2
1cb4e3d9657bdea518d9b57f6f918763 toroidal_queen85-1.smt2
67c66e7f0aee433291ac4ab5fe4fc183 toroidal_queen86-1.smt2
30babe2f39456e316db08cbd3451b7a1 toroidal_queen87-1.smt2
108625ae208e15e1a7e6bcae2a5e8af9 toroidal_queen88-1.smt2
99c6feb8b63c37e36892877bfa65fec4 toroidal_queen89-1.smt2
4ad9fd04c6bb8ec336b796f76ec5431b toroidal_queen9-1.smt2
0d7849a2150f71d8643716b6f396bc0b toroidal_queen90-1.smt2
ef4c78f90287dbb9ca781926b290b6f8 toroidal_queen91-1.smt2
b6556e681c99edf97f204b96a86bb1c1 toroidal_queen92-1.smt2
0578bcbcec8a2e27da60534c5c24b7f5 toroidal_queen93-1.smt2
e95948f28044e822d4bfeafe8a547224 toroidal_queen94-1.smt2
db7b491170aa43bc0b3c1af38d533489 toroidal_queen95-1.smt2
71601e0318ceabddf9e0afd13ccb6519 toroidal_queen96-1.smt2
f2bed9225e3d7124cdb770c1f0f40a1c toroidal_queen97-1.smt2
7e2f13e753117b829c30935cc0f3490e toroidal_queen98-1.smt2
ec11f4652513c055f48a5bee93602434 toroidal_queen99-1.smt2
