7839b11cdbbbac561defaa2dad83429c exp-361-neg-4-e-chunk-0215.smt2
fe13febe43b17bc63dc8664d962cf396 exp-361-neg-4-e-chunk-0216.smt2
7b9ff3cbf36d7b733378044a42df3e04 exp-361-neg-6-e-chunk-0215.smt2
684fa79487099f35920f4b0724008e9c exp-361-neg-6-e-chunk-0216.smt2
