df5f4071405c5ca8838964fce911ae11 sqrt-problem-13-vars5-chunk-0015.smt2
53eb47e3543474b8a8878f862f8ae093 sqrt-problem-13-vars5-chunk-0017.smt2
ee7ee66148684306cf14b9321c0c9662 sqrt-problem-13-vars5-chunk-0018.smt2
a365d7433e18b2ec1522d8e3fc096844 sqrt-problem-13-vars5-chunk-0020.smt2
6f603e4bbed82e5b9bd6f713ca0a4812 sqrt-problem-13-vars5-chunk-0021.smt2
c6f4cf062c4d9f30cb70c4f63ea55b9b sqrt-problem-13-vars5-chunk-0023.smt2
82724f3c1c23347e211aceaf2f5f34c8 sqrt-problem-13-vars5-chunk-0024.smt2
385c1754b8c482d934d6cdaa7dd21479 sqrt-problem-13-vars5-chunk-0026.smt2
5451da687390da5918af93787f0ddfaa sqrt-problem-13-vars5-chunk-0027.smt2
8e9693ded14483718c86ec8d426b5d2e sqrt-problem-13-vars5-chunk-0028.smt2
