6faffa49eadb43f0a69b1072ce5b32b6 query.01.smt2
50b333365549208e2849b4480ddf0c64 query.02.smt2
7b48a361d38f8c996283e62f49613498 query.03.smt2
66be7a4231457f51c69864d650cdf6c1 query.04.smt2
ef0938d11a4ca642eb0d6f5676869c5d query.05.smt2
b30c636b8de37a42dd9b0b38a921fb9a query.06.smt2
1794d22ddbb5918e7d6309e370eb72ed query.07.smt2
dc3094b92495e0d408ba2681a8c2f532 query.08.smt2
39170ee4e44d82c420237183805d7eed query.09.smt2
ba6700d14b29b8014f98236f4a014c22 query.10.smt2
5ae46090d2dc8da75b5df65eac80a426 query.11.smt2
52ce5034a09770f9c22c455fc07915df query.12.smt2
b521083ac8d0b3ee1d22dec7110806a5 query.13.smt2
0428364792b310271a5d0341daf13bd2 query.14.smt2
4e6270a1e6743dba9f4db0aef71b1065 query.15.smt2
315a7a388ee7f7ae5fdfa74b8ee0a7d6 query.16.smt2
281f908aaedf52f4992046b6456aa7d4 query.17.smt2
183ac094295683f9dab602654cf8096f query.18.smt2
0fd954e278146e3b8bf14e3fe25efb94 query.19.smt2
1daf251449f6373bab705a1a930b3817 query.20.smt2
54ea8e49a3766581cf0c32870a29eb1a query.21.smt2
5a423c83ac40ad3ea8cf7d9e26497320 query.22.smt2
8a94fec8fbed7983e5ce448daecdfcc2 query.23.smt2
bea2778d8e7fddff08e16f4098318d42 query.24.smt2
eaee199d118d7304eda6f74eff0bc610 query.25.smt2
577cdbd8ffc954d0caf32069c6a97248 query.26.smt2
4246bb38c138be0b4918ec14283ae714 query.27.smt2
6ff65e45bd1f6329f072185c9cd6bfa2 query.28.smt2
3f262f3c5430e9f0e1642a17b990751c query.29.smt2
2104823d59f77f784e0ef55a4132e5fd query.30.smt2
8cc36ecd779130587e2476c7fbcec13d query.31.smt2
43307bd6c778076659be3666668dc3e7 query.32.smt2
b5d8c1b00fa1224fe11b817d9ed45577 query.33.smt2
07b0e1d4a0a5ffa3b668d1531fc07be6 query.34.smt2
3cd18ae684e715b0c2a4197b59dbda7b query.35.smt2
9e38636d107c53d80039bce92b8b09cb query.36.smt2
1c4ef33df635b7c699f129f37ef4f4c1 query.37.smt2
578112d770e9cfd885b41152f90c3e16 query.38.smt2
b9704e29174fad80671a33872db0cb14 query.39.smt2
c5a112eb82c7f59c40a6e1747a32fabc query.40.smt2
fbb7029250f98631e4548d8b87756f12 query.41.smt2
b76b07e13a938ac8d2a45e11abe0c283 query.42.smt2
6242eeff806734cd640d4e9281738676 query.43.smt2
398acba2f0e8bdc700b3c05e10c36ecc query.44.smt2
7a870e252306f7316063b6e6d499e49a query.45.smt2
e54a413a8ff1908d2d5edfd7b6420268 query.46.smt2
ce6539691210295e6796334276127710 query.47.smt2
e3b199450d4ca4de8c2179aa2bfb19bc query.48.smt2
ad73611245c7b3c5f934687678852d22 query.49.smt2
a5781df10a087a98124dbff732376c57 query.50.smt2
9d64819cd1a31498bde9bf37a9d8ed64 query.51.smt2
9addb013a788dc934c8db63e634cb721 query.52.smt2
55fd4c7487e80effa0b2f6f1ff5b5d7f query.53.smt2
eb492dcdfe3959ac9d56dcef2b3f0805 query.54.smt2
6ed5d978ff9f926c1bb96e6eb426d6f8 query.55.smt2
fcde6f3bcc2286006410b857c9bb6649 query.56.smt2
8f013906c965f8c944bdb1d7c8bb55b9 query.57.smt2
bf7b93032785478151cae09da6157bc5 query.58.smt2
f05116f4325cc5d72657261047b439aa query.59.smt2
6a00eda1773e3e05df5ce3bcc88620e8 query.60.smt2
5d20e1d4b992460da04a12850a7eced9 query.61.smt2
91246be15c716030264253d9f536c7af query.62.smt2
9d69a31756d1dcf32bb99de95df4b143 query.63.smt2
9ad0ff556f9f5d026b0e110b1009d8e4 query.64.smt2
12b70f08738802126f58b4266d292148 query.65.smt2
e1da5a40a131d4a8ba403b3288c7b794 query.66.smt2
5d5d0758bb14c6b358be6ca0b6395bfd query.67.smt2
dab7ff4a582777e472ef52263801ca48 query.68.smt2
eca5526f668eb96b2569d4d1b8cdee2b query.69.smt2
007d1d59171228420a763ff73a71455a query.70.smt2
b3f77f890b73d07f62b467b138c78837 query.71.smt2
ad78d07aebe45407e52a1021ba415bb0 query.72.smt2
337beb4dfc9489aadfd00762f6bd90e0 query.73.smt2
2f19b2e121008333696a51cf89814fa5 query.74.smt2
d08d7acfcfd8b4789a562fd185d899fd query.75.smt2
3ed3e895e969ee215356f7b57bd78df8 query.76.smt2
ea1bcbd825ab0a90594e03aa42b21727 query.77.smt2
efe6dfe4d28cc2c7792bf22d17bec7de query.78.smt2
c87cb9e3423beac2ffd85d0de5bd2579 query.79.smt2
fffa70d57eb9781bac90aec2266789c0 query.80.smt2
9b39e8846c53afdf86f7d11fcf0ba5ae query.81.smt2
92f0a0f84c34ee26290ed76d91ec9ee5 query.82.smt2
ad3ead6ca75762f361ddb4f932f81880 query.83.smt2
9c98d6dfd19e666830411a7ca1a2b591 query.84.smt2
ab812bf52bf931528adf115cdc89c6de query.85.smt2
7e64f4f4fa6fa71f115429a20f3bb9cc query.86.smt2
4998e1caef586a97b8fbc88361547bbb query.87.smt2
