3af259c70e1bc4bb8d2e058fba125834 MULTIPLIER_10.msat.smt2
07e1769465f4af5b53a566c22e15b6f0 MULTIPLIER_11.msat.smt2
fabd0583ea48caa0cbdf23dc66426ffb MULTIPLIER_12.msat.smt2
7ea1abaf9026dfc7f8fd35544b357436 MULTIPLIER_13.msat.smt2
7f76f8f8e5bbdc9f80c53aac0907571d MULTIPLIER_14.msat.smt2
00d9af4fa670b724269bf27308a4613f MULTIPLIER_15.msat.smt2
5f62d3b6e6840cdd677239439df3e1f2 MULTIPLIER_16.msat.smt2
02e1bc05ce04ff5e2f3c826d7a06a49f MULTIPLIER_2.msat.smt2
1b89e96c103cbccdc317f1f7ae6277bd MULTIPLIER_3.msat.smt2
4ea529609381d7abade3d4d5db2fa056 MULTIPLIER_32.msat.smt2
c376455a4201802cc6e2fce68a35a088 MULTIPLIER_4.msat.smt2
c25ed52e54be57a00e8c73270678481f MULTIPLIER_5.msat.smt2
162fc956d75063270c415770f2ba1521 MULTIPLIER_6.msat.smt2
03f7607b53196368507ffc1625b5ba8d MULTIPLIER_64.msat.smt2
826fe291e0484b004dbb617a3a76dbe2 MULTIPLIER_7.msat.smt2
b3d39ea6fc23eb83746942a57ceee74d MULTIPLIER_8.msat.smt2
41fb810a43d0cdf2b8f1632d1672fcf9 MULTIPLIER_9.msat.smt2
