4eee188171eb3c357481a4ecaafdc8b7 formula_001.smt2
bbd8b4162ff7690892849b82ad4bb7aa formula_002.smt2
5e4d764dc8633f18787086f5c0b27639 formula_003.smt2
37909e63e724f033eb212c518dfc9a2f formula_004.smt2
97961e78c06585a1e105861d89005af3 formula_005.smt2
8ad9f9e08f631f970e707166d5db4054 formula_006.smt2
b993518d008fffec0ad39928c6ffa2a2 formula_007.smt2
b86f3a61ae4ac2412e6320fa35459cfa formula_008.smt2
00013c653f92c19cc453365baab8375b formula_009.smt2
2d36f9811c40132e7063c69e76cca03d formula_010.smt2
68b61d2f0f298354abe6b296d962ccc5 formula_011.smt2
40b18081a8bc4ce9251671b9ec29572f formula_012.smt2
297005f020283d22548de8ef6fe7dbe5 formula_013.smt2
fa887246833abc390574244f7571716d formula_014.smt2
c1b8775c11ad2e3af793a5226f3d3bea formula_015.smt2
489209747889b94c52f85e682772750a formula_016.smt2
72f65692f29e13c1d08a94791adecc3a formula_017.smt2
d93676a668b4411d952ad497a7a92ad0 formula_018.smt2
c80abc9c4c1ad956b57b73c37dafd11f formula_019.smt2
0ebb34f3902e048c99df3288a4cd514a formula_020.smt2
0e77573850eb3348aacb842a17ab20a9 formula_021.smt2
75e088db3be8fdd26631255d90634b55 formula_022.smt2
06b7b589cafa652f53ffa43e05d11237 formula_023.smt2
b1b861bb0ffca5345ed59c1f8ec32a38 formula_024.smt2
779f06cee9113f2b86d41d94bdb97a82 formula_025.smt2
319bfdb6b3dbc29f5b61b9ee1667a81a formula_026.smt2
2eb578df154e05800f112118e033f146 formula_027.smt2
b811fe221bb51c756daf1ea030ecd0ac formula_028.smt2
22a6d8242979f29dd386d3f177266573 formula_029.smt2
952c435c9451457f90448c643826d723 formula_030.smt2
16997bc4520ac3fdd336c5fadc63251b formula_031.smt2
a087a4eb99597aa46a59a1152a961892 formula_032.smt2
033ce35db8c5738ff3544f653c52a543 formula_033.smt2
c1bdd0e935f76b624ce1d6dfd5d501a2 formula_034.smt2
5fddae78ae4772b096466aae79f008c5 formula_035.smt2
1b709b8e6d14544a7b8618365693e7cd formula_036.smt2
ea61d448de766e57183567cb1aa27b94 formula_037.smt2
a798e24ad2c0ae0d37915208e8e6ae12 formula_038.smt2
fbda363cc16fc1a03020d582cb99f7b5 formula_039.smt2
38270ec21277960afb751df594fefcf1 formula_040.smt2
90dee4b4aa35dd811cf329e172d24a9b formula_041.smt2
3286582acfec56e50a5c406a1b6a7991 formula_042.smt2
05f474ff1e6b606e06bd5d9204342b03 formula_043.smt2
d944129d02fcc8805983aaa1825564d4 formula_044.smt2
26aec38445c4b62c99cc7ef79f3360ce formula_045.smt2
ecc73ccc5c48d632b88443ccfdb44931 formula_046.smt2
7bbe0688fc34c1f8a3e5ba82645a3896 formula_047.smt2
7531c6d56b752f87496adc0adecfa021 formula_048.smt2
6fd86eef4ab52dc50855ae52983c852e formula_049.smt2
775bb9d93b90ae19af0bfcd46f7b528c formula_050.smt2
2d2e9a9f0f6d08833caa649fd5bcafed formula_051.smt2
d2444d5b1506bfe89c98143711d04a4f formula_052.smt2
527f2aa504b785f3da1d830012515686 formula_053.smt2
7ccffbe0d8564b860ef9e451a1e43fb4 formula_054.smt2
a52b7805c839c9c84d57e6278a9a4b0b formula_055.smt2
e93656137a9983f8ee7eac0598ef783c formula_056.smt2
5941963ade87b345d8fc45c665613b1f formula_057.smt2
8674543d206e33b4eacfb0398d8044c2 formula_058.smt2
6fa2f43becd82bd20c3ea0299f2e913a formula_059.smt2
7a3913f0ee5d82243b4b229b3fea0128 formula_060.smt2
9423816818b24d308845b63b081ed443 formula_061.smt2
2972a06a5ce2c4e30ac14cf224cd047a formula_062.smt2
e8f1ffd75c41edf4464095fa46906e67 formula_063.smt2
a5607e95965974d2351079c9938e3e80 formula_064.smt2
a34b1b3ae2b3efeb2666f19468fca020 formula_065.smt2
57dbaa5614c7a45a972703d72659975e formula_066.smt2
a0d48614588a246c9cc558741ddfa055 formula_067.smt2
b3afcb231466a5976ea1e931746cadd4 formula_068.smt2
fe5e800260b1ba80b4a0f2515b4ef588 formula_069.smt2
ea189841c458ccb6ef51cf8217d627e5 formula_070.smt2
4e7b7f99e42ae10b030746c4899069f5 formula_071.smt2
7560aac020057799d8f22c3723050cac formula_072.smt2
545826ad076579bc4b77d258bca31366 formula_073.smt2
da415f4aaea41d682d630d74df70e5fb formula_074.smt2
dcc38e81e7c3c7067aac319d40b98951 formula_075.smt2
c5a5fc8c75f4bdc4788731e5ed148a61 formula_076.smt2
7d4937b8bc23089ade92e659c25639e1 formula_077.smt2
e47319e72d3b95da3a7ed47b0e12999b formula_078.smt2
bf8dd811762b5f098b61a9d5cdce31e7 formula_079.smt2
7e22e4b8b6a75db3775b6409cf51bcee formula_080.smt2
05385c69cdf9374ee2f4c19941ad9934 formula_081.smt2
fc0c0b245468496f5803723f8b6124a5 formula_082.smt2
c2ccbef888130aa497d9db9a271bad62 formula_083.smt2
8b5d1d196864f7396fb8841f42e7292a formula_084.smt2
7c328da5ad9208bd0c45a50c0a560ab3 formula_085.smt2
69703ff8b3bb284a3ef08acc06c495dd formula_086.smt2
5964f919b9aca6918fe12fc11cca6b17 formula_087.smt2
5cd5d3677355a16a2174699e8a95a6a8 formula_088.smt2
2689ac07b9db3a5464d2716e8e28d74d formula_089.smt2
2331b9ca9171f303cebdfa54a107a7a1 formula_090.smt2
ca0593af928cdb4086b2b1ad10084737 formula_091.smt2
34710f8bfca9a815e8c3169ba77c8018 formula_092.smt2
e20c673f5c0c25cb7deec46882a2e211 formula_093.smt2
82bde8eaf00a1c4d2d060d5afa66e63f formula_094.smt2
75f65f792671252facece097ee3a6190 formula_095.smt2
7cae2b73d37bcc7a99534bf84b1488d3 formula_096.smt2
7b7af9a8e5b1abb90c8bb7f016ba9a24 formula_097.smt2
752b1e447a5be075d5a99e61b45d09a0 formula_098.smt2
aea0239d4acd76b6c707d6291d5c028a formula_099.smt2
b9e00269d9a2bc407d67c63d827d98b7 formula_100.smt2
fc6c7ac8f22bb40d829dd715eae99270 formula_101.smt2
4ab82fba8779322b34b739325c3c83f1 formula_102.smt2
56984a403af5f49b6e6dfbe2e5dece6f formula_103.smt2
b430935ad702fdf9d92b98e71ddc96a5 formula_104.smt2
3e0b77891cf9258f2f80bbe86f9119b6 formula_105.smt2
d35fce6e778d7fa5fb54d7f89c3eeba2 formula_106.smt2
68ad74281c4d2597c23402e06822c657 formula_107.smt2
a077b4452b97afe28ad80f7d233ec62b formula_108.smt2
c4285209fc6b5586df83ccc541ef6eb5 formula_109.smt2
34d47758c9c6e70660f9965b3b94d85c formula_110.smt2
41f17f33fd7cddcb43fd45ab88e3d78a formula_111.smt2
3950d19fd3ad379e887093897b0a7de3 formula_112.smt2
da01edb598267bc2aa9a4ad850ac4552 formula_113.smt2
74231d53f0dd5cfbabe9c23bd72d775c formula_114.smt2
123f41056e7bafbcc9bc7dbf31271fb6 formula_115.smt2
2c09b1484c039aa89d42588ee8d607c9 formula_116.smt2
24c2d81ed2ea38fec5f939945680a045 formula_117.smt2
2266a5f446687c76580d3ac68cff91d9 formula_118.smt2
01e6b0c6bc161d2611ad7482386a228e formula_119.smt2
e85aecd1216eea9be32cfcb57253ae70 formula_120.smt2
138a0751427de5e0541ceb065404b43e formula_121.smt2
6667d35af36d1c70653c9eb9f5c8d556 formula_122.smt2
75a3fd389627740ce98e117b89e57dd7 formula_123.smt2
aa6648c796dcc35e7310db4518812d7a formula_124.smt2
ede691e15ccb495d34a8893026257185 formula_125.smt2
b6955c1aa10181f628ac36909c746f1c formula_126.smt2
4f16b8f250f8bfe136819d1461ab2426 formula_127.smt2
5fc93181e0e50c68eb6e3efe00b946c7 formula_128.smt2
b16e81522d9675ba1a9857c8214ebae2 formula_129.smt2
5d12a9c696a71b746c71c5a538dd4c47 formula_130.smt2
f6e1a9b7ab64f671ce03da223b4721f9 formula_131.smt2
064f5dc3d2612e1ed96c96fa5b22ef67 formula_132.smt2
9909d266e4be550988244e5a9ef0ce17 formula_133.smt2
185c9cf6aa8694367b18ff3a98d06a03 formula_134.smt2
956446308faf2c01795578f9ccfcb358 formula_135.smt2
f3fdb70a8c5e209a63bbe825a077c3b4 formula_136.smt2
16342f78044a0b3515cdf9580416fe1a formula_137.smt2
06cd54b36bd5c8bf9858e620b5dfbbf6 formula_138.smt2
f3d196069dbb9b38c0ce6b0d9a33db5d formula_139.smt2
38e15112e82b057b71be847040494fbf formula_140.smt2
4667e2d0624d0f5bd9e501c4c6312263 formula_141.smt2
34be7bb5ae8b9eccf3cee38c8ed5abba formula_142.smt2
88f70cde1c858fe6663d2cf4cbc540ae formula_143.smt2
2f07010f5e1aa92a408c07b75bdb143b formula_144.smt2
60840a0edcdb2a4e7225be4a31d79dce formula_145.smt2
a48df9c795f512ee234f742976f69864 formula_146.smt2
c62087341c4422103fa0276a67df5d25 formula_147.smt2
1a0153ba80dee765cd3efbfb7b7b4d63 formula_148.smt2
16530256de9be266728eab559d943eed formula_149.smt2
736d5c9ecdfc7d109be25605f5b279f9 formula_150.smt2
b27fd0053e828615f0b0b179b1bc310a formula_151.smt2
3adfa9a12642ca0cdde44c09e6b1a14f formula_152.smt2
264d59e66aa4bf7063270cbf6dd8fa43 formula_153.smt2
bb57947875c17d95b05ec3510f1cd52d formula_154.smt2
661f153180b427d004938c2b5c6525fe formula_155.smt2
51f279ef727721d2791b2d51be6be965 formula_156.smt2
5f10632dbd5c982b59cee1fa60d78006 formula_157.smt2
e8727a31bcace024186b1b6c129218c9 formula_158.smt2
a0e925f00aa693a0e1f402a00df7b30e formula_159.smt2
d1b4eaf97b065f24f1d0259eca28c8bc formula_160.smt2
26bed54608451d14342bd1860324ea9d formula_161.smt2
dbf2a49e51df3bb96b59a4228e395832 formula_162.smt2
92fd4b674ddbf78b8f0b45504666f281 formula_163.smt2
75cecc16e9b972f09159b24cfda236cd formula_164.smt2
75c3a295114b0ea606d564d53bfe0457 formula_165.smt2
f7b9a3b2a2c55487a1b255fac9bf5430 formula_166.smt2
f156007e5799580c4ffc2b6af87c78fa formula_167.smt2
d13c9fbf86ac21f9817736603181ac40 formula_168.smt2
fad2bdef1f2a96145a459f4ecfa44607 formula_169.smt2
5ce6a643bec0febd4ebc8e17d0dbdb1e formula_170.smt2
36ec2bbb24e4665f7dc596f73add47d0 formula_171.smt2
a9caa77ebe8173a9e15b916a3cef64d4 formula_172.smt2
f29235c700e82032715fbe3df2acdca3 formula_173.smt2
f6bf2906ae59dbc7395a35799e82ba6d formula_174.smt2
e4ae5f09bcc2116a9e4f71b38c7bc6f7 formula_175.smt2
900a331f37973770019b5b9da7851bf0 formula_176.smt2
978e4bcccfaf7a614796fad1ffc88028 formula_177.smt2
659048badfbaa346d796eed0136e1aff formula_178.smt2
28bcc15c1daade7ca6ddec107a748112 formula_179.smt2
581cad314ac2fb442ac4045d758709d3 formula_180.smt2
3ece1ed459aae8335f21afefd6cdaf35 formula_181.smt2
325634b226e883a3bc85257dfbcd7ad2 formula_182.smt2
7485b0f2c85ff4e08c3dbda770f66ad6 formula_183.smt2
cf8eb44127947e9fe3231abee9be469c formula_184.smt2
12cc4018a709c86a235a832794a7cbe2 formula_185.smt2
60d01c017538a915492f1275b51626e9 formula_186.smt2
ebaf4b82862219919f9d1b9b79733039 formula_187.smt2
0b6f8138ef8e5b8e858b55aef99e0940 formula_188.smt2
7e664a4ab8d474b83af6dab17df15ac8 formula_189.smt2
1afd4b61d8aed45eee60d6e032205e80 formula_190.smt2
ed865d28473afecebc9f4df8ceda15d3 formula_191.smt2
6d7c29045f3769f0e33ded2aa1c8a6a3 formula_192.smt2
34e38e43ded76129b7c8236572332c71 formula_193.smt2
1bd50b1f04867b94efc98bf72303b960 formula_194.smt2
1f15c636ba565f66cc95aa64758a4b7f formula_195.smt2
d6e6476f3b1964bd67348426052a6ecd formula_196.smt2
87fe93137d46a9d7b18c424b8b255cfc formula_197.smt2
1aa0e095662835076fea061a62dd7553 formula_198.smt2
b067f3f9182802749a6b3dd40ebe7db1 formula_199.smt2
06e2d61fb96897787768c01ca2a77ff4 formula_200.smt2
0e3c8e0faf7de5f65da9560d713acb26 formula_201.smt2
755f44ca83d8b1f131191f8e8f1a3fd0 formula_202.smt2
6d148eee451cf0e9a131f44ff99a65e3 formula_203.smt2
99022892ef32848c3bbe4ac39b99058c formula_204.smt2
b05385c7bd4c3ba14fb2e146c8195ebe formula_205.smt2
fdbd91fc799090deeb1495c44ee84044 formula_206.smt2
64b172a7d9fa467462a2542140fe0e1a formula_207.smt2
f2c7cf62f994f0b0ef265f31dff90ead formula_208.smt2
8709142a4852aea8dcd8d5ce9308b5d8 formula_209.smt2
8bac90ee9a06d4a47b6f301ffca0f673 formula_210.smt2
f5c01b91a68d8950e7b4e332839a32f5 formula_211.smt2
9acffaf486efa23d634a09121d2e98b4 formula_212.smt2
b213d8935eea7ba4aa56ba04f9d6136a formula_213.smt2
ab28baf1d39ff2680060344076f72d5d formula_214.smt2
9b2c09cfdb99b5a4e1ae52e6b3dfd2a4 formula_215.smt2
f5a6ea7941977b00f2f7aa2e422802a5 formula_216.smt2
e4ec3f5c4aabcaf58cc6400a18e20e0c formula_217.smt2
bbb669660f1ba90422f979408075df21 formula_218.smt2
c7ea806c2b8816ecd8edf11c55b56a4b formula_219.smt2
2ab646ca96b15b3cf1acc0ee3092542c formula_220.smt2
8d668aed6b87dcdbd858bf8c11e782cb formula_221.smt2
b1406380c24225c0251a0bc5ac3d9414 formula_222.smt2
75e60242931868975be9d6e8c7c112d4 formula_223.smt2
052214c7c601c577253978e5270ebb55 formula_224.smt2
41893762c633bc523e373bf71c5e6189 formula_225.smt2
1ab77c8ea50bd6e8f39bcc35163f9b9f formula_226.smt2
62846c3a0be89b76c81b78aabbfceb88 formula_227.smt2
3029cc3ca21f1151858bdb55576a531b formula_228.smt2
0c152c12b7f3a0b51bd3d1417e1d19ae formula_229.smt2
b043fecd93d9299150d558f01d9e4754 formula_230.smt2
3a5e98ed54651d26069c7cc288e5bf8e formula_231.smt2
bb98e5d96847be148b2e910c1224730d formula_232.smt2
c3b0f8107d9a006a0cfc60f3e42d1f56 formula_233.smt2
90b0e08414e6aa11d016e2fcd2d36927 formula_234.smt2
991b4604018c0d6c417751574db2d123 formula_235.smt2
ca6121e9893d6d2f78ab01b8691e678f formula_236.smt2
39501ce01f97c8151f41514c82b3e6fe formula_237.smt2
57af1945abe1d05922b0624eaaf44537 formula_238.smt2
f44353427c56da9071a3d4b8076997f0 formula_239.smt2
3f08f87b63c4cffb939f439f31eba6f3 formula_240.smt2
05370b93f4acc2231db4d0f5a4adb389 formula_241.smt2
5f854ad0b75070917212aab58485c3d3 formula_242.smt2
cd978d23dd79059131dbdde0740566d0 formula_243.smt2
1071867d58fcbeef6216d8108179238c formula_244.smt2
9bcf3138a763bb249ff68a9cc2a54fc4 formula_245.smt2
93b0e58c78793fc0ad44bd4954e9eb44 formula_246.smt2
b6b117b5ae3ed01cffe5bf6dfb75b055 formula_247.smt2
5ec912266ec3c8ca3a81ec4844ff8d21 formula_248.smt2
130f438479d62e586a5d6fab8d34c88e formula_249.smt2
cf5e35997d79e7ba33a18db936383a6e formula_250.smt2
41bed3a4e12a74fc97298588724bf839 formula_251.smt2
8e44d2c616c6cd96f2d7dfcba2938cf7 formula_252.smt2
b038a1033725dfefa1f596c79ed00631 formula_253.smt2
8db08f65ed737ba54e04751bb6e97ac7 formula_254.smt2
b2a0067c672b4287598c76d6abddcd85 formula_255.smt2
222e88fb4e4e8942c744b11bcafd40fc formula_256.smt2
c2679676fd051084313b509a51b2123d formula_257.smt2
7cec9b68a70c61435b8513ba7ca6d052 formula_258.smt2
9b304e45a3d2d46886ab09f20503b38d formula_259.smt2
fd2089421e7d347208d130f92e6c7019 formula_260.smt2
9b6910e45e173f44a53eca92ee80f52d formula_261.smt2
e78f731fe1f326d22ce8fb0218766407 formula_262.smt2
de0cf32623bc793e316d873d2aa8eed5 formula_263.smt2
e4eafe5d60db02bed087827f211fb031 formula_264.smt2
7bdb89707111d04605e8d145255da2b2 formula_265.smt2
066bfbbe57817bca6c953612d4bcd278 formula_266.smt2
48d07d35ddae75c283a9ab38dd332507 formula_267.smt2
9b46ac5073463748c465d5a208e1a47b formula_268.smt2
6aba982d332fc67cb35273b31ade46f1 formula_269.smt2
8d04446dff74c3fa21ce5b906f1be83f formula_270.smt2
8f24500b16519d7e4c4becfc9fcd9b4b formula_271.smt2
0007806d852de6f61fee9f275768ca04 formula_272.smt2
665586dff231cc63e2d27b7ec2723799 formula_273.smt2
11d9dda2466eb7d4df6a1fa56f6e2b8f formula_274.smt2
a503de6d94dbed0ba26c8a0d345e0df3 formula_275.smt2
064a80bfbe904b90792862ebde5e1e1a formula_276.smt2
cb9e69162563b92eb04ca9692ad74e2e formula_277.smt2
e8ff752fabde9906a148a73c58096843 formula_278.smt2
dc4f762d05d73c1a4c15cc4af6c5f424 formula_279.smt2
7981f1985a965263cdc28648f2086fa7 formula_280.smt2
0bccf82ba449f95b83e0e88d2d9f25f4 formula_281.smt2
76629ea26784e37bce3dff40856a0b9c formula_282.smt2
343eb17915f9212b3b7849c7cb0cf7a4 formula_283.smt2
ee057c3b59b3c9c90ddecb6477bdbd4a formula_284.smt2
b4280228395a31bf2484401c30e17e71 formula_285.smt2
ab7206df295e9bff1b00d04cbe8f9182 formula_286.smt2
c1f717b846accef4cb54b5387512ba1b formula_287.smt2
4332b94676c8a0c6bbc98135da65e807 formula_288.smt2
a10820cc1b80a6c23ef163b3ddfff95d formula_289.smt2
d8020d10a34e2928f3e33f54c2340a30 formula_290.smt2
45a9f675d0e83016de6011919114e7d3 formula_291.smt2
4fef6f6c9dabf6b1a4c1b1eb7db80dd2 formula_292.smt2
b7e6528dd340f4ff798e115cf20face0 formula_293.smt2
e5bf91d27d1ac9744ff485522751583c formula_294.smt2
d611355501a5785bd08afdc62935ff73 formula_295.smt2
ae10e2de761df373bffd74cdbea0d0da formula_296.smt2
f300d64fc6f35f6604132c04fcdfcb59 formula_297.smt2
2b47bb05da75b209956e60e981d56227 formula_298.smt2
7be79d1bffc813e54c44394d65b03a53 formula_299.smt2
f74fa05a0011bcf71812e84d1b5751ac formula_300.smt2
