a7a5d34fe2773d57adee48b1cdcf19a3 pb_real_10_0100_10_10.smt2
6561dff4c74f10c353c646cf996a40ba pb_real_10_0100_10_11.smt2
082940a805d6357553275f1e43941d8b pb_real_10_0100_10_12.smt2
aaced77d1e612452055a08c2d4fdb70a pb_real_10_0100_10_13.smt2
9d1f4ce925b9317f04f8764a2a0c115d pb_real_10_0100_10_14.smt2
dd9f62c64bb7a35b6a7719adc9302921 pb_real_10_0100_10_15.smt2
21ae7d3d91f8e4a02866a1648c336cc9 pb_real_10_0100_10_16.smt2
04a83c78861aa9857f04b41a14ed17aa pb_real_10_0100_10_17.smt2
c3bfb6bab61308614ffe12d04a7b2673 pb_real_10_0100_10_18.smt2
cff53caad0748b3cb88d66a5a0e0de53 pb_real_10_0100_10_19.smt2
75422e5a0920b220f273ed914c1ef5cb pb_real_10_0100_10_20.smt2
b3891bfe279428dc73764025c37ae317 pb_real_10_0100_10_21.smt2
b51a440c68779fc905fed3e3dd1ef784 pb_real_10_0100_10_22.smt2
cc524e8a25bf74e7b577b02ea853e816 pb_real_10_0100_10_23.smt2
7f5918a6e86694d4777d74fcf8c1d53e pb_real_10_0100_10_24.smt2
6c573bf8e641c3dda4867f15965a3e82 pb_real_10_0100_10_25.smt2
c96e2e7d6bccec4fc7732b18bbea239b pb_real_10_0100_10_26.smt2
63e97e87a8ae426b8b9c22fdae3e2854 pb_real_10_0100_10_27.smt2
9723c28c28bc698b61e018c6305c4a5d pb_real_10_0100_10_28.smt2
b44eababd4ab693df60d80e823d52610 pb_real_10_0100_10_29.smt2
69f278b2bd2e963141e9e86c3d6cce3b pb_real_10_0150_10_10.smt2
f4d90d7bfab93ac2acd3c5e474d95655 pb_real_10_0150_10_11.smt2
12a020123ef3b626c31a28aa1765a52c pb_real_10_0150_10_12.smt2
ed7adf53fe1eb229d8d9b1ca254cb3ca pb_real_10_0150_10_13.smt2
706242851e28a809828d04af986d8947 pb_real_10_0150_10_14.smt2
3d0dae2f3bf94da981b406b92f63c85e pb_real_10_0150_10_15.smt2
7b6734888c53b8f0e814f250570aabbb pb_real_10_0150_10_16.smt2
870c0cb999bdb5afef2749d8c24f0dbd pb_real_10_0150_10_17.smt2
5afbf30ef6115d9b7c0cad7576be7b1a pb_real_10_0150_10_18.smt2
8d0b09ef0212813c7bc6ae5726354bb7 pb_real_10_0150_10_19.smt2
e61a934057b967d04a20fc1df2cad4b3 pb_real_10_0150_10_20.smt2
5bed32ea7aeaa2d914416781e22bb4f8 pb_real_10_0150_10_21.smt2
99241064212c05f3745d4e46f6b650ed pb_real_10_0150_10_22.smt2
432b2b04c8edb6d56e6d38e128a91516 pb_real_10_0150_10_23.smt2
f3bea8c767931230dd4ec5d7b5030ff1 pb_real_10_0150_10_24.smt2
06f3e90c9f957d8b32cd996c0aef009c pb_real_10_0150_10_25.smt2
640637941afdc310bab5e5103d2e2d55 pb_real_10_0150_10_26.smt2
aefcbe0eeac1c78fcd1f60a53309b780 pb_real_10_0150_10_27.smt2
16b4b27dba92270bee2424e76905ff8d pb_real_10_0150_10_28.smt2
359ace28db76781cf84a351c81a244b2 pb_real_10_0150_10_29.smt2
3cde5c3ea808912fce7da12ba3c9b2f1 pb_real_10_0200_10_10.smt2
d10544645367af0808f46d9982e21b70 pb_real_10_0200_10_11.smt2
eaba241bcf3e26e36acc6d978cbc88f8 pb_real_10_0200_10_12.smt2
3b9e5188bdb7bc2fcfa928bad3c646b8 pb_real_10_0200_10_13.smt2
ee2be05b6fa0292fcbd743882579782d pb_real_10_0200_10_14.smt2
3c463fe2d89032ab4f30e67a3a8c6d09 pb_real_10_0200_10_15.smt2
326a1a2b76af55b95db8cea2a1877d92 pb_real_10_0200_10_16.smt2
7d2f6777955640026f5bff43f199cd02 pb_real_10_0200_10_17.smt2
0ef521f3e731f247fd0a76afdfc81aef pb_real_10_0200_10_18.smt2
c10b25fb44313283d1843b4fc23c35c2 pb_real_10_0200_10_19.smt2
4980785774ec86d61620be7f580c802c pb_real_10_0200_10_20.smt2
560d34e58d12b2433598b7e811b945a4 pb_real_10_0200_10_21.smt2
e41bc0bd2ddcd62edfd5afd70209eade pb_real_10_0200_10_22.smt2
0ad4bd569df13f1a9c1ba06796b47c2c pb_real_10_0200_10_23.smt2
be52dac3e183106fd853b3ea9ec27531 pb_real_10_0200_10_24.smt2
0ed0863ccdc4135513af44c3d7d340ce pb_real_10_0200_10_25.smt2
25ea6cf001719fbc946010b817bee30d pb_real_10_0200_10_26.smt2
d9f7a49a4883a1f14c33a11320be31b8 pb_real_10_0200_10_27.smt2
e2043ee83cb26e2303a7626f6ae9b9af pb_real_10_0200_10_28.smt2
199ee0ec52dce75882c16f17ce966754 pb_real_10_0200_10_29.smt2
311ce0114c87d3678d54c6621c6569ce pb_real_10_0250_10_10.smt2
71811ceca1e8d737594568549235937d pb_real_10_0250_10_11.smt2
80216499f78f31d9c1b5730cba3fee1f pb_real_10_0250_10_12.smt2
68786c9f3c83d2b61b16418ac6af39f0 pb_real_10_0250_10_13.smt2
ce4dcf7e2aaf1696c966f0c0d4933cd4 pb_real_10_0250_10_14.smt2
b42f1525806b4ec9a84060c0b07d39af pb_real_10_0250_10_15.smt2
69486233907992294fae21ab9a28a587 pb_real_10_0250_10_16.smt2
723e4b8d271b5b52bfc10c50b5878799 pb_real_10_0250_10_17.smt2
6c0e89b4e65a19a8a3700ecbe00d24c3 pb_real_10_0250_10_18.smt2
30d75bca046f178f0c478fb2ae038e09 pb_real_10_0250_10_19.smt2
3676468b9382785ccabf9e75dfad32ee pb_real_10_0250_10_20.smt2
6f40849e39c686e038783c2f285ad1a3 pb_real_10_0250_10_21.smt2
0745080a22ede6698ed3b5187b2114a0 pb_real_10_0250_10_22.smt2
64689d333a45a22e461b9266120dba3a pb_real_10_0250_10_23.smt2
95054b80668d4b086994aef2f4dc588d pb_real_10_0250_10_24.smt2
62a4ddd2eeea9c0027ed4bf39450a363 pb_real_10_0250_10_25.smt2
1ac67b23412aaf379eb6d551c8797e79 pb_real_10_0250_10_26.smt2
2bdc7ffa13ab3ef0c9119bb8a5c61370 pb_real_10_0250_10_27.smt2
facc088d00ac427edb803706fb41fb76 pb_real_10_0250_10_28.smt2
0ac2179d6cfd6b53adcbe68f7f72f5e0 pb_real_10_0250_10_29.smt2
e300d79b569477d17be36b9d24909fa4 pb_real_10_0300_10_10.smt2
4a288bc639f53230485e8fa353ced0cc pb_real_10_0300_10_11.smt2
aaa7d041a00a4c29ffe6fcce3f562a98 pb_real_10_0300_10_12.smt2
c48bbda69bc27d868c9e64beafcea2ea pb_real_10_0300_10_13.smt2
4e0f87f706e87540deb4b8cdbcf055da pb_real_10_0300_10_14.smt2
485d71cd50b88d3fa7388cf11b56a0e5 pb_real_10_0300_10_15.smt2
9d6e4be7350a04e1c3cc4076bd48220f pb_real_10_0300_10_16.smt2
34d01014904d8efaae9ca0ba762e68b4 pb_real_10_0300_10_17.smt2
99111977cfd770b8ceb6be7beee15124 pb_real_10_0300_10_18.smt2
717cc6a2a9c3a9e2f0483b2357106a67 pb_real_10_0300_10_19.smt2
c1da8aa810582a313dc1b40d1646e3c6 pb_real_10_0300_10_20.smt2
745cc88c8ab7f6e4941b18c2c1641ad8 pb_real_10_0300_10_21.smt2
722b2f80262c5d72f615d83e4fd499ee pb_real_10_0300_10_22.smt2
6a2838e71936fe4dcae8c13e66dcc8c1 pb_real_10_0300_10_23.smt2
1a3e6d0fc8b49030bd39adc2f4e933a5 pb_real_10_0300_10_24.smt2
800f01dcea782d9f04f66bf79fbf9c6f pb_real_10_0300_10_25.smt2
fa430c844cb77a4f969178c62aa0c74b pb_real_10_0300_10_26.smt2
20be2a8cae4dd8b21619371b26fab36a pb_real_10_0300_10_27.smt2
3834b84f59b10f790f64e32faf408847 pb_real_10_0300_10_28.smt2
7fc9ea2735da9eed9fa89c8f2925e6cc pb_real_10_0300_10_29.smt2
faa377dbdd1abefdccea8611b8a6351b pb_real_20_0200_10_10.smt2
516ce4dbfb37a575af018237836311d6 pb_real_20_0200_10_11.smt2
78961b843927bd0841ad46b255725bdf pb_real_20_0200_10_12.smt2
bcc476b5ccf2b40c915274b766a32932 pb_real_20_0200_10_13.smt2
349faa4f4cc5a12a9478837fd54e4f37 pb_real_20_0200_10_14.smt2
9dec19411744a4ddc3f785010b8fc9aa pb_real_20_0200_10_15.smt2
91a5aeb84fe3f76fcc2908781c277370 pb_real_20_0200_10_16.smt2
ae453a7d0c72d202dcc64e5b4cf922d5 pb_real_20_0200_10_17.smt2
a5e1f2d3b2d80ad3d2c63d8da0033687 pb_real_20_0200_10_18.smt2
7e64feb6712c39827bbe0e8db9d0abcd pb_real_20_0200_10_19.smt2
617d702d3a02a9356ddf3bca838a06b6 pb_real_20_0200_10_20.smt2
86a6b7476782abc8b231f8be16db1242 pb_real_20_0200_10_21.smt2
7e46f0314483e27a45b0d55c5c7a7ca3 pb_real_20_0200_10_22.smt2
7aa8be9a3a45a3965f744fa9ed77ea98 pb_real_20_0200_10_23.smt2
c5fc9e665049ab8b9afcf11f3ae7bd63 pb_real_20_0200_10_24.smt2
f1c7aeb0773dc8bf55bf4a875be284ef pb_real_20_0200_10_25.smt2
f09b3790bba90ce31fefb8484e99156e pb_real_20_0200_10_26.smt2
9306e826790b86b5b33be68eeaac45e1 pb_real_20_0200_10_27.smt2
dc5d2b3746455536c2168fa03e66c10a pb_real_20_0200_10_28.smt2
115d231fa29f0d5d2b58a5c12dd7b0bc pb_real_20_0200_10_29.smt2
4c11c79179accb36be41180c55c59779 pb_real_20_0300_10_10.smt2
ed0cd2a8f832e0ae20ebd91539d21f07 pb_real_20_0300_10_11.smt2
cf3aa44a22bf7012dd61bdf6af5b954c pb_real_20_0300_10_12.smt2
50a1cd1a325f0070278f3142a1866cb0 pb_real_20_0300_10_13.smt2
ca2aa306eeec91411ca562bd8a030a33 pb_real_20_0300_10_14.smt2
ab3d5d0ad02de5d40c23edd5a662889a pb_real_20_0300_10_15.smt2
67ceac0223615302dda56caa843e2aa9 pb_real_20_0300_10_16.smt2
44c46a6f98071c75446c02ab6b80a282 pb_real_20_0300_10_17.smt2
0daaba19fd0dff05588efb131c7dfdc1 pb_real_20_0300_10_18.smt2
d6abdac5da092d620329864242dfd75e pb_real_20_0300_10_19.smt2
d390b1bae28a9e2c9485e2bae0cf5aa3 pb_real_20_0300_10_20.smt2
1e008ca4bdd6f11e454b2114c3088a35 pb_real_20_0300_10_21.smt2
4e37d976e310c523ee052afd9306d373 pb_real_20_0300_10_22.smt2
b64d3f490588df822b004ee9a1813dec pb_real_20_0300_10_23.smt2
e3e25df7dce61a846f125dc2320ccc1b pb_real_20_0300_10_24.smt2
9f4688bc9144485b5060b76deef777d5 pb_real_20_0300_10_25.smt2
c036c4864a3fb3afef64f87efe53b62a pb_real_20_0300_10_26.smt2
ca7010b6fa39cc7ea13f9508b4321013 pb_real_20_0300_10_27.smt2
f07cc4685d7486492185c3d8ec4fbc32 pb_real_20_0300_10_28.smt2
0e83f47bc98ac7746a23c5149b283543 pb_real_20_0300_10_29.smt2
69360d72b9cc941946d484d999de16c6 pb_real_20_0400_10_10.smt2
0c41770b565b3dcc825f019a91400dc3 pb_real_20_0400_10_11.smt2
12cc10866217520be6fe52fd6943c4b7 pb_real_20_0400_10_12.smt2
8adc89d181b86a8762d8648e2a75eccb pb_real_20_0400_10_13.smt2
7f5cf4336182af75637089dcd4294d32 pb_real_20_0400_10_14.smt2
8bd9b871205ca070af88a6f90d5a5ef8 pb_real_20_0400_10_15.smt2
2d52ea79238ca13b4ac94b5426bbb372 pb_real_20_0400_10_16.smt2
8f83d1c14f707c0bea990b2e9911e629 pb_real_20_0400_10_17.smt2
26e68c7a0cacb79735738b69fcdea7cc pb_real_20_0400_10_18.smt2
39dbeee9a262e2b4188d390e7ba0392a pb_real_20_0400_10_19.smt2
bd0c5e0d0b5410c60d45bd0553dbb20b pb_real_20_0400_10_20.smt2
d22a189f33c2cd34b05225b602951fc0 pb_real_20_0400_10_21.smt2
c450263a8cff52a1c77fe7cf21dde992 pb_real_20_0400_10_22.smt2
fae00e4ff02f8b7b0376d43332057293 pb_real_20_0400_10_23.smt2
608b99fc8cef59d411fa752a0b9c29c6 pb_real_20_0400_10_24.smt2
6d6047effd87f234729019c53e4d97ac pb_real_20_0400_10_25.smt2
cd136b427496b110e8e68ec662984e97 pb_real_20_0400_10_26.smt2
f5bef08ad6628b42787dee2e4adaa8d3 pb_real_20_0400_10_27.smt2
60e4552988ff3be3bfc510e65e1b6bf2 pb_real_20_0400_10_28.smt2
4f18d2e8ca23bad46a43c9d3c2def163 pb_real_20_0400_10_29.smt2
631883c1dbbec71d2d798a8fb9535a2d pb_real_20_0500_10_10.smt2
719712542803939ad2cb83cd2430475c pb_real_20_0500_10_11.smt2
e24b10bea2d45f679421f29dff06029b pb_real_20_0500_10_12.smt2
72f810652cbea5ff03ae6474cecfcbd8 pb_real_20_0500_10_13.smt2
252f813343185759a784313acbaba13b pb_real_20_0500_10_14.smt2
6c3e55443022c3d71bdf762e4046e161 pb_real_20_0500_10_15.smt2
e2f8ee6ca4d1c9e3793ca19b307d903e pb_real_20_0500_10_16.smt2
660b661ec3ce2b1357fbf29c4e1650f8 pb_real_20_0500_10_17.smt2
4940dfa320f95674f623580258d80ecb pb_real_20_0500_10_18.smt2
e5bf93ef32ebacb94d2764394ba44bbb pb_real_20_0500_10_19.smt2
2f52a3596ee265bbb2acde665a9be820 pb_real_20_0500_10_20.smt2
4b80baedfb5834d899b2323320dde275 pb_real_20_0500_10_21.smt2
06d798bd33608e7c45ed28c5c778eea7 pb_real_20_0500_10_22.smt2
28cd84f39898418154654e42167ca183 pb_real_20_0500_10_23.smt2
685001c7532faccf800a43fe42404d9f pb_real_20_0500_10_24.smt2
3edd6162ab0065ee084c969561784632 pb_real_20_0500_10_25.smt2
fa97a70e12e8c8b841a001bc22cffc8c pb_real_20_0500_10_26.smt2
eee122a0d1fa79c2192afbf939182ecf pb_real_20_0500_10_27.smt2
51875f454bb396f30ae955ee74ae65b0 pb_real_20_0500_10_28.smt2
9075cb0070c66d3b67c7bded93ee8d59 pb_real_20_0500_10_29.smt2
db14a90a0e3dc17e8fd8790bfc7f695b pb_real_20_0600_10_10.smt2
275428a1cbd15698da20ffcb645e0b0d pb_real_20_0600_10_11.smt2
879b9f5eaa99483b3fd0323ddeb91308 pb_real_20_0600_10_12.smt2
7ac0f2590280037832dc076d4d290829 pb_real_20_0600_10_13.smt2
9b858a178a8cd206ae3583b3ade43e10 pb_real_20_0600_10_14.smt2
6b30eff4d29b84aed99b6a56168ff8d1 pb_real_20_0600_10_15.smt2
75b2b4ce80d3dfb4700810e991457c4a pb_real_20_0600_10_16.smt2
bc3e7008e19f1dcee4ab371c7c3f584d pb_real_20_0600_10_17.smt2
74d2006bd02bcf53d23a20d966652f3f pb_real_20_0600_10_18.smt2
0fd8f715d40184d96f84582c4d7f7ef6 pb_real_20_0600_10_19.smt2
0a4fb830780c6732dfa8f69bc201240d pb_real_20_0600_10_20.smt2
598de7a88ce396b9394f14a135c0cf3b pb_real_20_0600_10_21.smt2
300901d3026cbda8c40f81323042c04b pb_real_20_0600_10_22.smt2
91edbdc0e1f0107e847e282d257954ff pb_real_20_0600_10_23.smt2
c7a3be62553ec20e98fe64b87c6c55e5 pb_real_20_0600_10_24.smt2
0662bc552a4eece284dcde6033c33f3e pb_real_20_0600_10_25.smt2
d2676852734de7ce5dd4c9e57eca0902 pb_real_20_0600_10_26.smt2
3d49056a8382d4c897b981d81734f6f1 pb_real_20_0600_10_27.smt2
fea23d7e9848c56f005988568c9bc5fd pb_real_20_0600_10_28.smt2
357bd1ca03d2883133cfa95cdd544dd1 pb_real_20_0600_10_29.smt2
a1e2f7f02249c59279a55b4fd86a773b pb_real_30_0300_10_10.smt2
1bcb2333d8133f3f6d57e4e0e69d0482 pb_real_30_0300_10_11.smt2
340e07ecf7c9f14ff6b9f9abcbb9e249 pb_real_30_0300_10_12.smt2
681f913f5eddf445812175ca793db7ef pb_real_30_0300_10_13.smt2
36d11f0489293c2a83cfbcc1e1cebb9e pb_real_30_0300_10_14.smt2
24c5a323978a34d6defe59a469531362 pb_real_30_0300_10_15.smt2
c85e7c3924df0546ffbb9ba1c9db8452 pb_real_30_0300_10_16.smt2
68a10ae96a2b0bc8f6feef10b67d2e2a pb_real_30_0300_10_17.smt2
bfcba7a803416ff0b4872808780437bc pb_real_30_0300_10_18.smt2
a0a64186fd66769205a314a0b285379d pb_real_30_0300_10_19.smt2
492cbfd5923f8fd5ef2f76f3de6f77ba pb_real_30_0300_10_20.smt2
a5249047ae0571ceaf6b4f1331a0dae9 pb_real_30_0300_10_21.smt2
6c0630770c533537dfbf87699fa9e48d pb_real_30_0300_10_22.smt2
54e47aff83427e95235dbfbb82f4b552 pb_real_30_0300_10_23.smt2
5d1310462b2fe2a08a03c4e78f378849 pb_real_30_0300_10_24.smt2
b250f8786acad22bfd112673340e0e02 pb_real_30_0300_10_25.smt2
f60867238aa93d92054c472f54a865b8 pb_real_30_0300_10_26.smt2
1e0f380fcfde5db45c0af9993ee6cb61 pb_real_30_0300_10_27.smt2
f2a21c70b2c969bb9c71d23216245d74 pb_real_30_0300_10_28.smt2
e965ab32582eaf4eebef84f1395793fd pb_real_30_0300_10_29.smt2
bab5a4c35503b3f9938a1803aa53ee10 pb_real_30_0450_10_10.smt2
6436767e2e16c02acb0f3e5ba1c54dce pb_real_30_0450_10_11.smt2
c2dec646c62620b0f53121d15f2dbda5 pb_real_30_0450_10_12.smt2
d96f2e036c843b1b9a0500cf1311b744 pb_real_30_0450_10_13.smt2
4d11c72a5b4a97f78063c5cc5ce2d19d pb_real_30_0450_10_14.smt2
7ade3d302525cb9f8b7f02863cb5614b pb_real_30_0450_10_15.smt2
9087f1c17b483d71cd062bca55db37ae pb_real_30_0450_10_16.smt2
1b1bc15481f60011454a470a0abc6fb8 pb_real_30_0450_10_17.smt2
6a423ffa1aea4d76fb4d2dab75d7f2fc pb_real_30_0450_10_18.smt2
b57079ef696b249a580355c31e2f4283 pb_real_30_0450_10_19.smt2
65f177e15225519b54e1542ae964af84 pb_real_30_0450_10_20.smt2
a2d3bc9d48bacd75b23d3ba18a3c94cf pb_real_30_0450_10_21.smt2
2d097b7830c671a937bc4acb18a91121 pb_real_30_0450_10_22.smt2
0a27f3128202bb15549dbe0d46a08e4a pb_real_30_0450_10_23.smt2
95e0f04dc89fe88b29b369276add2fe1 pb_real_30_0450_10_24.smt2
435885135c470819d989d4e501145ee1 pb_real_30_0450_10_25.smt2
514287f73fe515e999e4eea827fcb041 pb_real_30_0450_10_26.smt2
12fd79098188f7ad9c7f7d83d7086b9b pb_real_30_0450_10_27.smt2
1fcb43708b1f66c78782f488b5f538c7 pb_real_30_0450_10_28.smt2
6798a3874c1dce3384bd32b25806e4d7 pb_real_30_0450_10_29.smt2
4b63d74c170970e3400d956f10a5917a pb_real_30_0600_10_10.smt2
ae64ee3128d42c441a98c3b2663b915d pb_real_30_0600_10_11.smt2
8b3c31c0fefff001cb4b87a289aee1be pb_real_30_0600_10_12.smt2
7861b4b3e706cf70b8fbda08fe6b7579 pb_real_30_0600_10_13.smt2
bafd8b7daa34f8209d1fb3659e09b5b7 pb_real_30_0600_10_14.smt2
4ec9f9e198f6369760bcc2b2410f8667 pb_real_30_0600_10_15.smt2
657d6b5a9ae00be489274a21410e5286 pb_real_30_0600_10_16.smt2
2d79b583f151e115cca52bfca9230943 pb_real_30_0600_10_17.smt2
ad6aebf2b0d5e2ebe3894a72b72b05af pb_real_30_0600_10_18.smt2
bcf0a1eb6f1ab6895083eb06e2255709 pb_real_30_0600_10_19.smt2
31d4709d0be9eba65b56fcbb5904ce65 pb_real_30_0600_10_20.smt2
8ff03848d8327b057ac30425e0040e32 pb_real_30_0600_10_21.smt2
96f57194e35f28c7d0a05514d8ff1bc6 pb_real_30_0600_10_22.smt2
3e9affdfa638e3aae653b563c5fe440d pb_real_30_0600_10_23.smt2
9462d967b09b63c37c5c28875bf22a99 pb_real_30_0600_10_24.smt2
6486f19cbfc286a8d6be39f12613d0b1 pb_real_30_0600_10_25.smt2
c83932316d52d3257248206d545ea750 pb_real_30_0600_10_26.smt2
4115478003f9c5f02b5eeb4f909850b2 pb_real_30_0600_10_27.smt2
d037f0bc94392cc6f7c67733736c024a pb_real_30_0600_10_28.smt2
c7b05066dd06d6bb25972a1574b2295c pb_real_30_0600_10_29.smt2
7901405622d3923e7c205ed4d634d109 pb_real_30_0750_10_10.smt2
a3bb5861b31edaf5c6610ba7db73499f pb_real_30_0750_10_11.smt2
e2ad9e7cc314eb4a31876e752c42cd71 pb_real_30_0750_10_12.smt2
1e1252daceb784b782b0fdf698e8c77f pb_real_30_0750_10_13.smt2
23838c4e965fb1838bb64b694681afe0 pb_real_30_0750_10_14.smt2
d231b541965e140b15620b1835fb0413 pb_real_30_0750_10_15.smt2
ac6a3ab50c3755d9e48a42600efcd0ef pb_real_30_0750_10_16.smt2
b4ae26d074b1abdf3a393bddd00c8163 pb_real_30_0750_10_17.smt2
675e753f03cebaa173212128a4a57105 pb_real_30_0750_10_18.smt2
05449e6520bb2f4cf40a794e86731145 pb_real_30_0750_10_19.smt2
7e3bba67e35a001db303adf0f2900fad pb_real_30_0750_10_20.smt2
fde20792f0a8cee7f0e08a6c3c9de62c pb_real_30_0750_10_21.smt2
2dce750937a49dfb59f8208cdc28f323 pb_real_30_0750_10_22.smt2
a855f3fa25826ff846774cfae4aea0d2 pb_real_30_0750_10_23.smt2
11d29feaf69590b0c43ec55f36926339 pb_real_30_0750_10_24.smt2
cdbc19ff66d4cdc6f40bbbd624ce6958 pb_real_30_0750_10_25.smt2
625f068887b13f50f427dbe28100e6e7 pb_real_30_0750_10_26.smt2
5d06e62fb27cc735bd4b97949b611ce4 pb_real_30_0750_10_27.smt2
027387e5a2d1a0ab6818d58193b467f9 pb_real_30_0750_10_28.smt2
9cd9e6905a515bca913bc17e826b84eb pb_real_30_0750_10_29.smt2
7237bd6b06051b334926997191095381 pb_real_30_0900_10_10.smt2
53bd3d0d6d45f13a6451b46caac30fb0 pb_real_30_0900_10_11.smt2
a21b1c3faa3bf74abc4955f516416850 pb_real_30_0900_10_12.smt2
6f929ae9b1335903898a2c4f64fbc27c pb_real_30_0900_10_13.smt2
012dc634f17347fd7e62ca74d7d7f40d pb_real_30_0900_10_14.smt2
b26264419c8b40bdd0c33e27f62d329b pb_real_30_0900_10_15.smt2
770e0fa261ece710dca9a142350649c7 pb_real_30_0900_10_16.smt2
4021679690eb499fa04a67257e0d45ca pb_real_30_0900_10_17.smt2
c60c6111d6523c03ebfc452ac75b9bc6 pb_real_30_0900_10_18.smt2
2b0e1ee9450c737c692f09e7df85bccf pb_real_30_0900_10_19.smt2
40f2d15af6c0cf067d3797bc8bb5c1d9 pb_real_30_0900_10_20.smt2
1ecdf598a206e6e57a11dbbb2adbe25f pb_real_30_0900_10_21.smt2
df2bdfc5782ae176815e4286b7ff825d pb_real_30_0900_10_22.smt2
7d0e459f7aafb559c61825a4cd04dc3f pb_real_30_0900_10_23.smt2
335e53edcf6bb723f615e7c23366fe9d pb_real_30_0900_10_24.smt2
b6dcad5c2b7bef5e0acf09d8134fe863 pb_real_30_0900_10_25.smt2
0768527b07aeb4f6e4f51c60f178e1c8 pb_real_30_0900_10_26.smt2
1690ff3d973a705f00ddfe034aec2805 pb_real_30_0900_10_27.smt2
82974e285228da3789f236d4dc0db194 pb_real_30_0900_10_28.smt2
1d237c3a525edeb6f26c70947fd89056 pb_real_30_0900_10_29.smt2
d53f5a15d3a1b1ee92c00442bea0a950 pb_real_40_0400_10_10.smt2
3eb890b609a3f570ed83309606d6dc1f pb_real_40_0400_10_11.smt2
59aa53412159eacfeee281ff19680b93 pb_real_40_0400_10_12.smt2
8512e38b29b70a30bb98a7bd7af0ea26 pb_real_40_0400_10_13.smt2
408b051e6f77933c3e26005d564bfa59 pb_real_40_0400_10_14.smt2
43825f4229d6f6ce43b54a27d644b87b pb_real_40_0400_10_15.smt2
c8ddfe52666344650f5d735be6832ec4 pb_real_40_0400_10_16.smt2
5aaed77cb256a5bf081c61219d83b10d pb_real_40_0400_10_17.smt2
c375883b977d669ebd4b677623f7c730 pb_real_40_0400_10_18.smt2
6d3d86648339612f4f6b17e3face01cd pb_real_40_0400_10_19.smt2
b0970278760a2e4d6324cf2c70bf4291 pb_real_40_0400_10_20.smt2
c271808ac6bda70597aec1e5deb97060 pb_real_40_0400_10_21.smt2
36a3210f8e0ac21c45b6348055fe1bc7 pb_real_40_0400_10_22.smt2
43b50bcc8af9d969971aa3e0020416e2 pb_real_40_0400_10_23.smt2
94e1d7cd33d16e12a97f4e0992349e08 pb_real_40_0400_10_24.smt2
c328bf182a7b7b1356bc18b2a3ea7487 pb_real_40_0400_10_25.smt2
1de30982ef9d9af96d984e6c8add915a pb_real_40_0400_10_26.smt2
f7ce3888915837940626f4d8d85589b8 pb_real_40_0400_10_27.smt2
67d7e647545bfeac610b1d5aa4d7dab6 pb_real_40_0400_10_28.smt2
2cee12f1f89905711ac6aaacead5b465 pb_real_40_0400_10_29.smt2
3d2c0b0bf7078cf07c78e0710a973932 pb_real_40_0600_10_10.smt2
cf8ea6051db40db1808f562764897d5b pb_real_40_0600_10_11.smt2
748e02d55b32dd2acf9cc18319250bd7 pb_real_40_0600_10_12.smt2
36b8c93b4c18fadba35b806f12df3f83 pb_real_40_0600_10_13.smt2
bba9f70017b15aed474cd090d820ca16 pb_real_40_0600_10_14.smt2
cf31d1619c16888e60d7a94e40639aaf pb_real_40_0600_10_15.smt2
e781463b26cf906dc1120f240f9907e1 pb_real_40_0600_10_16.smt2
47a171f0db238656091daa405048c035 pb_real_40_0600_10_17.smt2
35977688dd542845083cfad38a3ddce7 pb_real_40_0600_10_18.smt2
0aa747e2ef98db7e85ee07c564bdfbba pb_real_40_0600_10_19.smt2
1e67bd625a06b47ff22e5b8369d0bd96 pb_real_40_0600_10_20.smt2
120d4377518b96dd107e4e49c2bff7d6 pb_real_40_0600_10_21.smt2
8e49ae67b6119bbfc134bb28bc8d3ce9 pb_real_40_0600_10_22.smt2
0d92a77dfd5a178cda0d05fb6487ce0a pb_real_40_0600_10_23.smt2
546731737ffe968f4edf02e0cee31915 pb_real_40_0600_10_24.smt2
a2d319d3d8f3b6a02dac7c5772cb3875 pb_real_40_0600_10_25.smt2
820fdd5cbe2767930e9ac4f7512bb36e pb_real_40_0600_10_26.smt2
37ebac77b2f6d9f09104931f37bf225b pb_real_40_0600_10_27.smt2
99f9cb280ecea18433313c5364d57e39 pb_real_40_0600_10_28.smt2
e9a8ddd1ab56b863d8b2d049494102b0 pb_real_40_0600_10_29.smt2
70920b7b4f3a9e9f14db52caf63eb3a0 pb_real_40_0800_10_10.smt2
922e9cf9fb8fee8a86774877051fdec9 pb_real_40_0800_10_11.smt2
f20bdb207943398bfa0acd7b90bc5c89 pb_real_40_0800_10_12.smt2
bcc8cd53db054d28f349930f919d4672 pb_real_40_0800_10_13.smt2
f1492dff99fe2daa69174d0edf02732c pb_real_40_0800_10_14.smt2
8a39a7928b23285bc714f24f826151db pb_real_40_0800_10_15.smt2
cd70cf2fa7382046356e58ef8da637d4 pb_real_40_0800_10_16.smt2
2706debb397070338422205cb8e4f99d pb_real_40_0800_10_17.smt2
c1894836bb328c4c7bf11f5658808fbb pb_real_40_0800_10_18.smt2
1b19d82f25c0864211cb3d9e994cb8ea pb_real_40_0800_10_19.smt2
894fd789196ce0086f9b73201434b308 pb_real_40_0800_10_20.smt2
1a637dda5f4bec16c8857cce4f50daa3 pb_real_40_0800_10_21.smt2
845fe8d391c1ae63ae123e2671d20360 pb_real_40_0800_10_22.smt2
5d9a3d103a35bb257a88bc62db375010 pb_real_40_0800_10_23.smt2
7b32634f282e88f29d85060f9d36c0f9 pb_real_40_0800_10_24.smt2
bcdf50b026857232f96d74d20944cbcc pb_real_40_0800_10_25.smt2
9d7f307f8fe66150f97901f453a78f3b pb_real_40_0800_10_26.smt2
37e3e5a04b6d1071de3c601555d33670 pb_real_40_0800_10_27.smt2
e2567b4b6d2866a3854c40495576c2d9 pb_real_40_0800_10_28.smt2
8e96c23cb24d97d1b7943e4748f622d7 pb_real_40_0800_10_29.smt2
04b2d4cb69a53c224c34388b3a2ad807 pb_real_40_1000_10_10.smt2
1afbe0cb208df8238e506b807ebee9d8 pb_real_40_1000_10_11.smt2
09ee89ee24eff4da69ef34ad2755f066 pb_real_40_1000_10_12.smt2
8e7d22935f36423afc32beafb0df0791 pb_real_40_1000_10_13.smt2
18011e49e684f7fd2651832e600fcdf9 pb_real_40_1000_10_14.smt2
6af49702d09b9dbe84eeb4686191a71d pb_real_40_1000_10_15.smt2
0607ba65d39d6f10ae3a72777ec144ae pb_real_40_1000_10_16.smt2
336173c8355bcdbd6d3d263dd6a6b9eb pb_real_40_1000_10_17.smt2
61eae5f58eb5d976f5e43c253275edca pb_real_40_1000_10_18.smt2
294505212c675b0730a3f0aaefecc12e pb_real_40_1000_10_19.smt2
8fbe6af7a301e90d93149a7746759b18 pb_real_40_1000_10_20.smt2
4f2407249dc81306c951a56a1a967485 pb_real_40_1000_10_21.smt2
329714658d6b80c643f304056683ad25 pb_real_40_1000_10_22.smt2
df9ff76a3007c2e3e797fc07002e5feb pb_real_40_1000_10_23.smt2
518c03d22ff82dc28e262bb05398671d pb_real_40_1000_10_24.smt2
064d3135475433e55c7c3c6cfcc9a625 pb_real_40_1000_10_25.smt2
0726689f184d42a402f7bfb640974f98 pb_real_40_1000_10_26.smt2
d0ded72a3b72ab0fa2e408be511a9770 pb_real_40_1000_10_27.smt2
8dfab82685c686c5805db4cc9f0f7e7c pb_real_40_1000_10_28.smt2
fd0999ab38115a3ae2ab383485e9907b pb_real_40_1000_10_29.smt2
e0e21e46cef0eaf5a47dc935631dbcfe pb_real_40_1200_10_10.smt2
367e2cc3b4e2056a285c8ed6ad22dd2c pb_real_40_1200_10_11.smt2
c021a798fb3bd4376d4b10d6b71320ca pb_real_40_1200_10_12.smt2
6c66361b9400f8d389f70837c54869c7 pb_real_40_1200_10_13.smt2
fd1dfa1a26d432bace056fb132a9ad4a pb_real_40_1200_10_14.smt2
34d453b4e198fcba83a4ba6a18da73b0 pb_real_40_1200_10_15.smt2
daef7d7c9dc44d75f2834c9636a8dd6f pb_real_40_1200_10_16.smt2
d658a996187f2dc93cec45d89dc75424 pb_real_40_1200_10_17.smt2
a188c572c1f006609d5d1ebbbe0f3d1c pb_real_40_1200_10_18.smt2
e72631278c64d838dc51da373aa27190 pb_real_40_1200_10_19.smt2
f3dac2a526321934330deab34b0facf2 pb_real_40_1200_10_20.smt2
ef5344b47ad85cc5295893605ba91bf3 pb_real_40_1200_10_21.smt2
7ec06ad8488b7fff0492c0b9e1d6ce0d pb_real_40_1200_10_22.smt2
d756536204bff12cf54c34510c8ea402 pb_real_40_1200_10_23.smt2
dc7569cf13d2b55e35f2fa45de8efde4 pb_real_40_1200_10_24.smt2
b5a86701bf1453bcf635cede839e5f49 pb_real_40_1200_10_25.smt2
569a8178b14aa724533d561e59e03f44 pb_real_40_1200_10_26.smt2
83ea973baf263d10130675999f6348a4 pb_real_40_1200_10_27.smt2
bf684373f3779ec28b7bd28f6b97e691 pb_real_40_1200_10_28.smt2
dc67fdf74501ac1c02e06e1ed5fa1476 pb_real_40_1200_10_29.smt2
