9c8a06f132e7e1990d3b324e93d87a4f bist_cell.c.kratos.bv64.bmc_k100.smt2
c95676e70b2b6603f00a47e04004ed47 bist_cell.c.kratos.bv64.ind_k100.smt2
972ca1928f46eff18a4668e85e5fa8f3 kundu.c.kratos.bv64.bmc_k100.smt2
4ab43987504cc50053b5a0486a775326 kundu.c.kratos.bv64.ind_k100.smt2
368e4ddd58d08f62d28536f799a56197 mem_slave_tlm.5.c.kratos.bv64.bmc_k100.smt2
5aa7044a1c6df2270311154c870b30ac mem_slave_tlm.5.c.kratos.bv64.ind_k100.smt2
431f9eacd9b7ada0f0ca8238128db99f pc_sfifo_3.c.kratos.bv64.bmc_k100.smt2
bc935db5538f555c27500c765015517c pc_sfifo_3.c.kratos.bv64.ind_k100.smt2
041478f9530c45a3a1837dfdbf61dccf pipeline-bug.c.kratos.bv64.bmc_k100.smt2
2253d17824e96ab93bd414e8a43aeb76 pipeline-bug.c.kratos.bv64.ind_k100.smt2
c226c4e0abf09c6a7a8a45f2755da9ca pipeline.c.kratos.bv64.bmc_k100.smt2
3c049515c29d8429643a6d7f6ceb752c pipeline.c.kratos.bv64.ind_k100.smt2
5dff85ff7cecb1e965b6653312428cb5 toy-bug-1.c.kratos.bv64.bmc_k100.smt2
39db03e814338ad50dfb585c6029872d toy-bug-1.c.kratos.bv64.ind_k100.smt2
1d4de7795e73c42e353858e4e31e01e7 toy-bug-2.c.kratos.bv64.bmc_k100.smt2
b2394f8431759d2435982bcea53a974d toy-bug-2.c.kratos.bv64.ind_k100.smt2
5bad23a2fc2e7121cf7dd37ffee8fa39 toy.c.kratos.bv64.bmc_k100.smt2
7a989ba8ed680ebdd5273c9420fd4292 toy.c.kratos.bv64.ind_k100.smt2
