2ec1be32ed77e7dd3a7449349d821d3c sin-problem-8-weak-chunk-0008.smt2
9bdca8ec0e2834c44cb69ebe680cc813 sin-problem-8-weak-chunk-0009.smt2
a865e218a338f0de924aa7ec54114746 sin-problem-8-weak-chunk-0010.smt2
c70edbb000dd827fbf76c1a80aa53c9f sin-problem-8-weak-chunk-0011.smt2
7d2c6d4e4248b2a89b1f8dc0cdf23b0b sin-problem-8-weak-chunk-0012.smt2
02a64ed114c0da18a54e5dfc8ed668e5 sin-problem-8-weak-chunk-0014.smt2
87dac71e121f4a40dc377cdc0d3c8bd6 sin-problem-8-weak-chunk-0017.smt2
998cdf17ca7cdae02eb42bdf4b6a001e sin-problem-8-weak-chunk-0018.smt2
b803d751e77797dba5fcd1d45a0fcbff sin-problem-8-weak-chunk-0021.smt2
ffe84f919261674c4240580c4677da90 sin-problem-8-weak-chunk-0023.smt2
5e77935e46dc2b89014e925162c51476 sin-problem-8-weak-chunk-0030.smt2
1cba0fe4d61165f0b2563379ffc2f6b2 sin-problem-8-weak-chunk-0032.smt2
cb17a80386b611243a009ac927deaa10 sin-problem-8-weak-chunk-0036.smt2
17d4231464d60a168e1a4e24ea1b087b sin-problem-8-weak-chunk-0037.smt2
3c80b066a890bbd50f781b7e42d661aa sin-problem-8-weak-chunk-0042.smt2
