832e6e57f27e82e94a0c6f671ae000d1 prp-0-47.smt2
3fe95284508d319105e55a428aeb16a4 prp-0-48.smt2
474d4fc16607b0842f4b49553f85856c prp-0-49.smt2
de31be07f5514494184a4c0491972efa prp-0-50.smt2
2294f48fccc3452cc4c21c6c46bd3c22 prp-1-47.smt2
db13bc5ed632993892170e0bba9ed041 prp-1-48.smt2
987889542b820650b94dc013e71925a9 prp-1-49.smt2
d174acd16badaa60229e707fe4743bdd prp-1-50.smt2
